{
  "page": 261,
  "totalPages": 268,
  "totalItems": 5354,
  "itemsPerPage": 20,
  "items": [
    {
      "id": "NDY2NTU1NTQ=",
      "title": "Welcome our New Assistant Principal",
      "link": "https://content.govdelivery.com/accounts/VAEDUFCPS/bulletins/2c7e842",
      "description": "\n        \n\n\n  \n\n\n\n\n\n\n\n<p><a></a>Having trouble viewing this email? <a href=\"https://content.govdelivery.com/accounts/VAEDUFCPS/bulletins/2c7e842\">View it as a Web page</a>.</p>\n\n\n\n\n\n\n\n\n\n\n\n<a href=\"https://grahamroades.fcps.edu/?utm_content=&amp;utm_medium=email&amp;utm_name=&amp;utm_source=govdelive...",
      "pubDate": "Thu, 18 Mar 2021 16:00:13 -0500",
      "timestamp": 1616101213000,
      "feedName": "Graham Road Elementary School",
      "category": "Graham Road Elementary School",
      "feedSource": "http://www.fcps.edu/index.shtml",
      "feedInfo": {
        "title": "Graham Road Elementary School News and announcements - Recent Updates",
        "description": "Graham Road Elementary School News and announcements",
        "link": "http://www.fcps.edu/index.shtml"
      }
    },
    {
      "id": "NDY1NDE4MTU=",
      "title": "Sandburg KIT March 15, 2021",
      "link": "https://content.govdelivery.com/accounts/VAEDUFCPS/bulletins/2c62bf7",
      "description": "\n        \n\n\n  \n\n\n\n\n\n\n\n\n\n\n\n\n\n\n\n\n\n\n\n<a href=\"http://www2.fcps.edu/SandburgMS/?utm_content=&amp;utm_medium=email&amp;utm_name=&amp;utm_source=govdelivery&amp;utm_term=\" target=\"_blank\"></a>\n\n\n\n\n\n\n\n\n\n\n\n\n\n\n\n\n\n  \n    \n\n\n<p>Stay up to date with all that is happening at Sandburg MS.  <a href=\"https://sandbu...",
      "pubDate": "Fri, 12 Mar 2021 14:35:17 -0600",
      "timestamp": 1615581317000,
      "feedName": "Sandburg Middle School",
      "category": "Sandburg Middle School",
      "feedSource": "http://www.fcps.edu/index.shtml",
      "feedInfo": {
        "title": "Sandburg Middle School News and Announcements - Recent Updates",
        "description": "Sandburg Middle School News and announcements",
        "link": "http://www.fcps.edu/index.shtml"
      }
    },
    {
      "id": "NDY0ODU2MzU=",
      "title": "Sandburg KIT March 8, 2021",
      "link": "https://content.govdelivery.com/accounts/VAEDUFCPS/bulletins/2c55083",
      "description": "\n        \n\n\n  \n\n\n\n\n\n\n\n\n\n\n\n\n\n\n\n\n\n\n\n<a href=\"http://www2.fcps.edu/SandburgMS/?utm_content=&amp;utm_medium=email&amp;utm_name=&amp;utm_source=govdelivery&amp;utm_term=\" target=\"_blank\"></a>\n\n\n\n\n\n\n\n\n\n\n\n\n\n\n\n\n\n  \n    \n\n\n<p>Stay up to date with all that is happening at Sandburg MS.  <a href=\"https://sandbu...",
      "pubDate": "Mon, 08 Mar 2021 14:45:17 -0600",
      "timestamp": 1615236317000,
      "feedName": "Sandburg Middle School",
      "category": "Sandburg Middle School",
      "feedSource": "http://www.fcps.edu/index.shtml",
      "feedInfo": {
        "title": "Sandburg Middle School News and Announcements - Recent Updates",
        "description": "Sandburg Middle School News and announcements",
        "link": "http://www.fcps.edu/index.shtml"
      }
    },
    {
      "id": "NDYzOTMyNTM=",
      "title": "Sandburg KIT March 1, 2021",
      "link": "https://content.govdelivery.com/accounts/VAEDUFCPS/bulletins/2c3e7a5",
      "description": "\n        \n\n\n  \n\n\n\n\n\n\n\n\n\n\n\n\n\n\n\n\n\n\n\n<a href=\"http://www2.fcps.edu/SandburgMS/?utm_content=&amp;utm_medium=email&amp;utm_name=&amp;utm_source=govdelivery&amp;utm_term=\" target=\"_blank\"></a>\n\n\n\n\n\n\n\n\n\n\n\n\n\n\n\n\n\n  \n    \n\n\n<p>Stay up to date with all that is happening at Sandburg MS.  <a href=\"https://sandbu...",
      "pubDate": "Mon, 01 Mar 2021 14:35:14 -0600",
      "timestamp": 1614630914000,
      "feedName": "Sandburg Middle School",
      "category": "Sandburg Middle School",
      "feedSource": "http://www.fcps.edu/index.shtml",
      "feedInfo": {
        "title": "Sandburg Middle School News and Announcements - Recent Updates",
        "description": "Sandburg Middle School News and announcements",
        "link": "http://www.fcps.edu/index.shtml"
      }
    },
    {
      "id": "NDYzMjM4OTQ=",
      "title": "Sandburg KIT February 22, 2021",
      "link": "https://content.govdelivery.com/accounts/VAEDUFCPS/bulletins/2c2d8b6",
      "description": "\n        \n\n\n  \n\n\n\n\n\n\n\n\n\n\n\n\n\n\n\n\n\n\n\n<a href=\"http://www2.fcps.edu/SandburgMS/?utm_content=&amp;utm_medium=email&amp;utm_name=&amp;utm_source=govdelivery&amp;utm_term=\" target=\"_blank\"></a>\n\n\n\n\n\n\n\n\n\n\n\n\n\n\n\n\n\n  \n    \n\n\n<p>Stay up to date with all that is happening at Sandburg MS.  <a href=\"https://sandbu...",
      "pubDate": "Mon, 22 Feb 2021 14:50:17 -0600",
      "timestamp": 1614027017000,
      "feedName": "Sandburg Middle School",
      "category": "Sandburg Middle School",
      "feedSource": "http://www.fcps.edu/index.shtml",
      "feedInfo": {
        "title": "Sandburg Middle School News and Announcements - Recent Updates",
        "description": "Sandburg Middle School News and announcements",
        "link": "http://www.fcps.edu/index.shtml"
      }
    },
    {
      "id": "NDYzMDA4NDQ=",
      "title": "Fairfax Families for Safe Streets",
      "link": "https://content.govdelivery.com/accounts/VAEDUFCPS/bulletins/2c27eac",
      "description": "\n        \n\n\n  \n\n\n\n\n\n\n\n<p><a></a>Having trouble viewing this email? <a href=\"https://content.govdelivery.com/accounts/VAEDUFCPS/bulletins/2c27eac\">View it as a Web page</a>.</p>\n\n\n\n\n\n\n\n\n\n\n\n<a href=\"https://www.fcps.edu/resources/safety-and-transportation/transportation-services/safe-routes-school-srt...",
      "pubDate": "Mon, 22 Feb 2021 09:34:54 -0600",
      "timestamp": 1614008094000,
      "feedName": "FCPS Safe Routes to School",
      "category": "FCPS Safe Routes to School",
      "feedSource": "http://www.fcps.edu/",
      "feedInfo": {
        "title": "Safe Routes to School - Recent Updates",
        "description": "Safe Routes to School - Recent Updates",
        "link": "http://www.fcps.edu/"
      }
    },
    {
      "id": "NDYzMDQ5NDc=",
      "title": "Farewell Ms. Hibner, Return to School Updates and Read Across America Week",
      "link": "https://content.govdelivery.com/accounts/VAEDUFCPS/bulletins/2c28eb3",
      "description": "\n        \n\n\n  \n\n\n\n\n\n\n\n<p><a></a>Having trouble viewing this email? <a href=\"https://content.govdelivery.com/accounts/VAEDUFCPS/bulletins/2c28eb3\">View it as a Web page</a>.</p>\n\n\n\n\n\n\n\n\n\n\n\n<a href=\"https://grahamroades.fcps.edu/?utm_content=&amp;utm_medium=email&amp;utm_name=&amp;utm_source=govdelive...",
      "pubDate": "Sun, 21 Feb 2021 15:00:15 -0600",
      "timestamp": 1613941215000,
      "feedName": "Graham Road Elementary School",
      "category": "Graham Road Elementary School",
      "feedSource": "http://www.fcps.edu/index.shtml",
      "feedInfo": {
        "title": "Graham Road Elementary School News and announcements - Recent Updates",
        "description": "Graham Road Elementary School News and announcements",
        "link": "http://www.fcps.edu/index.shtml"
      }
    },
    {
      "id": "NDYxODc1MzQ=",
      "title": "Sandburg KIT February 15, 2021",
      "link": "https://content.govdelivery.com/accounts/VAEDUFCPS/bulletins/2c0c40e",
      "description": "\n        \n\n\n  \n\n\n\n\n\n\n\n\n\n\n\n\n\n\n\n\n\n\n\n<a href=\"http://www2.fcps.edu/SandburgMS/?utm_content=&amp;utm_medium=email&amp;utm_name=&amp;utm_source=govdelivery&amp;utm_term=\" target=\"_blank\"></a>\n\n\n\n\n\n\n\n\n\n\n\n\n\n\n\n\n\n  \n    \n\n\n<p>Stay up to date with all that is happening at Sandburg MS.  <a href=\"https://sandbu...",
      "pubDate": "Mon, 15 Feb 2021 14:30:14 -0600",
      "timestamp": 1613421014000,
      "feedName": "Sandburg Middle School",
      "category": "Sandburg Middle School",
      "feedSource": "http://www.fcps.edu/index.shtml",
      "feedInfo": {
        "title": "Sandburg Middle School News and Announcements - Recent Updates",
        "description": "Sandburg Middle School News and announcements",
        "link": "http://www.fcps.edu/index.shtml"
      }
    },
    {
      "id": "NDYwNzU2Nzk=",
      "title": "Sandburg KIT February 8, 2021",
      "link": "https://content.govdelivery.com/accounts/VAEDUFCPS/bulletins/2bf0f1f",
      "description": "\n        \n\n\n  \n\n\n\n\n\n\n\n\n\n\n\n\n\n\n\n\n\n\n\n<a href=\"http://www2.fcps.edu/SandburgMS/?utm_content=&amp;utm_medium=email&amp;utm_name=&amp;utm_source=govdelivery&amp;utm_term=\" target=\"_blank\"></a>\n\n\n\n\n\n\n\n\n\n\n\n\n\n\n\n\n\n  \n    \n\n\n<p>Stay up to date with all that is happening at Sandburg MS.  <a href=\"https://sandbu...",
      "pubDate": "Mon, 08 Feb 2021 14:30:12 -0600",
      "timestamp": 1612816212000,
      "feedName": "Sandburg Middle School",
      "category": "Sandburg Middle School",
      "feedSource": "http://www.fcps.edu/index.shtml",
      "feedInfo": {
        "title": "Sandburg Middle School News and Announcements - Recent Updates",
        "description": "Sandburg Middle School News and announcements",
        "link": "http://www.fcps.edu/index.shtml"
      }
    },
    {
      "id": "NDYxMDg4ODU=",
      "title": "Return to School Updates, WIDA Reminders, Mondays and Library Books",
      "link": "https://content.govdelivery.com/accounts/VAEDUFCPS/bulletins/2bf90d5",
      "description": "\n        \n\n\n  \n\n\n\n\n\n\n\n<p><a></a>Having trouble viewing this email? <a href=\"https://content.govdelivery.com/accounts/VAEDUFCPS/bulletins/2bf90d5\">View it as a Web page</a>.</p>\n\n\n\n\n\n\n\n\n\n\n\n<a href=\"https://grahamroades.fcps.edu/?utm_content=&amp;utm_medium=email&amp;utm_name=&amp;utm_source=govdelive...",
      "pubDate": "Fri, 05 Feb 2021 15:00:24 -0600",
      "timestamp": 1612558824000,
      "feedName": "Graham Road Elementary School",
      "category": "Graham Road Elementary School",
      "feedSource": "http://www.fcps.edu/index.shtml",
      "feedInfo": {
        "title": "Graham Road Elementary School News and announcements - Recent Updates",
        "description": "Graham Road Elementary School News and announcements",
        "link": "http://www.fcps.edu/index.shtml"
      }
    },
    {
      "id": "NDU5NjQ2OTY=",
      "title": "Sandburg KIT February 1, 2021",
      "link": "https://content.govdelivery.com/accounts/VAEDUFCPS/bulletins/2bd5d98",
      "description": "\n        \n\n\n  \n\n\n\n\n\n\n\n\n\n\n\n\n\n\n\n\n\n\n\n<a href=\"http://www2.fcps.edu/SandburgMS/?utm_content=&amp;utm_medium=email&amp;utm_name=&amp;utm_source=govdelivery&amp;utm_term=\" target=\"_blank\"></a>\n\n\n\n\n\n\n\n\n\n\n\n\n\n\n\n\n\n  \n    \n\n\n<p>Stay up to date with all that is happening at Sandburg MS.  <a href=\"https://sandbu...",
      "pubDate": "Mon, 01 Feb 2021 14:30:15 -0600",
      "timestamp": 1612211415000,
      "feedName": "Sandburg Middle School",
      "category": "Sandburg Middle School",
      "feedSource": "http://www.fcps.edu/index.shtml",
      "feedInfo": {
        "title": "Sandburg Middle School News and Announcements - Recent Updates",
        "description": "Sandburg Middle School News and announcements",
        "link": "http://www.fcps.edu/index.shtml"
      }
    },
    {
      "id": "NDU0MDkwMzQ=",
      "title": "Crossing Guard Appreciation Day",
      "link": "https://content.govdelivery.com/accounts/VAEDUFCPS/bulletins/2b4e30a",
      "description": "\n        \n\n\n  \n\n\n\n\n\n\n\n<p><a></a>Having trouble viewing this email? <a href=\"https://content.govdelivery.com/accounts/VAEDUFCPS/bulletins/2b4e30a\">View it as a Web page</a>.</p>\n\n\n\n\n\n\n\n\n\n\n\n<a href=\"https://www.fcps.edu/resources/safety-and-transportation/transportation-services/safe-routes-school-srt...",
      "pubDate": "Mon, 25 Jan 2021 15:09:13 -0600",
      "timestamp": 1611608953000,
      "feedName": "FCPS Safe Routes to School",
      "category": "FCPS Safe Routes to School",
      "feedSource": "http://www.fcps.edu/",
      "feedInfo": {
        "title": "Safe Routes to School - Recent Updates",
        "description": "Safe Routes to School - Recent Updates",
        "link": "http://www.fcps.edu/"
      }
    },
    {
      "id": "NDU3NzMxNTg=",
      "title": "Sandburg KIT January 25, 2021",
      "link": "https://content.govdelivery.com/accounts/VAEDUFCPS/bulletins/2ba7166",
      "description": "\n        \n\n\n  \n\n\n\n\n\n\n\n\n\n\n\n\n\n\n\n\n\n\n\n<a href=\"http://www2.fcps.edu/SandburgMS/?utm_content=&amp;utm_medium=email&amp;utm_name=&amp;utm_source=govdelivery&amp;utm_term=\" target=\"_blank\"></a>\n\n\n\n\n\n\n\n\n\n\n\n\n\n\n\n\n\n  \n    \n\n\n<p>Stay up to date with all that is happening at Sandburg MS.  <a href=\"https://sandbu...",
      "pubDate": "Mon, 25 Jan 2021 14:40:36 -0600",
      "timestamp": 1611607236000,
      "feedName": "Sandburg Middle School",
      "category": "Sandburg Middle School",
      "feedSource": "http://www.fcps.edu/index.shtml",
      "feedInfo": {
        "title": "Sandburg Middle School News and Announcements - Recent Updates",
        "description": "Sandburg Middle School News and announcements",
        "link": "http://www.fcps.edu/index.shtml"
      }
    },
    {
      "id": "NDU0NDAwNTk=",
      "title": "Sandburg KIT January 11, 2021",
      "link": "https://content.govdelivery.com/accounts/VAEDUFCPS/bulletins/2b55c3b",
      "description": "\n        \n\n\n  \n\n\n\n\n\n\n\n\n\n\n\n\n\n\n\n\n\n\n\n<a href=\"http://www2.fcps.edu/SandburgMS/?utm_content=&amp;utm_medium=email&amp;utm_name=&amp;utm_source=govdelivery&amp;utm_term=\" target=\"_blank\"></a>\n\n\n\n\n\n\n\n\n\n\n\n\n\n\n\n\n\n  \n    \n\n\n<p>Stay up to date with all that is happening at Sandburg MS.  <a href=\"https://sandbu...",
      "pubDate": "Mon, 11 Jan 2021 14:30:13 -0600",
      "timestamp": 1610397013000,
      "feedName": "Sandburg Middle School",
      "category": "Sandburg Middle School",
      "feedSource": "http://www.fcps.edu/index.shtml",
      "feedInfo": {
        "title": "Sandburg Middle School News and Announcements - Recent Updates",
        "description": "Sandburg Middle School News and announcements",
        "link": "http://www.fcps.edu/index.shtml"
      }
    },
    {
      "id": "NDU0MDkwMzY=",
      "title": "Use of new class attendance code",
      "link": "https://content.govdelivery.com/accounts/VAEDUFCPS/bulletins/2b4e30c",
      "description": "\n        <p>Dear Parents/Guardians,</p>\n<p> </p>\n<p>You are receiving this communication because you have a child who is enrolled in a West Potomac Academy class.  To provide ongoing and rapid communication to parents/guardians, West Potomac High School and West Potomac Academy have begun the use of...",
      "pubDate": "Fri, 08 Jan 2021 12:13:16 -0600",
      "timestamp": 1610129596000,
      "feedName": "West Potomac Academy",
      "category": "West Potomac Academy",
      "feedSource": "http://www.fcps.edu/index.shtml",
      "feedInfo": {
        "title": "West Potomac Academy News and Announcements - Recent Updates",
        "description": "West Potomac Academy News and Announcements - Recent Updates",
        "link": "http://www.fcps.edu/index.shtml"
      }
    },
    {
      "id": "NDUxNjc0Mjk=",
      "title": "Sandburg KIT December 21, 2020",
      "link": "https://content.govdelivery.com/accounts/VAEDUFCPS/bulletins/2b13345",
      "description": "\n        \n\n\n  \n\n\n\n\n\n\n\n\n\n\n\n\n\n\n\n\n\n\n\n<a href=\"http://www2.fcps.edu/SandburgMS/?utm_content=&amp;utm_medium=email&amp;utm_name=&amp;utm_source=govdelivery&amp;utm_term=\" target=\"_blank\"></a>\n\n\n\n\n\n\n\n\n\n\n\n\n\n\n\n\n\n  \n    \n\n\n<p>Stay up to date with all that is happening at Sandburg MS.  <a href=\"https://sandbu...",
      "pubDate": "Tue, 22 Dec 2020 14:30:12 -0600",
      "timestamp": 1608669012000,
      "feedName": "Sandburg Middle School",
      "category": "Sandburg Middle School",
      "feedSource": "http://www.fcps.edu/index.shtml",
      "feedInfo": {
        "title": "Sandburg Middle School News and Announcements - Recent Updates",
        "description": "Sandburg Middle School News and announcements",
        "link": "http://www.fcps.edu/index.shtml"
      }
    },
    {
      "id": "NDUwOTkzODE=",
      "title": "Sandburg KIT December 14, 2020",
      "link": "https://content.govdelivery.com/accounts/VAEDUFCPS/bulletins/2b02975",
      "description": "\n        \n\n\n  \n\n\n\n\n\n\n\n\n\n\n\n\n\n\n\n\n\n\n\n<a href=\"http://www2.fcps.edu/SandburgMS/?utm_content=&amp;utm_medium=email&amp;utm_name=&amp;utm_source=govdelivery&amp;utm_term=\" target=\"_blank\"></a>\n\n\n\n\n\n\n\n\n\n\n\n\n\n\n\n\n\n  \n    \n\n\n<p>Stay up to date with all that is happening at Sandburg MS.  <a href=\"https://sandbu...",
      "pubDate": "Mon, 14 Dec 2020 14:50:12 -0600",
      "timestamp": 1607979012000,
      "feedName": "Sandburg Middle School",
      "category": "Sandburg Middle School",
      "feedSource": "http://www.fcps.edu/index.shtml",
      "feedInfo": {
        "title": "Sandburg Middle School News and Announcements - Recent Updates",
        "description": "Sandburg Middle School News and announcements",
        "link": "http://www.fcps.edu/index.shtml"
      }
    },
    {
      "id": "NDUwNDExNDM=",
      "title": "Sandburg KIT December 7, 2020",
      "link": "https://content.govdelivery.com/accounts/VAEDUFCPS/bulletins/2af45f7",
      "description": "\n        \n\n\n  \n\n\n\n\n\n\n\n\n\n\n\n\n\n\n\n\n\n\n\n<a href=\"http://www2.fcps.edu/SandburgMS/?utm_content=&amp;utm_medium=email&amp;utm_name=&amp;utm_source=govdelivery&amp;utm_term=\" target=\"_blank\"></a>\n\n\n\n\n\n\n\n\n\n\n\n\n\n\n\n\n\n  \n    \n\n\n<p>Stay up to date with all that is happening at Sandburg MS.  <a href=\"https://sandbu...",
      "pubDate": "Mon, 07 Dec 2020 14:30:15 -0600",
      "timestamp": 1607373015000,
      "feedName": "Sandburg Middle School",
      "category": "Sandburg Middle School",
      "feedSource": "http://www.fcps.edu/index.shtml",
      "feedInfo": {
        "title": "Sandburg Middle School News and Announcements - Recent Updates",
        "description": "Sandburg Middle School News and announcements",
        "link": "http://www.fcps.edu/index.shtml"
      }
    },
    {
      "id": "NDUwMTY1NTM=",
      "title": "December Safe Routes to School Newsletter",
      "link": "https://content.govdelivery.com/accounts/VAEDUFCPS/bulletins/2aee5e9",
      "description": "\n        \n\n\n  \n\n\n\n\n\n\n\n<p><a></a>Having trouble viewing this email? <a href=\"https://content.govdelivery.com/accounts/VAEDUFCPS/bulletins/2aee5e9\">View it as a Web page</a>.</p>\n\n\n\n\n\n\n\n\n\n\n\n<a href=\"https://www.fcps.edu/resources/safety-and-transportation/transportation-services/safe-routes-school-srt...",
      "pubDate": "Tue, 01 Dec 2020 09:34:58 -0600",
      "timestamp": 1606836898000,
      "feedName": "FCPS Safe Routes to School",
      "category": "FCPS Safe Routes to School",
      "feedSource": "http://www.fcps.edu/",
      "feedInfo": {
        "title": "Safe Routes to School - Recent Updates",
        "description": "Safe Routes to School - Recent Updates",
        "link": "http://www.fcps.edu/"
      }
    },
    {
      "id": "NDUwMTQyOTA=",
      "title": "Sandburg KIT November 30, 2020",
      "link": "https://content.govdelivery.com/accounts/VAEDUFCPS/bulletins/2aedd12",
      "description": "\n        \n\n\n  \n\n\n\n\n\n\n\n\n\n\n\n\n\n\n\n\n\n\n\n<a href=\"http://www2.fcps.edu/SandburgMS/?utm_content=&amp;utm_medium=email&amp;utm_name=&amp;utm_source=govdelivery&amp;utm_term=\" target=\"_blank\"></a>\n\n\n\n\n\n\n\n\n\n\n\n\n\n\n\n\n\n  \n    \n\n\n<p>Stay up to date with all that is happening at Sandburg MS.  <a href=\"https://sandbu...",
      "pubDate": "Mon, 30 Nov 2020 14:30:13 -0600",
      "timestamp": 1606768213000,
      "feedName": "Sandburg Middle School",
      "category": "Sandburg Middle School",
      "feedSource": "http://www.fcps.edu/index.shtml",
      "feedInfo": {
        "title": "Sandburg Middle School News and Announcements - Recent Updates",
        "description": "Sandburg Middle School News and announcements",
        "link": "http://www.fcps.edu/index.shtml"
      }
    }
  ],
  "hasNext": true,
  "hasPrev": true
}