{
  "page": 67,
  "totalPages": 268,
  "totalItems": 5354,
  "itemsPerPage": 20,
  "items": [
    {
      "id": "NjUxOTYwODE=",
      "title": "Mustang Weekly, May 30, 2025",
      "link": "https://content.govdelivery.com/accounts/VAEDUFCPS/bulletins/3e2d031",
      "description": "\n        \n\n\n  \n\n\n\n\n\n\n\n<p><a></a>Having trouble viewing this email? <a href=\"https://content.govdelivery.com/accounts/VAEDUFCPS/bulletins/3e2d031\">View it as a Web page</a>.</p>\n\n\n\n\n\n\n\n\n\n\n\n<a href=\"https://southcountyms.fcps.edu/?utm_campaign+=&amp;utm_medium=email&amp;utm_source=govdelivery\" target=...",
      "pubDate": "Fri, 30 May 2025 14:00:13 -0500",
      "timestamp": 1748631613000,
      "feedName": "South County Middle School",
      "category": "South County Middle School",
      "feedSource": "http://www.fcps.edu/index.shtml",
      "feedInfo": {
        "title": "SCMS News and Announcements 2025-2026 - Recent Updates",
        "description": "SCMS News and Announcements 2025-2026 - Recent Updates",
        "link": "http://www.fcps.edu/index.shtml"
      }
    },
    {
      "id": "NjUxNTkxMjY=",
      "title": "Brookfield News and Notes 5/30/2025",
      "link": "https://content.govdelivery.com/accounts/VAEDUFCPS/bulletins/3e23fd6",
      "description": "\n        \n\n\n  \n\n\n\n\n\n\n\n<p><a></a>Having trouble viewing this email? <a href=\"https://content.govdelivery.com/accounts/VAEDUFCPS/bulletins/3e23fd6\">View it as a Web page</a>.</p>\n\n\n\n\n\n\n\n\n\n\n\n<a href=\"https://brookfieldes.fcps.edu/?utm_campaign+=&amp;utm_medium=email&amp;utm_source=govdelivery\" target=\"...",
      "pubDate": "Fri, 30 May 2025 14:00:11 -0500",
      "timestamp": 1748631611000,
      "feedName": "Brookfield Elementary School",
      "category": "Brookfield Elementary School",
      "feedSource": "http://www.fcps.edu/index.shtml",
      "feedInfo": {
        "title": "Brookfield Elementary School News and announcements - Recent Updates",
        "description": "Brookfield Elementary School News and announcements",
        "link": "http://www.fcps.edu/index.shtml"
      }
    },
    {
      "id": "NjUxMTg1Mjc=",
      "title": "Panther Press: May 30",
      "link": "https://content.govdelivery.com/accounts/VAEDUFCPS/bulletins/3e1a13f",
      "description": "\n        \n\n\n  \n\n\n\n\n\n\n\n<p><a></a>Having trouble viewing this email? <a href=\"https://content.govdelivery.com/accounts/VAEDUFCPS/bulletins/3e1a13f\">View it as a Web page</a>.</p>\n\n\n\n\n\n\n\n\n\n\n\n<a href=\"http://www2.fcps.edu/ProvidenceES/?utm_campaign+=&amp;utm_medium=email&amp;utm_source=govdelivery\" targ...",
      "pubDate": "Fri, 30 May 2025 13:49:29 -0500",
      "timestamp": 1748630969000,
      "feedName": "Providence Elementary School",
      "category": "Providence Elementary School",
      "feedSource": "http://www.fcps.edu/index.shtml",
      "feedInfo": {
        "title": "Providence Elementary School News and Announcements - Recent Updates",
        "description": "Providence Elementary School News and announcements",
        "link": "http://www.fcps.edu/index.shtml"
      }
    },
    {
      "id": "NjUxODY5MTE=",
      "title": "Principal's Message",
      "link": "https://content.govdelivery.com/accounts/VAEDUFCPS/bulletins/3e2ac5f",
      "description": "\n        \n\n\n  \n\n\n\n\n\n\n\n<p><a></a>Having trouble viewing this email? <a href=\"https://content.govdelivery.com/accounts/VAEDUFCPS/bulletins/3e2ac5f\">View it as a Web page</a>.</p>\n\n\n\n\n\n\n\n\n\n\n\n<a href=\"https://hughesms.fcps.edu/?utm_campaign+=&amp;utm_medium=email&amp;utm_source=govdelivery\" target=\"_bla...",
      "pubDate": "Fri, 30 May 2025 13:35:48 -0500",
      "timestamp": 1748630148000,
      "feedName": "Hughes Middle School",
      "category": "Hughes Middle School",
      "feedSource": "http://www.fcps.edu/index.shtml",
      "feedInfo": {
        "title": "Hughes Middle School News and announcements - Recent Updates",
        "description": "Hughes Middle School News and announcements",
        "link": "http://www.fcps.edu/index.shtml"
      }
    },
    {
      "id": "NjUxOTQ0MTQ=",
      "title": "Mountain View newsletter 5/30/25",
      "link": "https://content.govdelivery.com/accounts/VAEDUFCPS/bulletins/3e2c9ae",
      "description": "\n        \n\n\n  \n\n\n\n\n\n\n\n<p><a></a>Having trouble viewing this email? <a href=\"https://content.govdelivery.com/accounts/VAEDUFCPS/bulletins/3e2c9ae\">View it as a Web page</a>.</p>\n\n\n\n\n\n\n\n\n\n\n\n<a href=\"https://mountainviewhs.fcps.edu/?utm_campaign+=&amp;utm_medium=email&amp;utm_source=govdelivery\" target...",
      "pubDate": "Fri, 30 May 2025 13:30:23 -0500",
      "timestamp": 1748629823000,
      "feedName": "Mountain View High School",
      "category": "Mountain View High School",
      "feedSource": "http://www.fcps.edu/index.shtml",
      "feedInfo": {
        "title": "Mountain View High School News and Announcements - Recent Updates",
        "description": "Mountain View High School News and announcements",
        "link": "http://www.fcps.edu/index.shtml"
      }
    },
    {
      "id": "NjUxOTYyNDQ=",
      "title": "Kilmer MS Newsletter - May 30, 2025",
      "link": "https://content.govdelivery.com/accounts/VAEDUFCPS/bulletins/3e2d0d4",
      "description": "\n        \n\n\n  \n\n\n\n\n\n\n\n<p><a></a>Having trouble viewing this email? <a href=\"https://content.govdelivery.com/accounts/VAEDUFCPS/bulletins/3e2d0d4\">View it as a Web page</a>.</p>\n\n\n\n\n\n\n\n\n\n\n\n<a href=\"https://kilmerms.fcps.edu/?utm_campaign+=&amp;utm_medium=email&amp;utm_source=govdelivery\" target=\"_bla...",
      "pubDate": "Fri, 30 May 2025 13:30:16 -0500",
      "timestamp": 1748629816000,
      "feedName": "Kilmer Middle School",
      "category": "Kilmer Middle School",
      "feedSource": "http://www.fcps.edu/index.shtml",
      "feedInfo": {
        "title": "Kilmer Middle School News and announcements - Recent Updates",
        "description": "Kilmer Middle School News and announcements",
        "link": "http://www.fcps.edu/index.shtml"
      }
    },
    {
      "id": "NjUxNjI1NjQ=",
      "title": "5/30 RRMS School Updates",
      "link": "https://content.govdelivery.com/accounts/VAEDUFCPS/bulletins/3e24d44",
      "description": "\n        \n\n\n  \n\n\n\n\n\n\n\n<p><a></a>Having trouble viewing this email? <a href=\"https://content.govdelivery.com/accounts/VAEDUFCPS/bulletins/3e24d44\">View it as a Web page</a>.</p>\n\n\n\n\n\n\n\n\n\n\n\n<a href=\"https://rockyrunms.fcps.edu/?utm_campaign+=&amp;utm_medium=email&amp;utm_source=govdelivery\" target=\"_b...",
      "pubDate": "Fri, 30 May 2025 13:29:27 -0500",
      "timestamp": 1748629767000,
      "feedName": "Rocky Run Middle School",
      "category": "Rocky Run Middle School",
      "feedSource": "https://public.govdelivery.com/topics/Rocky_Run_MS_News/feed.rss",
      "feedInfo": {
        "title": "Rocky Run Middle School News and Announcements",
        "description": "Rocky Run Middle School News and Announcements",
        "link": "https://public.govdelivery.com/topics/Rocky_Run_MS_News/feed.rss"
      }
    },
    {
      "id": "NjUxNTg0MTY=",
      "title": "Luther Jackson May 30 , 2025",
      "link": "https://content.govdelivery.com/accounts/VAEDUFCPS/bulletins/3e23d10",
      "description": "\n        \n\n\n  \n\n\n\n\n\n\n\n<a href=\"https://jacksonms.fcps.edu/?utm_campaign+=&amp;utm_medium=email&amp;utm_source=govdelivery\" target=\"_blank\"></a>\n\n\n\n\n\n\n\n\n\n\n\n<a href=\"https://translate.google.com/translate?hl=en&amp;sl=en&amp;tl=es&amp;u=https%3A%2F%2Fcontent.govdelivery.com%2Faccounts%2FVAEDUFCPS%2Fbu...",
      "pubDate": "Fri, 30 May 2025 13:20:12 -0500",
      "timestamp": 1748629212000,
      "feedName": "Jackson Middle School",
      "category": "Jackson Middle School",
      "feedSource": "http://www.fcps.edu/index.shtml",
      "feedInfo": {
        "title": "Jackson Middle School News and Announcements - Recent Updates",
        "description": "Jackson Middle School News and announcements",
        "link": "http://www.fcps.edu/index.shtml"
      }
    },
    {
      "id": "NjUxNzQ3OTM=",
      "title": "ATES Updates_05/30/2025",
      "link": "https://content.govdelivery.com/accounts/VAEDUFCPS/bulletins/3e27d09",
      "description": "\n        \n\n\n  \n\n\n\n\n\n\n\n<p><a></a>Having trouble viewing this email? <a href=\"https://content.govdelivery.com/accounts/VAEDUFCPS/bulletins/3e27d09\">View it as a Web page</a>.</p>\n\n\n\n\n\n\n\n\n\n\n\n<a href=\"https://annandaleterracees.fcps.edu/?utm_campaign+=&amp;utm_medium=email&amp;utm_source=govdelivery\" ta...",
      "pubDate": "Fri, 30 May 2025 13:08:25 -0500",
      "timestamp": 1748628505000,
      "feedName": "Annandale Terrace Elementary School",
      "category": "Annandale Terrace Elementary School",
      "feedSource": "http://www.fcps.edu/index.shtml",
      "feedInfo": {
        "title": "Annandale Terrace Elementary School News and announcements - Recent Updates",
        "description": "Annandale Terrace Elementary School News and announcements",
        "link": "http://www.fcps.edu/index.shtml"
      }
    },
    {
      "id": "NjUxOTQ1MDY=",
      "title": "WPHS News You Choose 5/30/25",
      "link": "https://content.govdelivery.com/accounts/VAEDUFCPS/bulletins/3e2ca0a",
      "description": "\n        \n\n\n  \n\n\n\n\n\n\n\n<p><a></a>Having trouble viewing this email? <a href=\"https://content.govdelivery.com/accounts/VAEDUFCPS/bulletins/3e2ca0a\">View it as a Web page</a>.</p>\n\n\n\n\n\n\n\n\n\n\n\n<a href=\"https://westpotomachs.fcps.edu/?utm_campaign+=&amp;utm_medium=email&amp;utm_source=govdelivery\" target=...",
      "pubDate": "Fri, 30 May 2025 13:05:13 -0500",
      "timestamp": 1748628313000,
      "feedName": "West Potomac High School",
      "category": "West Potomac High School",
      "feedSource": "http://www.fcps.edu/index.shtml",
      "feedInfo": {
        "title": "West Potomac High School News and announcements - Recent Updates",
        "description": "West Potomac High School News and announcements",
        "link": "http://www.fcps.edu/index.shtml"
      }
    },
    {
      "id": "NjQ5ODUyMTY=",
      "title": "Edison Academy Monthly Newsletter",
      "link": "https://content.govdelivery.com/accounts/VAEDUFCPS/bulletins/3df9880",
      "description": "\n        \n\n\n  \n\n\n\n\n\n\n\n\n\n\n\n\n\n\n\n\n\n\n\n<p><a></a>Having trouble viewing this email? <a href=\"https://content.govdelivery.com/accounts/VAEDUFCPS/bulletins/3df9880\">View it as a Web page</a>.</p>\n<p>Clickit Monicathis placeholder text.</p>\n\n\n\n\n\n\n\n\n\n\n\n\n\n\n\n\n\n\n<p>Edison Academy Families,</p>\n<p>It is hard to ...",
      "pubDate": "Fri, 30 May 2025 12:36:20 -0500",
      "timestamp": 1748626580000,
      "feedName": "Edison Academy",
      "category": "Edison Academy",
      "feedSource": "http://www.fcps.edu/index.shtml",
      "feedInfo": {
        "title": "Edison Academy News and announcements - Recent Updates",
        "description": "Edison Academy News and announcements - Recent Updates",
        "link": "http://www.fcps.edu/index.shtml"
      }
    },
    {
      "id": "NjUxODU5NzQ=",
      "title": "WSHS Spartan Weekly News, May 30, 2025",
      "link": "https://content.govdelivery.com/accounts/VAEDUFCPS/bulletins/3e2a8b6",
      "description": "\n        \n\n\n  \n\n\n\n\n\n\n\n<p><a></a>Having trouble viewing this email? <a href=\"https://content.govdelivery.com/accounts/VAEDUFCPS/bulletins/3e2a8b6\">View it as a Web page</a>.</p>\n\n\n\n\n\n\n\n\n\n\n\n<a href=\"https://westspringfieldhs.fcps.edu/?utm_campaign+=&amp;utm_medium=email&amp;utm_source=govdelivery\" tar...",
      "pubDate": "Fri, 30 May 2025 11:55:13 -0500",
      "timestamp": 1748624113000,
      "feedName": "West Springfield High School",
      "category": "West Springfield High School",
      "feedSource": "http://www.fcps.edu/index.shtml",
      "feedInfo": {
        "title": "West Springfield High School News and Announcements - Recent Updates",
        "description": "West Springfield High School News and Announcements",
        "link": "http://www.fcps.edu/index.shtml"
      }
    },
    {
      "id": "NjUxOTgwOTk=",
      "title": "Community Awareness",
      "link": "https://content.govdelivery.com/accounts/VAEDUFCPS/bulletins/3e2d813",
      "description": "\n        \n\n\n  \n\n\n\n\n\n\n\n<p><a></a>Having trouble viewing this email? <a href=\"https://content.govdelivery.com/accounts/VAEDUFCPS/bulletins/3e2d813\">View it as a Web page</a>.</p>\n\n\n\n\n\n\n\n\n\n\n\n<a href=\"http://www2.fcps.edu/PoplarTreeES?utm_content=&amp;utm_medium=email&amp;utm_name=&amp;utm_source=govdel...",
      "pubDate": "Fri, 30 May 2025 11:39:38 -0500",
      "timestamp": 1748623178000,
      "feedName": "Poplar Tree Elementary School",
      "category": "Poplar Tree Elementary School",
      "feedSource": "http://www.fcps.edu/index.shtml",
      "feedInfo": {
        "title": "Poplar Tree Elementary School News and announcements - Recent Updates",
        "description": "Poplar Tree Elementary School News and announcements",
        "link": "http://www.fcps.edu/index.shtml"
      }
    },
    {
      "id": "NjUxOTcyODY=",
      "title": "FROM THE PRINCIPAL'S DESK",
      "link": "https://content.govdelivery.com/accounts/VAEDUFCPS/bulletins/3e2d4e6",
      "description": "\n        \n\n\n  \n\n\n\n\n\n\n\n<p><a></a>Having trouble viewing this email? <a href=\"https://content.govdelivery.com/accounts/VAEDUFCPS/bulletins/3e2d4e6\">View it as a Web page</a>.</p>\n\n\n\n\n\n\n\n\n\n\n\n<a href=\"https://cherryrunes.fcps.edu/?utm_campaign+=&amp;utm_medium=email&amp;utm_source=govdelivery\" target=\"_...",
      "pubDate": "Fri, 30 May 2025 11:39:06 -0500",
      "timestamp": 1748623146000,
      "feedName": "Cherry Run Elementary School",
      "category": "Cherry Run Elementary School",
      "feedSource": "http://www.fcps.edu/index.shtml",
      "feedInfo": {
        "title": "Cherry Run Elementary School News and announcements - Recent Updates",
        "description": "Cherry Run Elementary School News and announcements",
        "link": "http://www.fcps.edu/index.shtml"
      }
    },
    {
      "id": "NjQ5MTQwMTA=",
      "title": "Braddock District School Board News - May 2025",
      "link": "https://content.govdelivery.com/accounts/VAEDUFCPS/bulletins/3de825a",
      "description": "\n        \n\n\n  \n\n\n\n\n\n\n\n<p><a></a>Having trouble viewing this email? <a href=\"https://content.govdelivery.com/accounts/VAEDUFCPS/bulletins/3de825a\">View it as a Web page</a>.</p>\n\n\n\n\n\n\n\n\n\n\n\n<a href=\"https://www.fcps.edu/staff/rachna-sizemore-heizer?utm_campaign+=&amp;utm_medium=email&amp;utm_source=go...",
      "pubDate": "Fri, 30 May 2025 11:38:26 -0500",
      "timestamp": 1748623106000,
      "feedName": "FCPS School Board Braddock District",
      "category": "FCPS School Board Braddock District",
      "feedSource": "http://www.fcps.edu/index.shtml",
      "feedInfo": {
        "title": "Braddock District Member - Rachna Sizemore Heizer - Recent Updates",
        "description": "Braddock District Member - Rachna Sizemore Heizer - Recent Updates",
        "link": "http://www.fcps.edu/index.shtml"
      }
    },
    {
      "id": "NjUxMzA4MDE=",
      "title": "Forestville Updates",
      "link": "https://content.govdelivery.com/accounts/VAEDUFCPS/bulletins/3e1d131",
      "description": "\n        \n\n\n  \n\n\n\n\n\n\n\n<p><a></a>Having trouble viewing this email? <a href=\"https://content.govdelivery.com/accounts/VAEDUFCPS/bulletins/3e1d131\">View it as a Web page</a>.</p>\n\n\n\n\n\n\n\n\n\n\n\n<a href=\"https://forestvillees.fcps.edu/?utm_campaign+=&amp;utm_medium=email&amp;utm_source=govdelivery\" target=...",
      "pubDate": "Fri, 30 May 2025 11:30:21 -0500",
      "timestamp": 1748622621000,
      "feedName": "Forestville Elementary School",
      "category": "Forestville Elementary School",
      "feedSource": "http://www.fcps.edu/index.shtml",
      "feedInfo": {
        "title": "Forestville Elementary School News and Announcements - Recent Updates",
        "description": "Forestville Elementary School News and announcements",
        "link": "http://www.fcps.edu/index.shtml"
      }
    },
    {
      "id": "NjUxOTY2NzU=",
      "title": "Summer Learning Family Webinar",
      "link": "https://content.govdelivery.com/accounts/VAEDUFCPS/bulletins/3e2d283",
      "description": "\n        \n\n\n  \n\n\n\n\n\n\n\n<p><a></a>Having trouble viewing this email? <a href=\"https://content.govdelivery.com/accounts/VAEDUFCPS/bulletins/3e2d283\">View it as a Web page</a>.</p>\n\n\n\n\n\n\n\n\n\n\n\n<a href=\"http://www2.fcps.edu/LaurelRidgeES/?utm_campaign+=&amp;utm_medium=email&amp;utm_source=govdelivery\" tar...",
      "pubDate": "Fri, 30 May 2025 11:00:19 -0500",
      "timestamp": 1748620819000,
      "feedName": "Laurel Ridge Elementary School",
      "category": "Laurel Ridge Elementary School",
      "feedSource": "http://www.fcps.edu/index.shtml",
      "feedInfo": {
        "title": "Laurel Ridge Elementary School News and announcements - Recent Updates",
        "description": "Laurel Ridge Elementary School News and announcements",
        "link": "http://www.fcps.edu/index.shtml"
      }
    },
    {
      "id": "NjUxOTYyMjQ=",
      "title": "ðŸ¾Poplar Tree Paw Print - Friday, May 30, 2025ðŸ¾",
      "link": "https://content.govdelivery.com/accounts/VAEDUFCPS/bulletins/3e2d0c0",
      "description": "\n        \n\n\n  \n\n\n\n\n\n\n\n<p><a></a>Having trouble viewing this email? <a href=\"https://content.govdelivery.com/accounts/VAEDUFCPS/bulletins/3e2d0c0\">View it as a Web page</a>.</p>\n\n\n\n\n\n\n\n\n\n\n\n<a href=\"http://www2.fcps.edu/PoplarTreeES?utm_content=&amp;utm_medium=email&amp;utm_name=&amp;utm_source=govdel...",
      "pubDate": "Fri, 30 May 2025 10:24:23 -0500",
      "timestamp": 1748618663000,
      "feedName": "Poplar Tree Elementary School",
      "category": "Poplar Tree Elementary School",
      "feedSource": "http://www.fcps.edu/index.shtml",
      "feedInfo": {
        "title": "Poplar Tree Elementary School News and announcements - Recent Updates",
        "description": "Poplar Tree Elementary School News and announcements",
        "link": "http://www.fcps.edu/index.shtml"
      }
    },
    {
      "id": "NjUxOTQ2NDI=",
      "title": "LBSS Weekly News - May 30, 2025",
      "link": "https://content.govdelivery.com/accounts/VAEDUFCPS/bulletins/3e2ca92",
      "description": "\n        \n\n\n  \n\n\n\n\n\n\n\n<p><a></a>Having trouble viewing this email? <a href=\"https://content.govdelivery.com/accounts/VAEDUFCPS/bulletins/3e2ca92\">View it as a Web page</a>.</p>\n\n\n\n\n\n\n\n\n\n\n\n<a href=\"https://lakebraddockss.fcps.edu/?utm_campaign+=&amp;utm_medium=email&amp;utm_source=govdelivery\" target...",
      "pubDate": "Fri, 30 May 2025 10:05:14 -0500",
      "timestamp": 1748617514000,
      "feedName": "Lake Braddock Secondary School",
      "category": "Lake Braddock Secondary School",
      "feedSource": "http://www.fcps.edu/index.shtml",
      "feedInfo": {
        "title": "Lake Braddock Secondary School News and announcements - Recent Updates",
        "description": "Lake Braddock Secondary School News and announcements",
        "link": "http://www.fcps.edu/index.shtml"
      }
    },
    {
      "id": "NjUxOTY0NTE=",
      "title": "Join End of Year Gifting for Wolftrap Elementary Teachers &amp; Staff",
      "link": "https://content.govdelivery.com/accounts/VAEDUFCPS/bulletins/3e2d1a3",
      "description": "\n        \n\n\n  \n\n\n\n\n\n\n\n<p><a></a>Having trouble viewing this email? <a href=\"https://content.govdelivery.com/accounts/VAEDUFCPS/bulletins/3e2d1a3\">View it as a Web page</a>.</p>\n\n\n\n\n\n\n\n\n\n\n\n<a href=\"http://www2.fcps.edu/WolftrapES/?utm_campaign+=&amp;utm_medium=email&amp;utm_source=govdelivery\" target...",
      "pubDate": "Fri, 30 May 2025 09:52:36 -0500",
      "timestamp": 1748616756000,
      "feedName": "Wolftrap Elementary School",
      "category": "Wolftrap Elementary School",
      "feedSource": "http://www.fcps.edu/index.shtml",
      "feedInfo": {
        "title": "Wolftrap Elementary School News and Announcements - Recent Updates",
        "description": "Wolftrap Elementary School News and announcements",
        "link": "http://www.fcps.edu/index.shtml"
      }
    }
  ],
  "hasNext": true,
  "hasPrev": true
}