{
  "page": 22,
  "totalPages": 268,
  "totalItems": 5354,
  "itemsPerPage": 20,
  "items": [
    {
      "id": "NjU3OTU3ODM=",
      "title": "Dranesville PTA Newsletter",
      "link": "https://content.govdelivery.com/accounts/VAEDUFCPS/bulletins/3ebf6c7",
      "description": "\n        \n\n\n  \n\n\n\n\n\n\n\n<p><a></a>Having trouble viewing this email? <a href=\"https://content.govdelivery.com/accounts/VAEDUFCPS/bulletins/3ebf6c7\">View it as a Web page</a>.</p>\n\n\n\n\n\n\n\n\n\n\n\n<a href=\"https://dranesvillees.fcps.edu/?utm_campaign+=&amp;utm_medium=email&amp;utm_source=govdelivery\" target=...",
      "pubDate": "Thu, 31 Jul 2025 16:00:19 -0500",
      "timestamp": 1753995619000,
      "feedName": "Dranesville Elementary School",
      "category": "Dranesville Elementary School",
      "feedSource": "http://www.fcps.edu/index.shtml",
      "feedInfo": {
        "title": "Dranesville Elementary School News and announcements - Recent Updates",
        "description": "Dranesville Elementary School News and announcements",
        "link": "http://www.fcps.edu/index.shtml"
      }
    },
    {
      "id": "NjU3NTQ0MzE=",
      "title": "FCHS News &amp; Announcements - 7/31/25",
      "link": "https://content.govdelivery.com/accounts/VAEDUFCPS/bulletins/3eb553f",
      "description": "\n        \n\n\n  \n\n\n\n\n\n\n\n<p><a></a>Having trouble viewing this email? <a href=\"https://content.govdelivery.com/accounts/VAEDUFCPS/bulletins/3eb553f\">View it as a Web page</a>.</p>\n\n\n\n\n\n\n\n\n\n\n\n<a href=\"https://fallschurchhs.fcps.edu/?utm_campaign+=&amp;utm_medium=email&amp;utm_source=govdelivery\" target=...",
      "pubDate": "Thu, 31 Jul 2025 15:15:26 -0500",
      "timestamp": 1753992926000,
      "feedName": "Falls Church High School",
      "category": "Falls Church High School",
      "feedSource": "https://fallschurchhs.fcps.edu",
      "feedInfo": {
        "title": "Falls Church High School News and announcements",
        "description": "Falls Church High School News and announcements",
        "link": "https://fallschurchhs.fcps.edu"
      }
    },
    {
      "id": "NjU3ODk4MTI=",
      "title": "Deer Park Elementary School - Welcome Back - 2025-2026",
      "link": "https://content.govdelivery.com/accounts/VAEDUFCPS/bulletins/3ebdf74",
      "description": "\n        \n\n\n  \n\n\n\n\n\n\n\n<p><a></a>Having trouble viewing this email? <a href=\"https://content.govdelivery.com/accounts/VAEDUFCPS/bulletins/3ebdf74\">View it as a Web page</a>.</p>\n\n\n\n\n\n\n\n\n\n\n\n<a href=\"https://deerparkes.fcps.edu/?utm_campaign+=&amp;utm_medium=email&amp;utm_source=govdelivery\" target=\"_b...",
      "pubDate": "Thu, 31 Jul 2025 15:05:11 -0500",
      "timestamp": 1753992311000,
      "feedName": "Deer Park Elementary School",
      "category": "Deer Park Elementary School",
      "feedSource": "http://www.fcps.edu/index.shtml",
      "feedInfo": {
        "title": "Deer Park Elementary School News and Announcements - Recent Updates",
        "description": "Deer Park Elementary School News and announcements",
        "link": "http://www.fcps.edu/index.shtml"
      }
    },
    {
      "id": "NjU3OTMzMzk=",
      "title": "Remembrance Ceremony for Elijah (Eli) Medrano Pardo",
      "link": "https://content.govdelivery.com/accounts/VAEDUFCPS/bulletins/3ebed3b",
      "description": "\n        \n\n\n  \n\n\n\n\n\n\n\n<p><a></a>Having trouble viewing this email? <a href=\"https://content.govdelivery.com/accounts/VAEDUFCPS/bulletins/3ebed3b\">View it as a Web page</a>.</p>\n\n\n\n\n\n\n\n\n\n\n\n<a href=\"https://weyanokees.fcps.edu/?utm_campaign+=&amp;utm_medium=email&amp;utm_source=govdelivery\" target=\"_b...",
      "pubDate": "Thu, 31 Jul 2025 15:00:15 -0500",
      "timestamp": 1753992015000,
      "feedName": "Weyanoke Elementary School",
      "category": "Weyanoke Elementary School",
      "feedSource": "http://www.fcps.edu/index.shtml",
      "feedInfo": {
        "title": "Weyanoke Elementary School News and announcements - Recent Updates",
        "description": "Weyanoke Elementary School News and announcements",
        "link": "http://www.fcps.edu/index.shtml"
      }
    },
    {
      "id": "NjU3OTQ3Nzc=",
      "title": "REMINDER! Popsicles on the Playground Events Next Monday and Tuesday!",
      "link": "https://content.govdelivery.com/accounts/VAEDUFCPS/bulletins/3ebf2d9",
      "description": "\n        \n\n\n  \n\n\n\n\n\n\n\n<p><a></a>Having trouble viewing this email? <a href=\"https://content.govdelivery.com/accounts/VAEDUFCPS/bulletins/3ebf2d9\">View it as a Web page</a>.</p>\n\n\n\n\n\n\n\n\n\n\n\n<a href=\"https://lanees.fcps.edu/?utm_campaign+=&amp;utm_medium=email&amp;utm_source=govdelivery\" target=\"_blank...",
      "pubDate": "Thu, 31 Jul 2025 14:23:05 -0500",
      "timestamp": 1753989785000,
      "feedName": "Lane Elementary School",
      "category": "Lane Elementary School",
      "feedSource": "http://www.fcps.edu/index.shtml",
      "feedInfo": {
        "title": "Lane Elementary School News and announcements - Recent Updates",
        "description": "Lane Elementary School News and announcements",
        "link": "http://www.fcps.edu/index.shtml"
      }
    },
    {
      "id": "NjU3OTQ1NTg=",
      "title": "Bonnie Brae ES: Popsicles on the Playground Postponed Due to Rain",
      "link": "https://content.govdelivery.com/accounts/VAEDUFCPS/bulletins/3ebf1fe",
      "description": "\n        \n\n\n  \n\n\n\n\n\n\n\n<p><a></a>Having trouble viewing this email? <a href=\"https://content.govdelivery.com/accounts/VAEDUFCPS/bulletins/3ebf1fe\">View it as a Web page</a>.</p>\n\n\n\n\n\n\n\n\n\n\n\n<a href=\"https://bonniebraees.fcps.edu/?utm_campaign+=&amp;utm_medium=email&amp;utm_source=govdelivery\" target=\"...",
      "pubDate": "Thu, 31 Jul 2025 13:46:28 -0500",
      "timestamp": 1753987588000,
      "feedName": "Bonnie Brae Elementary School",
      "category": "Bonnie Brae Elementary School",
      "feedSource": "http://www.fcps.edu/index.shtml",
      "feedInfo": {
        "title": "Bonnie Brae News and Announcements",
        "description": "Bonnie Brae Elementary School News and announcements",
        "link": "http://www.fcps.edu/index.shtml"
      }
    },
    {
      "id": "NjU2NzYyMTY=",
      "title": "Shrevewood Wise Words Summer Edition -  July 31, 2025",
      "link": "https://content.govdelivery.com/accounts/VAEDUFCPS/bulletins/3ea23b8",
      "description": "\n        \n\n\n  \n\n\n\n\n\n\n\n<p><a></a>Having trouble viewing this email? <a href=\"https://content.govdelivery.com/accounts/VAEDUFCPS/bulletins/3ea23b8\">View it as a Web page</a>.</p>\n\n\n\n\n\n\n\n\n\n\n\n<a href=\"https://shrevewoodes.fcps.edu/?utm_campaign+=&amp;utm_medium=email&amp;utm_source=govdelivery\" target=\"...",
      "pubDate": "Thu, 31 Jul 2025 12:03:33 -0500",
      "timestamp": 1753981413000,
      "feedName": "Shrevewood Elementary School",
      "category": "Shrevewood Elementary School",
      "feedSource": "http://www.fcps.edu/index.shtml",
      "feedInfo": {
        "title": "Shrevewood Elementary School News and announcements - Recent Updates",
        "description": "Shrevewood Elementary School News and announcements",
        "link": "http://www.fcps.edu/index.shtml"
      }
    },
    {
      "id": "NjU3OTExNTk=",
      "title": "Westgate Weekly News",
      "link": "https://content.govdelivery.com/accounts/VAEDUFCPS/bulletins/3ebe4b7",
      "description": "\n        \n\n\n  \n\n\n\n\n\n\n\n<p><a></a>Having trouble viewing this email? <a href=\"https://content.govdelivery.com/accounts/VAEDUFCPS/bulletins/3ebe4b7\">View it as a Web page</a>.</p>\n\n\n\n\n\n\n\n\n\n\n\n<a href=\"http://www2.fcps.edu/WestgateES/?utm_content=&amp;utm_medium=email&amp;utm_name=&amp;utm_source=govdeli...",
      "pubDate": "Thu, 31 Jul 2025 11:59:44 -0500",
      "timestamp": 1753981184000,
      "feedName": "Westgate Elementary School",
      "category": "Westgate Elementary School",
      "feedSource": "http://www.fcps.edu/index.shtml",
      "feedInfo": {
        "title": "Westgate ES News",
        "description": "Westgate Elementary School News and announcements",
        "link": "http://www.fcps.edu/index.shtml"
      }
    },
    {
      "id": "NjU3OTI4NTc=",
      "title": "July 31, 2025",
      "link": "https://content.govdelivery.com/accounts/VAEDUFCPS/bulletins/3ebeb59",
      "description": "\n        \n\n\n  \n\n\n\n\n\n\n\n\n\n\n\n\n\n\n\n\n\n\n\n\n\n\n\n\n\n\n\n\n\n\n\n\n\n\n\n<p><a href=\"https://laurelhilles.fcps.edu/aggregator/sources/1?utm_content=&amp;utm_medium=email&amp;utm_name=&amp;utm_source=govdelivery&amp;utm_term=#modal-language-switcher\" target=\"_blank\">English</a> | <a href=\"https://laurelhilles.fcps.edu/aggr...",
      "pubDate": "Thu, 31 Jul 2025 11:24:07 -0500",
      "timestamp": 1753979047000,
      "feedName": "Laurel Hill Elementary School",
      "category": "Laurel Hill Elementary School",
      "feedSource": "http://www.fcps.edu/index.shtml",
      "feedInfo": {
        "title": "Laurel Hill Elementary School News and announcements - Recent Updates",
        "description": "Laurel Hill Elementary School News and announcements",
        "link": "http://www.fcps.edu/index.shtml"
      }
    },
    {
      "id": "NjU3OTIzNzk=",
      "title": "Join Team Navy for The Asha Jyothi 5K!",
      "link": "https://content.govdelivery.com/accounts/VAEDUFCPS/bulletins/3ebe97b",
      "description": "\n        \n\n\n  \n\n\n\n\n\n\n\n<p><a></a>Having trouble viewing this email? <a href=\"https://content.govdelivery.com/accounts/VAEDUFCPS/bulletins/3ebe97b\">View it as a Web page</a>.</p>\n\n\n\n\n\n\n\n\n\n\n\n<a href=\"https://navyes.fcps.edu/?utm_campaign+=&amp;utm_medium=email&amp;utm_source=govdelivery\" target=\"_blank...",
      "pubDate": "Thu, 31 Jul 2025 11:06:57 -0500",
      "timestamp": 1753978017000,
      "feedName": "Navy Elementary School",
      "category": "Navy Elementary School",
      "feedSource": "http://www.fcps.edu/index.shtml",
      "feedInfo": {
        "title": "Navy Elementary School News and announcements - Recent Updates",
        "description": "Navy Elementary School News and announcements",
        "link": "http://www.fcps.edu/index.shtml"
      }
    },
    {
      "id": "NjU3OTA1MzQ=",
      "title": "Popsicles with the Principal POSTPONED to Monday, 8/4",
      "link": "https://content.govdelivery.com/accounts/VAEDUFCPS/bulletins/3ebe246",
      "description": "\n        <p>Hello Hawk families!</p>\n<p>Due to forecasts of intense storms and potential flash flooding, we will postpone our event for this afternoon. Instead, we will host the Popsicles with the Principal event on Monday, Aug. 4, at 5 p.m. on our school playground. Stay safe today and come see us ...",
      "pubDate": "Thu, 31 Jul 2025 11:00:35 -0500",
      "timestamp": 1753977635000,
      "feedName": "Hayfield Elementary School",
      "category": "Hayfield Elementary School",
      "feedSource": "https://public.govdelivery.com/topics/Hayfield_ES_News/feed.rss",
      "feedInfo": {
        "title": "Hayfield ES News and Announcements",
        "description": "Hayfield Elementary School News and Announcements",
        "link": "https://public.govdelivery.com/topics/Hayfield_ES_News/feed.rss"
      }
    },
    {
      "id": "NjU3OTI0MTE=",
      "title": "Key MS - News You Choose - 07/31/25 - Summer Laptop Return",
      "link": "https://content.govdelivery.com/accounts/VAEDUFCPS/bulletins/3ebe99b",
      "description": "\n        \n\n\n  \n\n\n\n\n\n\n\n<p><a></a>Having trouble viewing this email? <a href=\"https://content.govdelivery.com/accounts/VAEDUFCPS/bulletins/3ebe99b\">View it as a Web page</a>.</p>\n\n\n\n\n\n\n\n\n\n\n\n<a href=\"http://www2.fcps.edu/KeyMS/?utm_campaign+=&amp;utm_medium=email&amp;utm_source=govdelivery\" target=\"_bl...",
      "pubDate": "Thu, 31 Jul 2025 10:51:54 -0500",
      "timestamp": 1753977114000,
      "feedName": "Key Middle School",
      "category": "Key Middle School",
      "feedSource": "http://www.fcps.edu/index.shtml",
      "feedInfo": {
        "title": "Key Middle School News and Announcements - Recent Updates",
        "description": "Key Middle School News and Announcements",
        "link": "http://www.fcps.edu/index.shtml"
      }
    },
    {
      "id": "NjU3OTIwNjA=",
      "title": "2025 Summer Update from Kyle McDaniel",
      "link": "https://content.govdelivery.com/accounts/VAEDUFCPS/bulletins/3ebe83c",
      "description": "\n        \n\n\n  \n\n\n\n\n\n\n\n<p><a></a>Having trouble viewing this email? <a href=\"https://content.govdelivery.com/accounts/VAEDUFCPS/bulletins/3ebe83c\">View it as a Web page</a>.</p>\n\n\n\n\n\n\n\n\n\n\n\n<a href=\"https://www.fcps.edu/staff/kyle-mcdaniel?utm_campaign+=&amp;utm_medium=email&amp;utm_source=govdelivery...",
      "pubDate": "Thu, 31 Jul 2025 10:34:08 -0500",
      "timestamp": 1753976048000,
      "feedName": "FCPS School Board Member at Large (Kyle McDaniel)",
      "category": "FCPS School Board Member at Large (Kyle McDaniel)",
      "feedSource": "http://www.fcps.edu/",
      "feedInfo": {
        "title": "At-Large Member - Kyle McDaniel - Recent Updates",
        "description": "At-Large Member - Kyle McDaniel - Recent Updates",
        "link": "http://www.fcps.edu/"
      }
    },
    {
      "id": "NjU3OTIwMjI=",
      "title": "Mark Your Calendar!",
      "link": "https://content.govdelivery.com/accounts/VAEDUFCPS/bulletins/3ebe816",
      "description": "\n        \n\n\n  \n\n\n\n\n\n\n\n<p><a></a>Having trouble viewing this email? <a href=\"https://content.govdelivery.com/accounts/VAEDUFCPS/bulletins/3ebe816\">View it as a Web page</a>.</p>\n\n\n\n\n\n\n\n\n\n\n\n<a href=\"https://waynewoodes.fcps.edu/?utm_campaign+=&amp;utm_medium=email&amp;utm_source=govdelivery\" target=\"_...",
      "pubDate": "Thu, 31 Jul 2025 10:07:55 -0500",
      "timestamp": 1753974475000,
      "feedName": "Waynewood Elementary School",
      "category": "Waynewood Elementary School",
      "feedSource": "http://www.fcps.edu/index.shtml",
      "feedInfo": {
        "title": "Waynewood Elementary School News and announcements - Recent Updates",
        "description": "Waynewood Elementary School News and announcements",
        "link": "http://www.fcps.edu/index.shtml"
      }
    },
    {
      "id": "NjU3ODA2MzY=",
      "title": "Island Creek: staff donations",
      "link": "https://content.govdelivery.com/accounts/VAEDUFCPS/bulletins/3ebbb9c",
      "description": "\n        \n\n\n  \n\n\n\n\n\n\n\n<p><a></a>Having trouble viewing this email? <a href=\"https://content.govdelivery.com/accounts/VAEDUFCPS/bulletins/3ebbb9c\">View it as a Web page</a>.</p>\n\n\n\n\n\n\n\n\n\n\n\n<a href=\"https://islandcreekes.fcps.edu/?utm_campaign+=&amp;utm_medium=email&amp;utm_source=govdelivery\" target=...",
      "pubDate": "Thu, 31 Jul 2025 10:00:26 -0500",
      "timestamp": 1753974026000,
      "feedName": "Island Creek Elementary School",
      "category": "Island Creek Elementary School",
      "feedSource": "http://www.fcps.edu/index.shtml",
      "feedInfo": {
        "title": "Island Creek Elementary School News and announcements - Recent Updates",
        "description": "Island Creek Elementary School News and announcements",
        "link": "http://www.fcps.edu/index.shtml"
      }
    },
    {
      "id": "NjU3OTEzNTk=",
      "title": "Woodson Athletics- Updated Try-out Information/New Athletic Registration",
      "link": "https://content.govdelivery.com/accounts/VAEDUFCPS/bulletins/3ebe57f",
      "description": "\n        \n\n\n  \n\n\n\n\n\n\n\n<p><a></a>Having trouble viewing this email? <a href=\"https://content.govdelivery.com/accounts/VAEDUFCPS/bulletins/3ebe57f\">View it as a Web page</a>.</p>\n\n\n\n\n\n\n\n\n\n\n\n<a href=\"https://woodsonhs.fcps.edu/?utm_campaign+=&amp;utm_medium=email&amp;utm_source=govdelivery\" target=\"_bl...",
      "pubDate": "Thu, 31 Jul 2025 09:32:59 -0500",
      "timestamp": 1753972379000,
      "feedName": "Woodson High School",
      "category": "Woodson High School",
      "feedSource": "https://public.govdelivery.com/topics/Woodson_HS_NEWS/feed.rss",
      "feedInfo": {
        "title": "Woodson High School News and announcements",
        "description": "Woodson High School News and announcements",
        "link": "https://public.govdelivery.com/topics/Woodson_HS_NEWS/feed.rss"
      }
    },
    {
      "id": "NjU3OTA4MDk=",
      "title": "Make Middle School Memorable â€“ Join the PTSO for as little a $5! ðŸ´âœ¨",
      "link": "https://content.govdelivery.com/accounts/VAEDUFCPS/bulletins/3ebe359",
      "description": "\n        \n\n\n  \n\n\n\n\n\n\n\n<p><a></a>Having trouble viewing this email? <a href=\"https://content.govdelivery.com/accounts/VAEDUFCPS/bulletins/3ebe359\">View it as a Web page</a>.</p>\n\n\n\n\n\n\n\n\n\n\n\n<a href=\"https://southcountyms.fcps.edu/?utm_campaign+=&amp;utm_medium=email&amp;utm_source=govdelivery\" target=...",
      "pubDate": "Thu, 31 Jul 2025 08:37:11 -0500",
      "timestamp": 1753969031000,
      "feedName": "South County Middle School",
      "category": "South County Middle School",
      "feedSource": "http://www.fcps.edu/index.shtml",
      "feedInfo": {
        "title": "SCMS News and Announcements 2025-2026 - Recent Updates",
        "description": "SCMS News and Announcements 2025-2026 - Recent Updates",
        "link": "http://www.fcps.edu/index.shtml"
      }
    },
    {
      "id": "NjU3ODE5MDE=",
      "title": "Key MS - News You Choose - 07/31/25",
      "link": "https://content.govdelivery.com/accounts/VAEDUFCPS/bulletins/3ebc08d",
      "description": "\n        \n\n\n  \n\n\n\n\n\n\n\n<p><a></a>Having trouble viewing this email? <a href=\"https://content.govdelivery.com/accounts/VAEDUFCPS/bulletins/3ebc08d\">View it as a Web page</a>.</p>\n\n\n\n\n\n\n\n\n\n\n\n<a href=\"http://www2.fcps.edu/KeyMS/?utm_campaign+=&amp;utm_medium=email&amp;utm_source=govdelivery\" target=\"_bl...",
      "pubDate": "Thu, 31 Jul 2025 07:30:16 -0500",
      "timestamp": 1753965016000,
      "feedName": "Key Middle School",
      "category": "Key Middle School",
      "feedSource": "http://www.fcps.edu/index.shtml",
      "feedInfo": {
        "title": "Key Middle School News and Announcements - Recent Updates",
        "description": "Key Middle School News and Announcements",
        "link": "http://www.fcps.edu/index.shtml"
      }
    },
    {
      "id": "NjU2NTA0MjQ=",
      "title": "CES Summer Update 7.30.25",
      "link": "https://content.govdelivery.com/accounts/VAEDUFCPS/bulletins/3e9bef8",
      "description": "\n        \n\n\n  \n\n\n\n\n\n\n\n<p><a></a>Having trouble viewing this email? <a href=\"https://content.govdelivery.com/accounts/VAEDUFCPS/bulletins/3e9bef8\">View it as a Web page</a>.</p>\n\n\n\n\n\n\n\n\n\n\n\n<a href=\"https://chesterbrookes.fcps.edu/?utm_campaign+=&amp;utm_medium=email&amp;utm_source=govdelivery\" target...",
      "pubDate": "Wed, 30 Jul 2025 20:20:53 -0500",
      "timestamp": 1753924853000,
      "feedName": "Chesterbrook Elementary School",
      "category": "Chesterbrook Elementary School",
      "feedSource": "https://chesterbrookes.fcps.edu/aggregator/sources/1",
      "feedInfo": {
        "title": "Chesterbrook Elementary School News and Announcements",
        "description": "Chesterbrook Elementary School News and Announcements",
        "link": "https://chesterbrookes.fcps.edu/aggregator/sources/1"
      }
    },
    {
      "id": "NjU3ODY4OTc=",
      "title": "Laptopd",
      "link": "https://content.govdelivery.com/accounts/VAEDUFCPS/bulletins/3ebd411",
      "description": "\n        \n\n\n  \n\n\n\n\n\n\n\n<p><a></a>Having trouble viewing this email? <a href=\"https://content.govdelivery.com/accounts/VAEDUFCPS/bulletins/3ebd411\">View it as a Web page</a>.</p>\n\n\n\n\n\n\n\n\n\n\n\n<a href=\"https://aldrines.fcps.edu/?utm_campaign+=&amp;utm_medium=email&amp;utm_source=govdelivery\" target=\"_bla...",
      "pubDate": "Wed, 30 Jul 2025 19:58:58 -0500",
      "timestamp": 1753923538000,
      "feedName": "Aldrin Elementary School",
      "category": "Aldrin Elementary School",
      "feedSource": "http://www.fcps.edu/index.shtml",
      "feedInfo": {
        "title": "Aldrin Elementary School News and announcements - Recent Updates",
        "description": "Aldrin Elementary School News and announcements",
        "link": "http://www.fcps.edu/index.shtml"
      }
    }
  ],
  "hasNext": true,
  "hasPrev": true
}