{
  "page": 12,
  "totalPages": 268,
  "totalItems": 5354,
  "itemsPerPage": 20,
  "items": [
    {
      "id": "NjU3OTY5MTc=",
      "title": "Bailey's Upper ES News You Choose",
      "link": "https://content.govdelivery.com/accounts/VAEDUFCPS/bulletins/3ebfb35",
      "description": "\n        \n\n\n  \n\n\n\n\n\n\n\n<p><a></a>Having trouble viewing this email? <a href=\"https://content.govdelivery.com/accounts/VAEDUFCPS/bulletins/3ebfb35\">View it as a Web page</a>.</p>\n\n\n\n\n\n\n\n\n\n\n\n<a href=\"https://baileysupperes.fcps.edu/?utm_campaign+=&amp;utm_medium=email&amp;utm_source=govdelivery\" target...",
      "pubDate": "Fri, 08 Aug 2025 17:15:15 -0500",
      "timestamp": 1754691315000,
      "feedName": "Bailey's Upper",
      "category": "Bailey's Upper",
      "feedSource": "http://www.fcps.edu/index.shtml",
      "feedInfo": {
        "title": "Bailey's Upper (Grades 3-5) News and Announcements - Recent Updates",
        "description": "Bailey's Upper (Grades 3-5) News and Announcements - Recent Updates",
        "link": "http://www.fcps.edu/index.shtml"
      }
    },
    {
      "id": "NjU4NzE4NjU=",
      "title": "Belvedere News and Announcements-August 8, 2025",
      "link": "https://content.govdelivery.com/accounts/VAEDUFCPS/bulletins/3ed1ff9",
      "description": "\n        \n\n\n  \n\n\n\n\n\n\n\n<p><a></a>Having trouble viewing this email? <a href=\"https://content.govdelivery.com/accounts/VAEDUFCPS/bulletins/3ed1ff9\">View it as a Web page</a>.</p>\n\n\n\n\n\n\n\n\n\n\n\n<a href=\"http://www2.fcps.edu/BelvedereES/?utm_campaign+=&amp;utm_medium=email&amp;utm_source=govdelivery\" targe...",
      "pubDate": "Fri, 08 Aug 2025 17:12:22 -0500",
      "timestamp": 1754691142000,
      "feedName": "Belvedere Elementary School",
      "category": "Belvedere Elementary School",
      "feedSource": "https://belvederees.fcps.edu/aggregator/sources/1",
      "feedInfo": {
        "title": "Belvedere Elementary School News and Announcements",
        "description": "Belvedere Elementary School News and Announcements",
        "link": "https://belvederees.fcps.edu/aggregator/sources/1"
      }
    },
    {
      "id": "NjU4Njk2NDc=",
      "title": "Springfield Estates ES News You Choose - August 8, 2025",
      "link": "https://content.govdelivery.com/accounts/VAEDUFCPS/bulletins/3ed174f",
      "description": "\n        \n\n\n  \n\n\n\n\n\n\n\n<p><a></a>Having trouble viewing this email? <a href=\"https://content.govdelivery.com/accounts/VAEDUFCPS/bulletins/3ed174f\">View it as a Web page</a>.</p>\n\n\n\n\n\n\n\n\n\n\n\n<a href=\"https://springfieldestateses.fcps.edu?utm_campaign+=&amp;utm_medium=email&amp;utm_source=govdelivery\" t...",
      "pubDate": "Fri, 08 Aug 2025 17:00:17 -0500",
      "timestamp": 1754690417000,
      "feedName": "Springfield Estates Elementary School",
      "category": "Springfield Estates Elementary School",
      "feedSource": "http://www.fcps.edu/index.shtml",
      "feedInfo": {
        "title": "Springfield Estates Elementary School News and announcements - Recent Updates",
        "description": "Springfield Estates Elementary School News and announcements",
        "link": "http://www.fcps.edu/index.shtml"
      }
    },
    {
      "id": "NjU4NjUzMTI=",
      "title": "Bailey's ES News - August 8, 2025",
      "link": "https://content.govdelivery.com/accounts/VAEDUFCPS/bulletins/3ed0660",
      "description": "\n        \n\n\n  \n\n\n\n\n\n\n\n<p><a></a>Having trouble viewing this email? <a href=\"https://content.govdelivery.com/accounts/VAEDUFCPS/bulletins/3ed0660\">View it as a Web page</a>.</p>\n\n\n\n\n\n\n\n\n\n\n\n\n\n\n\n\n\n\n\n\n\n\n\n\n\n\n\n<p><a href=\"https://baileyses.fcps.edu/aggregator/sources/1?utm_campaign+=&amp;utm_medium=email&...",
      "pubDate": "Fri, 08 Aug 2025 17:00:16 -0500",
      "timestamp": 1754690416000,
      "feedName": "Bailey's Lower",
      "category": "Bailey's Lower",
      "feedSource": "http://www.fcps.edu/index.shtml",
      "feedInfo": {
        "title": "Bailey's Elementary (PreK-2) News and Announcements - Recent Updates",
        "description": "Bailey's Elementary (PreK-2) News and Announcements - Recent Updates",
        "link": "http://www.fcps.edu/index.shtml"
      }
    },
    {
      "id": "NjU4NjgxODI=",
      "title": "This Week in Athletics",
      "link": "https://content.govdelivery.com/accounts/VAEDUFCPS/bulletins/3ed1196",
      "description": "\n        \n\n\n  \n\n\n\n\n\n\n\n<p><a></a>Having trouble viewing this email? <a href=\"https://content.govdelivery.com/accounts/VAEDUFCPS/bulletins/3ed1196\">View it as a Web page</a>.</p>\n\n\n\n\n\n\n\n\n\n\n\n<a href=\"https://herndonhs.fcps.edu/?utm_campaign+=&amp;utm_medium=email&amp;utm_source=govdelivery\" target=\"_bl...",
      "pubDate": "Fri, 08 Aug 2025 17:00:16 -0500",
      "timestamp": 1754690416000,
      "feedName": "Herndon High School",
      "category": "Herndon High School",
      "feedSource": "http://www.fcps.edu/index.shtml",
      "feedInfo": {
        "title": "Herndon High School News and Announcements - Recent Updates",
        "description": "Herndon High School News and Announcements",
        "link": "http://www.fcps.edu/index.shtml"
      }
    },
    {
      "id": "NjU4NzEwMzM=",
      "title": "The Westbriar Weekly",
      "link": "https://content.govdelivery.com/accounts/VAEDUFCPS/bulletins/3ed1cb9",
      "description": "\n        \n\n\n  \n\n\n\n\n\n\n\n<p><a></a>Having trouble viewing this email? <a href=\"https://content.govdelivery.com/accounts/VAEDUFCPS/bulletins/3ed1cb9\">View it as a Web page</a>.</p>\n\n\n\n\n\n\n\n\n\n\n\n<a href=\"https://westbriares.fcps.edu/?utm_campaign+=&amp;utm_medium=email&amp;utm_source=govdelivery\" target=\"_...",
      "pubDate": "Fri, 08 Aug 2025 16:30:16 -0500",
      "timestamp": 1754688616000,
      "feedName": "Westbriar Elementary School",
      "category": "Westbriar Elementary School",
      "feedSource": "http://www.fcps.edu/index.shtml",
      "feedInfo": {
        "title": "Westbriar Elementary School News and Announcements - Recent Updates",
        "description": "Westbriar Elementary School News and announcements",
        "link": "http://www.fcps.edu/index.shtml"
      }
    },
    {
      "id": "NjU4NzA1MDI=",
      "title": "Woodburn Newsletter - August 8th - Summer Update #3",
      "link": "https://content.govdelivery.com/accounts/VAEDUFCPS/bulletins/3ed1aa6",
      "description": "\n        \n\n\n  \n\n\n\n\n\n\n\n<p><a></a>Having trouble viewing this email? <a href=\"https://content.govdelivery.com/accounts/VAEDUFCPS/bulletins/3ed1aa6\">View it as a Web page</a>.</p>\n\n\n\n\n\n\n\n\n\n\n\n<a href=\"https://woodburnes.fcps.edu/?utm_content=&amp;utm_medium=email&amp;utm_name=&amp;utm_source=govdelivery...",
      "pubDate": "Fri, 08 Aug 2025 16:30:13 -0500",
      "timestamp": 1754688613000,
      "feedName": "Woodburn Elementary School",
      "category": "Woodburn Elementary School",
      "feedSource": "https://public.govdelivery.com/topics/Woodburn_Elementary_school_News_and_Announcements/feed.rss",
      "feedInfo": {
        "title": "Woodburn Elementary School News and announcements - Recent Updates",
        "description": "Woodburn Elementary School News and announcements",
        "link": "https://public.govdelivery.com/topics/Woodburn_Elementary_school_News_and_Announcements/feed.rss"
      }
    },
    {
      "id": "NjU4NjU4ODU=",
      "title": "Laurel Ridge Newsletter 08/08/2025",
      "link": "https://content.govdelivery.com/accounts/VAEDUFCPS/bulletins/3ed089d",
      "description": "\n        \n\n\n  \n\n\n\n\n\n\n\n<p><a></a>Having trouble viewing this email? <a href=\"https://content.govdelivery.com/accounts/VAEDUFCPS/bulletins/3ed089d\">View it as a Web page</a>.</p>\n\n\n\n\n\n\n\n\n\n\n\n<a href=\"http://www2.fcps.edu/LaurelRidgeES/?utm_campaign+=&amp;utm_medium=email&amp;utm_source=govdelivery\" tar...",
      "pubDate": "Fri, 08 Aug 2025 16:30:12 -0500",
      "timestamp": 1754688612000,
      "feedName": "Laurel Ridge Elementary School",
      "category": "Laurel Ridge Elementary School",
      "feedSource": "http://www.fcps.edu/index.shtml",
      "feedInfo": {
        "title": "Laurel Ridge Elementary School News and announcements - Recent Updates",
        "description": "Laurel Ridge Elementary School News and announcements",
        "link": "http://www.fcps.edu/index.shtml"
      }
    },
    {
      "id": "NjU4NzA1MDg=",
      "title": "CES Family Connection - See you next week!",
      "link": "https://content.govdelivery.com/accounts/VAEDUFCPS/bulletins/3ed1aac",
      "description": "\n        \n\n\n  \n\n\n\n\n\n\n\n<p><a></a>Having trouble viewing this email? <a href=\"https://content.govdelivery.com/accounts/VAEDUFCPS/bulletins/3ed1aac\">View it as a Web page</a>.</p>\n\n\n\n\n\n\n\n\n\n\n\n<a href=\"https://centrevillees.fcps.edu/?utm_campaign+=&amp;utm_medium=email&amp;utm_source=govdelivery\" target=...",
      "pubDate": "Fri, 08 Aug 2025 16:24:14 -0500",
      "timestamp": 1754688254000,
      "feedName": "Centreville Elementary School",
      "category": "Centreville Elementary School",
      "feedSource": "http://www.fcps.edu/index.shtml",
      "feedInfo": {
        "title": "Centreville Elementary School News and announcements - Recent Updates",
        "description": "Centreville Elementary School News and announcements",
        "link": "http://www.fcps.edu/index.shtml"
      }
    },
    {
      "id": "NjU4MjMxODE=",
      "title": "Welcome to the 2025-2026 School Year",
      "link": "https://content.govdelivery.com/accounts/VAEDUFCPS/bulletins/3ec61cd",
      "description": "\n        \n\n\n  \n\n\n\n\n\n\n\n\n\n\n\n\n\n\n\n\n\n\n\n<a href=\"https://fairviewes.fcps.edu/?utm_campaign+=&amp;utm_medium=email&amp;utm_source=govdelivery\" target=\"_blank\"></a>\n\n\n\n\n\n\n\n\n\n\n\n\n\n\n\n\n\n\n<a href=\"https://fairviewes.fcps.edu/aggregator/sources/1?utm_campaign+=&amp;utm_medium=email&amp;utm_source=govdelivery#moda...",
      "pubDate": "Fri, 08 Aug 2025 16:23:17 -0500",
      "timestamp": 1754688197000,
      "feedName": "Fairview Elementary School",
      "category": "Fairview Elementary School",
      "feedSource": "http://www.fcps.edu/index.shtml",
      "feedInfo": {
        "title": "Fairview Elementary School News and Announcements - Recent Updates",
        "description": "Fairview Elementary School News and announcements",
        "link": "http://www.fcps.edu/index.shtml"
      }
    },
    {
      "id": "NjU4MDI0NzE=",
      "title": "August 8 Family Newsletter",
      "link": "https://content.govdelivery.com/accounts/VAEDUFCPS/bulletins/3ec10e7",
      "description": "\n        \n\n\n  \n\n\n\n\n\n\n\n<p><a></a>Having trouble viewing this email? <a href=\"https://content.govdelivery.com/accounts/VAEDUFCPS/bulletins/3ec10e7\">View it as a Web page</a>.</p>\n\n\n\n\n\n\n\n\n\n\n\n<a href=\"http://www2.fcps.edu/UnionMillES/?utm_campaign+=&amp;utm_medium=email&amp;utm_source=govdelivery\" targe...",
      "pubDate": "Fri, 08 Aug 2025 16:09:21 -0500",
      "timestamp": 1754687361000,
      "feedName": "Union Mill Elementary School",
      "category": "Union Mill Elementary School",
      "feedSource": "http://www.fcps.edu/index.shtml",
      "feedInfo": {
        "title": "Union Mill Elementary School News and announcements - Recent Updates",
        "description": "Union Mill Elementary School News and announcements",
        "link": "http://www.fcps.edu/index.shtml"
      }
    },
    {
      "id": "NjU4NzAyMDA=",
      "title": "GUNSTON GAZETTE",
      "link": "https://content.govdelivery.com/accounts/VAEDUFCPS/bulletins/3ed1978",
      "description": "\n        \n\n\n  \n\n\n\n\n\n\n\n\n\n\n\n\n\n\n\n\n\n\n\n<a href=\"https://gunstones.fcps.edu?utm_content=&amp;utm_medium=email&amp;utm_name=&amp;utm_source=govdelivery&amp;utm_term=\" target=\"_blank\"></a>\n\n\n\n\n\n\n\n\n\n\n\n\n\n\n\n\n<p><a href=\"https://gunstones.fcps.edu/aggregator/sources/1?utm_content=&amp;utm_medium=email&amp;utm_n...",
      "pubDate": "Fri, 08 Aug 2025 16:02:34 -0500",
      "timestamp": 1754686954000,
      "feedName": "Gunston Elementary School",
      "category": "Gunston Elementary School",
      "feedSource": "http://www.fcps.edu/index.shtml",
      "feedInfo": {
        "title": "Gunston Elementary School News and announcements - Recent Updates",
        "description": "Gunston Elementary School News and announcements",
        "link": "http://www.fcps.edu/index.shtml"
      }
    },
    {
      "id": "NjU3OTA3MDc=",
      "title": "Bonnie Brae ES: Family Newsletter (Aug. 8)",
      "link": "https://content.govdelivery.com/accounts/VAEDUFCPS/bulletins/3ebe2f3",
      "description": "\n        \n\n\n  \n\n\n\n\n\n\n\n<p><a></a>Having trouble viewing this email? <a href=\"https://content.govdelivery.com/accounts/VAEDUFCPS/bulletins/3ebe2f3\">View it as a Web page</a>.</p>\n\n\n\n\n\n\n\n\n\n\n\n<a href=\"https://bonniebraees.fcps.edu/?utm_campaign+=&amp;utm_medium=email&amp;utm_source=govdelivery\" target=\"...",
      "pubDate": "Fri, 08 Aug 2025 16:00:16 -0500",
      "timestamp": 1754686816000,
      "feedName": "Bonnie Brae Elementary School",
      "category": "Bonnie Brae Elementary School",
      "feedSource": "http://www.fcps.edu/index.shtml",
      "feedInfo": {
        "title": "Bonnie Brae News and Announcements",
        "description": "Bonnie Brae Elementary School News and announcements",
        "link": "http://www.fcps.edu/index.shtml"
      }
    },
    {
      "id": "NjU4NjU3MzA=",
      "title": "Cardinal Connection: August 8, 2025",
      "link": "https://content.govdelivery.com/accounts/VAEDUFCPS/bulletins/3ed0802",
      "description": "\n        \n\n\n  \n\n\n\n\n\n\n\n<p><a></a>Having trouble viewing this email? <a href=\"https://content.govdelivery.com/accounts/VAEDUFCPS/bulletins/3ed0802\">View it as a Web page</a>.</p>\n\n\n\n\n\n\n\n\n\n\n\n<a href=\"https://cunninghamparkes.fcps.edu/?utm_campaign+=&amp;utm_medium=email&amp;utm_source=govdelivery\" targ...",
      "pubDate": "Fri, 08 Aug 2025 16:00:16 -0500",
      "timestamp": 1754686816000,
      "feedName": "Cunningham Park Elementary School",
      "category": "Cunningham Park Elementary School",
      "feedSource": "http://www.fcps.edu/index.shtml",
      "feedInfo": {
        "title": "Cunningham Park Elementary School News - Recent Updates",
        "description": "Cunningham Park Elementary School News and announcements",
        "link": "http://www.fcps.edu/index.shtml"
      }
    },
    {
      "id": "NjU4MjgxNDA=",
      "title": "Bee Hive, August 8, 2025",
      "link": "https://content.govdelivery.com/accounts/VAEDUFCPS/bulletins/3ec752c",
      "description": "\n        \n\n\n  \n\n\n\n\n\n\n\n<p><a></a>Having trouble viewing this email? <a href=\"https://content.govdelivery.com/accounts/VAEDUFCPS/bulletins/3ec752c\">View it as a Web page</a>.</p>\n\n\n\n\n\n\n\n\n\n\n\n<a href=\"https://herndones.fcps.edu/?utm_campaign+=&amp;utm_medium=email&amp;utm_source=govdelivery\" target=\"_bl...",
      "pubDate": "Fri, 08 Aug 2025 16:00:16 -0500",
      "timestamp": 1754686816000,
      "feedName": "Herndon Elementary School",
      "category": "Herndon Elementary School",
      "feedSource": "http://www.fcps.edu/index.shtml",
      "feedInfo": {
        "title": "Herndon Elementary School News and announcements - Recent Updates",
        "description": "Herndon Elementary School News and announcements",
        "link": "http://www.fcps.edu/index.shtml"
      }
    },
    {
      "id": "NjU4NzExNzE=",
      "title": "Kilmer MS Newsletter - August 8, 2025",
      "link": "https://content.govdelivery.com/accounts/VAEDUFCPS/bulletins/3ed1d43",
      "description": "\n        \n\n\n  \n\n\n\n\n\n\n\n<p><a></a>Having trouble viewing this email? <a href=\"https://content.govdelivery.com/accounts/VAEDUFCPS/bulletins/3ed1d43\">View it as a Web page</a>.</p>\n\n\n\n\n\n\n\n\n\n\n\n<a href=\"https://kilmerms.fcps.edu/?utm_campaign+=&amp;utm_medium=email&amp;utm_source=govdelivery\" target=\"_bla...",
      "pubDate": "Fri, 08 Aug 2025 15:58:53 -0500",
      "timestamp": 1754686733000,
      "feedName": "Kilmer Middle School",
      "category": "Kilmer Middle School",
      "feedSource": "http://www.fcps.edu/index.shtml",
      "feedInfo": {
        "title": "Kilmer Middle School News and announcements - Recent Updates",
        "description": "Kilmer Middle School News and announcements",
        "link": "http://www.fcps.edu/index.shtml"
      }
    },
    {
      "id": "NjU4NzAzODA=",
      "title": "Daniels Run ES- August 8, 2025",
      "link": "https://content.govdelivery.com/accounts/VAEDUFCPS/bulletins/3ed1a2c",
      "description": "\n        \n\n\n  \n\n\n\n\n\n\n\n<p><a></a>Having trouble viewing this email? <a href=\"https://content.govdelivery.com/accounts/VAEDUFCPS/bulletins/3ed1a2c\">View it as a Web page</a>.</p>\n\n\n\n\n\n\n\n\n\n\n\n<a href=\"https://danielsrunes.fcps.edu/?utm_campaign+=&amp;utm_medium=email&amp;utm_source=govdelivery\" target=\"...",
      "pubDate": "Fri, 08 Aug 2025 15:58:19 -0500",
      "timestamp": 1754686699000,
      "feedName": "Daniels Run Elementary School",
      "category": "Daniels Run Elementary School",
      "feedSource": "http://www.fcps.edu/index.shtml",
      "feedInfo": {
        "title": "Daniels Run Elementary School News and announcements - Recent Updates",
        "description": "Daniels Run Elementary School News and announcements",
        "link": "http://www.fcps.edu/index.shtml"
      }
    },
    {
      "id": "NjU4Njk5OTQ=",
      "title": "News You Choose 8/8/2025",
      "link": "https://content.govdelivery.com/accounts/VAEDUFCPS/bulletins/3ed18aa",
      "description": "\n        \n\n\n  \n\n\n\n\n\n\n\n<p><a></a>Having trouble viewing this email? <a href=\"https://content.govdelivery.com/accounts/VAEDUFCPS/bulletins/3ed18aa\">View it as a Web page</a>.</p>\n\n\n\n\n\n\n\n\n\n\n\n<a href=\"http://www2.fcps.edu/HuntValleyES/?utm_campaign+=&amp;utm_medium=email&amp;utm_source=govdelivery\" targ...",
      "pubDate": "Fri, 08 Aug 2025 15:47:13 -0500",
      "timestamp": 1754686033000,
      "feedName": "Hunt Valley Elementary School",
      "category": "Hunt Valley Elementary School",
      "feedSource": "http://www.fcps.edu/index.shtml",
      "feedInfo": {
        "title": "Hunt Valley Elementary School News and announcements - Recent Updates",
        "description": "Hunt Valley Elementary School News and announcements",
        "link": "http://www.fcps.edu/index.shtml"
      }
    },
    {
      "id": "NjU4NjE1MzE=",
      "title": "08/08/2025 Panther Press",
      "link": "https://content.govdelivery.com/accounts/VAEDUFCPS/bulletins/3ecf79b",
      "description": "\n        \n\n\n  \n\n\n\n\n\n\n\n<p><a></a>Having trouble viewing this email? <a href=\"https://content.govdelivery.com/accounts/VAEDUFCPS/bulletins/3ecf79b\">View it as a Web page</a>.</p>\n\n\n\n\n\n\n\n\n\n\n\n<a href=\"http://www2.fcps.edu/SpringHillES/?utm_campaign+=&amp;utm_medium=email&amp;utm_source=govdelivery\" targ...",
      "pubDate": "Fri, 08 Aug 2025 15:42:45 -0500",
      "timestamp": 1754685765000,
      "feedName": "Spring Hill Elementary School",
      "category": "Spring Hill Elementary School",
      "feedSource": "http://www.fcps.edu/index.shtml",
      "feedInfo": {
        "title": "Spring Hill Elementary School News and Announcements - Recent Updates",
        "description": "Spring Hill Elementary School News and announcements",
        "link": "http://www.fcps.edu/index.shtml"
      }
    },
    {
      "id": "NjU4MjU3NjM=",
      "title": "Bear Bulletin - Volume 2",
      "link": "https://content.govdelivery.com/accounts/VAEDUFCPS/bulletins/3ec6be3",
      "description": "\n        \n\n\n  \n\n\n\n\n\n\n\n<p><a></a>Having trouble viewing this email? <a href=\"https://content.govdelivery.com/accounts/VAEDUFCPS/bulletins/3ec6be3\">View it as a Web page</a>.</p>\n\n\n\n\n\n\n\n\n\n\n\n<a href=\"https://oldecreekes.fcps.edu/?utm_campaign+=&amp;utm_medium=email&amp;utm_source=govdelivery\" target=\"_...",
      "pubDate": "Fri, 08 Aug 2025 15:39:10 -0500",
      "timestamp": 1754685550000,
      "feedName": "Olde Creek Elementary School",
      "category": "Olde Creek Elementary School",
      "feedSource": "http://www.fcps.edu/index.shtml",
      "feedInfo": {
        "title": "Olde Creek Elementary School News and announcements - Recent Updates",
        "description": "Olde Creek Elementary School News and announcements",
        "link": "http://www.fcps.edu/index.shtml"
      }
    }
  ],
  "hasNext": true,
  "hasPrev": true
}