{
  "page": 26,
  "totalPages": 268,
  "totalItems": 5354,
  "itemsPerPage": 20,
  "items": [
    {
      "id": "NjU3Mzc1Mzk=",
      "title": "Kiss and Ride Registration for 2024-2025 School Year by 8/13/25",
      "link": "https://content.govdelivery.com/accounts/VAEDUFCPS/bulletins/3eb1343",
      "description": "\n        \n\n\n  \n\n\n\n\n\n\n\n<p><a></a>Having trouble viewing this email? <a href=\"https://content.govdelivery.com/accounts/VAEDUFCPS/bulletins/3eb1343\">View it as a Web page</a>.</p>\n\n\n\n\n\n\n\n\n\n\n\n<a href=\"https://florises.fcps.edu/?utm_content=&amp;utm_medium=email&amp;utm_name=&amp;utm_source=govdelivery&a...",
      "pubDate": "Mon, 28 Jul 2025 08:00:22 -0500",
      "timestamp": 1753707622000,
      "feedName": "Floris Elementary School",
      "category": "Floris Elementary School",
      "feedSource": "http://www.fcps.edu/index.shtml",
      "feedInfo": {
        "title": "Floris Friday Message",
        "description": "Floris Elementary School News and announcements",
        "link": "http://www.fcps.edu/index.shtml"
      }
    },
    {
      "id": "NjU3MzYzMzc=",
      "title": "White Oaks' Summer Cookout!",
      "link": "https://content.govdelivery.com/accounts/VAEDUFCPS/bulletins/3eb0e91",
      "description": "\n        \n\n\n  \n\n\n\n\n\n\n\n<p><a></a>Having trouble viewing this email? <a href=\"https://content.govdelivery.com/accounts/VAEDUFCPS/bulletins/3eb0e91\">View it as a Web page</a>.</p>\n\n\n\n\n\n\n\n\n\n\n\n<a href=\"https://whiteoakses.fcps.edu?utm_campaign+=&amp;utm_medium=email&amp;utm_source=govdelivery\" target=\"_b...",
      "pubDate": "Mon, 28 Jul 2025 08:00:21 -0500",
      "timestamp": 1753707621000,
      "feedName": "White Oaks Elementary School",
      "category": "White Oaks Elementary School",
      "feedSource": "http://www.fcps.edu/index.shtml",
      "feedInfo": {
        "title": "White Oaks Elementary School News and Announcements - Recent Updates",
        "description": "White Oaks Elementary School News and Announcements",
        "link": "http://www.fcps.edu/index.shtml"
      }
    },
    {
      "id": "NjU3NTMzNjE=",
      "title": "The Wildcat Weekly - July 28, 2025",
      "link": "https://content.govdelivery.com/accounts/VAEDUFCPS/bulletins/3eb5111",
      "description": "\n        \n\n\n  \n\n\n\n\n\n\n\n<p><a></a>Having trouble viewing this email? <a href=\"https://content.govdelivery.com/accounts/VAEDUFCPS/bulletins/3eb5111\">View it as a Web page</a>.</p>\n\n\n\n\n\n\n\n\n\n\n\n<a href=\"https://centrevillehs.fcps.edu?utm_campaign+=&amp;utm_medium=email&amp;utm_source=govdelivery\" target=\"...",
      "pubDate": "Mon, 28 Jul 2025 07:30:15 -0500",
      "timestamp": 1753705815000,
      "feedName": "Centreville High School",
      "category": "Centreville High School",
      "feedSource": "http://www.fcps.edu/index.shtml",
      "feedInfo": {
        "title": "Centreville High School News and announcements - Recent Updates",
        "description": "Centreville High School News and announcements",
        "link": "http://www.fcps.edu/index.shtml"
      }
    },
    {
      "id": "NjU3NTQwNTA=",
      "title": "McNair Elementary School Weekly Newsletter July 28, 2025",
      "link": "https://content.govdelivery.com/accounts/VAEDUFCPS/bulletins/3eb53c2",
      "description": "\n        \n\n\n  \n\n\n\n\n\n\n\n<p><a></a>Having trouble viewing this email? <a href=\"https://content.govdelivery.com/accounts/VAEDUFCPS/bulletins/3eb53c2\">View it as a Web page</a>.</p>\n\n\n\n\n\n\n\n\n\n\n\n<a href=\"http://www2.fcps.edu/McNairES/?utm_campaign+=&amp;utm_medium=email&amp;utm_source=govdelivery\" target=\"...",
      "pubDate": "Mon, 28 Jul 2025 06:00:15 -0500",
      "timestamp": 1753700415000,
      "feedName": "McNair Lower Elementary School",
      "category": "McNair Lower Elementary School",
      "feedSource": "http://www.fcps.edu/index.shtml",
      "feedInfo": {
        "title": "McNair Elementary (Grades Prek-2) News and Announcements - Recent Updates",
        "description": "McNair Elementary (Grades Prek-2) News and Announcements - Recent Updates",
        "link": "http://www.fcps.edu/index.shtml"
      }
    },
    {
      "id": "NjU3NTQwNTA=",
      "title": "McNair Elementary School Weekly Newsletter July 28, 2025",
      "link": "https://content.govdelivery.com/accounts/VAEDUFCPS/bulletins/3eb53c2",
      "description": "\n        \n\n\n  \n\n\n\n\n\n\n\n<p><a></a>Having trouble viewing this email? <a href=\"https://content.govdelivery.com/accounts/VAEDUFCPS/bulletins/3eb53c2\">View it as a Web page</a>.</p>\n\n\n\n\n\n\n\n\n\n\n\n<a href=\"http://www2.fcps.edu/McNairES/?utm_campaign+=&amp;utm_medium=email&amp;utm_source=govdelivery\" target=\"...",
      "pubDate": "Mon, 28 Jul 2025 06:00:15 -0500",
      "timestamp": 1753700415000,
      "feedName": "McNair Upper Elementary School",
      "category": "McNair Upper Elementary School",
      "feedSource": "http://www.fcps.edu/index.shtml",
      "feedInfo": {
        "title": "McNair Upper (Grades 3-6) News and Announcements - Recent Updates",
        "description": "McNair Upper (Grades 3-6) News and Announcements - Recent Updates",
        "link": "http://www.fcps.edu/index.shtml"
      }
    },
    {
      "id": "NjU2OTMwMzk=",
      "title": "Welcome Back Bobcats",
      "link": "https://content.govdelivery.com/accounts/VAEDUFCPS/bulletins/3ea656f",
      "description": "\n        \n\n\n  \n\n\n\n\n\n\n\n<p><a></a>Having trouble viewing this email? <a href=\"https://content.govdelivery.com/accounts/VAEDUFCPS/bulletins/3ea656f\">View it as a Web page</a>.</p>\n\n\n\n\n\n\n\n\n\n\n\n<a href=\"https://pinespringes.fcps.edu/?utm_campaign+=&amp;utm_medium=email&amp;utm_source=govdelivery\" target=\"...",
      "pubDate": "Sun, 27 Jul 2025 17:59:59 -0500",
      "timestamp": 1753657199000,
      "feedName": "Pine Spring Elementary School",
      "category": "Pine Spring Elementary School",
      "feedSource": "http://www.fcps.edu/index.shtml",
      "feedInfo": {
        "title": "Pine Spring Elementary School News and announcements - Recent Updates",
        "description": "Pine Spring Elementary School News and announcements",
        "link": "http://www.fcps.edu/index.shtml"
      }
    },
    {
      "id": "NjU3NDIxNzM=",
      "title": "Message from the Principal",
      "link": "https://content.govdelivery.com/accounts/VAEDUFCPS/bulletins/3eb255d",
      "description": "\n        \n\n\n  \n\n\n\n\n\n\n\n<p><a></a>Having trouble viewing this email? <a href=\"https://content.govdelivery.com/accounts/VAEDUFCPS/bulletins/3eb255d\">View it as a Web page</a>.</p>\n\n\n\n\n\n\n\n\n\n\n\n<a href=\"http://langleyhs.fcps.edu/?utm_content=&amp;utm_medium=email&amp;utm_name=&amp;utm_source=govdelivery&a...",
      "pubDate": "Sun, 27 Jul 2025 16:00:13 -0500",
      "timestamp": 1753650013000,
      "feedName": "Langley High School",
      "category": "Langley High School",
      "feedSource": "http://www.fcps.edu/index.shtml",
      "feedInfo": {
        "title": "Langley HS News and Announcements - Recent Updates",
        "description": "Langley HS News and Announcements",
        "link": "http://www.fcps.edu/index.shtml"
      }
    },
    {
      "id": "NjU3NDExNzc=",
      "title": "Panther Press Summer Edition! July 27, 2025",
      "link": "https://content.govdelivery.com/accounts/VAEDUFCPS/bulletins/3eb2179",
      "description": "\n        \n\n\n  \n\n\n\n\n\n\n\n<p><a></a>Having trouble viewing this email? <a href=\"https://content.govdelivery.com/accounts/VAEDUFCPS/bulletins/3eb2179\">View it as a Web page</a>.</p>\n\n\n\n\n\n\n\n\n\n\n\n<a href=\"http://www2.fcps.edu/ParklawnES/?utm_campaign+=&amp;utm_medium=email&amp;utm_source=govdelivery\" target...",
      "pubDate": "Sun, 27 Jul 2025 13:00:11 -0500",
      "timestamp": 1753639211000,
      "feedName": "Parklawn Elementary School",
      "category": "Parklawn Elementary School",
      "feedSource": "http://www.fcps.edu/index.shtml",
      "feedInfo": {
        "title": "Panther Press - Recent Updates",
        "description": "Panther Press - Recent Updates",
        "link": "http://www.fcps.edu/index.shtml"
      }
    },
    {
      "id": "NjU3NTMwNzA=",
      "title": "REMINDER: Meet the Administrators Tomorrow Evening, 6:30 p.m.",
      "link": "https://content.govdelivery.com/accounts/VAEDUFCPS/bulletins/3eb4fee",
      "description": "\n        \n\n\n  \n\n\n\n\n\n\n\n<p><a></a>Having trouble viewing this email? <a href=\"https://content.govdelivery.com/accounts/VAEDUFCPS/bulletins/3eb4fee\">View it as a Web page</a>.</p>\n\n\n\n\n\n\n\n\n\n\n\n<a href=\"https://lanees.fcps.edu/?utm_campaign+=&amp;utm_medium=email&amp;utm_source=govdelivery\" target=\"_blank...",
      "pubDate": "Sun, 27 Jul 2025 12:11:43 -0500",
      "timestamp": 1753636303000,
      "feedName": "Lane Elementary School",
      "category": "Lane Elementary School",
      "feedSource": "http://www.fcps.edu/index.shtml",
      "feedInfo": {
        "title": "Lane Elementary School News and announcements - Recent Updates",
        "description": "Lane Elementary School News and announcements",
        "link": "http://www.fcps.edu/index.shtml"
      }
    },
    {
      "id": "NjU3NTI4NDU=",
      "title": "Annandale Community Insider - July 27",
      "link": "https://content.govdelivery.com/accounts/VAEDUFCPS/bulletins/3eb4f0d",
      "description": "\n        \n\n\n  \n\n\n\n\n\n\n\n<p><a></a>Having trouble viewing this email? <a href=\"https://content.govdelivery.com/accounts/VAEDUFCPS/bulletins/3eb4f0d\">View it as a Web page</a>.</p>\n\n\n\n\n\n\n\n\n\n\n\n<a href=\"https://annandalehs.fcps.edu/?utm_campaign+=&amp;utm_medium=email&amp;utm_source=govdelivery\" target=\"_...",
      "pubDate": "Sun, 27 Jul 2025 11:43:05 -0500",
      "timestamp": 1753634585000,
      "feedName": "Annandale High School",
      "category": "Annandale High School",
      "feedSource": "http://www.fcps.edu/index.shtml",
      "feedInfo": {
        "title": "Annandale High School News and announcements - Recent Updates",
        "description": "Annandale High School News and Announcements",
        "link": "http://www.fcps.edu/index.shtml"
      }
    },
    {
      "id": "NjU3Mzg2Mzg=",
      "title": "Weekly News From South County High School",
      "link": "https://content.govdelivery.com/accounts/VAEDUFCPS/bulletins/3eb178e",
      "description": "\n        \n\n\n  \n\n\n\n\n\n\n\n<p><a></a>Having trouble viewing this email? <a href=\"https://content.govdelivery.com/accounts/VAEDUFCPS/bulletins/3eb178e\">View it as a Web page</a>.</p>\n\n\n\n\n\n\n\n\n\n\n\n<a href=\"https://southcountyhs.fcps.edu/?utm_campaign+=&amp;utm_medium=email&amp;utm_source=govdelivery\" target=...",
      "pubDate": "Sun, 27 Jul 2025 11:40:12 -0500",
      "timestamp": 1753634412000,
      "feedName": "South County High School",
      "category": "South County High School",
      "feedSource": "http://www.fcps.edu/index.shtml",
      "feedInfo": {
        "title": "South County High School News and announcements - Recent Updates",
        "description": "South County High School News and announcements",
        "link": "http://www.fcps.edu/index.shtml"
      }
    },
    {
      "id": "NjU3NDgzODc=",
      "title": "Annandale High School Athletics/Activities",
      "link": "https://content.govdelivery.com/accounts/VAEDUFCPS/bulletins/3eb3da3",
      "description": "\n        \n\n\n  \n\n\n\n\n\n\n\n<p><a></a>Having trouble viewing this email? <a href=\"https://content.govdelivery.com/accounts/VAEDUFCPS/bulletins/3eb3da3\">View it as a Web page</a>.</p>\n\n\n\n\n\n\n\n\n\n\n\n<a href=\"https://annandalehs.fcps.edu/?utm_campaign+=&amp;utm_medium=email&amp;utm_source=govdelivery\" target=\"_...",
      "pubDate": "Sat, 26 Jul 2025 15:15:28 -0500",
      "timestamp": 1753560928000,
      "feedName": "Annandale High School",
      "category": "Annandale High School",
      "feedSource": "http://www.fcps.edu/index.shtml",
      "feedInfo": {
        "title": "Annandale High School News and announcements - Recent Updates",
        "description": "Annandale High School News and Announcements",
        "link": "http://www.fcps.edu/index.shtml"
      }
    },
    {
      "id": "NjU2ODM3MzI=",
      "title": "RVES News and Notes - July 25",
      "link": "https://content.govdelivery.com/accounts/VAEDUFCPS/bulletins/3ea4114",
      "description": "\n        \n\n\n  \n\n\n\n\n\n\n\n<p><a></a>Having trouble viewing this email? <a href=\"https://content.govdelivery.com/accounts/VAEDUFCPS/bulletins/3ea4114\">View it as a Web page</a>.</p>\n\n\n\n\n\n\n\n\n\n\n\n<a href=\"http://www2.fcps.edu/RollingValleyES/?utm_campaign+=&amp;utm_medium=email&amp;utm_source=govdelivery\" t...",
      "pubDate": "Fri, 25 Jul 2025 18:33:11 -0500",
      "timestamp": 1753486391000,
      "feedName": "Rolling Valley Elementary School",
      "category": "Rolling Valley Elementary School",
      "feedSource": "http://www.fcps.edu/index.shtml",
      "feedInfo": {
        "title": "Rolling Valley Elementary School News and announcements - Recent Updates",
        "description": "Rolling Valley Elementary School News and announcements",
        "link": "http://www.fcps.edu/index.shtml"
      }
    },
    {
      "id": "NjU3MTg1MzA=",
      "title": "From Athletics",
      "link": "https://content.govdelivery.com/accounts/VAEDUFCPS/bulletins/3eac902",
      "description": "\n        \n\n\n  \n\n\n\n\n\n\n\n<p><a></a>Having trouble viewing this email? <a href=\"https://content.govdelivery.com/accounts/VAEDUFCPS/bulletins/3eac902\">View it as a Web page</a>.</p>\n\n\n\n\n\n\n\n\n\n\n\n<a href=\"https://herndonhs.fcps.edu/?utm_campaign+=&amp;utm_medium=email&amp;utm_source=govdelivery\" target=\"_bl...",
      "pubDate": "Fri, 25 Jul 2025 17:00:13 -0500",
      "timestamp": 1753480813000,
      "feedName": "Herndon High School",
      "category": "Herndon High School",
      "feedSource": "http://www.fcps.edu/index.shtml",
      "feedInfo": {
        "title": "Herndon High School News and Announcements - Recent Updates",
        "description": "Herndon High School News and Announcements",
        "link": "http://www.fcps.edu/index.shtml"
      }
    },
    {
      "id": "NjU3MTU5MzA=",
      "title": "Woodburn Newsletter - July 25 - Summer Update #1",
      "link": "https://content.govdelivery.com/accounts/VAEDUFCPS/bulletins/3eabeda",
      "description": "\n        \n\n\n  \n\n\n\n\n\n\n\n<p><a></a>Having trouble viewing this email? <a href=\"https://content.govdelivery.com/accounts/VAEDUFCPS/bulletins/3eabeda\">View it as a Web page</a>.</p>\n\n\n\n\n\n\n\n\n\n\n\n<a href=\"https://woodburnes.fcps.edu/?utm_content=&amp;utm_medium=email&amp;utm_name=&amp;utm_source=govdelivery...",
      "pubDate": "Fri, 25 Jul 2025 16:30:14 -0500",
      "timestamp": 1753479014000,
      "feedName": "Woodburn Elementary School",
      "category": "Woodburn Elementary School",
      "feedSource": "https://public.govdelivery.com/topics/Woodburn_Elementary_school_News_and_Announcements/feed.rss",
      "feedInfo": {
        "title": "Woodburn Elementary School News and announcements - Recent Updates",
        "description": "Woodburn Elementary School News and announcements",
        "link": "https://public.govdelivery.com/topics/Woodburn_Elementary_school_News_and_Announcements/feed.rss"
      }
    },
    {
      "id": "NjU3MzczNzM=",
      "title": "Bonnie Brae ES: Family Newsletter",
      "link": "https://content.govdelivery.com/accounts/VAEDUFCPS/bulletins/3eb129d",
      "description": "\n        \n\n\n  \n\n\n\n\n\n\n\n<p><a></a>Having trouble viewing this email? <a href=\"https://content.govdelivery.com/accounts/VAEDUFCPS/bulletins/3eb129d\">View it as a Web page</a>.</p>\n\n\n\n\n\n\n\n\n\n\n\n<a href=\"https://bonniebraees.fcps.edu/?utm_campaign+=&amp;utm_medium=email&amp;utm_source=govdelivery\" target=\"...",
      "pubDate": "Fri, 25 Jul 2025 16:22:25 -0500",
      "timestamp": 1753478545000,
      "feedName": "Bonnie Brae Elementary School",
      "category": "Bonnie Brae Elementary School",
      "feedSource": "http://www.fcps.edu/index.shtml",
      "feedInfo": {
        "title": "Bonnie Brae News and Announcements",
        "description": "Bonnie Brae Elementary School News and announcements",
        "link": "http://www.fcps.edu/index.shtml"
      }
    },
    {
      "id": "NjU3MTUxNjE=",
      "title": "News You Choose-Special Edition Summer",
      "link": "https://content.govdelivery.com/accounts/VAEDUFCPS/bulletins/3eabbd9",
      "description": "\n        \n\n\n  \n\n\n\n\n\n\n\n<p><a></a>Having trouble viewing this email? <a href=\"https://content.govdelivery.com/accounts/VAEDUFCPS/bulletins/3eabbd9\">View it as a Web page</a>.</p>\n\n\n\n\n\n\n\n\n\n\n\n<a href=\"http://www2.fcps.edu/HuntValleyES/?utm_campaign+=&amp;utm_medium=email&amp;utm_source=govdelivery\" targ...",
      "pubDate": "Fri, 25 Jul 2025 15:45:14 -0500",
      "timestamp": 1753476314000,
      "feedName": "Hunt Valley Elementary School",
      "category": "Hunt Valley Elementary School",
      "feedSource": "http://www.fcps.edu/index.shtml",
      "feedInfo": {
        "title": "Hunt Valley Elementary School News and announcements - Recent Updates",
        "description": "Hunt Valley Elementary School News and announcements",
        "link": "http://www.fcps.edu/index.shtml"
      }
    },
    {
      "id": "NjU3MzYxODg=",
      "title": "Cherry Run News July 25",
      "link": "https://content.govdelivery.com/accounts/VAEDUFCPS/bulletins/3eb0dfc",
      "description": "\n        \n\n\n  \n\n\n\n\n\n\n\n<p><a></a>Having trouble viewing this email? <a href=\"https://content.govdelivery.com/accounts/VAEDUFCPS/bulletins/3eb0dfc\">View it as a Web page</a>.</p>\n\n\n\n\n\n\n\n\n\n\n\n<a href=\"https://cherryrunes.fcps.edu/?utm_campaign+=&amp;utm_medium=email&amp;utm_source=govdelivery\" target=\"_...",
      "pubDate": "Fri, 25 Jul 2025 15:41:15 -0500",
      "timestamp": 1753476075000,
      "feedName": "Cherry Run Elementary School",
      "category": "Cherry Run Elementary School",
      "feedSource": "http://www.fcps.edu/index.shtml",
      "feedInfo": {
        "title": "Cherry Run Elementary School News and announcements - Recent Updates",
        "description": "Cherry Run Elementary School News and announcements",
        "link": "http://www.fcps.edu/index.shtml"
      }
    },
    {
      "id": "NjU3MjU0MjQ=",
      "title": "Bulldog Buzz 07/25/25",
      "link": "https://content.govdelivery.com/accounts/VAEDUFCPS/bulletins/3eae3f0",
      "description": "\n        \n\n\n  \n\n\n\n\n\n\n\n<p><a></a>Having trouble viewing this email? <a href=\"https://content.govdelivery.com/accounts/VAEDUFCPS/bulletins/3eae3f0\">View it as a Web page</a>.</p>\n\n\n\n\n\n\n\n\n\n\n\n<a href=\"http://www2.fcps.edu/BucknellES/?utm_campaign+=&amp;utm_medium=email&amp;utm_source=govdelivery\" target...",
      "pubDate": "Fri, 25 Jul 2025 15:38:00 -0500",
      "timestamp": 1753475880000,
      "feedName": "Bucknell Elementary School",
      "category": "Bucknell Elementary School",
      "feedSource": "http://live-fcps-bucknell-es.pantheonsite.io/newsfeed",
      "feedInfo": {
        "title": "Bucknell Elementary School News and Announcements",
        "description": "Bucknell Elementary School News and announcements",
        "link": "http://live-fcps-bucknell-es.pantheonsite.io/newsfeed"
      }
    },
    {
      "id": "NjU3NDAzOTQ=",
      "title": "Ravensworth ES- July 25th Summer Edition",
      "link": "https://content.govdelivery.com/accounts/VAEDUFCPS/bulletins/3eb1e6a",
      "description": "\n        \n\n\n  \n\n\n\n\n\n\n\n<p><a></a>Having trouble viewing this email? <a href=\"https://content.govdelivery.com/accounts/VAEDUFCPS/bulletins/3eb1e6a\">View it as a Web page</a>.</p>\n\n\n\n\n\n\n\n\n\n\n\n<a href=\"http://www2.fcps.edu/RavensworthES/?utm_campaign+=&amp;utm_medium=email&amp;utm_source=govdelivery\" tar...",
      "pubDate": "Fri, 25 Jul 2025 15:35:12 -0500",
      "timestamp": 1753475712000,
      "feedName": "Ravensworth Elementary School",
      "category": "Ravensworth Elementary School",
      "feedSource": "http://www.fcps.edu/index.shtml",
      "feedInfo": {
        "title": "Ravensworth Elementary School News and announcements - Recent Updates",
        "description": "Ravensworth Elementary School News and announcements",
        "link": "http://www.fcps.edu/index.shtml"
      }
    }
  ],
  "hasNext": true,
  "hasPrev": true
}