{
  "page": 260,
  "totalPages": 268,
  "totalItems": 5354,
  "itemsPerPage": 20,
  "items": [
    {
      "id": "NDgwNjI3MDk=",
      "title": "FCPS Wellness Newsletter Summer 2021",
      "link": "https://content.govdelivery.com/accounts/VAEDUFCPS/bulletins/2dd60f5",
      "description": "\n        \n\n\n  \n\n\n\n\n\n\n\n\n\n\n\n\n\n\n\n\n\n\n\n\n\n\n\n\n\n\n\n\n\n\n\n\n\n\n\n<p><strong>Summer 2021</strong></p>\n<p> </p>\nFCPS Wellness Newsletter\n<strong>June is #NationalSafetyMonth</strong>\n<p>As school begins to wind down, the start of summer can be a perfect time to teach students to prepare for possible emergency situat...",
      "pubDate": "Wed, 09 Jun 2021 10:27:15 -0500",
      "timestamp": 1623252435000,
      "feedName": "FCPS Wellness Newsletter",
      "category": "FCPS Wellness Newsletter",
      "feedSource": "http://www.fcps.edu/",
      "feedInfo": {
        "title": "FCPS Wellness - Recent Updates",
        "description": "FCPS Wellness - Recent Updates",
        "link": "http://www.fcps.edu/"
      }
    },
    {
      "id": "NDg0MTAxMjE=",
      "title": "FCPS is awarded Safe Routes to School grant for the 8th year",
      "link": "https://content.govdelivery.com/accounts/VAEDUFCPS/bulletins/2e2ae09",
      "description": "\n        \n\n\n  \n\n\n\n\n\n\n\n<p><a></a>Having trouble viewing this email? <a href=\"https://content.govdelivery.com/accounts/VAEDUFCPS/bulletins/2e2ae09\">View it as a Web page</a>.</p>\n\n\n\n\n\n\n\n\n\n\n\n<a href=\"https://www.fcps.edu/resources/safety-and-transportation/transportation-services/safe-routes-school-srt...",
      "pubDate": "Mon, 07 Jun 2021 12:33:31 -0500",
      "timestamp": 1623087211000,
      "feedName": "FCPS Safe Routes to School",
      "category": "FCPS Safe Routes to School",
      "feedSource": "http://www.fcps.edu/",
      "feedInfo": {
        "title": "Safe Routes to School - Recent Updates",
        "description": "Safe Routes to School - Recent Updates",
        "link": "http://www.fcps.edu/"
      }
    },
    {
      "id": "NDg0MDU3OTg=",
      "title": "Sandburg KIT 6.4.21",
      "link": "https://content.govdelivery.com/accounts/VAEDUFCPS/bulletins/2e29d26",
      "description": "\n        \n\n\n  \n\n\n\n\n\n\n\n\n\n\n\n\n\n\n\n\n\n\n\n<a href=\"http://www2.fcps.edu/SandburgMS/?utm_content=&amp;utm_medium=email&amp;utm_name=&amp;utm_source=govdelivery&amp;utm_term=\" target=\"_blank\"></a>\n\n\n\n\n\n\n\n\n\n\n\n\n\n\n\n\n\n  \n    \n\n\n<p>Stay up to date with all that is happening at Sandburg MS.  <a href=\"https://sandbu...",
      "pubDate": "Fri, 04 Jun 2021 14:30:22 -0500",
      "timestamp": 1622835022000,
      "feedName": "Sandburg Middle School",
      "category": "Sandburg Middle School",
      "feedSource": "http://www.fcps.edu/index.shtml",
      "feedInfo": {
        "title": "Sandburg Middle School News and Announcements - Recent Updates",
        "description": "Sandburg Middle School News and announcements",
        "link": "http://www.fcps.edu/index.shtml"
      }
    },
    {
      "id": "NDgzNzYyNTI=",
      "title": "Returning Items and Virtual Art Show!",
      "link": "https://content.govdelivery.com/accounts/VAEDUFCPS/bulletins/2e229bc",
      "description": "\n        \n\n\n  \n\n\n\n\n\n\n\n<p><a></a>Having trouble viewing this email? <a href=\"https://content.govdelivery.com/accounts/VAEDUFCPS/bulletins/2e229bc\">View it as a Web page</a>.</p>\n\n\n\n\n\n\n\n\n\n\n\n<a href=\"https://grahamroades.fcps.edu/?utm_content=&amp;utm_medium=email&amp;utm_name=&amp;utm_source=govdelive...",
      "pubDate": "Wed, 02 Jun 2021 16:00:15 -0500",
      "timestamp": 1622667615000,
      "feedName": "Graham Road Elementary School",
      "category": "Graham Road Elementary School",
      "feedSource": "http://www.fcps.edu/index.shtml",
      "feedInfo": {
        "title": "Graham Road Elementary School News and announcements - Recent Updates",
        "description": "Graham Road Elementary School News and announcements",
        "link": "http://www.fcps.edu/index.shtml"
      }
    },
    {
      "id": "NDgzNDg2NTY=",
      "title": "Sandburg KIT 5/30/21",
      "link": "https://content.govdelivery.com/accounts/VAEDUFCPS/bulletins/2e1bdf0",
      "description": "\n        \n\n\n  \n\n\n\n\n\n\n\n\n\n\n\n\n\n\n\n\n\n\n\n<a href=\"http://www2.fcps.edu/SandburgMS/?utm_content=&amp;utm_medium=email&amp;utm_name=&amp;utm_source=govdelivery&amp;utm_term=\" target=\"_blank\"></a>\n\n\n\n\n\n\n\n\n\n\n\n\n\n\n\n\n\n  \n    \n\n\n<p>Stay up to date with all that is happening at Sandburg MS.  <a href=\"https://sandbu...",
      "pubDate": "Sun, 30 May 2021 14:30:22 -0500",
      "timestamp": 1622403022000,
      "feedName": "Sandburg Middle School",
      "category": "Sandburg Middle School",
      "feedSource": "http://www.fcps.edu/index.shtml",
      "feedInfo": {
        "title": "Sandburg Middle School News and Announcements - Recent Updates",
        "description": "Sandburg Middle School News and announcements",
        "link": "http://www.fcps.edu/index.shtml"
      }
    },
    {
      "id": "NDc4Mjc0MzY=",
      "title": "Sandburg KIT 5/23/21",
      "link": "https://content.govdelivery.com/accounts/VAEDUFCPS/bulletins/2d9c9ec",
      "description": "\n        \n\n\n  \n\n\n\n\n\n\n\n\n\n\n\n\n\n\n\n\n\n\n\n<a href=\"http://www2.fcps.edu/SandburgMS/?utm_content=&amp;utm_medium=email&amp;utm_name=&amp;utm_source=govdelivery&amp;utm_term=\" target=\"_blank\"></a>\n\n\n\n\n\n\n\n\n\n\n\n\n\n\n\n\n\n  \n    \n\n\n<p>Stay up to date with all that is happening at Sandburg MS.  <a href=\"https://sandbu...",
      "pubDate": "Sun, 23 May 2021 15:40:17 -0500",
      "timestamp": 1621802417000,
      "feedName": "Sandburg Middle School",
      "category": "Sandburg Middle School",
      "feedSource": "http://www.fcps.edu/index.shtml",
      "feedInfo": {
        "title": "Sandburg Middle School News and Announcements - Recent Updates",
        "description": "Sandburg Middle School News and announcements",
        "link": "http://www.fcps.edu/index.shtml"
      }
    },
    {
      "id": "NDc3NzYyMTQ=",
      "title": "Sandburg KIT 5/14/21",
      "link": "https://content.govdelivery.com/accounts/VAEDUFCPS/bulletins/2d901d6",
      "description": "\n        \n\n\n  \n\n\n\n\n\n\n\n\n\n\n\n\n\n\n\n\n\n\n\n<a href=\"http://www2.fcps.edu/SandburgMS/?utm_content=&amp;utm_medium=email&amp;utm_name=&amp;utm_source=govdelivery&amp;utm_term=\" target=\"_blank\"></a>\n\n\n\n\n\n\n\n\n\n\n\n\n\n\n\n\n\n  \n    \n\n\n<p>Stay up to date with all that is happening at Sandburg MS.  <a href=\"https://sandbu...",
      "pubDate": "Sun, 16 May 2021 15:55:18 -0500",
      "timestamp": 1621198518000,
      "feedName": "Sandburg Middle School",
      "category": "Sandburg Middle School",
      "feedSource": "http://www.fcps.edu/index.shtml",
      "feedInfo": {
        "title": "Sandburg Middle School News and Announcements - Recent Updates",
        "description": "Sandburg Middle School News and announcements",
        "link": "http://www.fcps.edu/index.shtml"
      }
    },
    {
      "id": "NDc3ODk4MzM=",
      "title": "No in person instruction on June 8 and Laptop Returns",
      "link": "https://content.govdelivery.com/accounts/VAEDUFCPS/bulletins/2d93709",
      "description": "\n        \n\n\n  \n\n\n\n\n\n\n\n<p><a></a>Having trouble viewing this email? <a href=\"https://content.govdelivery.com/accounts/VAEDUFCPS/bulletins/2d93709\">View it as a Web page</a>.</p>\n\n\n\n\n\n\n\n\n\n\n\n<a href=\"https://grahamroades.fcps.edu/?utm_content=&amp;utm_medium=email&amp;utm_name=&amp;utm_source=govdelive...",
      "pubDate": "Sun, 16 May 2021 15:00:16 -0500",
      "timestamp": 1621195216000,
      "feedName": "Graham Road Elementary School",
      "category": "Graham Road Elementary School",
      "feedSource": "http://www.fcps.edu/index.shtml",
      "feedInfo": {
        "title": "Graham Road Elementary School News and announcements - Recent Updates",
        "description": "Graham Road Elementary School News and announcements",
        "link": "http://www.fcps.edu/index.shtml"
      }
    },
    {
      "id": "NDc2OTIxMTU=",
      "title": "Sandburg KIT 5/7/2021",
      "link": "https://content.govdelivery.com/accounts/VAEDUFCPS/bulletins/2d7b953",
      "description": "\n        \n\n\n  \n\n\n\n\n\n\n\n\n\n\n\n\n\n\n\n\n\n\n\n<a href=\"http://www2.fcps.edu/SandburgMS/?utm_content=&amp;utm_medium=email&amp;utm_name=&amp;utm_source=govdelivery&amp;utm_term=\" target=\"_blank\"></a>\n\n\n\n\n\n\n\n\n\n\n\n\n\n\n\n\n\n  \n    \n\n\n<p>Stay up to date with all that is happening at Sandburg MS.  <a href=\"https://sandbu...",
      "pubDate": "Fri, 07 May 2021 14:00:23 -0500",
      "timestamp": 1620414023000,
      "feedName": "Sandburg Middle School",
      "category": "Sandburg Middle School",
      "feedSource": "http://www.fcps.edu/index.shtml",
      "feedInfo": {
        "title": "Sandburg Middle School News and Announcements - Recent Updates",
        "description": "Sandburg Middle School News and announcements",
        "link": "http://www.fcps.edu/index.shtml"
      }
    },
    {
      "id": "NDc1NjAxMjM=",
      "title": "Sandburg KIT 5/3/21",
      "link": "https://content.govdelivery.com/accounts/VAEDUFCPS/bulletins/2d5b5bb",
      "description": "\n        \n\n\n  \n\n\n\n\n\n\n\n\n\n\n\n\n\n\n\n\n\n\n\n<a href=\"http://www2.fcps.edu/SandburgMS/?utm_content=&amp;utm_medium=email&amp;utm_name=&amp;utm_source=govdelivery&amp;utm_term=\" target=\"_blank\"></a>\n\n\n\n\n\n\n\n\n\n\n\n\n\n\n\n\n\n  \n    \n\n\n<p>Stay up to date with all that is happening at Sandburg MS.  <a href=\"https://sandbu...",
      "pubDate": "Mon, 03 May 2021 14:30:19 -0500",
      "timestamp": 1620070219000,
      "feedName": "Sandburg Middle School",
      "category": "Sandburg Middle School",
      "feedSource": "http://www.fcps.edu/index.shtml",
      "feedInfo": {
        "title": "Sandburg Middle School News and Announcements - Recent Updates",
        "description": "Sandburg Middle School News and announcements",
        "link": "http://www.fcps.edu/index.shtml"
      }
    },
    {
      "id": "NDc2NDI5MTg=",
      "title": "Happy Teacher Appreciation Week! SOL Testing , Pre-K Registration and Library Book Returns",
      "link": "https://content.govdelivery.com/accounts/VAEDUFCPS/bulletins/2d6f926",
      "description": "\n        \n\n\n  \n\n\n\n\n\n\n\n<p><a></a>Having trouble viewing this email? <a href=\"https://content.govdelivery.com/accounts/VAEDUFCPS/bulletins/2d6f926\">View it as a Web page</a>.</p>\n\n\n\n\n\n\n\n\n\n\n\n<a href=\"https://grahamroades.fcps.edu/?utm_content=&amp;utm_medium=email&amp;utm_name=&amp;utm_source=govdelive...",
      "pubDate": "Sun, 02 May 2021 15:00:12 -0500",
      "timestamp": 1619985612000,
      "feedName": "Graham Road Elementary School",
      "category": "Graham Road Elementary School",
      "feedSource": "http://www.fcps.edu/index.shtml",
      "feedInfo": {
        "title": "Graham Road Elementary School News and announcements - Recent Updates",
        "description": "Graham Road Elementary School News and announcements",
        "link": "http://www.fcps.edu/index.shtml"
      }
    },
    {
      "id": "NDcwODAwNTI=",
      "title": "Sandburg KIT 4/26/21",
      "link": "https://content.govdelivery.com/accounts/VAEDUFCPS/bulletins/2ce6274",
      "description": "\n        \n\n\n  \n\n\n\n\n\n\n\n\n\n\n\n\n\n\n\n\n\n\n\n<a href=\"http://www2.fcps.edu/SandburgMS/?utm_content=&amp;utm_medium=email&amp;utm_name=&amp;utm_source=govdelivery&amp;utm_term=\" target=\"_blank\"></a>\n\n\n\n\n\n\n\n\n\n\n\n\n\n\n\n\n\n  \n    \n\n\n<p>Stay up to date with all that is happening at Sandburg MS.  <a href=\"https://sandbu...",
      "pubDate": "Mon, 26 Apr 2021 14:30:30 -0500",
      "timestamp": 1619465430000,
      "feedName": "Sandburg Middle School",
      "category": "Sandburg Middle School",
      "feedSource": "http://www.fcps.edu/index.shtml",
      "feedInfo": {
        "title": "Sandburg Middle School News and Announcements - Recent Updates",
        "description": "Sandburg Middle School News and announcements",
        "link": "http://www.fcps.edu/index.shtml"
      }
    },
    {
      "id": "NDcxMTY2NTc=",
      "title": "May is Bike Month",
      "link": "https://content.govdelivery.com/accounts/VAEDUFCPS/bulletins/2cef171",
      "description": "\n        \n\n\n  \n\n\n\n\n\n\n\n<p><a></a>Having trouble viewing this email? <a href=\"https://content.govdelivery.com/accounts/VAEDUFCPS/bulletins/2cef171\">View it as a Web page</a>.</p>\n\n\n\n\n\n\n\n\n\n\n\n<a href=\"https://www.fcps.edu/resources/safety-and-transportation/transportation-services/safe-routes-school-srt...",
      "pubDate": "Thu, 22 Apr 2021 09:25:07 -0500",
      "timestamp": 1619101507000,
      "feedName": "FCPS Safe Routes to School",
      "category": "FCPS Safe Routes to School",
      "feedSource": "http://www.fcps.edu/",
      "feedInfo": {
        "title": "Safe Routes to School - Recent Updates",
        "description": "Safe Routes to School - Recent Updates",
        "link": "http://www.fcps.edu/"
      }
    },
    {
      "id": "NDY5OTc5NDU=",
      "title": "Graham Road Updates!",
      "link": "https://content.govdelivery.com/accounts/VAEDUFCPS/bulletins/2cd21b9",
      "description": "\n        \n\n\n  \n\n\n\n\n\n\n\n<p><a></a>Having trouble viewing this email? <a href=\"https://content.govdelivery.com/accounts/VAEDUFCPS/bulletins/2cd21b9\">View it as a Web page</a>.</p>\n\n\n\n\n\n\n\n\n\n\n\n<a href=\"https://grahamroades.fcps.edu/?utm_content=&amp;utm_medium=email&amp;utm_name=&amp;utm_source=govdelive...",
      "pubDate": "Sun, 18 Apr 2021 15:00:12 -0500",
      "timestamp": 1618776012000,
      "feedName": "Graham Road Elementary School",
      "category": "Graham Road Elementary School",
      "feedSource": "http://www.fcps.edu/index.shtml",
      "feedInfo": {
        "title": "Graham Road Elementary School News and announcements - Recent Updates",
        "description": "Graham Road Elementary School News and announcements",
        "link": "http://www.fcps.edu/index.shtml"
      }
    },
    {
      "id": "NDY5Mjk5MjU=",
      "title": "Sandburg KIT April 12, 2021",
      "link": "https://content.govdelivery.com/accounts/VAEDUFCPS/bulletins/2cc1805",
      "description": "\n        \n\n\n  \n\n\n\n\n\n\n\n\n\n\n\n\n\n\n\n\n\n\n\n<a href=\"http://www2.fcps.edu/SandburgMS/?utm_content=&amp;utm_medium=email&amp;utm_name=&amp;utm_source=govdelivery&amp;utm_term=\" target=\"_blank\"></a>\n\n\n\n\n\n\n\n\n\n\n\n\n\n\n\n\n\n  \n    \n\n\n<p>Stay up to date with all that is happening at Sandburg MS.  <a href=\"https://sandbu...",
      "pubDate": "Mon, 12 Apr 2021 14:35:23 -0500",
      "timestamp": 1618256123000,
      "feedName": "Sandburg Middle School",
      "category": "Sandburg Middle School",
      "feedSource": "http://www.fcps.edu/index.shtml",
      "feedInfo": {
        "title": "Sandburg Middle School News and Announcements - Recent Updates",
        "description": "Sandburg Middle School News and announcements",
        "link": "http://www.fcps.edu/index.shtml"
      }
    },
    {
      "id": "NDY5MzAxNzg=",
      "title": "A message from Principal Badini",
      "link": "https://content.govdelivery.com/accounts/VAEDUFCPS/bulletins/2cc1902",
      "description": "\n        \n\n\n  \n\n\n\n\n\n\n\n<p><a></a>Having trouble viewing this email? <a href=\"https://content.govdelivery.com/accounts/VAEDUFCPS/bulletins/2cc1902\">View it as a Web page</a>.</p>\n\n\n\n\n\n\n\n\n\n\n\n<a href=\"https://grahamroades.fcps.edu/?utm_content=&amp;utm_medium=email&amp;utm_name=&amp;utm_source=govdelive...",
      "pubDate": "Fri, 09 Apr 2021 16:00:20 -0500",
      "timestamp": 1618002020000,
      "feedName": "Graham Road Elementary School",
      "category": "Graham Road Elementary School",
      "feedSource": "http://www.fcps.edu/index.shtml",
      "feedInfo": {
        "title": "Graham Road Elementary School News and announcements - Recent Updates",
        "description": "Graham Road Elementary School News and announcements",
        "link": "http://www.fcps.edu/index.shtml"
      }
    },
    {
      "id": "NDY3NTc3NjM=",
      "title": "Calendar Reminders, School Supply Delivery and AAP Screening",
      "link": "https://content.govdelivery.com/accounts/VAEDUFCPS/bulletins/2c97783",
      "description": "\n        \n\n\n  \n\n\n\n\n\n\n\n<p><a></a>Having trouble viewing this email? <a href=\"https://content.govdelivery.com/accounts/VAEDUFCPS/bulletins/2c97783\">View it as a Web page</a>.</p>\n\n\n\n\n\n\n\n\n\n\n\n<a href=\"https://grahamroades.fcps.edu/?utm_content=&amp;utm_medium=email&amp;utm_name=&amp;utm_source=govdelive...",
      "pubDate": "Sun, 28 Mar 2021 15:00:11 -0500",
      "timestamp": 1616961611000,
      "feedName": "Graham Road Elementary School",
      "category": "Graham Road Elementary School",
      "feedSource": "http://www.fcps.edu/index.shtml",
      "feedInfo": {
        "title": "Graham Road Elementary School News and announcements - Recent Updates",
        "description": "Graham Road Elementary School News and announcements",
        "link": "http://www.fcps.edu/index.shtml"
      }
    },
    {
      "id": "NDY2NTMxNDU=",
      "title": "April Safe Routes to School Newsletter",
      "link": "https://content.govdelivery.com/accounts/VAEDUFCPS/bulletins/2c7ded9",
      "description": "\n        \n\n\n  \n\n\n\n\n\n\n\n<p><a></a>Having trouble viewing this email? <a href=\"https://content.govdelivery.com/accounts/VAEDUFCPS/bulletins/2c7ded9\">View it as a Web page</a>.</p>\n\n\n\n\n\n\n\n\n\n\n\n<a href=\"https://www.fcps.edu/resources/safety-and-transportation/transportation-services/safe-routes-school-srt...",
      "pubDate": "Wed, 24 Mar 2021 10:35:27 -0500",
      "timestamp": 1616600127000,
      "feedName": "FCPS Safe Routes to School",
      "category": "FCPS Safe Routes to School",
      "feedSource": "http://www.fcps.edu/",
      "feedInfo": {
        "title": "Safe Routes to School - Recent Updates",
        "description": "Safe Routes to School - Recent Updates",
        "link": "http://www.fcps.edu/"
      }
    },
    {
      "id": "NDY2MzcwNTk=",
      "title": "Sandburg KIT March 22, 2021",
      "link": "https://content.govdelivery.com/accounts/VAEDUFCPS/bulletins/2c7a003",
      "description": "\n        \n\n\n  \n\n\n\n\n\n\n\n\n\n\n\n\n\n\n\n\n\n\n\n<a href=\"http://www2.fcps.edu/SandburgMS/?utm_content=&amp;utm_medium=email&amp;utm_name=&amp;utm_source=govdelivery&amp;utm_term=\" target=\"_blank\"></a>\n\n\n\n\n\n\n\n\n\n\n\n\n\n\n\n\n\n  \n    \n\n\n<p>Stay up to date with all that is happening at Sandburg MS.  <a href=\"https://sandbu...",
      "pubDate": "Mon, 22 Mar 2021 14:30:20 -0500",
      "timestamp": 1616441420000,
      "feedName": "Sandburg Middle School",
      "category": "Sandburg Middle School",
      "feedSource": "http://www.fcps.edu/index.shtml",
      "feedInfo": {
        "title": "Sandburg Middle School News and Announcements - Recent Updates",
        "description": "Sandburg Middle School News and announcements",
        "link": "http://www.fcps.edu/index.shtml"
      }
    },
    {
      "id": "NDY2NTQ5NjQ=",
      "title": "Graham Road Updates from Principal Badini",
      "link": "https://content.govdelivery.com/accounts/VAEDUFCPS/bulletins/2c7e5f4",
      "description": "\n        \n\n\n  \n\n\n\n\n\n\n\n<p><a></a>Having trouble viewing this email? <a href=\"https://content.govdelivery.com/accounts/VAEDUFCPS/bulletins/2c7e5f4\">View it as a Web page</a>.</p>\n\n\n\n\n\n\n\n\n\n\n\n<a href=\"https://grahamroades.fcps.edu/?utm_content=&amp;utm_medium=email&amp;utm_name=&amp;utm_source=govdelive...",
      "pubDate": "Sun, 21 Mar 2021 15:00:15 -0500",
      "timestamp": 1616356815000,
      "feedName": "Graham Road Elementary School",
      "category": "Graham Road Elementary School",
      "feedSource": "http://www.fcps.edu/index.shtml",
      "feedInfo": {
        "title": "Graham Road Elementary School News and announcements - Recent Updates",
        "description": "Graham Road Elementary School News and announcements",
        "link": "http://www.fcps.edu/index.shtml"
      }
    }
  ],
  "hasNext": true,
  "hasPrev": true
}