{
  "page": 263,
  "totalPages": 268,
  "totalItems": 5354,
  "itemsPerPage": 20,
  "items": [
    {
      "id": "NDI2MTA5MDA=",
      "title": "Opportunity for parents of current seniors",
      "link": "https://content.govdelivery.com/accounts/VAEDUFCPS/bulletins/28a30d4",
      "description": "\n        \n\n\n  \n\n\n\n\n\n\n\n<p><a></a>Having trouble viewing this email? <a href=\"https://content.govdelivery.com/accounts/VAEDUFCPS/bulletins/28a30d4\">View it as a Web page</a>.</p>\n\n\n\n\n\n\n\n\n\n\n\n<a href=\"http://www2.fcps.edu/WestPotomacAcademy/?utm_content=&amp;utm_medium=email&amp;utm_name=&amp;utm_source...",
      "pubDate": "Wed, 06 May 2020 10:07:23 -0500",
      "timestamp": 1588777643000,
      "feedName": "West Potomac Academy",
      "category": "West Potomac Academy",
      "feedSource": "http://www.fcps.edu/index.shtml",
      "feedInfo": {
        "title": "West Potomac Academy News and Announcements - Recent Updates",
        "description": "West Potomac Academy News and Announcements - Recent Updates",
        "link": "http://www.fcps.edu/index.shtml"
      }
    },
    {
      "id": "NDI1MDg5MTc=",
      "title": "May is Bike Month",
      "link": "https://content.govdelivery.com/accounts/VAEDUFCPS/bulletins/288a275",
      "description": "\n        \n\n\n  \n\n\n\n\n\n\n\n<p><a></a>Having trouble viewing this email? <a href=\"https://content.govdelivery.com/accounts/VAEDUFCPS/bulletins/288a275\">View it as a Web page</a>.</p>\n\n\n\n\n\n\n\n\n\n\n\n<a href=\"https://www.fcps.edu/resources/safety-and-transportation/transportation-services/safe-routes-school-srt...",
      "pubDate": "Fri, 01 May 2020 08:05:45 -0500",
      "timestamp": 1588338345000,
      "feedName": "FCPS Safe Routes to School",
      "category": "FCPS Safe Routes to School",
      "feedSource": "http://www.fcps.edu/",
      "feedInfo": {
        "title": "Safe Routes to School - Recent Updates",
        "description": "Safe Routes to School - Recent Updates",
        "link": "http://www.fcps.edu/"
      }
    },
    {
      "id": "NDI1NDczODk=",
      "title": "Camelot's Weekly Events 4-30-20",
      "link": "https://content.govdelivery.com/accounts/VAEDUFCPS/bulletins/28938bd",
      "description": "\n        \n\n\n  \n\n\n\n\n\n\n\n<a href=\"http://www2.fcps.edu/CamelotES/?utm_content=&amp;utm_medium=email&amp;utm_name=&amp;utm_source=govdelivery&amp;utm_term=\" target=\"_blank\"></a><p><a></a>Having trouble viewing this email? <a href=\"https://content.govdelivery.com/accounts/VAEDUFCPS/bulletins/28938bd\">Vie...",
      "pubDate": "Thu, 30 Apr 2020 10:31:49 -0500",
      "timestamp": 1588260709000,
      "feedName": "Camelot Elementary School",
      "category": "Camelot Elementary School",
      "feedSource": "http://www.fcps.edu/index.shtml",
      "feedInfo": {
        "title": "Camelot Elementary School News and announcements - Recent Updates",
        "description": "Camelot Elementary School News and announcements",
        "link": "http://www.fcps.edu/index.shtml"
      }
    },
    {
      "id": "NDI1MjI2ODk=",
      "title": "Camelot's Weekly Events 4-28-20",
      "link": "https://content.govdelivery.com/accounts/VAEDUFCPS/bulletins/288d841",
      "description": "\n        \n\n\n  \n\n\n\n\n\n\n\n<a href=\"http://www2.fcps.edu/CamelotES/?utm_content=&amp;utm_medium=email&amp;utm_name=&amp;utm_source=govdelivery&amp;utm_term=\" target=\"_blank\"></a><p><a></a>Having trouble viewing this email? <a href=\"https://content.govdelivery.com/accounts/VAEDUFCPS/bulletins/288d841\">Vie...",
      "pubDate": "Tue, 28 Apr 2020 16:44:16 -0500",
      "timestamp": 1588110256000,
      "feedName": "Camelot Elementary School",
      "category": "Camelot Elementary School",
      "feedSource": "http://www.fcps.edu/index.shtml",
      "feedInfo": {
        "title": "Camelot Elementary School News and announcements - Recent Updates",
        "description": "Camelot Elementary School News and announcements",
        "link": "http://www.fcps.edu/index.shtml"
      }
    },
    {
      "id": "NDI0ODE5ODY=",
      "title": "Announcements for April 24, 2020",
      "link": "https://content.govdelivery.com/accounts/VAEDUFCPS/bulletins/2883942",
      "description": "\n        \n\n\n  \n\n\n\n\n\n\n\n<p><a></a>Having trouble viewing this email? <a href=\"https://content.govdelivery.com/accounts/VAEDUFCPS/bulletins/2883942\">View it as a Web page</a>.</p>\n\n\n\n\n\n\n\n\n\n\n\n<a href=\"https://marshallhs.fcps.edu/?utm_content=&amp;utm_medium=email&amp;utm_name=&amp;utm_source=govdelivery...",
      "pubDate": "Fri, 24 Apr 2020 09:06:17 -0500",
      "timestamp": 1587737177000,
      "feedName": "Marshall High School",
      "category": "Marshall High School",
      "feedSource": "http://www.fcps.edu/index.shtml",
      "feedInfo": {
        "title": "Marshall High School News and announcements - Recent Updates",
        "description": "Marshall High School News and announcements",
        "link": "http://www.fcps.edu/index.shtml"
      }
    },
    {
      "id": "NDI0NjAzNjQ=",
      "title": "Announcements for April 22, 2020",
      "link": "https://content.govdelivery.com/accounts/VAEDUFCPS/bulletins/287e4cc",
      "description": "\n        \n\n\n  \n\n\n\n\n\n\n\n<p><a></a>Having trouble viewing this email? <a href=\"https://content.govdelivery.com/accounts/VAEDUFCPS/bulletins/287e4cc\">View it as a Web page</a>.</p>\n\n\n\n\n\n\n\n\n\n\n\n<a href=\"https://marshallhs.fcps.edu/?utm_content=&amp;utm_medium=email&amp;utm_name=&amp;utm_source=govdelivery...",
      "pubDate": "Wed, 22 Apr 2020 15:03:14 -0500",
      "timestamp": 1587585794000,
      "feedName": "Marshall High School",
      "category": "Marshall High School",
      "feedSource": "http://www.fcps.edu/index.shtml",
      "feedInfo": {
        "title": "Marshall High School News and announcements - Recent Updates",
        "description": "Marshall High School News and announcements",
        "link": "http://www.fcps.edu/index.shtml"
      }
    },
    {
      "id": "NDI0MTgxNjQ=",
      "title": "Camelot's Weekly Events 4-21-20",
      "link": "https://content.govdelivery.com/accounts/VAEDUFCPS/bulletins/2873ff4",
      "description": "\n        \n\n\n  \n\n\n\n\n\n\n\n<a href=\"http://www2.fcps.edu/CamelotES/?utm_content=&amp;utm_medium=email&amp;utm_name=&amp;utm_source=govdelivery&amp;utm_term=\" target=\"_blank\"></a><p><a></a>Having trouble viewing this email? <a href=\"https://content.govdelivery.com/accounts/VAEDUFCPS/bulletins/2873ff4\">Vie...",
      "pubDate": "Tue, 21 Apr 2020 07:27:02 -0500",
      "timestamp": 1587472022000,
      "feedName": "Camelot Elementary School",
      "category": "Camelot Elementary School",
      "feedSource": "http://www.fcps.edu/index.shtml",
      "feedInfo": {
        "title": "Camelot Elementary School News and announcements - Recent Updates",
        "description": "Camelot Elementary School News and announcements",
        "link": "http://www.fcps.edu/index.shtml"
      }
    },
    {
      "id": "NDIzODIxOTA=",
      "title": "New Access Point For Live Learning Tomorrow",
      "link": "https://content.govdelivery.com/accounts/VAEDUFCPS/bulletins/286b36e",
      "description": "\n        \n\n\n  \n\n\n\n\n\n\n\n<p><a></a>Having trouble viewing this email? <a href=\"https://content.govdelivery.com/accounts/VAEDUFCPS/bulletins/286b36e\">View it as a Web page</a>.</p>\n\n\n\n\n\n\n\n\n\n\n\n<a href=\"https://marshallhs.fcps.edu/?utm_content=&amp;utm_medium=email&amp;utm_name=&amp;utm_source=govdelivery...",
      "pubDate": "Wed, 15 Apr 2020 15:17:50 -0500",
      "timestamp": 1586981870000,
      "feedName": "Marshall High School",
      "category": "Marshall High School",
      "feedSource": "http://www.fcps.edu/index.shtml",
      "feedInfo": {
        "title": "Marshall High School News and announcements - Recent Updates",
        "description": "Marshall High School News and announcements",
        "link": "http://www.fcps.edu/index.shtml"
      }
    },
    {
      "id": "NDIzNjM3Nzg=",
      "title": "Camelot's Weekly Events 4-14-20",
      "link": "https://content.govdelivery.com/accounts/VAEDUFCPS/bulletins/2866b82",
      "description": "\n        \n\n\n  \n\n\n\n\n\n\n\n<a href=\"http://www2.fcps.edu/CamelotES/?utm_content=&amp;utm_medium=email&amp;utm_name=&amp;utm_source=govdelivery&amp;utm_term=\" target=\"_blank\"></a>\n\n\n\n\n\n\n\n\n\n\n\n\n\n\n\n\n\n\n\n\n\n\n\n\n\n\n\n\nSpirit Days--This Week\n<p>We are very excited to bring students back together online as classes st...",
      "pubDate": "Tue, 14 Apr 2020 09:57:12 -0500",
      "timestamp": 1586876232000,
      "feedName": "Camelot Elementary School",
      "category": "Camelot Elementary School",
      "feedSource": "http://www.fcps.edu/index.shtml",
      "feedInfo": {
        "title": "Camelot Elementary School News and announcements - Recent Updates",
        "description": "Camelot Elementary School News and announcements",
        "link": "http://www.fcps.edu/index.shtml"
      }
    },
    {
      "id": "NDIzNTcxMTY=",
      "title": "Message Before Distance Learning Begins",
      "link": "https://content.govdelivery.com/accounts/VAEDUFCPS/bulletins/286517c",
      "description": "\n        \n\n\n  \n\n\n\n\n\n\n\n<p><a></a>Having trouble viewing this email? <a href=\"https://content.govdelivery.com/accounts/VAEDUFCPS/bulletins/286517c\">View it as a Web page</a>.</p>\n\n\n\n\n\n\n\n\n\n\n\n<a href=\"https://marshallhs.fcps.edu/?utm_content=&amp;utm_medium=email&amp;utm_name=&amp;utm_source=govdelivery...",
      "pubDate": "Mon, 13 Apr 2020 16:22:44 -0500",
      "timestamp": 1586812964000,
      "feedName": "Marshall High School",
      "category": "Marshall High School",
      "feedSource": "http://www.fcps.edu/index.shtml",
      "feedInfo": {
        "title": "Marshall High School News and announcements - Recent Updates",
        "description": "Marshall High School News and announcements",
        "link": "http://www.fcps.edu/index.shtml"
      }
    },
    {
      "id": "NDIzMTAwOTg=",
      "title": "Camelot's Weekly Events 4-9-20",
      "link": "https://content.govdelivery.com/accounts/VAEDUFCPS/bulletins/28599d2",
      "description": "\n        \n\n\n  \n\n\n\n\n\n\n\n<a href=\"http://www2.fcps.edu/CamelotES/?utm_content=&amp;utm_medium=email&amp;utm_name=&amp;utm_source=govdelivery&amp;utm_term=\" target=\"_blank\"></a>\n\n\n\n\n\n\n\n\n\n\n\n\n\n\n\n\n\n\n\n\n\n\n\n\n\n\n\n\nDaily News Show\n<p>Each day, Monday through Friday, Mr. Salerno is posting a news show on the Came...",
      "pubDate": "Thu, 09 Apr 2020 17:48:18 -0500",
      "timestamp": 1586472498000,
      "feedName": "Camelot Elementary School",
      "category": "Camelot Elementary School",
      "feedSource": "http://www.fcps.edu/index.shtml",
      "feedInfo": {
        "title": "Camelot Elementary School News and announcements - Recent Updates",
        "description": "Camelot Elementary School News and announcements",
        "link": "http://www.fcps.edu/index.shtml"
      }
    },
    {
      "id": "NDIyODYwMTc=",
      "title": "Camelot's Weekly Events 4-7-20",
      "link": "https://content.govdelivery.com/accounts/VAEDUFCPS/bulletins/2853bc1",
      "description": "\n        \n\n\n  \n\n\n\n\n\n\n\n<a href=\"http://www2.fcps.edu/CamelotES/?utm_content=&amp;utm_medium=email&amp;utm_name=&amp;utm_source=govdelivery&amp;utm_term=\" target=\"_blank\"></a><p><a></a>Having trouble viewing this email? <a href=\"https://content.govdelivery.com/accounts/VAEDUFCPS/bulletins/2853bc1\">Vie...",
      "pubDate": "Tue, 07 Apr 2020 11:58:54 -0500",
      "timestamp": 1586278734000,
      "feedName": "Camelot Elementary School",
      "category": "Camelot Elementary School",
      "feedSource": "http://www.fcps.edu/index.shtml",
      "feedInfo": {
        "title": "Camelot Elementary School News and announcements - Recent Updates",
        "description": "Camelot Elementary School News and announcements",
        "link": "http://www.fcps.edu/index.shtml"
      }
    },
    {
      "id": "NDIyNTI5OTI=",
      "title": "April SRTS newsletter",
      "link": "https://content.govdelivery.com/accounts/VAEDUFCPS/bulletins/284bac0",
      "description": "\n        \n\n\n  \n\n\n\n\n\n\n\n<p><a></a>Having trouble viewing this email? <a href=\"https://content.govdelivery.com/accounts/VAEDUFCPS/bulletins/284bac0\">View it as a Web page</a>.</p>\n\n\n\n\n\n\n\n\n\n\n\n<a href=\"https://www.fcps.edu/resources/safety-and-transportation/transportation-services/safe-routes-school-srt...",
      "pubDate": "Mon, 06 Apr 2020 09:05:07 -0500",
      "timestamp": 1586181907000,
      "feedName": "FCPS Safe Routes to School",
      "category": "FCPS Safe Routes to School",
      "feedSource": "http://www.fcps.edu/",
      "feedInfo": {
        "title": "Safe Routes to School - Recent Updates",
        "description": "Safe Routes to School - Recent Updates",
        "link": "http://www.fcps.edu/"
      }
    },
    {
      "id": "NDIyNDM5NzI=",
      "title": "Camelot's Weekly Events 4-2-20",
      "link": "https://content.govdelivery.com/accounts/VAEDUFCPS/bulletins/2849784",
      "description": "\n        \n\n\n  \n\n\n\n\n\n\n\n<a href=\"http://www2.fcps.edu/CamelotES/?utm_content=&amp;utm_medium=email&amp;utm_name=&amp;utm_source=govdelivery&amp;utm_term=\" target=\"_blank\"></a><p><a></a>Having trouble viewing this email? <a href=\"https://content.govdelivery.com/accounts/VAEDUFCPS/bulletins/2849784\">Vie...",
      "pubDate": "Thu, 02 Apr 2020 16:21:30 -0500",
      "timestamp": 1585862490000,
      "feedName": "Camelot Elementary School",
      "category": "Camelot Elementary School",
      "feedSource": "http://www.fcps.edu/index.shtml",
      "feedInfo": {
        "title": "Camelot Elementary School News and announcements - Recent Updates",
        "description": "Camelot Elementary School News and announcements",
        "link": "http://www.fcps.edu/index.shtml"
      }
    },
    {
      "id": "NDIyNDE0NzA=",
      "title": "Update",
      "link": "https://content.govdelivery.com/accounts/VAEDUFCPS/bulletins/2848dbe",
      "description": "\n        \n\n\n  \n\n\n\n\n\n\n\n<p><a></a>Having trouble viewing this email? <a href=\"https://content.govdelivery.com/accounts/VAEDUFCPS/bulletins/2848dbe\">View it as a Web page</a>.</p>\n\n\n\n\n\n\n\n\n\n\n\n<a href=\"https://marshallhs.fcps.edu/?utm_content=&amp;utm_medium=email&amp;utm_name=&amp;utm_source=govdelivery...",
      "pubDate": "Thu, 02 Apr 2020 10:56:37 -0500",
      "timestamp": 1585842997000,
      "feedName": "Marshall High School",
      "category": "Marshall High School",
      "feedSource": "http://www.fcps.edu/index.shtml",
      "feedInfo": {
        "title": "Marshall High School News and announcements - Recent Updates",
        "description": "Marshall High School News and announcements",
        "link": "http://www.fcps.edu/index.shtml"
      }
    },
    {
      "id": "NDIyMTI1MjQ=",
      "title": "Camelot's Weekly Events 3-31-20",
      "link": "https://content.govdelivery.com/accounts/VAEDUFCPS/bulletins/2841cac",
      "description": "\n        \n\n\n  \n\n\n\n\n\n\n\n<a href=\"http://www2.fcps.edu/CamelotES/?utm_content=&amp;utm_medium=email&amp;utm_name=&amp;utm_source=govdelivery&amp;utm_term=\" target=\"_blank\"></a><p><a></a>Having trouble viewing this email? <a href=\"https://content.govdelivery.com/accounts/VAEDUFCPS/bulletins/2841cac\">Vie...",
      "pubDate": "Tue, 31 Mar 2020 08:03:30 -0500",
      "timestamp": 1585659810000,
      "feedName": "Camelot Elementary School",
      "category": "Camelot Elementary School",
      "feedSource": "http://www.fcps.edu/index.shtml",
      "feedInfo": {
        "title": "Camelot Elementary School News and announcements - Recent Updates",
        "description": "Camelot Elementary School News and announcements",
        "link": "http://www.fcps.edu/index.shtml"
      }
    },
    {
      "id": "NDIxNjE5Mjk=",
      "title": "Camelot's Weekly Events",
      "link": "https://content.govdelivery.com/accounts/VAEDUFCPS/bulletins/2835709",
      "description": "\n        \n\n\n  \n\n\n\n\n\n\n\n<a href=\"http://www2.fcps.edu/CamelotES/?utm_content=&amp;utm_medium=email&amp;utm_name=&amp;utm_source=govdelivery&amp;utm_term=\" target=\"_blank\"></a><p><a></a>Having trouble viewing this email? <a href=\"https://content.govdelivery.com/accounts/VAEDUFCPS/bulletins/2835709\">Vie...",
      "pubDate": "Thu, 26 Mar 2020 17:03:31 -0500",
      "timestamp": 1585260211000,
      "feedName": "Camelot Elementary School",
      "category": "Camelot Elementary School",
      "feedSource": "http://www.fcps.edu/index.shtml",
      "feedInfo": {
        "title": "Camelot Elementary School News and announcements - Recent Updates",
        "description": "Camelot Elementary School News and announcements",
        "link": "http://www.fcps.edu/index.shtml"
      }
    },
    {
      "id": "NDIwMTM3Mzc=",
      "title": "Important Message",
      "link": "https://content.govdelivery.com/accounts/VAEDUFCPS/bulletins/2811429",
      "description": "\n        \n\n\n  \n\n\n\n\n\n\n\n<p><a></a>Having trouble viewing this email? <a href=\"https://content.govdelivery.com/accounts/VAEDUFCPS/bulletins/2811429\">View it as a Web page</a>.</p>\n\n\n\n\n\n\n\n\n\n\n\n<a href=\"https://marshallhs.fcps.edu/?utm_content=&amp;utm_medium=email&amp;utm_name=&amp;utm_source=govdelivery...",
      "pubDate": "Fri, 13 Mar 2020 16:17:23 -0500",
      "timestamp": 1584134243000,
      "feedName": "Marshall High School",
      "category": "Marshall High School",
      "feedSource": "http://www.fcps.edu/index.shtml",
      "feedInfo": {
        "title": "Marshall High School News and announcements - Recent Updates",
        "description": "Marshall High School News and announcements",
        "link": "http://www.fcps.edu/index.shtml"
      }
    },
    {
      "id": "NDE5OTk0OTg=",
      "title": "Camelot Weekly News You Choose-3-12-20",
      "link": "https://content.govdelivery.com/accounts/VAEDUFCPS/bulletins/280dc8a",
      "description": "\n        \n\n\n  \n\n\n\n\n\n\n\n<p><a></a>Having trouble viewing this email? <a href=\"https://content.govdelivery.com/accounts/VAEDUFCPS/bulletins/280dc8a\">View it as a Web page</a>.</p>\n\n\n\n\n\n\n\n\n\n\n\n<a href=\"http://www2.fcps.edu/CamelotES/?utm_content=&amp;utm_medium=email&amp;utm_name=&amp;utm_source=govdeliv...",
      "pubDate": "Thu, 12 Mar 2020 16:04:15 -0500",
      "timestamp": 1584047055000,
      "feedName": "Camelot Elementary School",
      "category": "Camelot Elementary School",
      "feedSource": "http://www.fcps.edu/index.shtml",
      "feedInfo": {
        "title": "Camelot Elementary School News and announcements - Recent Updates",
        "description": "Camelot Elementary School News and announcements",
        "link": "http://www.fcps.edu/index.shtml"
      }
    },
    {
      "id": "NDE5OTM2Mjg=",
      "title": "Postponing Authors/Artists Night",
      "link": "https://content.govdelivery.com/accounts/VAEDUFCPS/bulletins/280c59c",
      "description": "\n        \n\n\n  \n\n\n\n\n\n\n\n<a href=\"http://www2.fcps.edu/CamelotES/?utm_content=&amp;utm_medium=email&amp;utm_name=&amp;utm_source=govdelivery&amp;utm_term=\" target=\"_blank\"></a><p><a></a>Having trouble viewing this email? <a href=\"https://content.govdelivery.com/accounts/VAEDUFCPS/bulletins/280c59c\">Vie...",
      "pubDate": "Thu, 12 Mar 2020 10:24:05 -0500",
      "timestamp": 1584026645000,
      "feedName": "Camelot Elementary School",
      "category": "Camelot Elementary School",
      "feedSource": "http://www.fcps.edu/index.shtml",
      "feedInfo": {
        "title": "Camelot Elementary School News and announcements - Recent Updates",
        "description": "Camelot Elementary School News and announcements",
        "link": "http://www.fcps.edu/index.shtml"
      }
    }
  ],
  "hasNext": true,
  "hasPrev": true
}