{
  "page": 256,
  "totalPages": 268,
  "totalItems": 5354,
  "itemsPerPage": 20,
  "items": [
    {
      "id": "NTMzMjUwNTQ=",
      "title": "Bulldog Breakdown 9/18 - 9/24",
      "link": "https://content.govdelivery.com/accounts/VAEDUFCPS/bulletins/32dacfe",
      "description": "\n        \n\n\n  \n\n\n\n\n\n\n\n<p><a></a>Having trouble viewing this email? <a href=\"https://content.govdelivery.com/accounts/VAEDUFCPS/bulletins/32dacfe\">View it as a Web page</a>.</p>\n\n\n\n\n\n\n\n\n\n\n\n<a href=\"https://westfieldhs.fcps.edu/?utm_campaign+=&amp;utm_medium=email&amp;utm_source=govdelivery\" target=\"_...",
      "pubDate": "Sun, 18 Sep 2022 20:07:34 -0500",
      "timestamp": 1663549654000,
      "feedName": "Westfield High School",
      "category": "Westfield High School",
      "feedSource": "http://www.fcps.edu/index.shtml",
      "feedInfo": {
        "title": "Westfield High School News and announcements - Recent Updates",
        "description": "Westfield High School News and announcements",
        "link": "http://www.fcps.edu/index.shtml"
      }
    },
    {
      "id": "NTMyNDE3NzM=",
      "title": "Breakdown 9/11 - 9/17",
      "link": "https://content.govdelivery.com/accounts/VAEDUFCPS/bulletins/32c67ad",
      "description": "\n        \n\n\n  \n\n\n\n\n\n\n\n<p><a></a>Having trouble viewing this email? <a href=\"https://content.govdelivery.com/accounts/VAEDUFCPS/bulletins/32c67ad\">View it as a Web page</a>.</p>\n\n\n\n\n\n\n\n\n\n\n\n<a href=\"https://westfieldhs.fcps.edu/?utm_campaign+=&amp;utm_medium=email&amp;utm_source=govdelivery\" target=\"_...",
      "pubDate": "Sun, 11 Sep 2022 15:17:51 -0500",
      "timestamp": 1662927471000,
      "feedName": "Westfield High School",
      "category": "Westfield High School",
      "feedSource": "http://www.fcps.edu/index.shtml",
      "feedInfo": {
        "title": "Westfield High School News and announcements - Recent Updates",
        "description": "Westfield High School News and announcements",
        "link": "http://www.fcps.edu/index.shtml"
      }
    },
    {
      "id": "NTMxNzQyMDY=",
      "title": "Bulldog Breakdown 9/5 - 9/10",
      "link": "https://content.govdelivery.com/accounts/VAEDUFCPS/bulletins/32b5fbe",
      "description": "\n        \n\n\n  \n\n\n\n\n\n\n\n<p><a></a>Having trouble viewing this email? <a href=\"https://content.govdelivery.com/accounts/VAEDUFCPS/bulletins/32b5fbe\">View it as a Web page</a>.</p>\n\n\n\n\n\n\n\n\n\n\n\n<a href=\"https://westfieldhs.fcps.edu/?utm_campaign+=&amp;utm_medium=email&amp;utm_source=govdelivery\" target=\"_...",
      "pubDate": "Mon, 05 Sep 2022 18:04:38 -0500",
      "timestamp": 1662419078000,
      "feedName": "Westfield High School",
      "category": "Westfield High School",
      "feedSource": "http://www.fcps.edu/index.shtml",
      "feedInfo": {
        "title": "Westfield High School News and announcements - Recent Updates",
        "description": "Westfield High School News and announcements",
        "link": "http://www.fcps.edu/index.shtml"
      }
    },
    {
      "id": "NTMwODg1MDg=",
      "title": "Bulldog Breakdown 8/28 - 9/3",
      "link": "https://content.govdelivery.com/accounts/VAEDUFCPS/bulletins/32a10fc",
      "description": "\n        \n\n\n  \n\n\n\n\n\n\n\n<p><a></a>Having trouble viewing this email? <a href=\"https://content.govdelivery.com/accounts/VAEDUFCPS/bulletins/32a10fc\">View it as a Web page</a>.</p>\n\n\n\n\n\n\n\n\n\n\n\n<a href=\"https://westfieldhs.fcps.edu/?utm_campaign+=&amp;utm_medium=email&amp;utm_source=govdelivery\" target=\"_...",
      "pubDate": "Sun, 28 Aug 2022 17:41:25 -0500",
      "timestamp": 1661726485000,
      "feedName": "Westfield High School",
      "category": "Westfield High School",
      "feedSource": "http://www.fcps.edu/index.shtml",
      "feedInfo": {
        "title": "Westfield High School News and announcements - Recent Updates",
        "description": "Westfield High School News and announcements",
        "link": "http://www.fcps.edu/index.shtml"
      }
    },
    {
      "id": "NTMwMTk3NTM=",
      "title": "Bulldog Breakdown 8/21 - 8/27",
      "link": "https://content.govdelivery.com/accounts/VAEDUFCPS/bulletins/3290469",
      "description": "\n        \n\n\n  \n\n\n\n\n\n\n\n<p><a></a>Having trouble viewing this email? <a href=\"https://content.govdelivery.com/accounts/VAEDUFCPS/bulletins/3290469\">View it as a Web page</a>.</p>\n\n\n\n\n\n\n\n\n\n\n\n<a href=\"https://westfieldhs.fcps.edu/?utm_campaign+=&amp;utm_medium=email&amp;utm_source=govdelivery\" target=\"_...",
      "pubDate": "Sun, 21 Aug 2022 11:31:22 -0500",
      "timestamp": 1661099482000,
      "feedName": "Westfield High School",
      "category": "Westfield High School",
      "feedSource": "http://www.fcps.edu/index.shtml",
      "feedInfo": {
        "title": "Westfield High School News and announcements - Recent Updates",
        "description": "Westfield High School News and announcements",
        "link": "http://www.fcps.edu/index.shtml"
      }
    },
    {
      "id": "NTMwMDU3NzY=",
      "title": "Welcome Back to School",
      "link": "https://content.govdelivery.com/accounts/VAEDUFCPS/bulletins/328cdd0",
      "description": "\n        \n\n\n  \n\n\n\n\n\n\n\n<p><a></a>Having trouble viewing this email? <a href=\"https://content.govdelivery.com/accounts/VAEDUFCPS/bulletins/328cdd0\">View it as a Web page</a>.</p>\n\n\n\n\n\n\n\n\n\n\n\n<a href=\"https://www.fcps.edu/school-board/karen-keys-gamarra?utm_campaign+=&amp;utm_medium=email&amp;utm_source...",
      "pubDate": "Fri, 19 Aug 2022 12:38:59 -0500",
      "timestamp": 1660930739000,
      "feedName": "FCPS School Board Member at Large (Ryan McElveen)",
      "category": "FCPS School Board Member at Large (Ryan McElveen)",
      "feedSource": "http://www.fcps.edu/index.shtml",
      "feedInfo": {
        "title": "At-Large Member - Ryan McElveen - Recent Updates",
        "description": "At-Large Member - Ryan McElveen - Recent Updates",
        "link": "http://www.fcps.edu/index.shtml"
      }
    },
    {
      "id": "NTI5MDkyNDc=",
      "title": "Important Dates and Classroom Monitors Needed!",
      "link": "https://content.govdelivery.com/accounts/VAEDUFCPS/bulletins/32754bf",
      "description": "\n        \n\n\n  \n\n\n\n\n\n\n\n<p><a></a>Having trouble viewing this email? <a href=\"https://content.govdelivery.com/accounts/VAEDUFCPS/bulletins/32754bf\">View it as a Web page</a>.</p>\n\n\n\n\n\n\n\n\n\n\n\n<a href=\"https://grahamroades.fcps.edu/?utm_campaign+=&amp;utm_medium=email&amp;utm_source=govdelivery\" target=\"...",
      "pubDate": "Tue, 09 Aug 2022 12:00:37 -0500",
      "timestamp": 1660064437000,
      "feedName": "Graham Road Elementary School",
      "category": "Graham Road Elementary School",
      "feedSource": "http://www.fcps.edu/index.shtml",
      "feedInfo": {
        "title": "Graham Road Elementary School News and announcements - Recent Updates",
        "description": "Graham Road Elementary School News and announcements",
        "link": "http://www.fcps.edu/index.shtml"
      }
    },
    {
      "id": "NTI3MzMxMTg=",
      "title": "Special Education Update: ACSD Public Interest Form Now Available",
      "link": "https://content.govdelivery.com/accounts/VAEDUFCPS/bulletins/324a4be",
      "description": "\n        \n\n\n  \n\n\n\n\n\n\n\n<p><a></a>Having trouble viewing this email? <a href=\"https://content.govdelivery.com/accounts/VAEDUFCPS/bulletins/324a4be\">View it as a Web page</a>.</p>\n\n\n\n\n\n\n\n\n\n\n\n<a href=\"https://www.fcps.edu/academics/academic-overview/special-education-instruction?utm_content=&amp;utm_med...",
      "pubDate": "Fri, 22 Jul 2022 11:00:33 -0500",
      "timestamp": 1658505633000,
      "feedName": "FCPS Special Education Update",
      "category": "FCPS Special Education Update",
      "feedSource": "https://www.fcps.edu/",
      "feedInfo": {
        "title": "Special Education and 504 Newsletter - Recent Updates",
        "description": "Special Education and 504 Newsletter - Recent Updates",
        "link": "https://www.fcps.edu/"
      }
    },
    {
      "id": "NTIyNjk5NDk=",
      "title": "2022 Spotlight on Summer",
      "link": "https://content.govdelivery.com/accounts/VAEDUFCPS/bulletins/31d937d",
      "description": "\n        \n\n\n  \n\n\n\n\n\n\n\n<p><a></a>Having trouble viewing this email? <a href=\"https://content.govdelivery.com/accounts/VAEDUFCPS/bulletins/31d937d\">View it as a Web page</a>.</p>\n\n\n\n\n\n\n\n\n\n\n\n<a href=\"https://www.fcps.edu/school-board/karen-keys-gamarra?utm_campaign+=&amp;utm_medium=email&amp;utm_source...",
      "pubDate": "Fri, 24 Jun 2022 14:14:20 -0500",
      "timestamp": 1656098060000,
      "feedName": "FCPS School Board Member at Large (Ryan McElveen)",
      "category": "FCPS School Board Member at Large (Ryan McElveen)",
      "feedSource": "http://www.fcps.edu/index.shtml",
      "feedInfo": {
        "title": "At-Large Member - Ryan McElveen - Recent Updates",
        "description": "At-Large Member - Ryan McElveen - Recent Updates",
        "link": "http://www.fcps.edu/index.shtml"
      }
    },
    {
      "id": "NTIyMTE5MjY=",
      "title": "June 2022 Newsletter",
      "link": "https://content.govdelivery.com/accounts/VAEDUFCPS/bulletins/31cb0d6",
      "description": "\n        \n\n\n  \n\n\n\n\n\n\n\n<p><a></a>Having trouble viewing this email? <a href=\"https://content.govdelivery.com/accounts/VAEDUFCPS/bulletins/31cb0d6\">View it as a Web page</a>.</p>\n\n\n\n\n\n\n\n\n\n\n\n<a href=\"https://www.fcps.edu/school-board/karen-keys-gamarra?utm_campaign+=&amp;utm_medium=email&amp;utm_source...",
      "pubDate": "Fri, 17 Jun 2022 16:25:27 -0500",
      "timestamp": 1655501127000,
      "feedName": "FCPS School Board Member at Large (Ryan McElveen)",
      "category": "FCPS School Board Member at Large (Ryan McElveen)",
      "feedSource": "http://www.fcps.edu/index.shtml",
      "feedInfo": {
        "title": "At-Large Member - Ryan McElveen - Recent Updates",
        "description": "At-Large Member - Ryan McElveen - Recent Updates",
        "link": "http://www.fcps.edu/index.shtml"
      }
    },
    {
      "id": "NTIxNDU0MzY=",
      "title": "Waples Mill Updates 6/10/22",
      "link": "https://content.govdelivery.com/accounts/VAEDUFCPS/bulletins/31bad1c",
      "description": "\n        \n\n\n  \n\n\n\n\n\n\n\n<p><a></a>Having trouble viewing this email? <a href=\"https://content.govdelivery.com/accounts/VAEDUFCPS/bulletins/31bad1c\">View it as a Web page</a>.</p>\n\n\n\n\n\n\n\n\n\n\n\n<a href=\"https://waplesmilles.fcps.edu/?utm_content=&amp;utm_medium=email&amp;utm_name=&amp;utm_source=govdelive...",
      "pubDate": "Fri, 10 Jun 2022 16:43:38 -0500",
      "timestamp": 1654897418000,
      "feedName": "Waples Mill Elementary School",
      "category": "Waples Mill Elementary School",
      "feedSource": "http://www.fcps.edu/index.shtml",
      "feedInfo": {
        "title": "Waples Mill Elementary School News and announcements - Recent Updates",
        "description": "Waples Mill Elementary School News and announcements",
        "link": "http://www.fcps.edu/index.shtml"
      }
    },
    {
      "id": "NTIxMzQ5NTM=",
      "title": "WMES Early Release and Last Day of School: Friday, June 10th",
      "link": "https://content.govdelivery.com/accounts/VAEDUFCPS/bulletins/31b8429",
      "description": "\n        \n\n\n  \n\n\n\n\n\n\n\n<p><a></a>Having trouble viewing this email? <a href=\"https://content.govdelivery.com/accounts/VAEDUFCPS/bulletins/31b8429\">View it as a Web page</a>.</p>\n\n\n\n\n\n\n\n\n\n\n\n<a href=\"https://waplesmilles.fcps.edu/?utm_content=&amp;utm_medium=email&amp;utm_name=&amp;utm_source=govdelive...",
      "pubDate": "Thu, 09 Jun 2022 16:56:02 -0500",
      "timestamp": 1654811762000,
      "feedName": "Waples Mill Elementary School",
      "category": "Waples Mill Elementary School",
      "feedSource": "http://www.fcps.edu/index.shtml",
      "feedInfo": {
        "title": "Waples Mill Elementary School News and announcements - Recent Updates",
        "description": "Waples Mill Elementary School News and announcements",
        "link": "http://www.fcps.edu/index.shtml"
      }
    },
    {
      "id": "NTIwNzc3MzA=",
      "title": "Waples Mill Updates 6/3/22",
      "link": "https://content.govdelivery.com/accounts/VAEDUFCPS/bulletins/31aa4a2",
      "description": "\n        \n\n\n  \n\n\n\n\n\n\n\n<p><a></a>Having trouble viewing this email? <a href=\"https://content.govdelivery.com/accounts/VAEDUFCPS/bulletins/31aa4a2\">View it as a Web page</a>.</p>\n\n\n\n\n\n\n\n\n\n\n\n<a href=\"https://waplesmilles.fcps.edu/?utm_content=&amp;utm_medium=email&amp;utm_name=&amp;utm_source=govdelive...",
      "pubDate": "Fri, 03 Jun 2022 16:51:41 -0500",
      "timestamp": 1654293101000,
      "feedName": "Waples Mill Elementary School",
      "category": "Waples Mill Elementary School",
      "feedSource": "http://www.fcps.edu/index.shtml",
      "feedInfo": {
        "title": "Waples Mill Elementary School News and announcements - Recent Updates",
        "description": "Waples Mill Elementary School News and announcements",
        "link": "http://www.fcps.edu/index.shtml"
      }
    },
    {
      "id": "NTIwMTYyMjc=",
      "title": "Waples Mill Updates 5/27/22",
      "link": "https://content.govdelivery.com/accounts/VAEDUFCPS/bulletins/319b463",
      "description": "\n        \n\n\n  \n\n\n\n\n\n\n\n<p><a></a>Having trouble viewing this email? <a href=\"https://content.govdelivery.com/accounts/VAEDUFCPS/bulletins/319b463\">View it as a Web page</a>.</p>\n\n\n\n\n\n\n\n\n\n\n\n<a href=\"https://waplesmilles.fcps.edu/?utm_content=&amp;utm_medium=email&amp;utm_name=&amp;utm_source=govdelive...",
      "pubDate": "Fri, 27 May 2022 16:01:13 -0500",
      "timestamp": 1653685273000,
      "feedName": "Waples Mill Elementary School",
      "category": "Waples Mill Elementary School",
      "feedSource": "http://www.fcps.edu/index.shtml",
      "feedInfo": {
        "title": "Waples Mill Elementary School News and announcements - Recent Updates",
        "description": "Waples Mill Elementary School News and announcements",
        "link": "http://www.fcps.edu/index.shtml"
      }
    },
    {
      "id": "NTE5MTU3NzE=",
      "title": "FCPS Wellness Newsletter Summer 2022",
      "link": "https://content.govdelivery.com/accounts/VAEDUFCPS/bulletins/3182bfb",
      "description": "\n        \n\n\n  \n\n\n\n\n\n\n\n<p>Having trouble viewing this email? <a href=\"https://content.govdelivery.com/accounts/VAEDUFCPS/bulletins/3182bfb\">View it as a Web page</a>.</p>\n\n\n\n\n\n\n\n\n\n\n\n\n\n\n\n\n\n\n\n\n\n\n\n\n\n\n\n<p><strong>Summer 2022</strong></p>\n<p> </p>\nFCPS Wellness Newsletter\n\nSchool Board Approves Updates to...",
      "pubDate": "Thu, 26 May 2022 12:09:09 -0500",
      "timestamp": 1653584949000,
      "feedName": "FCPS Wellness Newsletter",
      "category": "FCPS Wellness Newsletter",
      "feedSource": "http://www.fcps.edu/",
      "feedInfo": {
        "title": "FCPS Wellness - Recent Updates",
        "description": "FCPS Wellness - Recent Updates",
        "link": "http://www.fcps.edu/"
      }
    },
    {
      "id": "NTE5NTUxMzk=",
      "title": "Waples Mill Updates 5/21/22",
      "link": "https://content.govdelivery.com/accounts/VAEDUFCPS/bulletins/318c5c3",
      "description": "\n        \n\n\n  \n\n\n\n\n\n\n\n<p><a></a>Having trouble viewing this email? <a href=\"https://content.govdelivery.com/accounts/VAEDUFCPS/bulletins/318c5c3\">View it as a Web page</a>.</p>\n\n\n\n\n\n\n\n\n\n\n\n<a href=\"https://waplesmilles.fcps.edu/?utm_content=&amp;utm_medium=email&amp;utm_name=&amp;utm_source=govdelive...",
      "pubDate": "Sat, 21 May 2022 12:49:35 -0500",
      "timestamp": 1653155375000,
      "feedName": "Waples Mill Elementary School",
      "category": "Waples Mill Elementary School",
      "feedSource": "http://www.fcps.edu/index.shtml",
      "feedInfo": {
        "title": "Waples Mill Elementary School News and announcements - Recent Updates",
        "description": "Waples Mill Elementary School News and announcements",
        "link": "http://www.fcps.edu/index.shtml"
      }
    },
    {
      "id": "NTE4ODcwNDg=",
      "title": "Waples Mill Updates 5/13/22",
      "link": "https://content.govdelivery.com/accounts/VAEDUFCPS/bulletins/317bbc8",
      "description": "\n        \n\n\n  \n\n\n\n\n\n\n\n<p><a></a>Having trouble viewing this email? <a href=\"https://content.govdelivery.com/accounts/VAEDUFCPS/bulletins/317bbc8\">View it as a Web page</a>.</p>\n\n\n\n\n\n\n\n\n\n\n\n<a href=\"https://waplesmilles.fcps.edu/?utm_content=&amp;utm_medium=email&amp;utm_name=&amp;utm_source=govdelive...",
      "pubDate": "Fri, 13 May 2022 16:11:32 -0500",
      "timestamp": 1652476292000,
      "feedName": "Waples Mill Elementary School",
      "category": "Waples Mill Elementary School",
      "feedSource": "http://www.fcps.edu/index.shtml",
      "feedInfo": {
        "title": "Waples Mill Elementary School News and announcements - Recent Updates",
        "description": "Waples Mill Elementary School News and announcements",
        "link": "http://www.fcps.edu/index.shtml"
      }
    },
    {
      "id": "NTE4MTkwOTI=",
      "title": "Happy Bicycle Month",
      "link": "https://content.govdelivery.com/accounts/VAEDUFCPS/bulletins/316b254",
      "description": "\n        \n\n\n  \n\n\n\n\n\n\n\n<p><a></a>Having trouble viewing this email? <a href=\"https://content.govdelivery.com/accounts/VAEDUFCPS/bulletins/316b254\">View it as a Web page</a>.</p>\n\n\n\n\n\n\n\n\n\n\n\n<a href=\"https://www.fcps.edu/resources/safety-and-transportation/transportation-services/safe-routes-school-srt...",
      "pubDate": "Tue, 10 May 2022 14:41:45 -0500",
      "timestamp": 1652211705000,
      "feedName": "FCPS Safe Routes to School",
      "category": "FCPS Safe Routes to School",
      "feedSource": "http://www.fcps.edu/",
      "feedInfo": {
        "title": "Safe Routes to School - Recent Updates",
        "description": "Safe Routes to School - Recent Updates",
        "link": "http://www.fcps.edu/"
      }
    },
    {
      "id": "NTE4MTkwMTA=",
      "title": "Waples Mill Updates 5/6/22",
      "link": "https://content.govdelivery.com/accounts/VAEDUFCPS/bulletins/316b202",
      "description": "\n        \n\n\n  \n\n\n\n\n\n\n\n<p><a></a>Having trouble viewing this email? <a href=\"https://content.govdelivery.com/accounts/VAEDUFCPS/bulletins/316b202\">View it as a Web page</a>.</p>\n\n\n\n\n\n\n\n\n\n\n\n<a href=\"https://waplesmilles.fcps.edu/?utm_content=&amp;utm_medium=email&amp;utm_name=&amp;utm_source=govdelive...",
      "pubDate": "Fri, 06 May 2022 17:25:48 -0500",
      "timestamp": 1651875948000,
      "feedName": "Waples Mill Elementary School",
      "category": "Waples Mill Elementary School",
      "feedSource": "http://www.fcps.edu/index.shtml",
      "feedInfo": {
        "title": "Waples Mill Elementary School News and announcements - Recent Updates",
        "description": "Waples Mill Elementary School News and announcements",
        "link": "http://www.fcps.edu/index.shtml"
      }
    },
    {
      "id": "NTE4MDczMzI=",
      "title": "Album Release Event - Music Computer Tech",
      "link": "https://content.govdelivery.com/accounts/VAEDUFCPS/bulletins/3168464",
      "description": "\n        \n\n\n  \n\n\n\n\n\n\n\n<p><a></a>Having trouble viewing this email? <a href=\"https://content.govdelivery.com/accounts/VAEDUFCPS/bulletins/3168464\">View it as a Web page</a>.</p>\n\n\n\n\n\n\n\n\n\n\n\n<a href=\"http://www2.fcps.edu/WestPotomacAcademy/?utm_campaign+=&amp;utm_medium=email&amp;utm_source=govdelivery...",
      "pubDate": "Thu, 05 May 2022 12:25:49 -0500",
      "timestamp": 1651771549000,
      "feedName": "West Potomac Academy",
      "category": "West Potomac Academy",
      "feedSource": "http://www.fcps.edu/index.shtml",
      "feedInfo": {
        "title": "West Potomac Academy News and Announcements - Recent Updates",
        "description": "West Potomac Academy News and Announcements - Recent Updates",
        "link": "http://www.fcps.edu/index.shtml"
      }
    }
  ],
  "hasNext": true,
  "hasPrev": true
}