{
  "page": 258,
  "totalPages": 268,
  "totalItems": 5354,
  "itemsPerPage": 20,
  "items": [
    {
      "id": "NTExNzMyNjc=",
      "title": "WMES Calendar Reminders",
      "link": "https://content.govdelivery.com/accounts/VAEDUFCPS/bulletins/30cd793",
      "description": "\n        \n\n\n  \n\n\n\n\n\n\n\n<p><a></a>Having trouble viewing this email? <a href=\"https://content.govdelivery.com/accounts/VAEDUFCPS/bulletins/30cd793\">View it as a Web page</a>.</p>\n\n\n\n\n\n\n\n\n\n\n\n<a href=\"https://waplesmilles.fcps.edu/?utm_campaign+=&amp;utm_medium=email&amp;utm_source=govdelivery\" target=\"...",
      "pubDate": "Tue, 01 Mar 2022 11:23:11 -0600",
      "timestamp": 1646155391000,
      "feedName": "Waples Mill Elementary School",
      "category": "Waples Mill Elementary School",
      "feedSource": "http://www.fcps.edu/index.shtml",
      "feedInfo": {
        "title": "Waples Mill Elementary School News and announcements - Recent Updates",
        "description": "Waples Mill Elementary School News and announcements",
        "link": "http://www.fcps.edu/index.shtml"
      }
    },
    {
      "id": "NTExNDE1MzI=",
      "title": "Waples Mill Updates 2/25/22",
      "link": "https://content.govdelivery.com/accounts/VAEDUFCPS/bulletins/30c5b9c",
      "description": "\n        \n\n\n  \n\n\n\n\n\n\n\n<p><a></a>Having trouble viewing this email? <a href=\"https://content.govdelivery.com/accounts/VAEDUFCPS/bulletins/30c5b9c\">View it as a Web page</a>.</p>\n\n\n\n\n\n\n\n\n\n\n\n<a href=\"https://waplesmilles.fcps.edu/?utm_content=&amp;utm_medium=email&amp;utm_name=&amp;utm_source=govdelive...",
      "pubDate": "Fri, 25 Feb 2022 16:12:32 -0600",
      "timestamp": 1645827152000,
      "feedName": "Waples Mill Elementary School",
      "category": "Waples Mill Elementary School",
      "feedSource": "http://www.fcps.edu/index.shtml",
      "feedInfo": {
        "title": "Waples Mill Elementary School News and announcements - Recent Updates",
        "description": "Waples Mill Elementary School News and announcements",
        "link": "http://www.fcps.edu/index.shtml"
      }
    },
    {
      "id": "NTExMjA5Nzg=",
      "title": "SLHS Updates 2-23-22",
      "link": "https://content.govdelivery.com/accounts/VAEDUFCPS/bulletins/30c0b52",
      "description": "\n        \n\n\n  \n\n\n\n\n\n\n\n<p><a></a>Having trouble viewing this email? <a href=\"https://content.govdelivery.com/accounts/VAEDUFCPS/bulletins/30c0b52\">View it as a Web page</a>.</p>\n\n\n\n\n\n\n\n\n\n\n\n<a href=\"https://southlakeshs.fcps.edu/?utm_campaign+=&amp;utm_medium=email&amp;utm_source=govdelivery\" target=\"...",
      "pubDate": "Wed, 23 Feb 2022 19:41:22 -0600",
      "timestamp": 1645666882000,
      "feedName": "South Lakes High School",
      "category": "South Lakes High School",
      "feedSource": "http://www.fcps.edu/index.shtml",
      "feedInfo": {
        "title": "South Lakes High School General News & Announcements - Recent Updates",
        "description": "South Lakes High School News and announcements",
        "link": "http://www.fcps.edu/index.shtml"
      }
    },
    {
      "id": "NTEwNzMwNjQ=",
      "title": "Waples Mill Updates 2/18/22",
      "link": "https://content.govdelivery.com/accounts/VAEDUFCPS/bulletins/30b5028",
      "description": "\n        \n\n\n  \n\n\n\n\n\n\n\n<p><a></a>Having trouble viewing this email? <a href=\"https://content.govdelivery.com/accounts/VAEDUFCPS/bulletins/30b5028\">View it as a Web page</a>.</p>\n\n\n\n\n\n\n\n\n\n\n\n<a href=\"https://waplesmilles.fcps.edu/?utm_content=&amp;utm_medium=email&amp;utm_name=&amp;utm_source=govdelive...",
      "pubDate": "Fri, 18 Feb 2022 16:57:29 -0600",
      "timestamp": 1645225049000,
      "feedName": "Waples Mill Elementary School",
      "category": "Waples Mill Elementary School",
      "feedSource": "http://www.fcps.edu/index.shtml",
      "feedInfo": {
        "title": "Waples Mill Elementary School News and announcements - Recent Updates",
        "description": "Waples Mill Elementary School News and announcements",
        "link": "http://www.fcps.edu/index.shtml"
      }
    },
    {
      "id": "NTA5ODEzOTU=",
      "title": "Yearbooks, Spirit Days and Kinder Registration",
      "link": "https://content.govdelivery.com/accounts/VAEDUFCPS/bulletins/309ea13",
      "description": "\n        \n\n\n  \n\n\n\n\n\n\n\n<p><a></a>Having trouble viewing this email? <a href=\"https://content.govdelivery.com/accounts/VAEDUFCPS/bulletins/309ea13\">View it as a Web page</a>.</p>\n\n\n\n\n\n\n\n\n\n\n\n<a href=\"https://grahamroades.fcps.edu/?utm_campaign+=&amp;utm_medium=email&amp;utm_source=govdelivery\" target=\"...",
      "pubDate": "Sun, 13 Feb 2022 15:00:11 -0600",
      "timestamp": 1644786011000,
      "feedName": "Graham Road Elementary School",
      "category": "Graham Road Elementary School",
      "feedSource": "http://www.fcps.edu/index.shtml",
      "feedInfo": {
        "title": "Graham Road Elementary School News and announcements - Recent Updates",
        "description": "Graham Road Elementary School News and announcements",
        "link": "http://www.fcps.edu/index.shtml"
      }
    },
    {
      "id": "NTEwMDM4OTA=",
      "title": "Waples Mill Updates 2/11/22",
      "link": "https://content.govdelivery.com/accounts/VAEDUFCPS/bulletins/30a41f2",
      "description": "\n        \n\n\n  \n\n\n\n\n\n\n\n<p><a></a>Having trouble viewing this email? <a href=\"https://content.govdelivery.com/accounts/VAEDUFCPS/bulletins/30a41f2\">View it as a Web page</a>.</p>\n\n\n\n\n\n\n\n\n\n\n\n<a href=\"https://waplesmilles.fcps.edu/?utm_content=&amp;utm_medium=email&amp;utm_name=&amp;utm_source=govdelive...",
      "pubDate": "Fri, 11 Feb 2022 15:38:45 -0600",
      "timestamp": 1644615525000,
      "feedName": "Waples Mill Elementary School",
      "category": "Waples Mill Elementary School",
      "feedSource": "http://www.fcps.edu/index.shtml",
      "feedInfo": {
        "title": "Waples Mill Elementary School News and announcements - Recent Updates",
        "description": "Waples Mill Elementary School News and announcements",
        "link": "http://www.fcps.edu/index.shtml"
      }
    },
    {
      "id": "NTA5NzQ5NzQ=",
      "title": "WPA - Students of the 2nd Quarter!",
      "link": "https://content.govdelivery.com/accounts/VAEDUFCPS/bulletins/309d0fe",
      "description": "\n        \n\n\n  \n\n\n\n\n\n\n\n<p><a></a>Having trouble viewing this email? <a href=\"https://content.govdelivery.com/accounts/VAEDUFCPS/bulletins/309d0fe\">View it as a Web page</a>.</p>\n\n\n\n\n\n\n\n\n\n\n\n<a href=\"http://www2.fcps.edu/WestPotomacAcademy/?utm_content=&amp;utm_medium=email&amp;utm_name=&amp;utm_source...",
      "pubDate": "Wed, 09 Feb 2022 07:59:47 -0600",
      "timestamp": 1644415187000,
      "feedName": "West Potomac Academy",
      "category": "West Potomac Academy",
      "feedSource": "http://www.fcps.edu/index.shtml",
      "feedInfo": {
        "title": "West Potomac Academy News and Announcements - Recent Updates",
        "description": "West Potomac Academy News and Announcements - Recent Updates",
        "link": "http://www.fcps.edu/index.shtml"
      }
    },
    {
      "id": "NTA5Mjk4NjA=",
      "title": "2nd Quarter WP Academy Newsletter",
      "link": "https://content.govdelivery.com/accounts/VAEDUFCPS/bulletins/30920c4",
      "description": "\n        \n\n\n  \n\n\n\n\n\n\n\n<p><a></a>Having trouble viewing this email? <a href=\"https://content.govdelivery.com/accounts/VAEDUFCPS/bulletins/30920c4\">View it as a Web page</a>.</p>\n\n\n\n\n\n\n\n\n\n\n\n<a href=\"http://www2.fcps.edu/WestPotomacAcademy/?utm_content=&amp;utm_medium=email&amp;utm_name=&amp;utm_source...",
      "pubDate": "Mon, 07 Feb 2022 13:35:10 -0600",
      "timestamp": 1644262510000,
      "feedName": "West Potomac Academy",
      "category": "West Potomac Academy",
      "feedSource": "http://www.fcps.edu/index.shtml",
      "feedInfo": {
        "title": "West Potomac Academy News and Announcements - Recent Updates",
        "description": "West Potomac Academy News and Announcements - Recent Updates",
        "link": "http://www.fcps.edu/index.shtml"
      }
    },
    {
      "id": "NTA5Mjc2NDQ=",
      "title": "Crossing Guard Appreciation Day",
      "link": "https://content.govdelivery.com/accounts/VAEDUFCPS/bulletins/309181c",
      "description": "\n        \n\n\n  \n\n\n\n\n\n\n\n<p><a></a>Having trouble viewing this email? <a href=\"https://content.govdelivery.com/accounts/VAEDUFCPS/bulletins/309181c\">View it as a Web page</a>.</p>\n\n\n\n\n\n\n\n\n\n\n\n<a href=\"https://www.fcps.edu/resources/safety-and-transportation/transportation-services/safe-routes-school-srt...",
      "pubDate": "Fri, 04 Feb 2022 14:19:29 -0600",
      "timestamp": 1644005969000,
      "feedName": "FCPS Safe Routes to School",
      "category": "FCPS Safe Routes to School",
      "feedSource": "http://www.fcps.edu/",
      "feedInfo": {
        "title": "Safe Routes to School - Recent Updates",
        "description": "Safe Routes to School - Recent Updates",
        "link": "http://www.fcps.edu/"
      }
    },
    {
      "id": "NTA4MTkwMjM=",
      "title": "West Potomac Academy - Virtual Open House Reminder",
      "link": "https://content.govdelivery.com/accounts/VAEDUFCPS/bulletins/3076fcf",
      "description": "\n        \n\n\n  \n\n\n\n\n\n\n\n<p><a></a>Having trouble viewing this email? <a href=\"https://content.govdelivery.com/accounts/VAEDUFCPS/bulletins/3076fcf\">View it as a Web page</a>.</p>\n\n\n\n\n\n\n\n\n\n\n\n<a href=\"http://www2.fcps.edu/WestPotomacAcademy/?utm_campaign+=&amp;utm_medium=email&amp;utm_source=govdelivery...",
      "pubDate": "Tue, 25 Jan 2022 07:48:57 -0600",
      "timestamp": 1643118537000,
      "feedName": "West Potomac Academy",
      "category": "West Potomac Academy",
      "feedSource": "http://www.fcps.edu/index.shtml",
      "feedInfo": {
        "title": "West Potomac Academy News and Announcements - Recent Updates",
        "description": "West Potomac Academy News and Announcements - Recent Updates",
        "link": "http://www.fcps.edu/index.shtml"
      }
    },
    {
      "id": "NTA3NzY5MzA=",
      "title": "Special Education Update - National PTA Listening Sessions",
      "link": "https://content.govdelivery.com/accounts/VAEDUFCPS/bulletins/306cb62",
      "description": "\n        \n\n\n  \n\n\n\n\n\n\n\n<p><a></a>Having trouble viewing this email? <a href=\"https://content.govdelivery.com/accounts/VAEDUFCPS/bulletins/306cb62\">View it as a Web page</a>.</p>\n\n\n\n\n\n\n\n\n\n\n\n<a href=\"https://www.fcps.edu/academics/academic-overview/special-education-instruction?utm_content=&amp;utm_med...",
      "pubDate": "Thu, 20 Jan 2022 15:29:14 -0600",
      "timestamp": 1642714154000,
      "feedName": "FCPS Special Education Update",
      "category": "FCPS Special Education Update",
      "feedSource": "https://www.fcps.edu/",
      "feedInfo": {
        "title": "Special Education and 504 Newsletter - Recent Updates",
        "description": "Special Education and 504 Newsletter - Recent Updates",
        "link": "https://www.fcps.edu/"
      }
    },
    {
      "id": "NTA2NDc5MzQ=",
      "title": "Updated Covid Protocols and Vaccine Clinics for 5-11 year olds!",
      "link": "https://content.govdelivery.com/accounts/VAEDUFCPS/bulletins/304d37e",
      "description": "\n        \n\n\n  \n\n\n\n\n\n\n\n<p><a></a>Having trouble viewing this email? <a href=\"https://content.govdelivery.com/accounts/VAEDUFCPS/bulletins/304d37e\">View it as a Web page</a>.</p>\n\n\n\n\n\n\n\n\n\n\n\n<a href=\"https://grahamroades.fcps.edu/?utm_campaign+=&amp;utm_medium=email&amp;utm_source=govdelivery\" target=\"...",
      "pubDate": "Sun, 09 Jan 2022 15:00:17 -0600",
      "timestamp": 1641762017000,
      "feedName": "Graham Road Elementary School",
      "category": "Graham Road Elementary School",
      "feedSource": "http://www.fcps.edu/index.shtml",
      "feedInfo": {
        "title": "Graham Road Elementary School News and announcements - Recent Updates",
        "description": "Graham Road Elementary School News and announcements",
        "link": "http://www.fcps.edu/index.shtml"
      }
    },
    {
      "id": "NTA1NzQ5NTg=",
      "title": "Crossing Guard Appreciation Day",
      "link": "https://content.govdelivery.com/accounts/VAEDUFCPS/bulletins/303b66e",
      "description": "\n        \n\n\n  \n\n\n\n\n\n\n\n<p><a></a>Having trouble viewing this email? <a href=\"https://content.govdelivery.com/accounts/VAEDUFCPS/bulletins/303b66e\">View it as a Web page</a>.</p>\n\n\n\n\n\n\n\n\n\n\n\n<a href=\"https://www.fcps.edu/resources/safety-and-transportation/transportation-services/safe-routes-school-srt...",
      "pubDate": "Thu, 06 Jan 2022 07:52:36 -0600",
      "timestamp": 1641477156000,
      "feedName": "FCPS Safe Routes to School",
      "category": "FCPS Safe Routes to School",
      "feedSource": "http://www.fcps.edu/",
      "feedInfo": {
        "title": "Safe Routes to School - Recent Updates",
        "description": "Safe Routes to School - Recent Updates",
        "link": "http://www.fcps.edu/"
      }
    },
    {
      "id": "NTAzNzI0NzY=",
      "title": "Winter Break is Here!",
      "link": "https://content.govdelivery.com/accounts/VAEDUFCPS/bulletins/3009f7c",
      "description": "\n        \n\n\n  \n\n\n\n\n\n\n\n<p><a></a>Having trouble viewing this email? <a href=\"https://content.govdelivery.com/accounts/VAEDUFCPS/bulletins/3009f7c\">View it as a Web page</a>.</p>\n\n\n\n\n\n\n\n\n\n\n\n<a href=\"http://www2.fcps.edu/WestPotomacAcademy/?utm_content=&amp;utm_medium=email&amp;utm_name=&amp;utm_source...",
      "pubDate": "Fri, 17 Dec 2021 07:25:33 -0600",
      "timestamp": 1639747533000,
      "feedName": "West Potomac Academy",
      "category": "West Potomac Academy",
      "feedSource": "http://www.fcps.edu/index.shtml",
      "feedInfo": {
        "title": "West Potomac Academy News and Announcements - Recent Updates",
        "description": "West Potomac Academy News and Announcements - Recent Updates",
        "link": "http://www.fcps.edu/index.shtml"
      }
    },
    {
      "id": "NTAzNTIzMDA=",
      "title": "AAP Level 4 Referral Deadline and Pajama Day!",
      "link": "https://content.govdelivery.com/accounts/VAEDUFCPS/bulletins/30050ac",
      "description": "\n        \n\n\n  \n\n\n\n\n\n\n\n<p><a></a>Having trouble viewing this email? <a href=\"https://content.govdelivery.com/accounts/VAEDUFCPS/bulletins/30050ac\">View it as a Web page</a>.</p>\n\n\n\n\n\n\n\n\n\n\n\n<a href=\"https://grahamroades.fcps.edu/?utm_content=&amp;utm_medium=email&amp;utm_name=&amp;utm_source=govdelive...",
      "pubDate": "Sun, 12 Dec 2021 15:00:11 -0600",
      "timestamp": 1639342811000,
      "feedName": "Graham Road Elementary School",
      "category": "Graham Road Elementary School",
      "feedSource": "http://www.fcps.edu/index.shtml",
      "feedInfo": {
        "title": "Graham Road Elementary School News and announcements - Recent Updates",
        "description": "Graham Road Elementary School News and announcements",
        "link": "http://www.fcps.edu/index.shtml"
      }
    },
    {
      "id": "NTAzMDE4ODA=",
      "title": "December Safe Routes to School Newsletter",
      "link": "https://content.govdelivery.com/accounts/VAEDUFCPS/bulletins/2ff8bb8",
      "description": "\n        \n\n\n  \n\n\n\n\n\n\n\n<p><a></a>Having trouble viewing this email? <a href=\"https://content.govdelivery.com/accounts/VAEDUFCPS/bulletins/2ff8bb8\">View it as a Web page</a>.</p>\n\n\n\n\n\n\n\n\n\n\n\n<a href=\"https://www.fcps.edu/resources/safety-and-transportation/transportation-services/safe-routes-school-srt...",
      "pubDate": "Wed, 08 Dec 2021 11:03:14 -0600",
      "timestamp": 1638982994000,
      "feedName": "FCPS Safe Routes to School",
      "category": "FCPS Safe Routes to School",
      "feedSource": "http://www.fcps.edu/",
      "feedInfo": {
        "title": "Safe Routes to School - Recent Updates",
        "description": "Safe Routes to School - Recent Updates",
        "link": "http://www.fcps.edu/"
      }
    },
    {
      "id": "NTAyNjY2NTE=",
      "title": "Pediatric Vaccination Clinic at Graham Road and Winter Coats",
      "link": "https://content.govdelivery.com/accounts/VAEDUFCPS/bulletins/2ff021b",
      "description": "\n        \n\n\n  \n\n\n\n\n\n\n\n<p><a></a>Having trouble viewing this email? <a href=\"https://content.govdelivery.com/accounts/VAEDUFCPS/bulletins/2ff021b\">View it as a Web page</a>.</p>\n\n\n\n\n\n\n\n\n\n\n\n<a href=\"https://grahamroades.fcps.edu/?utm_content=&amp;utm_medium=email&amp;utm_name=&amp;utm_source=govdelive...",
      "pubDate": "Thu, 02 Dec 2021 18:10:26 -0600",
      "timestamp": 1638490226000,
      "feedName": "Graham Road Elementary School",
      "category": "Graham Road Elementary School",
      "feedSource": "http://www.fcps.edu/index.shtml",
      "feedInfo": {
        "title": "Graham Road Elementary School News and announcements - Recent Updates",
        "description": "Graham Road Elementary School News and announcements",
        "link": "http://www.fcps.edu/index.shtml"
      }
    },
    {
      "id": "NTAyNjEyNDA=",
      "title": "Pediatric Vaccination Clinic at Graham Road and Winter Coats",
      "link": "https://content.govdelivery.com/accounts/VAEDUFCPS/bulletins/2feecf8",
      "description": "\n        \n\n\n  \n\n\n\n\n\n\n\n<p><a></a>Having trouble viewing this email? <a href=\"https://content.govdelivery.com/accounts/VAEDUFCPS/bulletins/2feecf8\">View it as a Web page</a>.</p>\n\n\n\n\n\n\n\n\n\n\n\n<a href=\"https://grahamroades.fcps.edu/?utm_content=&amp;utm_medium=email&amp;utm_name=&amp;utm_source=govdelive...",
      "pubDate": "Thu, 02 Dec 2021 16:05:13 -0600",
      "timestamp": 1638482713000,
      "feedName": "Graham Road Elementary School",
      "category": "Graham Road Elementary School",
      "feedSource": "http://www.fcps.edu/index.shtml",
      "feedInfo": {
        "title": "Graham Road Elementary School News and announcements - Recent Updates",
        "description": "Graham Road Elementary School News and announcements",
        "link": "http://www.fcps.edu/index.shtml"
      }
    },
    {
      "id": "NTAxNjU4NTU=",
      "title": "Level IV Referrals /Las Recomendaciones del Nivel IV de AAP",
      "link": "https://content.govdelivery.com/accounts/VAEDUFCPS/bulletins/2fd785f",
      "description": "\n        \n\n\n  \n\n\n\n\n\n\n\n<p><a></a>Having trouble viewing this email? <a href=\"https://content.govdelivery.com/accounts/VAEDUFCPS/bulletins/2fd785f\">View it as a Web page</a>.</p>\n\n\n\n\n\n\n\n\n\n\n\n<a href=\"https://grahamroades.fcps.edu/?utm_content=&amp;utm_medium=email&amp;utm_name=&amp;utm_source=govdelive...",
      "pubDate": "Mon, 22 Nov 2021 15:30:12 -0600",
      "timestamp": 1637616612000,
      "feedName": "Graham Road Elementary School",
      "category": "Graham Road Elementary School",
      "feedSource": "http://www.fcps.edu/index.shtml",
      "feedInfo": {
        "title": "Graham Road Elementary School News and announcements - Recent Updates",
        "description": "Graham Road Elementary School News and announcements",
        "link": "http://www.fcps.edu/index.shtml"
      }
    },
    {
      "id": "NTAxMTYyODE=",
      "title": "WPA - Students of the 1st Quarter!",
      "link": "https://content.govdelivery.com/accounts/VAEDUFCPS/bulletins/2fcb6b9",
      "description": "\n        \n\n\n  \n\n\n\n\n\n\n\n<p><a></a>Having trouble viewing this email? <a href=\"https://content.govdelivery.com/accounts/VAEDUFCPS/bulletins/2fcb6b9\">View it as a Web page</a>.</p>\n\n\n\n\n\n\n\n\n\n\n\n<a href=\"http://www2.fcps.edu/WestPotomacAcademy/?utm_content=&amp;utm_medium=email&amp;utm_name=&amp;utm_source...",
      "pubDate": "Thu, 18 Nov 2021 06:57:33 -0600",
      "timestamp": 1637240253000,
      "feedName": "West Potomac Academy",
      "category": "West Potomac Academy",
      "feedSource": "http://www.fcps.edu/index.shtml",
      "feedInfo": {
        "title": "West Potomac Academy News and Announcements - Recent Updates",
        "description": "West Potomac Academy News and Announcements - Recent Updates",
        "link": "http://www.fcps.edu/index.shtml"
      }
    }
  ],
  "hasNext": true,
  "hasPrev": true
}