{
  "page": 245,
  "totalPages": 268,
  "totalItems": 5354,
  "itemsPerPage": 20,
  "items": [
    {
      "id": "NjA5MDYzNjk=",
      "title": "Falcon Press 6.13.24",
      "link": "https://content.govdelivery.com/accounts/VAEDUFCPS/bulletins/3a15b81",
      "description": "\n        \n\n\n  \n\n\n\n\n\n\n\n<p><a></a>Having trouble viewing this email? <a href=\"https://content.govdelivery.com/accounts/VAEDUFCPS/bulletins/3a15b81\">View it as a Web page</a>.</p>\n\n\n\n\n\n\n\n\n\n\n\n<a href=\"https://forestdalees.fcps.edu/?utm_campaign+=&amp;utm_medium=email&amp;utm_source=govdelivery\" target=\"...",
      "pubDate": "Thu, 13 Jun 2024 09:44:36 -0500",
      "timestamp": 1718289876000,
      "feedName": "Forestdale Elementary School",
      "category": "Forestdale Elementary School",
      "feedSource": "http://www.fcps.edu/index.shtml",
      "feedInfo": {
        "title": "Forestdale Elementary School News and announcements - Recent Updates",
        "description": "Forestdale Elementary School News and announcements",
        "link": "http://www.fcps.edu/index.shtml"
      }
    },
    {
      "id": "NjA5NjY1NzI=",
      "title": "News You Choose, June 12, 2024",
      "link": "https://content.govdelivery.com/accounts/VAEDUFCPS/bulletins/3a246ac",
      "description": "\n        \n\n\n  \n\n\n\n\n\n\n\n<p><a></a>Having trouble viewing this email? <a href=\"https://content.govdelivery.com/accounts/VAEDUFCPS/bulletins/3a246ac\">View it as a Web page</a>.</p>\n\n\n\n\n\n\n\n\n\n\n\n<a href=\"http://www2.fcps.edu/ViennaES/?utm_content=&amp;utm_medium=email&amp;utm_name=&amp;utm_source=govdelive...",
      "pubDate": "Wed, 12 Jun 2024 15:00:24 -0500",
      "timestamp": 1718222424000,
      "feedName": "Vienna Elementary School",
      "category": "Vienna Elementary School",
      "feedSource": "http://www.fcps.edu/index.shtml",
      "feedInfo": {
        "title": "Vienna Elementary School News and announcements - Recent Updates",
        "description": "Vienna Elementary School News and announcements",
        "link": "http://www.fcps.edu/index.shtml"
      }
    },
    {
      "id": "NjA2MTM0ODI=",
      "title": "Louise Archer News 6-10-24",
      "link": "https://content.govdelivery.com/accounts/VAEDUFCPS/bulletins/39ce36a",
      "description": "\n        \n\n\n  \n\n\n\n\n\n\n\n<p><a></a>Having trouble viewing this email? <a href=\"https://content.govdelivery.com/accounts/VAEDUFCPS/bulletins/39ce36a\">View it as a Web page</a>.</p>\n\n\n\n\n\n\n\n\n\n\n\n<a href=\"https://twitter.com/LouiseArcherES?utm_content=&amp;utm_medium=email&amp;utm_name=&amp;utm_source=govde...",
      "pubDate": "Mon, 10 Jun 2024 07:21:26 -0500",
      "timestamp": 1718022086000,
      "feedName": "Louise Archer Elementary School",
      "category": "Louise Archer Elementary School",
      "feedSource": "http://www.fcps.edu/index.shtml",
      "feedInfo": {
        "title": "Louise Archer Elementary School News and announcements - Recent Updates",
        "description": "Louise Archer Elementary School News and announcements",
        "link": "http://www.fcps.edu/index.shtml"
      }
    },
    {
      "id": "NjA4NTEwNzI=",
      "title": "Welcome to my June Newsletter - Graduation Season is Here and Opportunity is Everywhere",
      "link": "https://content.govdelivery.com/accounts/VAEDUFCPS/bulletins/3a08380",
      "description": "\n        \n\n\n  \n\n\n\n\n\n\n\n<p><a></a>Having trouble viewing this email? <a href=\"https://content.govdelivery.com/accounts/VAEDUFCPS/bulletins/3a08380\">View it as a Web page</a>.</p>\n\n\n\n\n\n\n\n\n\n\n\n<a href=\"https://www.fcps.edu/staff/ilryong-moon?utm_campaign+=&amp;utm_medium=email&amp;utm_source=govdelivery\"...",
      "pubDate": "Fri, 07 Jun 2024 18:14:15 -0500",
      "timestamp": 1717802055000,
      "feedName": "FCPS School Board Member at Large (Ilryong Moon)",
      "category": "FCPS School Board Member at Large (Ilryong Moon)",
      "feedSource": "http://www.fcps.edu/",
      "feedInfo": {
        "title": "At-Large Member - Ilryong Moon - Recent Updates",
        "description": "At-Large Member - Ilryong Moon - Recent Updates",
        "link": "http://www.fcps.edu/"
      }
    },
    {
      "id": "NjA5MDQ2ODA=",
      "title": "News From the Nest: Family Edition",
      "link": "https://content.govdelivery.com/accounts/VAEDUFCPS/bulletins/3a154e8",
      "description": "\n        \n\n\n  \n\n\n\n\n\n\n\n<p><a></a>Having trouble viewing this email? <a href=\"https://content.govdelivery.com/accounts/VAEDUFCPS/bulletins/3a154e8\">View it as a Web page</a>.</p>\n\n\n\n\n\n\n\n\n\n\n\n<a href=\"https://glenforestes.fcps.edu/?utm_campaign+=&amp;utm_medium=email&amp;utm_source=govdelivery\" target=\"...",
      "pubDate": "Fri, 07 Jun 2024 15:34:13 -0500",
      "timestamp": 1717792453000,
      "feedName": "Glen Forest Elementary School",
      "category": "Glen Forest Elementary School",
      "feedSource": "http://www.fcps.edu/index.shtml",
      "feedInfo": {
        "title": "Glen Forest Elementary School News and announcements - Recent Updates",
        "description": "Glen Forest Elementary School News and announcements",
        "link": "http://www.fcps.edu/index.shtml"
      }
    },
    {
      "id": "NjA4ODk2MjE=",
      "title": "Falcon Press 6.7.24",
      "link": "https://content.govdelivery.com/accounts/VAEDUFCPS/bulletins/3a11a15",
      "description": "\n        \n\n\n  \n\n\n\n\n\n\n\n<p><a></a>Having trouble viewing this email? <a href=\"https://content.govdelivery.com/accounts/VAEDUFCPS/bulletins/3a11a15\">View it as a Web page</a>.</p>\n\n\n\n\n\n\n\n\n\n\n\n<a href=\"https://forestdalees.fcps.edu/?utm_campaign+=&amp;utm_medium=email&amp;utm_source=govdelivery\" target=\"...",
      "pubDate": "Fri, 07 Jun 2024 14:24:13 -0500",
      "timestamp": 1717788253000,
      "feedName": "Forestdale Elementary School",
      "category": "Forestdale Elementary School",
      "feedSource": "http://www.fcps.edu/index.shtml",
      "feedInfo": {
        "title": "Forestdale Elementary School News and announcements - Recent Updates",
        "description": "Forestdale Elementary School News and announcements",
        "link": "http://www.fcps.edu/index.shtml"
      }
    },
    {
      "id": "NjA5MDU3MTA=",
      "title": "Major News for Friday, June 7, 2024",
      "link": "https://content.govdelivery.com/accounts/VAEDUFCPS/bulletins/3a158ee",
      "description": "\n        \n\n\n  \n\n\n\n\n\n\n\n<p><a></a>Having trouble viewing this email? <a href=\"https://content.govdelivery.com/accounts/VAEDUFCPS/bulletins/3a158ee\">View it as a Web page</a>.</p>\n\n\n\n\n\n\n\n\n\n\n\n<a href=\"https://mountvernonhs.fcps.edu/?utm_campaign+=&amp;utm_medium=email&amp;utm_source=govdelivery\" target=...",
      "pubDate": "Fri, 07 Jun 2024 13:27:29 -0500",
      "timestamp": 1717784849000,
      "feedName": "Mount Vernon High School",
      "category": "Mount Vernon High School",
      "feedSource": "http://www.fcps.edu/index.shtml",
      "feedInfo": {
        "title": "Mount Vernon High School News and announcements - Recent Updates",
        "description": "Mount Vernon High School News and announcements",
        "link": "http://www.fcps.edu/index.shtml"
      }
    },
    {
      "id": "NjA4OTE1Mzg=",
      "title": "New Head Field Hockey Coach",
      "link": "https://content.govdelivery.com/accounts/VAEDUFCPS/bulletins/3a12192",
      "description": "\n        \n\n\n  \n\n\n\n\n\n\n\n<p><a></a>Having trouble viewing this email? <a href=\"https://content.govdelivery.com/accounts/VAEDUFCPS/bulletins/3a12192\">View it as a Web page</a>.</p>\n\n\n\n\n\n\n\n\n\n\n\n<a href=\"https://hayfieldss.fcps.edu/?utm_campaign+=&amp;utm_medium=email&amp;utm_source=govdelivery\" target=\"_b...",
      "pubDate": "Thu, 06 Jun 2024 14:06:11 -0500",
      "timestamp": 1717700771000,
      "feedName": "Hayfield Secondary School",
      "category": "Hayfield Secondary School",
      "feedSource": "http://www.fcps.edu/index.shtml",
      "feedInfo": {
        "title": "Hayfield Secondary School News and Announcements - Recent Updates",
        "description": "Hayfield Secondary School News and announcements",
        "link": "http://www.fcps.edu/index.shtml"
      }
    },
    {
      "id": "NjA4NDA1MTA=",
      "title": "Falls Church Academy News!",
      "link": "https://content.govdelivery.com/accounts/VAEDUFCPS/bulletins/3a05a3e",
      "description": "\n        \n\n\n  \n\n\n\n\n\n\n\n<p><a></a>Having trouble viewing this email? <a href=\"https://content.govdelivery.com/accounts/VAEDUFCPS/bulletins/3a05a3e\">View it as a Web page</a>.</p>\n\n\n\n\n\n\n\n\n\n\n\n<a href=\"https://fallschurchacademy.fcps.edu/?utm_content=&amp;utm_medium=email&amp;utm_name=&amp;utm_source=gov...",
      "pubDate": "Thu, 06 Jun 2024 13:36:22 -0500",
      "timestamp": 1717698982000,
      "feedName": "Falls Church Academy",
      "category": "Falls Church Academy",
      "feedSource": "http://www.fcps.edu/index.shtml",
      "feedInfo": {
        "title": "Falls Church Academy News and Announcements - Recent Updates",
        "description": "Falls Church Academy News and Announcements - Recent Updates",
        "link": "http://www.fcps.edu/index.shtml"
      }
    },
    {
      "id": "NjA4OTA4Nzc=",
      "title": "MVHS Little Majors Preschool Program",
      "link": "https://content.govdelivery.com/accounts/VAEDUFCPS/bulletins/3a11efd",
      "description": "\n        \n\n\n  \n\n\n\n\n\n\n\n<p><a></a>Having trouble viewing this email? <a href=\"https://content.govdelivery.com/accounts/VAEDUFCPS/bulletins/3a11efd\">View it as a Web page</a>.</p>\n\n\n\n\n\n\n\n\n\n\n\n<a href=\"https://mountvernonhs.fcps.edu/?utm_campaign+=&amp;utm_medium=email&amp;utm_source=govdelivery\" target=...",
      "pubDate": "Thu, 06 Jun 2024 12:59:48 -0500",
      "timestamp": 1717696788000,
      "feedName": "Mount Vernon High School",
      "category": "Mount Vernon High School",
      "feedSource": "http://www.fcps.edu/index.shtml",
      "feedInfo": {
        "title": "Mount Vernon High School News and announcements - Recent Updates",
        "description": "Mount Vernon High School News and announcements",
        "link": "http://www.fcps.edu/index.shtml"
      }
    },
    {
      "id": "NjA3MTIwMDU=",
      "title": "FCPS Wellness Newsletter Summer 2024",
      "link": "https://content.govdelivery.com/accounts/VAEDUFCPS/bulletins/39e6445",
      "description": "\n        \n\n\n  \n\n\n\n\n\n\n\n<p>Having trouble viewing this email? <a href=\"https://content.govdelivery.com/accounts/VAEDUFCPS/bulletins/39e6445\">View it as a Web page</a>.</p>\n\n\n\n\n\n\n\n\n\n\n\n\n\n\n\n\n\n\n\n\n\n\n\n\n\n\n\n<p><strong>Summer 2024</strong></p>\n<p> </p>\nFCPS Wellness Newsletter\n\n<strong>Summer Safety Tips</stro...",
      "pubDate": "Thu, 06 Jun 2024 08:05:30 -0500",
      "timestamp": 1717679130000,
      "feedName": "FCPS Wellness Newsletter",
      "category": "FCPS Wellness Newsletter",
      "feedSource": "http://www.fcps.edu/",
      "feedInfo": {
        "title": "FCPS Wellness - Recent Updates",
        "description": "FCPS Wellness - Recent Updates",
        "link": "http://www.fcps.edu/"
      }
    },
    {
      "id": "NjA3OTU5Njc=",
      "title": "June 2024: Congratulations to the Class of 2024!",
      "link": "https://content.govdelivery.com/accounts/VAEDUFCPS/bulletins/39fac3f",
      "description": "\n        \n\n\n  \n\n\n\n\n\n\n\n<p><a></a>Having trouble viewing this email? <a href=\"https://content.govdelivery.com/accounts/VAEDUFCPS/bulletins/39fac3f\">View it as a Web page</a>.</p>\n\n\n\n\n\n\n\n\n\n\n\n<a href=\"https://www.fcps.edu/staff/robyn-lady?utm_campaign+=&amp;utm_medium=email&amp;utm_source=govdelivery\" t...",
      "pubDate": "Wed, 05 Jun 2024 16:52:41 -0500",
      "timestamp": 1717624361000,
      "feedName": "FCPS School Board Dranesville District",
      "category": "FCPS School Board Dranesville District",
      "feedSource": "http://www.fcps.edu/index.shtml",
      "feedInfo": {
        "title": "Dranesville District Member - Robyn Lady - Recent Updates",
        "description": "Dranesville District Member - Robyn Lady - Recent Updates",
        "link": "http://www.fcps.edu/index.shtml"
      }
    },
    {
      "id": "NjA4NzYxNDA=",
      "title": "News You Choose, June 5, 2024",
      "link": "https://content.govdelivery.com/accounts/VAEDUFCPS/bulletins/3a0e56c",
      "description": "\n        \n\n\n  \n\n\n\n\n\n\n\n<p><a></a>Having trouble viewing this email? <a href=\"https://content.govdelivery.com/accounts/VAEDUFCPS/bulletins/3a0e56c\">View it as a Web page</a>.</p>\n\n\n\n\n\n\n\n\n\n\n\n<a href=\"http://www2.fcps.edu/ViennaES/?utm_content=&amp;utm_medium=email&amp;utm_name=&amp;utm_source=govdelive...",
      "pubDate": "Wed, 05 Jun 2024 15:00:30 -0500",
      "timestamp": 1717617630000,
      "feedName": "Vienna Elementary School",
      "category": "Vienna Elementary School",
      "feedSource": "http://www.fcps.edu/index.shtml",
      "feedInfo": {
        "title": "Vienna Elementary School News and announcements - Recent Updates",
        "description": "Vienna Elementary School News and announcements",
        "link": "http://www.fcps.edu/index.shtml"
      }
    },
    {
      "id": "NjA3OTc1MzU=",
      "title": "LGBTQIA+ PRIDE Month",
      "link": "https://content.govdelivery.com/accounts/VAEDUFCPS/bulletins/39fb25f",
      "description": "\n        \n\n\n  \n\n\n\n\n\n\n\n<p><a></a>Having trouble viewing this email? <a href=\"https://content.govdelivery.com/accounts/VAEDUFCPS/bulletins/39fb25f\">View it as a Web page</a>.</p>\n\n\n\n\n\n\n\n\n\n\n\n<a href=\"https://www.fcps.edu/resources/family-engagement/family-engagement-resources?utm_campaign+=&amp;utm_med...",
      "pubDate": "Tue, 04 Jun 2024 06:19:19 -0500",
      "timestamp": 1717499959000,
      "feedName": "FCPS Tuesday Tips",
      "category": "FCPS Tuesday Tips",
      "feedSource": "http://www.fcps.edu/index.shtml",
      "feedInfo": {
        "title": "Family and School Partnerships - Recent Updates",
        "description": "Family and School Partnerships - Recent Updates",
        "link": "http://www.fcps.edu/index.shtml"
      }
    },
    {
      "id": "NjA4NDgyMDI=",
      "title": "June 3, 2024",
      "link": "https://content.govdelivery.com/accounts/VAEDUFCPS/bulletins/3a0784a",
      "description": "\n        \n\n\n  \n\n\n\n\n\n\n\n<p><a></a>Having trouble viewing this email? <a href=\"https://content.govdelivery.com/accounts/VAEDUFCPS/bulletins/3a0784a\">View it as a Web page</a>.</p>\n\n\n\n\n\n\n\n\n\n\n\n<a href=\"https://whitmanms.fcps.edu/?utm_campaign+=&amp;utm_medium=email&amp;utm_source=govdelivery\" target=\"_bl...",
      "pubDate": "Mon, 03 Jun 2024 16:24:57 -0500",
      "timestamp": 1717449897000,
      "feedName": "Whitman Middle School",
      "category": "Whitman Middle School",
      "feedSource": "http://www.fcps.edu/index.shtml",
      "feedInfo": {
        "title": "Whitman Middle School News and announcements - Recent Updates",
        "description": "Whitman Middle School News and announcements",
        "link": "http://www.fcps.edu/index.shtml"
      }
    },
    {
      "id": "NjA4NDAxNjA=",
      "title": "Edison Academy Monthly Newsletter",
      "link": "https://content.govdelivery.com/accounts/VAEDUFCPS/bulletins/3a058e0",
      "description": "\n        \n\n\n  \n\n\n\n\n\n\n\n<p>Having trouble viewing this email? <a href=\"https://content.govdelivery.com/accounts/VAEDUFCPS/bulletins/3a058e0\">View it as a Web page</a>.</p>\n\n\n\n\n\n\n\n\n\n\n\n\n\n\n\n\n\n\n\n\n\n\n\n\n\n\n\n\n<p>Edison Academy Families,</p>\n<p>It is hard to believe that we have completed another school year. T...",
      "pubDate": "Mon, 03 Jun 2024 10:11:39 -0500",
      "timestamp": 1717427499000,
      "feedName": "Edison Academy",
      "category": "Edison Academy",
      "feedSource": "http://www.fcps.edu/index.shtml",
      "feedInfo": {
        "title": "Edison Academy News and announcements - Recent Updates",
        "description": "Edison Academy News and announcements - Recent Updates",
        "link": "http://www.fcps.edu/index.shtml"
      }
    },
    {
      "id": "NjA3OTgyNjE=",
      "title": "Caribbean American Heritage Month",
      "link": "https://content.govdelivery.com/accounts/VAEDUFCPS/bulletins/39fb535",
      "description": "\n        \n\n\n  \n\n\n\n\n\n\n\n<p><a></a>Having trouble viewing this email? <a href=\"https://content.govdelivery.com/accounts/VAEDUFCPS/bulletins/39fb535\">View it as a Web page</a>.</p>\n\n\n\n\n\n\n\n\n\n\n\n<a href=\"https://www.fcps.edu/resources/family-engagement/family-engagement-resources?utm_campaign+=&amp;utm_med...",
      "pubDate": "Mon, 03 Jun 2024 08:01:01 -0500",
      "timestamp": 1717419661000,
      "feedName": "FCPS Tuesday Tips",
      "category": "FCPS Tuesday Tips",
      "feedSource": "http://www.fcps.edu/index.shtml",
      "feedInfo": {
        "title": "Family and School Partnerships - Recent Updates",
        "description": "Family and School Partnerships - Recent Updates",
        "link": "http://www.fcps.edu/index.shtml"
      }
    },
    {
      "id": "NjA4MzUyNTY=",
      "title": "REMINDER: ACADEMY SHUTTLE UPDATES MON., 6/3 &amp; WEDS., 6/5",
      "link": "https://content.govdelivery.com/accounts/VAEDUFCPS/bulletins/3a045b8",
      "description": "\n        <p><b>REMINDER: MONDAY, JUNE 3rd (RED/ODD DAY) IS MARSHALL HIGH SCHOOL'S GRADUATION.</b></p>\n<p><b>THERE ARE NO ACADEMY CLASSES HELD OR SHUTTLES PROVIDED TOMORROW.</b></p>\n<p> </p>\n<p><b>WEDS., JUNE 5th (RED/ODD) IS THE LAST DAY FOR MARSHALL ACADEMY SHUTTLES.</b></p>\n<p><b>THE LAST DAY OF C...",
      "pubDate": "Sun, 02 Jun 2024 20:00:01 -0500",
      "timestamp": 1717376401000,
      "feedName": "Marshall Academy",
      "category": "Marshall Academy",
      "feedSource": "http://www.fcps.edu/index.shtml",
      "feedInfo": {
        "title": "Marshall Academy News and Announcements - Recent Updates",
        "description": "Marshall Academy News and Announcements - Recent Updates",
        "link": "http://www.fcps.edu/index.shtml"
      }
    },
    {
      "id": "NjA4MTIyODE=",
      "title": "Hybla Happenings: End of Year",
      "link": "https://content.govdelivery.com/accounts/VAEDUFCPS/bulletins/39febf9",
      "description": "\n        \n\n\n  \n\n\n\n\n\n\n\n\n\n\n\n\n\n\n\n\n\n\n\n<a href=\"http://www2.fcps.edu/HyblaValleyES/?utm_campaign+=&amp;utm_medium=email&amp;utm_source=govdelivery\" target=\"_blank\"></a>\n\n\n\n\n\n\n\n\n\n\n\n\n\n\n\n<p><a href=\"https://hyblavalleyes.fcps.edu/aggregator/sources/1?utm_campaign+=&amp;utm_medium=email&amp;utm_source=govdel...",
      "pubDate": "Sun, 02 Jun 2024 11:32:01 -0500",
      "timestamp": 1717345921000,
      "feedName": "Hybla Valley Elementary School",
      "category": "Hybla Valley Elementary School",
      "feedSource": "http://www.fcps.edu/index.shtml",
      "feedInfo": {
        "title": "Hybla Valley Elementary School News and announcements - Recent Updates",
        "description": "Hybla Valley Elementary School News and announcements",
        "link": "http://www.fcps.edu/index.shtml"
      }
    },
    {
      "id": "NjA3ODI0NTk=",
      "title": "News From The Nest: Family Edition",
      "link": "https://content.govdelivery.com/accounts/VAEDUFCPS/bulletins/39f777b",
      "description": "\n        \n\n\n  \n\n\n\n\n\n\n\n<p><a></a>Having trouble viewing this email? <a href=\"https://content.govdelivery.com/accounts/VAEDUFCPS/bulletins/39f777b\">View it as a Web page</a>.</p>\n\n\n\n\n\n\n\n\n\n\n\n<a href=\"https://glenforestes.fcps.edu/?utm_campaign+=&amp;utm_medium=email&amp;utm_source=govdelivery\" target=\"...",
      "pubDate": "Fri, 31 May 2024 15:45:25 -0500",
      "timestamp": 1717188325000,
      "feedName": "Glen Forest Elementary School",
      "category": "Glen Forest Elementary School",
      "feedSource": "http://www.fcps.edu/index.shtml",
      "feedInfo": {
        "title": "Glen Forest Elementary School News and announcements - Recent Updates",
        "description": "Glen Forest Elementary School News and announcements",
        "link": "http://www.fcps.edu/index.shtml"
      }
    }
  ],
  "hasNext": true,
  "hasPrev": true
}