{
  "page": 214,
  "totalPages": 268,
  "totalItems": 5354,
  "itemsPerPage": 20,
  "items": [
    {
      "id": "NjM4Mjc0MjM=",
      "title": "Forestville Updates 1/24",
      "link": "https://content.govdelivery.com/accounts/VAEDUFCPS/bulletins/3cdeddf",
      "description": "\n        \n\n\n  \n\n\n\n\n\n\n\n<p><a></a>Having trouble viewing this email? <a href=\"https://content.govdelivery.com/accounts/VAEDUFCPS/bulletins/3cdeddf\">View it as a Web page</a>.</p>\n\n\n\n\n\n\n\n\n\n\n\n<a href=\"https://forestvillees.fcps.edu/?utm_campaign+=&amp;utm_medium=email&amp;utm_source=govdelivery\" target=...",
      "pubDate": "Fri, 24 Jan 2025 15:40:01 -0600",
      "timestamp": 1737754801000,
      "feedName": "Forestville Elementary School",
      "category": "Forestville Elementary School",
      "feedSource": "http://www.fcps.edu/index.shtml",
      "feedInfo": {
        "title": "Forestville Elementary School News and Announcements - Recent Updates",
        "description": "Forestville Elementary School News and announcements",
        "link": "http://www.fcps.edu/index.shtml"
      }
    },
    {
      "id": "NjM4NzU1MTE=",
      "title": "Keene Mill News &amp; Notes",
      "link": "https://content.govdelivery.com/accounts/VAEDUFCPS/bulletins/3cea9b7",
      "description": "\n        \n\n\n  \n\n\n\n\n\n\n\n<p><a></a>Having trouble viewing this email? <a href=\"https://content.govdelivery.com/accounts/VAEDUFCPS/bulletins/3cea9b7\">View it as a Web page</a>.</p>\n\n\n\n\n\n\n\n\n\n\n\n<a href=\"https://keenemilles.fcps.edu/?utm_campaign+=&amp;utm_medium=email&amp;utm_source=govdelivery\" target=\"_...",
      "pubDate": "Fri, 24 Jan 2025 15:39:31 -0600",
      "timestamp": 1737754771000,
      "feedName": "Keene Mill Elementary School",
      "category": "Keene Mill Elementary School",
      "feedSource": "http://www.fcps.edu/index.shtml",
      "feedInfo": {
        "title": "Keene Mill Elementary School News and Notes - Recent Updates",
        "description": "Keene Mill Elementary School News and Announcements",
        "link": "http://www.fcps.edu/index.shtml"
      }
    },
    {
      "id": "NjM4NzY1NjQ=",
      "title": "Groveton ES: Weekly Newst",
      "link": "https://content.govdelivery.com/accounts/VAEDUFCPS/bulletins/3ceadd4",
      "description": "\n        \n\n\n  \n\n\n\n\n\n\n\n<p><a></a>Having trouble viewing this email? <a href=\"https://content.govdelivery.com/accounts/VAEDUFCPS/bulletins/3ceadd4\">View it as a Web page</a>.</p>\n\n\n\n\n\n\n\n\n\n\n\n<a href=\"http://www2.fcps.edu/GrovetonES/?utm_campaign+=&amp;utm_medium=email&amp;utm_source=govdelivery\" target...",
      "pubDate": "Fri, 24 Jan 2025 15:30:22 -0600",
      "timestamp": 1737754222000,
      "feedName": "Groveton Elementary School",
      "category": "Groveton Elementary School",
      "feedSource": "http://www.fcps.edu/index.shtml",
      "feedInfo": {
        "title": "Groveton Elementary School News and announcements - Recent Updates",
        "description": "Groveton Elementary School News and announcements",
        "link": "http://www.fcps.edu/index.shtml"
      }
    },
    {
      "id": "NjM4NjU0MjY=",
      "title": "Weyanoke Update for January 24, 2025",
      "link": "https://content.govdelivery.com/accounts/VAEDUFCPS/bulletins/3ce8252",
      "description": "\n        \n\n\n  \n\n\n\n\n\n\n\n<p><a></a>Having trouble viewing this email? <a href=\"https://content.govdelivery.com/accounts/VAEDUFCPS/bulletins/3ce8252\">View it as a Web page</a>.</p>\n\n\n\n\n\n\n\n\n\n\n\n<a href=\"https://weyanokees.fcps.edu/?utm_campaign+=&amp;utm_medium=email&amp;utm_source=govdelivery\" target=\"_b...",
      "pubDate": "Fri, 24 Jan 2025 15:30:19 -0600",
      "timestamp": 1737754219000,
      "feedName": "Weyanoke Elementary School",
      "category": "Weyanoke Elementary School",
      "feedSource": "http://www.fcps.edu/index.shtml",
      "feedInfo": {
        "title": "Weyanoke Elementary School News and announcements - Recent Updates",
        "description": "Weyanoke Elementary School News and announcements",
        "link": "http://www.fcps.edu/index.shtml"
      }
    },
    {
      "id": "NjM4NzY4NTU=",
      "title": "ATES Updates_01/24/2025",
      "link": "https://content.govdelivery.com/accounts/VAEDUFCPS/bulletins/3ceaef7",
      "description": "\n        \n\n\n  \n\n\n\n\n\n\n\n<p><a></a>Having trouble viewing this email? <a href=\"https://content.govdelivery.com/accounts/VAEDUFCPS/bulletins/3ceaef7\">View it as a Web page</a>.</p>\n\n\n\n\n\n\n\n\n\n\n\n<a href=\"https://annandaleterracees.fcps.edu/?utm_campaign+=&amp;utm_medium=email&amp;utm_source=govdelivery\" ta...",
      "pubDate": "Fri, 24 Jan 2025 15:25:45 -0600",
      "timestamp": 1737753945000,
      "feedName": "Annandale Terrace Elementary School",
      "category": "Annandale Terrace Elementary School",
      "feedSource": "http://www.fcps.edu/index.shtml",
      "feedInfo": {
        "title": "Annandale Terrace Elementary School News and announcements - Recent Updates",
        "description": "Annandale Terrace Elementary School News and announcements",
        "link": "http://www.fcps.edu/index.shtml"
      }
    },
    {
      "id": "NjM4NzE3NTA=",
      "title": "News From the Nest 01.24.25",
      "link": "https://content.govdelivery.com/accounts/VAEDUFCPS/bulletins/3ce9b06",
      "description": "\n        \n\n\n  \n\n\n\n\n\n\n\n<p><a></a>Having trouble viewing this email? <a href=\"https://content.govdelivery.com/accounts/VAEDUFCPS/bulletins/3ce9b06\">View it as a Web page</a>.</p>\n\n\n\n\n\n\n\n\n\n\n\n<a href=\"https://crestwoodes.fcps.edu/?utm_campaign+=&amp;utm_medium=email&amp;utm_source=govdelivery\" target=\"_...",
      "pubDate": "Fri, 24 Jan 2025 15:25:45 -0600",
      "timestamp": 1737753945000,
      "feedName": "Crestwood Elementary School",
      "category": "Crestwood Elementary School",
      "feedSource": "http://www.fcps.edu/index.shtml",
      "feedInfo": {
        "title": "Crestwood Elementary School News and announcements - Recent Updates",
        "description": "Crestwood Elementary School News and announcements",
        "link": "http://www.fcps.edu/index.shtml"
      }
    },
    {
      "id": "NjM4NjIzMTA=",
      "title": "Cougar Connections",
      "link": "https://content.govdelivery.com/accounts/VAEDUFCPS/bulletins/3ce7626",
      "description": "\n        \n\n\n  \n\n\n\n\n\n\n\n<p><a></a>Having trouble viewing this email? <a href=\"https://content.govdelivery.com/accounts/VAEDUFCPS/bulletins/3ce7626\">View it as a Web page</a>.</p>\n\n\n\n\n\n\n\n\n\n\n\n<a href=\"http://www2.fcps.edu/CanterburyWoodsES/?utm_campaign+=&amp;utm_medium=email&amp;utm_source=govdelivery\"...",
      "pubDate": "Fri, 24 Jan 2025 15:18:27 -0600",
      "timestamp": 1737753507000,
      "feedName": "Canterbury Woods Elementary School",
      "category": "Canterbury Woods Elementary School",
      "feedSource": "http://www.fcps.edu/index.shtml",
      "feedInfo": {
        "title": "Canterbury Woods Elementary School News and announcements - Recent Updates",
        "description": "Canterbury Woods Elementary School News and announcements",
        "link": "http://www.fcps.edu/index.shtml"
      }
    },
    {
      "id": "NjM4NzE4OTI=",
      "title": "Churchill Update - Friday, January 24, 2025",
      "link": "https://content.govdelivery.com/accounts/VAEDUFCPS/bulletins/3ce9b94",
      "description": "\n        \n\n\n  \n\n\n\n\n\n\n\n<p><a></a>Having trouble viewing this email? <a href=\"https://content.govdelivery.com/accounts/VAEDUFCPS/bulletins/3ce9b94\">View it as a Web page</a>.</p>\n\n\n\n\n\n\n\n\n\n\n\n<a href=\"https://churchillroades.fcps.edu/?utm_campaign+=&amp;utm_medium=email&amp;utm_source=govdelivery\" targe...",
      "pubDate": "Fri, 24 Jan 2025 15:15:15 -0600",
      "timestamp": 1737753315000,
      "feedName": "Churchill Road Elementary School",
      "category": "Churchill Road Elementary School",
      "feedSource": "http://www.fcps.edu/index.shtml",
      "feedInfo": {
        "title": "Churchill Road Elementary School News and announcements - Recent Updates",
        "description": "Churchill Road Elementary School News and announcements",
        "link": "http://www.fcps.edu/index.shtml"
      }
    },
    {
      "id": "NjM4NDQxOTk=",
      "title": "Panther Press- January 24, 2025",
      "link": "https://content.govdelivery.com/accounts/VAEDUFCPS/bulletins/3ce2f67",
      "description": "\n        \n\n\n  \n\n\n\n\n\n\n\n<p><a></a>Having trouble viewing this email? <a href=\"https://content.govdelivery.com/accounts/VAEDUFCPS/bulletins/3ce2f67\">View it as a Web page</a>.</p>\n\n\n\n\n\n\n\n\n\n\n\n<a href=\"https://mountvernonwoodses.fcps.edu/?utm_campaign+=&amp;utm_medium=email&amp;utm_source=govdelivery\" ta...",
      "pubDate": "Fri, 24 Jan 2025 15:15:11 -0600",
      "timestamp": 1737753311000,
      "feedName": "Mount Vernon Woods Elementary School",
      "category": "Mount Vernon Woods Elementary School",
      "feedSource": "http://www.fcps.edu/index.shtml",
      "feedInfo": {
        "title": "Mount Vernon Woods Elementary School News and announcements - Recent Updates",
        "description": "Mount Vernon Woods Elementary School News and announcements",
        "link": "http://www.fcps.edu/index.shtml"
      }
    },
    {
      "id": "NjM4NzA0MjM=",
      "title": "Weekly Message",
      "link": "https://content.govdelivery.com/accounts/VAEDUFCPS/bulletins/3ce95d7",
      "description": "\n        \n\n\n  \n\n\n\n\n\n\n\n<p><a></a>Having trouble viewing this email? <a href=\"https://content.govdelivery.com/accounts/VAEDUFCPS/bulletins/3ce95d7\">View it as a Web page</a>.</p>\n\n\n\n\n\n\n\n\n\n\n\n<a href=\"https://oaktones.fcps.edu/?utm_content=&amp;utm_medium=email&amp;utm_name=&amp;utm_source=govdelivery&a...",
      "pubDate": "Fri, 24 Jan 2025 15:10:12 -0600",
      "timestamp": 1737753012000,
      "feedName": "Oakton Elementary School",
      "category": "Oakton Elementary School",
      "feedSource": "http://www.fcps.edu/index.shtml",
      "feedInfo": {
        "title": "Oakton Elementary School News and announcements - Recent Updates",
        "description": "Oakton Elementary School News and announcements",
        "link": "http://www.fcps.edu/index.shtml"
      }
    },
    {
      "id": "NjM4NjM0Nzk=",
      "title": "News You Choose January 24, 2025",
      "link": "https://content.govdelivery.com/accounts/VAEDUFCPS/bulletins/3ce7ab7",
      "description": "\n        \n\n\n  \n\n\n\n\n\n\n\n<p><a></a>Having trouble viewing this email? <a href=\"https://content.govdelivery.com/accounts/VAEDUFCPS/bulletins/3ce7ab7\">View it as a Web page</a>.</p>\n\n\n\n\n\n\n\n\n\n\n\n<a href=\"http://www2.fcps.edu/HuntersWoodsES/?utm_campaign+=&amp;utm_medium=email&amp;utm_source=govdelivery\" ta...",
      "pubDate": "Fri, 24 Jan 2025 14:55:16 -0600",
      "timestamp": 1737752116000,
      "feedName": "Hunters Woods Elementary School",
      "category": "Hunters Woods Elementary School",
      "feedSource": "http://www.fcps.edu/index.shtml",
      "feedInfo": {
        "title": "Hunters Woods Elementary School News and Announcements - Recent Updates",
        "description": "Hunters Woods Elementary School News and Announcements",
        "link": "http://www.fcps.edu/index.shtml"
      }
    },
    {
      "id": "NjM3OTM0Mzc=",
      "title": "Roadrunner Express!!!",
      "link": "https://content.govdelivery.com/accounts/VAEDUFCPS/bulletins/3cd691d",
      "description": "\n        \n\n\n  \n\n\n\n\n\n\n\n<p><a></a>[VIEW_THIS]]</p>\n\n\n\n\n\n\n\n\n\n\n\n<a href=\"http://www2.fcps.edu/lortonstationes/?utm_campaign+=&amp;utm_medium=email&amp;utm_source=govdelivery\" target=\"_blank\"></a>\n\n\n\n\n\n\n\n\n\n\n\n\n\n\n\n\n\n<p><strong>Jan. 28: </strong>End of 2nd Quarter</p>\n<p><strong>Jan. 29:</strong> Lunar New ...",
      "pubDate": "Fri, 24 Jan 2025 14:52:37 -0600",
      "timestamp": 1737751957000,
      "feedName": "Lorton Station Elementary School",
      "category": "Lorton Station Elementary School",
      "feedSource": "http://www.fcps.edu/index.shtml",
      "feedInfo": {
        "title": "Lorton Station Elementary School News and announcements - Recent Updates",
        "description": "Lorton Station Elementary School News and announcements",
        "link": "http://www.fcps.edu/index.shtml"
      }
    },
    {
      "id": "NjM4NjM0NDA=",
      "title": "Family Newsletter January 24, 2025",
      "link": "https://content.govdelivery.com/accounts/VAEDUFCPS/bulletins/3ce7a90",
      "description": "\n        \n\n\n  \n\n\n\n\n\n\n\n<p><a></a>Having trouble viewing this email? <a href=\"https://content.govdelivery.com/accounts/VAEDUFCPS/bulletins/3ce7a90\">View it as a Web page</a>.</p>\n\n\n\n\n\n\n\n\n\n\n\n<a href=\"https://camerones.fcps.edu/?utm_campaign+=&amp;utm_medium=email&amp;utm_source=govdelivery\" target=\"_bl...",
      "pubDate": "Fri, 24 Jan 2025 14:34:49 -0600",
      "timestamp": 1737750889000,
      "feedName": "Cameron Elementary School",
      "category": "Cameron Elementary School",
      "feedSource": "http://www.fcps.edu/index.shtml",
      "feedInfo": {
        "title": "Cameron Elementary School News and announcements - Recent Updates",
        "description": "Cameron Elementary School News and announcements",
        "link": "http://www.fcps.edu/index.shtml"
      }
    },
    {
      "id": "NjM4NTQ4NDU=",
      "title": "Franklin MS Update- 01/24/2025",
      "link": "https://content.govdelivery.com/accounts/VAEDUFCPS/bulletins/3ce58fd",
      "description": "\n        \n\n\n  \n\n\n\n\n\n\n\n<p><a></a>Having trouble viewing this email? <a href=\"https://content.govdelivery.com/accounts/VAEDUFCPS/bulletins/3ce58fd\">View it as a Web page</a>.</p>\n\n\n\n\n\n\n\n\n\n\n\n<a href=\"https://franklinms.fcps.edu/?utm_campaign+=&amp;utm_medium=email&amp;utm_source=govdelivery\" target=\"_b...",
      "pubDate": "Fri, 24 Jan 2025 14:30:13 -0600",
      "timestamp": 1737750613000,
      "feedName": "Franklin Middle School",
      "category": "Franklin Middle School",
      "feedSource": "http://www.fcps.edu/index.shtml",
      "feedInfo": {
        "title": "Franklin Middle School News and announcements - Recent Updates",
        "description": "Franklin Middle School News and announcements",
        "link": "http://www.fcps.edu/index.shtml"
      }
    },
    {
      "id": "NjM4NTQ4NDU=",
      "title": "Franklin MS Update- 01/24/2025",
      "link": "https://content.govdelivery.com/accounts/VAEDUFCPS/bulletins/3ce58fd",
      "description": "\n        \n\n\n  \n\n\n\n\n\n\n\n<p><a></a>Having trouble viewing this email? <a href=\"https://content.govdelivery.com/accounts/VAEDUFCPS/bulletins/3ce58fd\">View it as a Web page</a>.</p>\n\n\n\n\n\n\n\n\n\n\n\n<a href=\"https://franklinms.fcps.edu/?utm_campaign+=&amp;utm_medium=email&amp;utm_source=govdelivery\" target=\"_b...",
      "pubDate": "Fri, 24 Jan 2025 14:30:13 -0600",
      "timestamp": 1737750613000,
      "feedName": "Franklin Sherman Elementary School",
      "category": "Franklin Sherman Elementary School",
      "feedSource": "http://www.fcps.edu/index.shtml",
      "feedInfo": {
        "title": "Franklin Middle School News and announcements - Recent Updates",
        "description": "Franklin Middle School News and announcements",
        "link": "http://www.fcps.edu/index.shtml"
      }
    },
    {
      "id": "NjM4Njk2NDA=",
      "title": "Stenwood Hive Happenings",
      "link": "https://content.govdelivery.com/accounts/VAEDUFCPS/bulletins/3ce92c8",
      "description": "\n        \n\n\n  \n\n\n\n\n\n\n\n<p><a></a>Having trouble viewing this email? <a href=\"https://content.govdelivery.com/accounts/VAEDUFCPS/bulletins/3ce92c8\">View it as a Web page</a>.</p>\n\n\n\n\n\n\n\n\n\n\n\n<a href=\"https://stenwoodes.fcps.edu/?utm_content=&amp;utm_medium=email&amp;utm_name=&amp;utm_source=govdelivery...",
      "pubDate": "Fri, 24 Jan 2025 14:22:09 -0600",
      "timestamp": 1737750129000,
      "feedName": "Stenwood Elementary School",
      "category": "Stenwood Elementary School",
      "feedSource": "http://www.fcps.edu/index.shtml",
      "feedInfo": {
        "title": "Stenwood Elementary School News and announcements - Recent Updates",
        "description": "Stenwood Elementary School News and announcements",
        "link": "http://www.fcps.edu/index.shtml"
      }
    },
    {
      "id": "NjM4NzM0NDA=",
      "title": "Chantilly Academy Program Highlights",
      "link": "https://content.govdelivery.com/accounts/VAEDUFCPS/bulletins/3cea1a0",
      "description": "\n        \n\n\n  \n\n\n\n\n\n\n\n<p><a></a>Having trouble viewing this email? <a href=\"https://content.govdelivery.com/accounts/VAEDUFCPS/bulletins/3cea1a0\">View it as a Web page</a>.</p>\n\n\n\n\n\n\n\n\n\n\n\n<a href=\"https://chantillyacademy.fcps.edu/?utm_campaign+=&amp;utm_medium=email&amp;utm_source=govdelivery\" targ...",
      "pubDate": "Fri, 24 Jan 2025 14:15:12 -0600",
      "timestamp": 1737749712000,
      "feedName": "Chantilly Academy",
      "category": "Chantilly Academy",
      "feedSource": "http://www.fcps.edu/index.shtml",
      "feedInfo": {
        "title": "Chantilly Academy News and Announcements - Recent Updates",
        "description": "Chantilly Academy News and Announcements - Recent Updates",
        "link": "http://www.fcps.edu/index.shtml"
      }
    },
    {
      "id": "NjM4Njg1MTI=",
      "title": "Luther Jackson January 24, 2024",
      "link": "https://content.govdelivery.com/accounts/VAEDUFCPS/bulletins/3ce8e60",
      "description": "\n        \n\n\n  \n\n\n\n\n\n\n\n\n\n\n\n\n\n\n\n\n\n\n\n<p><a href=\"https://translate.google.com/translate?hl=en&amp;sl=en&amp;tl=es&amp;u=https%3A%2F%2Fcontent.govdelivery.com%2Faccounts%2FVAEDUFCPS%2Fbulletins%2F3ce8e60&amp;utm_campaign+=&amp;utm_medium=email&amp;utm_source=govdelivery\" target=\"_blank\">Espanol</a></p>\n...",
      "pubDate": "Fri, 24 Jan 2025 14:00:16 -0600",
      "timestamp": 1737748816000,
      "feedName": "Jackson Middle School",
      "category": "Jackson Middle School",
      "feedSource": "http://www.fcps.edu/index.shtml",
      "feedInfo": {
        "title": "Jackson Middle School News and Announcements - Recent Updates",
        "description": "Jackson Middle School News and announcements",
        "link": "http://www.fcps.edu/index.shtml"
      }
    },
    {
      "id": "NjM4NjA3MTk=",
      "title": "LBSS Weekly News - January 24, 2025",
      "link": "https://content.govdelivery.com/accounts/VAEDUFCPS/bulletins/3ce6fef",
      "description": "\n        \n\n\n  \n\n\n\n\n\n\n\n<p><a></a>Having trouble viewing this email? <a href=\"https://content.govdelivery.com/accounts/VAEDUFCPS/bulletins/3ce6fef\">View it as a Web page</a>.</p>\n\n\n\n\n\n\n\n\n\n\n\n<a href=\"https://lakebraddockss.fcps.edu/?utm_campaign+=&amp;utm_medium=email&amp;utm_source=govdelivery\" target...",
      "pubDate": "Fri, 24 Jan 2025 13:40:27 -0600",
      "timestamp": 1737747627000,
      "feedName": "Lake Braddock Secondary School",
      "category": "Lake Braddock Secondary School",
      "feedSource": "http://www.fcps.edu/index.shtml",
      "feedInfo": {
        "title": "Lake Braddock Secondary School News and announcements - Recent Updates",
        "description": "Lake Braddock Secondary School News and announcements",
        "link": "http://www.fcps.edu/index.shtml"
      }
    },
    {
      "id": "NjM4NzE4NDc=",
      "title": "Principal's message",
      "link": "https://content.govdelivery.com/accounts/VAEDUFCPS/bulletins/3ce9b67",
      "description": "\n        \n\n\n  \n\n\n\n\n\n\n\n<p><a></a>Having trouble viewing this email? <a href=\"https://content.govdelivery.com/accounts/VAEDUFCPS/bulletins/3ce9b67\">View it as a Web page</a>.</p>\n\n\n\n\n\n\n\n\n\n\n\n<a href=\"https://hughesms.fcps.edu/?utm_campaign+=&amp;utm_medium=email&amp;utm_source=govdelivery\" target=\"_bla...",
      "pubDate": "Fri, 24 Jan 2025 13:40:13 -0600",
      "timestamp": 1737747613000,
      "feedName": "Hughes Middle School",
      "category": "Hughes Middle School",
      "feedSource": "http://www.fcps.edu/index.shtml",
      "feedInfo": {
        "title": "Hughes Middle School News and announcements - Recent Updates",
        "description": "Hughes Middle School News and announcements",
        "link": "http://www.fcps.edu/index.shtml"
      }
    }
  ],
  "hasNext": true,
  "hasPrev": true
}