{
  "page": 231,
  "totalPages": 268,
  "totalItems": 5354,
  "itemsPerPage": 20,
  "items": [
    {
      "id": "NjMwOTI5MzM=",
      "title": "Washington Mill",
      "link": "https://content.govdelivery.com/accounts/VAEDUFCPS/bulletins/3c2b8c5",
      "description": "\n        \n\n\n  \n\n\n\n\n\n\n\n\n\n\n\n\n\n\n\n\n\n\n\n<a href=\"http://www2.fcps.edu/WashingtonMillES/?utm_campaign+=&amp;utm_medium=email&amp;utm_source=govdelivery\" target=\"_blank\"></a>\n\n\n\n\n\n\n\n\n\n\n\n\n\n\n\n<p>Principal Message:</p>\n<p>Dear Washington Mill Families,</p>\n<p>As we prepare to break for the Thanksgiving holiday...",
      "pubDate": "Tue, 26 Nov 2024 15:38:00 -0600",
      "timestamp": 1732657080000,
      "feedName": "Washington Mill Elementary School",
      "category": "Washington Mill Elementary School",
      "feedSource": "http://www.fcps.edu/index.shtml",
      "feedInfo": {
        "title": "Washington Mill Elementary School News and announcements - Recent Updates",
        "description": "Washington Mill Elementary School News and announcements",
        "link": "http://www.fcps.edu/index.shtml"
      }
    },
    {
      "id": "NjMxODM3OTA=",
      "title": "The Dunne Dispatch (Hayfield Football Update) - 11/26/2024",
      "link": "https://content.govdelivery.com/accounts/VAEDUFCPS/bulletins/3c41bae",
      "description": "\n        \n\n\n  \n\n\n\n\n\n\n\n<p><a></a>Having trouble viewing this email? <a href=\"https://content.govdelivery.com/accounts/VAEDUFCPS/bulletins/3c41bae\">View it as a Web page</a>.</p>\n\n\n\n\n\n\n\n\n\n\n\n<a href=\"https://www.fcps.edu/staff/mateo-dunne?utm_campaign+=&amp;utm_medium=email&amp;utm_source=govdelivery\" ...",
      "pubDate": "Tue, 26 Nov 2024 14:44:11 -0600",
      "timestamp": 1732653851000,
      "feedName": "FCPS School Board Mount Vernon District",
      "category": "FCPS School Board Mount Vernon District",
      "feedSource": "http://www.fcps.edu/index.shtml",
      "feedInfo": {
        "title": "Mount Vernon District Member - Mateo Dunne - Recent Updates",
        "description": "Mount Vernon District Member - Mateo Dunne - Recent Updates",
        "link": "http://www.fcps.edu/index.shtml"
      }
    },
    {
      "id": "NjMxODAwMDA=",
      "title": "November 2024",
      "link": "https://content.govdelivery.com/accounts/VAEDUFCPS/bulletins/3c40ce0",
      "description": "\n        \n\n\n  \n\n\n\n\n\n\n\n<p><a></a>Having trouble viewing this email? <a href=\"https://content.govdelivery.com/accounts/VAEDUFCPS/bulletins/3c40ce0\">View it as a Web page</a>.</p>\n\n\n\n\n\n\n\n\n\n\n\n<a href=\"https://bryanths.fcps.edu/?utm_campaign+=&amp;utm_medium=email&amp;utm_source=govdelivery\" target=\"_bla...",
      "pubDate": "Tue, 26 Nov 2024 14:00:32 -0600",
      "timestamp": 1732651232000,
      "feedName": "Bryant High School",
      "category": "Bryant High School",
      "feedSource": "http://www.fcps.edu/index.shtml",
      "feedInfo": {
        "title": "Bryant High School News and Announcements - Recent Updates",
        "description": "Bryant High School News and announcements",
        "link": "http://www.fcps.edu/index.shtml"
      }
    },
    {
      "id": "NjMxODAyMzM=",
      "title": "11/26/24 News From the Nest: Family Edition",
      "link": "https://content.govdelivery.com/accounts/VAEDUFCPS/bulletins/3c40dc9",
      "description": "\n        \n\n\n  \n\n\n\n\n\n\n\n<p><a></a>Having trouble viewing this email? <a href=\"https://content.govdelivery.com/accounts/VAEDUFCPS/bulletins/3c40dc9\">View it as a Web page</a>.</p>\n\n\n\n\n\n\n\n\n\n\n\n<a href=\"https://glenforestes.fcps.edu/?utm_campaign+=&amp;utm_medium=email&amp;utm_source=govdelivery\" target=\"...",
      "pubDate": "Tue, 26 Nov 2024 14:00:10 -0600",
      "timestamp": 1732651210000,
      "feedName": "Glen Forest Elementary School",
      "category": "Glen Forest Elementary School",
      "feedSource": "http://www.fcps.edu/index.shtml",
      "feedInfo": {
        "title": "Glen Forest Elementary School News and announcements - Recent Updates",
        "description": "Glen Forest Elementary School News and announcements",
        "link": "http://www.fcps.edu/index.shtml"
      }
    },
    {
      "id": "NjMxMDg1NjU=",
      "title": "Orange Hunt News We HOOT",
      "link": "https://content.govdelivery.com/accounts/VAEDUFCPS/bulletins/3c2f5d5",
      "description": "\n        \n\n\n  \n\n\n\n\n\n\n\n<p><a></a>Having trouble viewing this email? <a href=\"https://content.govdelivery.com/accounts/VAEDUFCPS/bulletins/3c2f5d5\">View it as a Web page</a>.</p>\n\n\n\n\n\n\n\n\n\n\n\n<a href=\"https://orangehuntes.fcps.edu?utm_content=&amp;utm_medium=email&amp;utm_name=&amp;utm_source=govdeliver...",
      "pubDate": "Tue, 26 Nov 2024 13:30:06 -0600",
      "timestamp": 1732649406000,
      "feedName": "Orange Hunt Elementary School",
      "category": "Orange Hunt Elementary School",
      "feedSource": "http://www.fcps.edu/index.shtml",
      "feedInfo": {
        "title": "Orange Hunt ES News and Announcements - Recent Updates",
        "description": "Orange Hunt ES News and Announcements",
        "link": "http://www.fcps.edu/index.shtml"
      }
    },
    {
      "id": "NjMxNzk1MDc=",
      "title": "Thoreau Matters November 26, 2024",
      "link": "https://content.govdelivery.com/accounts/VAEDUFCPS/bulletins/3c40af3",
      "description": "\n        \n\n\n  \n\n\n\n\n\n\n\n<p><a></a>Having trouble viewing this email? <a href=\"https://content.govdelivery.com/accounts/VAEDUFCPS/bulletins/3c40af3\">View it as a Web page</a>.</p>\n\n\n\n\n\n\n\n\n\n\n\n<a href=\"https://thoreaums.fcps.edu/?utm_campaign+=&amp;utm_medium=email&amp;utm_source=govdelivery\" target=\"_bl...",
      "pubDate": "Tue, 26 Nov 2024 13:23:36 -0600",
      "timestamp": 1732649016000,
      "feedName": "Thoreau Middle School",
      "category": "Thoreau Middle School",
      "feedSource": "http://www.fcps.edu/index.shtml",
      "feedInfo": {
        "title": "Thoreau Middle School News and Announcements - Recent Updates",
        "description": "Thoreau Middle School News and Announcements",
        "link": "http://www.fcps.edu/index.shtml"
      }
    },
    {
      "id": "NjMxNjU0NTk=",
      "title": "Westgate Weekly News",
      "link": "https://content.govdelivery.com/accounts/VAEDUFCPS/bulletins/3c3d413",
      "description": "\n        \n\n\n  \n\n\n\n\n\n\n\n<p><a></a>Having trouble viewing this email? <a href=\"https://content.govdelivery.com/accounts/VAEDUFCPS/bulletins/3c3d413\">View it as a Web page</a>.</p>\n\n\n\n\n\n\n\n\n\n\n\n<a href=\"http://www2.fcps.edu/WestgateES/?utm_content=&amp;utm_medium=email&amp;utm_name=&amp;utm_source=govdeli...",
      "pubDate": "Tue, 26 Nov 2024 12:14:42 -0600",
      "timestamp": 1732644882000,
      "feedName": "Westgate Elementary School",
      "category": "Westgate Elementary School",
      "feedSource": "http://www.fcps.edu/index.shtml",
      "feedInfo": {
        "title": "Westgate ES News",
        "description": "Westgate Elementary School News and announcements",
        "link": "http://www.fcps.edu/index.shtml"
      }
    },
    {
      "id": "NjMxODA0MzI=",
      "title": "Class of 2025 Yard Signs",
      "link": "https://content.govdelivery.com/accounts/VAEDUFCPS/bulletins/3c40e90",
      "description": "\n        \n\n\n  \n\n\n\n\n\n\n\n<p><a></a>Having trouble viewing this email? <a href=\"https://content.govdelivery.com/accounts/VAEDUFCPS/bulletins/3c40e90\">View it as a Web page</a>.</p>\n\n\n\n\n\n\n\n\n\n\n\n<a href=\"https://mountvernonhs.fcps.edu/?utm_campaign+=&amp;utm_medium=email&amp;utm_source=govdelivery\" target=...",
      "pubDate": "Tue, 26 Nov 2024 10:56:04 -0600",
      "timestamp": 1732640164000,
      "feedName": "Mount Vernon High School",
      "category": "Mount Vernon High School",
      "feedSource": "http://www.fcps.edu/index.shtml",
      "feedInfo": {
        "title": "Mount Vernon High School News and announcements - Recent Updates",
        "description": "Mount Vernon High School News and announcements",
        "link": "http://www.fcps.edu/index.shtml"
      }
    },
    {
      "id": "NjMxNzk4NTA=",
      "title": "Happy Thanksgiving from Great Falls ES",
      "link": "https://content.govdelivery.com/accounts/VAEDUFCPS/bulletins/3c40c4a",
      "description": "\n        \n\n\n  \n\n\n\n\n\n\n\n<p><a></a>Having trouble viewing this email? <a href=\"https://content.govdelivery.com/accounts/VAEDUFCPS/bulletins/3c40c4a\">View it as a Web page</a>.</p>\n\n\n\n\n\n\n\n\n\n\n\n<a href=\"http://www2.fcps.edu/GreatFallsES/?utm_campaign+=&amp;utm_medium=email&amp;utm_source=govdelivery\" targ...",
      "pubDate": "Tue, 26 Nov 2024 10:32:49 -0600",
      "timestamp": 1732638769000,
      "feedName": "Great Falls Elementary School",
      "category": "Great Falls Elementary School",
      "feedSource": "http://www.fcps.edu/index.shtml",
      "feedInfo": {
        "title": "Great Falls Elementary School News and Announcements - Recent Updates",
        "description": "Great Falls Elementary School News and announcements",
        "link": "http://www.fcps.edu/index.shtml"
      }
    },
    {
      "id": "NjMxNjc4NDc=",
      "title": "November 26, 2024",
      "link": "https://content.govdelivery.com/accounts/VAEDUFCPS/bulletins/3c3dd67",
      "description": "\n        \n\n\n  \n\n\n\n\n\n\n\n<p><a></a>Having trouble viewing this email? <a href=\"https://content.govdelivery.com/accounts/VAEDUFCPS/bulletins/3c3dd67\">View it as a Web page</a>.</p>\n\n\n\n\n\n\n\n\n\n\n\n<a href=\"https://whitmanms.fcps.edu/?utm_campaign+=&amp;utm_medium=email&amp;utm_source=govdelivery\" target=\"_bl...",
      "pubDate": "Tue, 26 Nov 2024 08:36:42 -0600",
      "timestamp": 1732631802000,
      "feedName": "Whitman Middle School",
      "category": "Whitman Middle School",
      "feedSource": "http://www.fcps.edu/index.shtml",
      "feedInfo": {
        "title": "Whitman Middle School News and announcements - Recent Updates",
        "description": "Whitman Middle School News and announcements",
        "link": "http://www.fcps.edu/index.shtml"
      }
    },
    {
      "id": "NjMxMzU5ODY=",
      "title": "Forestville Updates 11/25/2024",
      "link": "https://content.govdelivery.com/accounts/VAEDUFCPS/bulletins/3c360f2",
      "description": "\n        \n\n\n  \n\n\n\n\n\n\n\n<p><a></a>Having trouble viewing this email? <a href=\"https://content.govdelivery.com/accounts/VAEDUFCPS/bulletins/3c360f2\">View it as a Web page</a>.</p>\n\n\n\n\n\n\n\n\n\n\n\n<a href=\"https://forestvillees.fcps.edu/?utm_campaign+=&amp;utm_medium=email&amp;utm_source=govdelivery\" target=...",
      "pubDate": "Mon, 25 Nov 2024 15:17:34 -0600",
      "timestamp": 1732569454000,
      "feedName": "Forestville Elementary School",
      "category": "Forestville Elementary School",
      "feedSource": "http://www.fcps.edu/index.shtml",
      "feedInfo": {
        "title": "Forestville Elementary School News and Announcements - Recent Updates",
        "description": "Forestville Elementary School News and announcements",
        "link": "http://www.fcps.edu/index.shtml"
      }
    },
    {
      "id": "NjMxNjQ0OTk=",
      "title": "Hybla Happenings: November 25, 2024 Edition",
      "link": "https://content.govdelivery.com/accounts/VAEDUFCPS/bulletins/3c3d053",
      "description": "\n        \n\n\n  \n\n\n\n\n\n\n\n<p><a></a><a href=\"https://urldefense.com/v3/__https:/links-1.govdelivery.com/CL0/https:*2F*2Furldefense.com*2Fv3*2F__https:*2Flinks-1.govdelivery.com*2FCL0*2Fhttps:*2F*2Furldefense.com*2Fv3*2F__https:*2Flnks.gd*2Fl*2FeyJhbGciOiJIUzI1NiJ9.eyJidWxsZXRpbl9saW5rX2lkIjoxMDEsInVyaSI...",
      "pubDate": "Mon, 25 Nov 2024 15:06:31 -0600",
      "timestamp": 1732568791000,
      "feedName": "Hybla Valley Elementary School",
      "category": "Hybla Valley Elementary School",
      "feedSource": "http://www.fcps.edu/index.shtml",
      "feedInfo": {
        "title": "Hybla Valley Elementary School News and announcements - Recent Updates",
        "description": "Hybla Valley Elementary School News and announcements",
        "link": "http://www.fcps.edu/index.shtml"
      }
    },
    {
      "id": "NjMxMjMyMzk=",
      "title": "Edison Academy Monthly Newsletter",
      "link": "https://content.govdelivery.com/accounts/VAEDUFCPS/bulletins/3c32f27",
      "description": "\n        \n\n\n  \n\n\n\n\n\n\n\n\n\n\n\n\n\n\n\n\n\n\n\n<p><a></a>Having trouble viewing this email? <a href=\"https://content.govdelivery.com/accounts/VAEDUFCPS/bulletins/3c32f27\">View it as a Web page</a>.</p>\n<p>Clickit Monicathis placeholder text.</p>\n\n\n\n\n\n\n\n\n\n\n\n\n\n\n\n\n\n<p>Edison Academy Families,</p>\n<p>We have much to...",
      "pubDate": "Mon, 25 Nov 2024 14:28:42 -0600",
      "timestamp": 1732566522000,
      "feedName": "Edison Academy",
      "category": "Edison Academy",
      "feedSource": "http://www.fcps.edu/index.shtml",
      "feedInfo": {
        "title": "Edison Academy News and announcements - Recent Updates",
        "description": "Edison Academy News and announcements - Recent Updates",
        "link": "http://www.fcps.edu/index.shtml"
      }
    },
    {
      "id": "NjMxNjYzMTY=",
      "title": "Hayfield Statement",
      "link": "https://content.govdelivery.com/accounts/VAEDUFCPS/bulletins/3c3d76c",
      "description": "\n        \n\n\n  \n\n\n\n\n\n\n\n<p><a></a>Having trouble viewing this email? <a href=\"https://content.govdelivery.com/accounts/VAEDUFCPS/bulletins/3c3d76c\">View it as a Web page</a>.</p>\n\n\n\n\n\n\n\n\n\n\n\n<a href=\"https://www.fcps.edu/staff/ricardy-anderson?utm_campaign+=&amp;utm_medium=email&amp;utm_source=govdeliv...",
      "pubDate": "Mon, 25 Nov 2024 11:04:50 -0600",
      "timestamp": 1732554290000,
      "feedName": "School Board Mason District",
      "category": "School Board Mason District",
      "feedSource": "http://www.fcps.edu/index.shtml",
      "feedInfo": {
        "title": "Mason District Member - Ricardy Anderson - Recent Updates",
        "description": "Mason District Member - Ricardy Anderson - Recent Updates",
        "link": "http://www.fcps.edu/index.shtml"
      }
    },
    {
      "id": "NjMxNjU4MTg=",
      "title": "The Dunne Dispatch (Hayfield Football Situation)  - 11/25/2024",
      "link": "https://content.govdelivery.com/accounts/VAEDUFCPS/bulletins/3c3d57a",
      "description": "\n        \n\n\n  \n\n\n\n\n\n\n\n<p><a></a>Having trouble viewing this email? <a href=\"https://content.govdelivery.com/accounts/VAEDUFCPS/bulletins/3c3d57a\">View it as a Web page</a>.</p>\n\n\n\n\n\n\n\n\n\n\n\n<a href=\"https://www.fcps.edu/staff/mateo-dunne?utm_campaign+=&amp;utm_medium=email&amp;utm_source=govdelivery\" ...",
      "pubDate": "Mon, 25 Nov 2024 11:00:13 -0600",
      "timestamp": 1732554013000,
      "feedName": "FCPS School Board Mount Vernon District",
      "category": "FCPS School Board Mount Vernon District",
      "feedSource": "http://www.fcps.edu/index.shtml",
      "feedInfo": {
        "title": "Mount Vernon District Member - Mateo Dunne - Recent Updates",
        "description": "Mount Vernon District Member - Mateo Dunne - Recent Updates",
        "link": "http://www.fcps.edu/index.shtml"
      }
    },
    {
      "id": "NjMxNjQ4NjA=",
      "title": "Eagle Express - Nov 25, 2024",
      "link": "https://content.govdelivery.com/accounts/VAEDUFCPS/bulletins/3c3d1bc",
      "description": "\n        \n\n\n  \n\n\n\n\n\n\n\n<p><a></a>Having trouble viewing this email? <a href=\"https://content.govdelivery.com/accounts/VAEDUFCPS/bulletins/3c3d1bc\">View it as a Web page</a>.</p>\n\n\n\n\n\n\n\n\n\n\n\n<a href=\"http://www2.fcps.edu/BraddockES/?utm_campaign+=&amp;utm_medium=email&amp;utm_source=govdelivery\" target...",
      "pubDate": "Mon, 25 Nov 2024 09:56:36 -0600",
      "timestamp": 1732550196000,
      "feedName": "Braddock Elementary School",
      "category": "Braddock Elementary School",
      "feedSource": "http://www.fcps.edu/index.shtml",
      "feedInfo": {
        "title": "Braddock ES - The Eagle Express - Recent Updates",
        "description": "Braddock Elementary School News and announcements",
        "link": "http://www.fcps.edu/index.shtml"
      }
    },
    {
      "id": "NjMwOTY4OTM=",
      "title": "November Newsletter: Grateful for Our Incredible Schools",
      "link": "https://content.govdelivery.com/accounts/VAEDUFCPS/bulletins/3c2c83d",
      "description": "\n        \n\n\n  \n\n\n\n\n\n\n\n<p><a></a>Having trouble viewing this email? <a href=\"https://content.govdelivery.com/accounts/VAEDUFCPS/bulletins/3c2c83d\">View it as a Web page</a>.</p>\n\n\n\n\n\n\n\n\n\n\n\n<a href=\"https://www.fcps.edu/staff/sandy-anderson?utm_campaign+=&amp;utm_medium=email&amp;utm_source=govdeliver...",
      "pubDate": "Mon, 25 Nov 2024 05:00:31 -0600",
      "timestamp": 1732532431000,
      "feedName": "FCPS School Board Springfield District",
      "category": "FCPS School Board Springfield District",
      "feedSource": "http://www.fcps.edu/index.shtml",
      "feedInfo": {
        "title": "Springfield District Member - Sandy Anderson - Recent Updates",
        "description": "Springfield District Member - Sandy Anderson - Recent Updates",
        "link": "http://www.fcps.edu/index.shtml"
      }
    },
    {
      "id": "NjMxNTY2MTk=",
      "title": "RHES Community Newsletter | 11/25/24",
      "link": "https://content.govdelivery.com/accounts/VAEDUFCPS/bulletins/3c3b18b",
      "description": "\n        \n\n\n  \n\n\n\n\n\n\n\n<p><a></a>Having trouble viewing this email? <a href=\"https://content.govdelivery.com/accounts/VAEDUFCPS/bulletins/3c3b18b\">View it as a Web page</a>.</p>\n\n\n\n\n\n\n\n\n\n\n\n<a href=\"http://www2.fcps.edu/RoseHillES/?utm_campaign+=&amp;utm_medium=email&amp;utm_source=govdelivery\" target...",
      "pubDate": "Sun, 24 Nov 2024 11:37:13 -0600",
      "timestamp": 1732469833000,
      "feedName": "Rose Hill Elementary School",
      "category": "Rose Hill Elementary School",
      "feedSource": "http://www.fcps.edu/index.shtml",
      "feedInfo": {
        "title": "Rose Hill Elementary School News and announcements - Recent Updates",
        "description": "Rose Hill Elementary School News and announcements",
        "link": "http://www.fcps.edu/index.shtml"
      }
    },
    {
      "id": "NjMxNTA1NjE=",
      "title": "The Ram Gram! Hot Off the Press!",
      "link": "https://content.govdelivery.com/accounts/VAEDUFCPS/bulletins/3c399e1",
      "description": "\n        \n\n\n  \n\n\n\n\n\n\n\n<p><a></a>Having trouble viewing this email? <a href=\"https://content.govdelivery.com/accounts/VAEDUFCPS/bulletins/3c399e1\">View it as a Web page</a>.</p>\n\n\n\n\n\n\n\n\n\n\n\n<a href=\"http://www2.fcps.edu/CentreRidgeES/?utm_campaign+=&amp;utm_medium=email&amp;utm_source=govdelivery\" tar...",
      "pubDate": "Sun, 24 Nov 2024 11:12:02 -0600",
      "timestamp": 1732468322000,
      "feedName": "Centre Ridge Elementary School",
      "category": "Centre Ridge Elementary School",
      "feedSource": "http://www.fcps.edu/index.shtml",
      "feedInfo": {
        "title": "Centre Ridge Elementary School News and Announcements - Recent Updates",
        "description": "Centre Ridge Elementary School News and Announcements",
        "link": "http://www.fcps.edu/index.shtml"
      }
    },
    {
      "id": "NjMxNTI2NTk=",
      "title": "High School Football - Keeping You Informed",
      "link": "https://content.govdelivery.com/accounts/VAEDUFCPS/bulletins/3c3a213",
      "description": "\n        \n\n\n  \n\n\n\n\n\n\n\n<p><a></a>Having trouble viewing this email? <a href=\"https://content.govdelivery.com/accounts/VAEDUFCPS/bulletins/3c3a213\">View it as a Web page</a>.</p>\n\n\n\n\n\n\n\n\n\n\n\n<a href=\"https://www.fcps.edu/staff/marcia-st-john-cunning?utm_campaign+=&amp;utm_medium=email&amp;utm_source=go...",
      "pubDate": "Sun, 24 Nov 2024 08:05:12 -0600",
      "timestamp": 1732457112000,
      "feedName": "FCPS School Board Franconia District",
      "category": "FCPS School Board Franconia District",
      "feedSource": "http://www.fcps.edu/index.shtml",
      "feedInfo": {
        "title": "Franconia District Member - Marcia St. John-Cunning - Recent Updates",
        "description": "Franconia District Member - Marcia St. John-Cunning - Recent Updates",
        "link": "http://www.fcps.edu/index.shtml"
      }
    }
  ],
  "hasNext": true,
  "hasPrev": true
}