{
  "page": 47,
  "totalPages": 268,
  "totalItems": 5354,
  "itemsPerPage": 20,
  "items": [
    {
      "id": "NjUyNjIwMTI=",
      "title": "Floris Family Message 6/12/25",
      "link": "https://content.govdelivery.com/accounts/VAEDUFCPS/bulletins/3e3d1bc",
      "description": "\n        \n\n\n  \n\n\n\n\n\n\n\n<p><a></a>Having trouble viewing this email? <a href=\"https://content.govdelivery.com/accounts/VAEDUFCPS/bulletins/3e3d1bc\">View it as a Web page</a>.</p>\n\n\n\n\n\n\n\n\n\n\n\n<a href=\"https://florises.fcps.edu/?utm_content=&amp;utm_medium=email&amp;utm_name=&amp;utm_source=govdelivery&a...",
      "pubDate": "Thu, 12 Jun 2025 11:21:18 -0500",
      "timestamp": 1749745278000,
      "feedName": "Floris Elementary School",
      "category": "Floris Elementary School",
      "feedSource": "http://www.fcps.edu/index.shtml",
      "feedInfo": {
        "title": "Floris Friday Message",
        "description": "Floris Elementary School News and announcements",
        "link": "http://www.fcps.edu/index.shtml"
      }
    },
    {
      "id": "NjUzMTEyMjU=",
      "title": "Last Day of School is TODAY - Dismissal at 1:20 PM",
      "link": "https://content.govdelivery.com/accounts/VAEDUFCPS/bulletins/3e491f9",
      "description": "\n        \n\n\n  \n\n\n\n\n\n\n\n<p><a></a>Having trouble viewing this email? <a href=\"https://content.govdelivery.com/accounts/VAEDUFCPS/bulletins/3e491f9\">View it as a Web page</a>.</p>\n\n\n\n\n\n\n\n\n\n\n\n<a href=\"https://cunninghamparkes.fcps.edu/?utm_campaign+=&amp;utm_medium=email&amp;utm_source=govdelivery\" targ...",
      "pubDate": "Thu, 12 Jun 2025 11:00:22 -0500",
      "timestamp": 1749744022000,
      "feedName": "Cunningham Park Elementary School",
      "category": "Cunningham Park Elementary School",
      "feedSource": "http://www.fcps.edu/index.shtml",
      "feedInfo": {
        "title": "Cunningham Park Elementary School News - Recent Updates",
        "description": "Cunningham Park Elementary School News and announcements",
        "link": "http://www.fcps.edu/index.shtml"
      }
    },
    {
      "id": "NjUzMjM5ODk=",
      "title": "Thursday, June 12, 2025 Lancer Times",
      "link": "https://content.govdelivery.com/accounts/VAEDUFCPS/bulletins/3e4c3d5",
      "description": "\n        \n\n\n  \n\n\n\n\n\n\n\n<p><a></a>Having trouble viewing this email? <a href=\"https://content.govdelivery.com/accounts/VAEDUFCPS/bulletins/3e4c3d5\">View it as a Web page</a>.</p>\n\n\n\n\n\n\n\n\n\n\n\n<a href=\"https://longfellowms.fcps.edu/?utm_campaign+=&amp;utm_medium=email&amp;utm_source=govdelivery\" target=\"...",
      "pubDate": "Thu, 12 Jun 2025 11:00:22 -0500",
      "timestamp": 1749744022000,
      "feedName": "Longfellow Middle School",
      "category": "Longfellow Middle School",
      "feedSource": "http://www.fcps.edu/index.shtml",
      "feedInfo": {
        "title": "Longfellow Middle School News and announcements - Recent Updates",
        "description": "Longfellow Middle School News and announcements",
        "link": "http://www.fcps.edu/index.shtml"
      }
    },
    {
      "id": "NjUzMDIwMzg=",
      "title": "Katherine Johnson MS Weekly News - June 12, 2025",
      "link": "https://content.govdelivery.com/accounts/VAEDUFCPS/bulletins/3e46e16",
      "description": "\n        \n\n\n  \n\n\n\n\n\n\n\n<p><a></a>Having trouble viewing this email? <a href=\"https://content.govdelivery.com/accounts/VAEDUFCPS/bulletins/3e46e16\">View it as a Web page</a>.</p>\n\n\n\n\n\n\n\n\n\n\n\n<a href=\"https://johnsonms.fcps.edu/?utm_campaign+=&amp;utm_medium=email&amp;utm_source=govdelivery\" target=\"_bl...",
      "pubDate": "Thu, 12 Jun 2025 10:35:08 -0500",
      "timestamp": 1749742508000,
      "feedName": "Katherine Johnson Middle School",
      "category": "Katherine Johnson Middle School",
      "feedSource": "http://www.fcps.edu/index.shtml",
      "feedInfo": {
        "title": "Katherine Johnson Middle School News and Announcements - Recent Updates",
        "description": "Katherine Johnson Middle School News and announcements",
        "link": "http://www.fcps.edu/index.shtml"
      }
    },
    {
      "id": "NjUzMjQ5OTU=",
      "title": "Disability Awareness Open House - Date Correction",
      "link": "https://content.govdelivery.com/accounts/VAEDUFCPS/bulletins/3e4c7c3",
      "description": "\n        \n\n\n  \n\n\n\n\n\n\n\n<p><a></a>Having trouble viewing this email? <a href=\"https://content.govdelivery.com/accounts/VAEDUFCPS/bulletins/3e4c7c3\">View it as a Web page</a>.</p>\n\n\n\n\n\n\n\n\n\n\n\n<a href=\"https://www.fcps.edu/resources/family-engagement/parent-resource-center?utm_campaign+=&amp;utm_medium=e...",
      "pubDate": "Thu, 12 Jun 2025 10:00:45 -0500",
      "timestamp": 1749740445000,
      "feedName": "FCPS Family Resource Newsletters",
      "category": "FCPS Family Resource Newsletters",
      "feedSource": "https://www.fcps.edu/node/46704",
      "feedInfo": {
        "title": "PRC",
        "description": "PRC",
        "link": "https://www.fcps.edu/node/46704"
      }
    },
    {
      "id": "NjUyODc3MjE=",
      "title": "Immunizations for Rising 7th and 12th graders",
      "link": "https://content.govdelivery.com/accounts/VAEDUFCPS/bulletins/3e43629",
      "description": "\n        \n\n\n  \n\n\n\n\n\n\n\n<p><a></a>Having trouble viewing this email? <a href=\"https://content.govdelivery.com/accounts/VAEDUFCPS/bulletins/3e43629\">View it as a Web page</a>.</p>\n\n\n\n\n\n\n\n\n\n\n\n<a href=\"https://www.fcps.edu/resources/family-engagement/family-engagement-resources?utm_campaign+=&amp;utm_med...",
      "pubDate": "Thu, 12 Jun 2025 09:40:13 -0500",
      "timestamp": 1749739213000,
      "feedName": "FCPS Military Families",
      "category": "FCPS Military Families",
      "feedSource": "https://www.fcps.edu/",
      "feedInfo": {
        "title": "Military Families - Recent Updates",
        "description": "Military Families - Recent Updates",
        "link": "https://www.fcps.edu/"
      }
    },
    {
      "id": "NjUyODc3MjE=",
      "title": "Immunizations for Rising 7th and 12th graders",
      "link": "https://content.govdelivery.com/accounts/VAEDUFCPS/bulletins/3e43629",
      "description": "\n        \n\n\n  \n\n\n\n\n\n\n\n<p><a></a>Having trouble viewing this email? <a href=\"https://content.govdelivery.com/accounts/VAEDUFCPS/bulletins/3e43629\">View it as a Web page</a>.</p>\n\n\n\n\n\n\n\n\n\n\n\n<a href=\"https://www.fcps.edu/resources/family-engagement/family-engagement-resources?utm_campaign+=&amp;utm_med...",
      "pubDate": "Thu, 12 Jun 2025 09:40:13 -0500",
      "timestamp": 1749739213000,
      "feedName": "FCPS Tuesday Tips",
      "category": "FCPS Tuesday Tips",
      "feedSource": "http://www.fcps.edu/index.shtml",
      "feedInfo": {
        "title": "Family and School Partnerships - Recent Updates",
        "description": "Family and School Partnerships - Recent Updates",
        "link": "http://www.fcps.edu/index.shtml"
      }
    },
    {
      "id": "NjUzMjM2NzY=",
      "title": "Summer Office Hours CORRECTION 6/12/25",
      "link": "https://content.govdelivery.com/accounts/VAEDUFCPS/bulletins/3e4c29c",
      "description": "\n        \n\n\n  \n\n\n\n\n\n\n\n<p><a></a>Having trouble viewing this email? <a href=\"https://content.govdelivery.com/accounts/VAEDUFCPS/bulletins/3e4c29c\">View it as a Web page</a>.</p>\n\n\n\n\n\n\n\n\n\n\n\n<a href=\"http://www2.fcps.edu/VirginiaRunES/?utm_campaign+=&amp;utm_medium=email&amp;utm_source=govdelivery\" tar...",
      "pubDate": "Thu, 12 Jun 2025 08:14:26 -0500",
      "timestamp": 1749734066000,
      "feedName": "Virginia Run Elementary School",
      "category": "Virginia Run Elementary School",
      "feedSource": "http://www.fcps.edu/index.shtml",
      "feedInfo": {
        "title": "Virginia Run Elementary School News and announcements - Use this One - Recent Updates",
        "description": "Virginia Run Elementary School News and announcements",
        "link": "http://www.fcps.edu/index.shtml"
      }
    },
    {
      "id": "NjUzMTY3MDc=",
      "title": "Virginia Run Weekly Message 6/11/25",
      "link": "https://content.govdelivery.com/accounts/VAEDUFCPS/bulletins/3e4a763",
      "description": "\n        \n\n\n  \n\n\n\n\n\n\n\n<p><a></a>Having trouble viewing this email? <a href=\"https://content.govdelivery.com/accounts/VAEDUFCPS/bulletins/3e4a763\">View it as a Web page</a>.</p>\n\n\n\n\n\n\n\n\n\n\n\n<a href=\"http://www2.fcps.edu/VirginiaRunES/?utm_campaign+=&amp;utm_medium=email&amp;utm_source=govdelivery\" tar...",
      "pubDate": "Thu, 12 Jun 2025 07:43:07 -0500",
      "timestamp": 1749732187000,
      "feedName": "Virginia Run Elementary School",
      "category": "Virginia Run Elementary School",
      "feedSource": "http://www.fcps.edu/index.shtml",
      "feedInfo": {
        "title": "Virginia Run Elementary School News and announcements - Use this One - Recent Updates",
        "description": "Virginia Run Elementary School News and announcements",
        "link": "http://www.fcps.edu/index.shtml"
      }
    },
    {
      "id": "NjUzMTI4NDc=",
      "title": "Springfield Estates ES News You Choose - June 11, 2025",
      "link": "https://content.govdelivery.com/accounts/VAEDUFCPS/bulletins/3e4984f",
      "description": "\n        \n\n\n  \n\n\n\n\n\n\n\n<p><a></a>Having trouble viewing this email? <a href=\"https://content.govdelivery.com/accounts/VAEDUFCPS/bulletins/3e4984f\">View it as a Web page</a>.</p>\n\n\n\n\n\n\n\n\n\n\n\n<a href=\"https://springfieldestateses.fcps.edu?utm_campaign+=&amp;utm_medium=email&amp;utm_source=govdelivery\" t...",
      "pubDate": "Wed, 11 Jun 2025 16:30:13 -0500",
      "timestamp": 1749677413000,
      "feedName": "Springfield Estates Elementary School",
      "category": "Springfield Estates Elementary School",
      "feedSource": "http://www.fcps.edu/index.shtml",
      "feedInfo": {
        "title": "Springfield Estates Elementary School News and announcements - Recent Updates",
        "description": "Springfield Estates Elementary School News and announcements",
        "link": "http://www.fcps.edu/index.shtml"
      }
    },
    {
      "id": "NjUzMDU5MTY=",
      "title": "Bonnie Brae ES: Family Newsletter",
      "link": "https://content.govdelivery.com/accounts/VAEDUFCPS/bulletins/3e47d3c",
      "description": "\n        \n\n\n  \n\n\n\n\n\n\n\n<p><a></a>Having trouble viewing this email? <a href=\"https://content.govdelivery.com/accounts/VAEDUFCPS/bulletins/3e47d3c\">View it as a Web page</a>.</p>\n\n\n\n\n\n\n\n\n\n\n\n<a href=\"https://bonniebraees.fcps.edu/?utm_campaign+=&amp;utm_medium=email&amp;utm_source=govdelivery\" target=\"...",
      "pubDate": "Wed, 11 Jun 2025 15:58:29 -0500",
      "timestamp": 1749675509000,
      "feedName": "Bonnie Brae Elementary School",
      "category": "Bonnie Brae Elementary School",
      "feedSource": "http://www.fcps.edu/index.shtml",
      "feedInfo": {
        "title": "Bonnie Brae News and Announcements",
        "description": "Bonnie Brae Elementary School News and announcements",
        "link": "http://www.fcps.edu/index.shtml"
      }
    },
    {
      "id": "NjUzMDM2MzM=",
      "title": "PUMA PRESS â€“ PTA News &amp; Information: June 11, 2025",
      "link": "https://content.govdelivery.com/accounts/VAEDUFCPS/bulletins/3e47451",
      "description": "\n        \n\n\n  \n\n\n\n\n\n\n\n<p><a></a>Having trouble viewing this email? <a href=\"https://content.govdelivery.com/accounts/VAEDUFCPS/bulletins/3e47451\">View it as a Web page</a>.</p>\n\n\n\n\n\n\n\n\n\n\n\n<a href=\"https://powelles.fcps.edu/?utm_campaign+=&amp;utm_medium=email&amp;utm_source=govdelivery\" target=\"_bla...",
      "pubDate": "Wed, 11 Jun 2025 15:30:14 -0500",
      "timestamp": 1749673814000,
      "feedName": "Powell Elementary School",
      "category": "Powell Elementary School",
      "feedSource": "http://www.fcps.edu/index.shtml",
      "feedInfo": {
        "title": "Powell Elementary School News and Announcements - Recent Updates",
        "description": "Powell Elementary School News and announcements",
        "link": "http://www.fcps.edu/index.shtml"
      }
    },
    {
      "id": "NjUxNzI2OTc=",
      "title": "Disability Awareness Open House",
      "link": "https://content.govdelivery.com/accounts/VAEDUFCPS/bulletins/3e274d9",
      "description": "\n        \n\n\n  \n\n\n\n\n\n\n\n<p><a></a>Having trouble viewing this email? <a href=\"https://content.govdelivery.com/accounts/VAEDUFCPS/bulletins/3e274d9\">View it as a Web page</a>.</p>\n\n\n\n\n\n\n\n\n\n\n\n<a href=\"https://www.fcps.edu/resources/family-engagement/parent-resource-center?utm_campaign+=&amp;utm_medium=e...",
      "pubDate": "Wed, 11 Jun 2025 15:05:13 -0500",
      "timestamp": 1749672313000,
      "feedName": "FCPS Family Resource Newsletters",
      "category": "FCPS Family Resource Newsletters",
      "feedSource": "https://www.fcps.edu/node/46704",
      "feedInfo": {
        "title": "PRC",
        "description": "PRC",
        "link": "https://www.fcps.edu/node/46704"
      }
    },
    {
      "id": "NjUzMTU3MDQ=",
      "title": "ðŸ¾Poplar Tree Paw Print - Wednesday, June 11, 2025ðŸ¾",
      "link": "https://content.govdelivery.com/accounts/VAEDUFCPS/bulletins/3e4a378",
      "description": "\n        \n\n\n  \n\n\n\n\n\n\n\n<p><a></a>Having trouble viewing this email? <a href=\"https://content.govdelivery.com/accounts/VAEDUFCPS/bulletins/3e4a378\">View it as a Web page</a>.</p>\n\n\n\n\n\n\n\n\n\n\n\n<a href=\"http://www2.fcps.edu/PoplarTreeES?utm_content=&amp;utm_medium=email&amp;utm_name=&amp;utm_source=govdel...",
      "pubDate": "Wed, 11 Jun 2025 14:53:04 -0500",
      "timestamp": 1749671584000,
      "feedName": "Poplar Tree Elementary School",
      "category": "Poplar Tree Elementary School",
      "feedSource": "http://www.fcps.edu/index.shtml",
      "feedInfo": {
        "title": "Poplar Tree Elementary School News and announcements - Recent Updates",
        "description": "Poplar Tree Elementary School News and announcements",
        "link": "http://www.fcps.edu/index.shtml"
      }
    },
    {
      "id": "NjUzMDI5ODg=",
      "title": "Woodson Weekly - June 11 - Last 24-25SY Edition",
      "link": "https://content.govdelivery.com/accounts/VAEDUFCPS/bulletins/3e471cc",
      "description": "\n        \n\n\n  \n\n\n\n\n\n\n\n<p><a></a>Having trouble viewing this email? <a href=\"https://content.govdelivery.com/accounts/VAEDUFCPS/bulletins/3e471cc\">View it as a Web page</a>.</p>\n\n\n\n\n\n\n\n\n\n\n\n<a href=\"http://www2.fcps.edu/woodsonhs/?utm_campaign+=&amp;utm_medium=email&amp;utm_source=govdelivery\" target=...",
      "pubDate": "Wed, 11 Jun 2025 14:46:15 -0500",
      "timestamp": 1749671175000,
      "feedName": "Woodson High School",
      "category": "Woodson High School",
      "feedSource": "https://public.govdelivery.com/topics/Woodson_HS_NEWS/feed.rss",
      "feedInfo": {
        "title": "Woodson High School News and announcements",
        "description": "Woodson High School News and announcements",
        "link": "https://public.govdelivery.com/topics/Woodson_HS_NEWS/feed.rss"
      }
    },
    {
      "id": "NjUzMTIyMTQ=",
      "title": "Stenwood Hive Happenings",
      "link": "https://content.govdelivery.com/accounts/VAEDUFCPS/bulletins/3e495d6",
      "description": "\n        \n\n\n  \n\n\n\n\n\n\n\n<p><a></a>Having trouble viewing this email? <a href=\"https://content.govdelivery.com/accounts/VAEDUFCPS/bulletins/3e495d6\">View it as a Web page</a>.</p>\n\n\n\n\n\n\n\n\n\n\n\n<a href=\"https://stenwoodes.fcps.edu/?utm_content=&amp;utm_medium=email&amp;utm_name=&amp;utm_source=govdelivery...",
      "pubDate": "Wed, 11 Jun 2025 14:31:04 -0500",
      "timestamp": 1749670264000,
      "feedName": "Stenwood Elementary School",
      "category": "Stenwood Elementary School",
      "feedSource": "http://www.fcps.edu/index.shtml",
      "feedInfo": {
        "title": "Stenwood Elementary School News and announcements - Recent Updates",
        "description": "Stenwood Elementary School News and announcements",
        "link": "http://www.fcps.edu/index.shtml"
      }
    },
    {
      "id": "NjUyNDU0NTQ=",
      "title": "Kings Glen Gator Bytes June 11, 2025",
      "link": "https://content.govdelivery.com/accounts/VAEDUFCPS/bulletins/3e3910e",
      "description": "\n        \n\n\n  \n\n\n\n\n\n\n\n<p><a></a>Having trouble viewing this email? <a href=\"https://content.govdelivery.com/accounts/VAEDUFCPS/bulletins/3e3910e\">View it as a Web page</a>.</p>\n\n\n\n\n\n\n\n\n\n\n\n<a href=\"https://kingsglenes.fcps.edu/?utm_content=&amp;utm_medium=email&amp;utm_name=&amp;utm_source=govdeliver...",
      "pubDate": "Wed, 11 Jun 2025 14:30:11 -0500",
      "timestamp": 1749670211000,
      "feedName": "Kings Glen Elementary School",
      "category": "Kings Glen Elementary School",
      "feedSource": "http://www.fcps.edu/index.shtml",
      "feedInfo": {
        "title": "Kings Glen Elementary School News and announcements - Recent Updates",
        "description": "Kings Glen Elementary School News and announcements",
        "link": "http://www.fcps.edu/index.shtml"
      }
    },
    {
      "id": "NjUzMTE3MzQ=",
      "title": "Paw Prints, June 11, 2025",
      "link": "https://content.govdelivery.com/accounts/VAEDUFCPS/bulletins/3e493f6",
      "description": "\n        \n\n\n  \n\n\n\n\n\n\n\n<p><a></a>Having trouble viewing this email? <a href=\"https://content.govdelivery.com/accounts/VAEDUFCPS/bulletins/3e493f6\">View it as a Web page</a>.</p>\n\n\n\n\n\n\n\n\n\n\n\n<a href=\"http://www2.fcps.edu/WolftrapES/?utm_campaign+=&amp;utm_medium=email&amp;utm_source=govdelivery\" target...",
      "pubDate": "Wed, 11 Jun 2025 14:00:18 -0500",
      "timestamp": 1749668418000,
      "feedName": "Wolftrap Elementary School",
      "category": "Wolftrap Elementary School",
      "feedSource": "http://www.fcps.edu/index.shtml",
      "feedInfo": {
        "title": "Wolftrap Elementary School News and Announcements - Recent Updates",
        "description": "Wolftrap Elementary School News and announcements",
        "link": "http://www.fcps.edu/index.shtml"
      }
    },
    {
      "id": "NjUzMTQ3NzA=",
      "title": "Dogwood Digest 06/11/2025",
      "link": "https://content.govdelivery.com/accounts/VAEDUFCPS/bulletins/3e49fd2",
      "description": "\n        \n\n\n  \n\n\n\n\n\n\n\n<p><a></a>Having trouble viewing this email? <a href=\"https://content.govdelivery.com/accounts/VAEDUFCPS/bulletins/3e49fd2\">View it as a Web page</a>.</p>\n\n\n\n\n\n\n\n\n\n\n\n<a href=\"https://dogwoodes.fcps.edu/?utm_campaign+=&amp;utm_medium=email&amp;utm_source=govdelivery\" target=\"_bl...",
      "pubDate": "Wed, 11 Jun 2025 14:00:17 -0500",
      "timestamp": 1749668417000,
      "feedName": "Dogwood Elementary School",
      "category": "Dogwood Elementary School",
      "feedSource": "http://www.fcps.edu/index.shtml",
      "feedInfo": {
        "title": "Dogwood Elementary School News and announcements - Recent Updates",
        "description": "Dogwood Elementary School News and announcements",
        "link": "http://www.fcps.edu/index.shtml"
      }
    },
    {
      "id": "NjUzMTM2NDM=",
      "title": "Message from Terraset E.S.",
      "link": "https://content.govdelivery.com/accounts/VAEDUFCPS/bulletins/3e49b6b",
      "description": "\n        \n\n\n  \n\n\n\n\n\n\n\n<p><a></a>Having trouble viewing this email? <a href=\"https://content.govdelivery.com/accounts/VAEDUFCPS/bulletins/3e49b6b\">View it as a Web page</a>.</p>\n\n\n\n\n\n\n\n\n\n\n\n<a href=\"https://terrasetes.fcps.edu?utm_campaign+=&amp;utm_medium=email&amp;utm_source=govdelivery\" target=\"_bl...",
      "pubDate": "Wed, 11 Jun 2025 14:00:16 -0500",
      "timestamp": 1749668416000,
      "feedName": "Terraset Elementary School",
      "category": "Terraset Elementary School",
      "feedSource": "http://www.fcps.edu/index.shtml",
      "feedInfo": {
        "title": "Tuesday Terragram - Recent Updates",
        "description": "Terraset Elementary School weekly news and announcements",
        "link": "http://www.fcps.edu/index.shtml"
      }
    }
  ],
  "hasNext": true,
  "hasPrev": true
}