{
  "page": 259,
  "totalPages": 268,
  "totalItems": 5354,
  "itemsPerPage": 20,
  "items": [
    {
      "id": "NTAwOTAwNjM=",
      "title": "Family Life Education Instructional Program Information/Estimados padres/tutores legales de alumnos de escuela primaria",
      "link": "https://content.govdelivery.com/accounts/VAEDUFCPS/bulletins/2fc504f",
      "description": "\n        \n\n\n  \n\n\n\n\n\n\n\n<p><a></a>Having trouble viewing this email? <a href=\"https://content.govdelivery.com/accounts/VAEDUFCPS/bulletins/2fc504f\">View it as a Web page</a>.</p>\n\n\n\n\n\n\n\n\n\n\n\n<a href=\"https://grahamroades.fcps.edu/?utm_content=&amp;utm_medium=email&amp;utm_name=&amp;utm_source=govdelive...",
      "pubDate": "Tue, 16 Nov 2021 13:49:41 -0600",
      "timestamp": 1637092181000,
      "feedName": "Graham Road Elementary School",
      "category": "Graham Road Elementary School",
      "feedSource": "http://www.fcps.edu/index.shtml",
      "feedInfo": {
        "title": "Graham Road Elementary School News and announcements - Recent Updates",
        "description": "Graham Road Elementary School News and announcements",
        "link": "http://www.fcps.edu/index.shtml"
      }
    },
    {
      "id": "NDk5NjQwMTM=",
      "title": "1st Quarter WP Academy Newsletter",
      "link": "https://content.govdelivery.com/accounts/VAEDUFCPS/bulletins/2fa63ed",
      "description": "\n        \n\n\n  \n\n\n\n\n\n\n\n<p><a></a>Having trouble viewing this email? <a href=\"https://content.govdelivery.com/accounts/VAEDUFCPS/bulletins/2fa63ed\">View it as a Web page</a>.</p>\n\n\n\n\n\n\n\n\n\n\n\n<a href=\"http://www2.fcps.edu/WestPotomacAcademy/?utm_content=&amp;utm_medium=email&amp;utm_name=&amp;utm_source...",
      "pubDate": "Mon, 08 Nov 2021 10:05:14 -0600",
      "timestamp": 1636387514000,
      "feedName": "West Potomac Academy",
      "category": "West Potomac Academy",
      "feedSource": "http://www.fcps.edu/index.shtml",
      "feedInfo": {
        "title": "West Potomac Academy News and Announcements - Recent Updates",
        "description": "West Potomac Academy News and Announcements - Recent Updates",
        "link": "http://www.fcps.edu/index.shtml"
      }
    },
    {
      "id": "NDk5NTkzODY=",
      "title": "Calling All 2022 Outstanding Employee Award Nominations!",
      "link": "https://content.govdelivery.com/accounts/VAEDUFCPS/bulletins/2fa51da",
      "description": "\n        \n\n\n  \n\n\n\n\n\n\n\n<p><a></a>Having trouble viewing this email? <a href=\"https://content.govdelivery.com/accounts/VAEDUFCPS/bulletins/2fa51da\">View it as a Web page</a>.</p>\n\n\n\n\n\n\n\n\n\n\n\n<a href=\"https://southlakeshs.fcps.edu/?utm_content=&amp;utm_medium=email&amp;utm_name=&amp;utm_source=govdelive...",
      "pubDate": "Tue, 02 Nov 2021 09:00:49 -0500",
      "timestamp": 1635861649000,
      "feedName": "South Lakes High School",
      "category": "South Lakes High School",
      "feedSource": "http://www.fcps.edu/index.shtml",
      "feedInfo": {
        "title": "South Lakes High School General News & Announcements - Recent Updates",
        "description": "South Lakes High School News and announcements",
        "link": "http://www.fcps.edu/index.shtml"
      }
    },
    {
      "id": "NDk4MzI5MzA=",
      "title": "October Happenings",
      "link": "https://content.govdelivery.com/accounts/VAEDUFCPS/bulletins/2f863e2",
      "description": "\n        \n\n\n  \n\n\n\n\n\n\n\n<p><a></a>Having trouble viewing this email? <a href=\"https://content.govdelivery.com/accounts/VAEDUFCPS/bulletins/2f863e2\">View it as a Web page</a>.</p>\n\n\n\n\n\n\n\n\n\n\n\n<a href=\"https://www.fcps.edu/resources/safety-and-transportation/transportation-services/safe-routes-school-srt...",
      "pubDate": "Fri, 22 Oct 2021 09:34:36 -0500",
      "timestamp": 1634913276000,
      "feedName": "FCPS Safe Routes to School",
      "category": "FCPS Safe Routes to School",
      "feedSource": "http://www.fcps.edu/",
      "feedInfo": {
        "title": "Safe Routes to School - Recent Updates",
        "description": "Safe Routes to School - Recent Updates",
        "link": "http://www.fcps.edu/"
      }
    },
    {
      "id": "NDk3ODU2OTE=",
      "title": "Fall Fun at Graham Road",
      "link": "https://content.govdelivery.com/accounts/VAEDUFCPS/bulletins/2f7ab5b",
      "description": "\n        \n\n\n  \n\n\n\n\n\n\n\n<p><a></a>Having trouble viewing this email? <a href=\"https://content.govdelivery.com/accounts/VAEDUFCPS/bulletins/2f7ab5b\">View it as a Web page</a>.</p>\n\n\n\n\n\n\n\n\n\n\n\n<a href=\"https://grahamroades.fcps.edu/?utm_content=&amp;utm_medium=email&amp;utm_name=&amp;utm_source=govdelive...",
      "pubDate": "Sun, 17 Oct 2021 15:00:11 -0500",
      "timestamp": 1634500811000,
      "feedName": "Graham Road Elementary School",
      "category": "Graham Road Elementary School",
      "feedSource": "http://www.fcps.edu/index.shtml",
      "feedInfo": {
        "title": "Graham Road Elementary School News and announcements - Recent Updates",
        "description": "Graham Road Elementary School News and announcements",
        "link": "http://www.fcps.edu/index.shtml"
      }
    },
    {
      "id": "NDk2NDc3MTk=",
      "title": "PTA Fall Armchair Fundraiser updates",
      "link": "https://content.govdelivery.com/accounts/VAEDUFCPS/bulletins/2f59067",
      "description": "\n        \n\n\n  \n\n\n\n\n\n\n\n<p><a></a>Having trouble viewing this email? <a href=\"https://content.govdelivery.com/accounts/VAEDUFCPS/bulletins/2f59067\">View it as a Web page</a>.</p>\n\n\n\n\n\n\n\n\n\n\n\n<a href=\"https://armstronges.fcps.edu/?utm_content=&amp;utm_medium=email&amp;utm_name=&amp;utm_source=govdeliver...",
      "pubDate": "Fri, 01 Oct 2021 14:50:12 -0500",
      "timestamp": 1633117812000,
      "feedName": "Armstrong Elementary School",
      "category": "Armstrong Elementary School",
      "feedSource": "http://www.fcps.edu/index.shtml",
      "feedInfo": {
        "title": "Armstrong Elementary School News and announcements - Recent Updates",
        "description": "Armstrong Elementary School News and announcements",
        "link": "http://www.fcps.edu/index.shtml"
      }
    },
    {
      "id": "NDk2MTg0Njg=",
      "title": "PTA After School Classes - Fall Session",
      "link": "https://content.govdelivery.com/accounts/VAEDUFCPS/bulletins/2f51e24",
      "description": "\n        \n\n\n  \n\n\n\n\n\n\n\n<p><a></a>Having trouble viewing this email? <a href=\"https://content.govdelivery.com/accounts/VAEDUFCPS/bulletins/2f51e24\">View it as a Web page</a>.</p>\n\n\n\n\n\n\n\n\n\n\n\n<a href=\"https://armstronges.fcps.edu/?utm_content=&amp;utm_medium=email&amp;utm_name=&amp;utm_source=govdeliver...",
      "pubDate": "Wed, 29 Sep 2021 08:23:46 -0500",
      "timestamp": 1632921826000,
      "feedName": "Armstrong Elementary School",
      "category": "Armstrong Elementary School",
      "feedSource": "http://www.fcps.edu/index.shtml",
      "feedInfo": {
        "title": "Armstrong Elementary School News and announcements - Recent Updates",
        "description": "Armstrong Elementary School News and announcements",
        "link": "http://www.fcps.edu/index.shtml"
      }
    },
    {
      "id": "NDk0NDYzNzU=",
      "title": "SLHS Community Updates 9/19/21",
      "link": "https://content.govdelivery.com/accounts/VAEDUFCPS/bulletins/2f27de7",
      "description": "\n        \n\n\n  \n\n\n\n\n\n\n\n<p><a></a>Having trouble viewing this email? <a href=\"https://content.govdelivery.com/accounts/VAEDUFCPS/bulletins/2f27de7\">View it as a Web page</a>.</p>\n\n\n\n\n\n\n\n\n\n\n\n<a href=\"https://southlakeshs.fcps.edu/?utm_content=&amp;utm_medium=email&amp;utm_name=&amp;utm_source=govdelive...",
      "pubDate": "Sun, 19 Sep 2021 17:39:14 -0500",
      "timestamp": 1632091154000,
      "feedName": "South Lakes High School",
      "category": "South Lakes High School",
      "feedSource": "http://www.fcps.edu/index.shtml",
      "feedInfo": {
        "title": "South Lakes High School General News & Announcements - Recent Updates",
        "description": "South Lakes High School News and announcements",
        "link": "http://www.fcps.edu/index.shtml"
      }
    },
    {
      "id": "NDk0MTk0MzI=",
      "title": "Updates from Graham Road",
      "link": "https://content.govdelivery.com/accounts/VAEDUFCPS/bulletins/2f214a8",
      "description": "\n        \n\n\n  \n\n\n\n\n\n\n\n<p><a></a>Having trouble viewing this email? <a href=\"https://content.govdelivery.com/accounts/VAEDUFCPS/bulletins/2f214a8\">View it as a Web page</a>.</p>\n\n\n\n\n\n\n\n\n\n\n\n<a href=\"https://grahamroades.fcps.edu/?utm_content=&amp;utm_medium=email&amp;utm_name=&amp;utm_source=govdelive...",
      "pubDate": "Sun, 19 Sep 2021 15:00:10 -0500",
      "timestamp": 1632081610000,
      "feedName": "Graham Road Elementary School",
      "category": "Graham Road Elementary School",
      "feedSource": "http://www.fcps.edu/index.shtml",
      "feedInfo": {
        "title": "Graham Road Elementary School News and announcements - Recent Updates",
        "description": "Graham Road Elementary School News and announcements",
        "link": "http://www.fcps.edu/index.shtml"
      }
    },
    {
      "id": "NDkzODY3MTE=",
      "title": "Job Opportunity - Student Monitors",
      "link": "https://content.govdelivery.com/accounts/VAEDUFCPS/bulletins/2f194d7",
      "description": "\n        \n\n\n  \n\n\n\n\n\n\n\n<p><a></a>Having trouble viewing this email? <a href=\"https://content.govdelivery.com/accounts/VAEDUFCPS/bulletins/2f194d7\">View it as a Web page</a>.</p>\n\n\n\n\n\n\n\n\n\n\n\n<a href=\"https://southlakeshs.fcps.edu/?utm_content=&amp;utm_medium=email&amp;utm_name=&amp;utm_source=govdelive...",
      "pubDate": "Wed, 15 Sep 2021 16:12:32 -0500",
      "timestamp": 1631740352000,
      "feedName": "South Lakes High School",
      "category": "South Lakes High School",
      "feedSource": "http://www.fcps.edu/index.shtml",
      "feedInfo": {
        "title": "South Lakes High School General News & Announcements - Recent Updates",
        "description": "South Lakes High School News and announcements",
        "link": "http://www.fcps.edu/index.shtml"
      }
    },
    {
      "id": "NDkzOTAxMjM=",
      "title": "Virginia Science Olympiad",
      "link": "https://content.govdelivery.com/accounts/VAEDUFCPS/bulletins/2f1a22b",
      "description": "\n        \n\n\n  \n\n\n\n\n\n\n\n<p><a></a>Having trouble viewing this email? <a href=\"https://content.govdelivery.com/accounts/VAEDUFCPS/bulletins/2f1a22b\">View it as a Web page</a>.</p>\n\n\n\n\n\n\n\n\n\n\n\n<a href=\"https://armstronges.fcps.edu/?utm_content=&amp;utm_medium=email&amp;utm_name=&amp;utm_source=govdeliver...",
      "pubDate": "Wed, 15 Sep 2021 16:08:54 -0500",
      "timestamp": 1631740134000,
      "feedName": "Armstrong Elementary School",
      "category": "Armstrong Elementary School",
      "feedSource": "http://www.fcps.edu/index.shtml",
      "feedInfo": {
        "title": "Armstrong Elementary School News and announcements - Recent Updates",
        "description": "Armstrong Elementary School News and announcements",
        "link": "http://www.fcps.edu/index.shtml"
      }
    },
    {
      "id": "NDkzMjc5MTU=",
      "title": "A message from Principal Badini, PTA Meeting and more",
      "link": "https://content.govdelivery.com/accounts/VAEDUFCPS/bulletins/2f0af2b",
      "description": "\n        \n\n\n  \n\n\n\n\n\n\n\n<p><a></a>Having trouble viewing this email? <a href=\"https://content.govdelivery.com/accounts/VAEDUFCPS/bulletins/2f0af2b\">View it as a Web page</a>.</p>\n\n\n\n\n\n\n\n\n\n\n\n<a href=\"https://grahamroades.fcps.edu/?utm_content=&amp;utm_medium=email&amp;utm_name=&amp;utm_source=govdelive...",
      "pubDate": "Sun, 12 Sep 2021 15:00:13 -0500",
      "timestamp": 1631476813000,
      "feedName": "Graham Road Elementary School",
      "category": "Graham Road Elementary School",
      "feedSource": "http://www.fcps.edu/index.shtml",
      "feedInfo": {
        "title": "Graham Road Elementary School News and announcements - Recent Updates",
        "description": "Graham Road Elementary School News and announcements",
        "link": "http://www.fcps.edu/index.shtml"
      }
    },
    {
      "id": "NDkzMzIyMzE=",
      "title": "SLHS Band Booster Tag Day!",
      "link": "https://content.govdelivery.com/accounts/VAEDUFCPS/bulletins/2f0c007",
      "description": "\n        \n\n\n  \n\n\n\n\n\n\n\n<p><a></a>Having trouble viewing this email? <a href=\"https://content.govdelivery.com/accounts/VAEDUFCPS/bulletins/2f0c007\">View it as a Web page</a>.</p>\n\n\n\n\n\n\n\n\n\n\n\n<a href=\"https://southlakeshs.fcps.edu/?utm_content=&amp;utm_medium=email&amp;utm_name=&amp;utm_source=govdelive...",
      "pubDate": "Fri, 10 Sep 2021 13:09:41 -0500",
      "timestamp": 1631297381000,
      "feedName": "South Lakes High School",
      "category": "South Lakes High School",
      "feedSource": "http://www.fcps.edu/index.shtml",
      "feedInfo": {
        "title": "South Lakes High School General News & Announcements - Recent Updates",
        "description": "South Lakes High School News and announcements",
        "link": "http://www.fcps.edu/index.shtml"
      }
    },
    {
      "id": "NDkyOTM4OTQ=",
      "title": "Park and Walk",
      "link": "https://content.govdelivery.com/accounts/VAEDUFCPS/bulletins/2f02a46",
      "description": "\n        \n\n\n  \n\n\n\n\n\n\n\n<p><a></a>Having trouble viewing this email? <a href=\"https://content.govdelivery.com/accounts/VAEDUFCPS/bulletins/2f02a46\">View it as a Web page</a>.</p>\n\n\n\n\n\n\n\n\n\n\n\n<a href=\"https://www.fcps.edu/resources/safety-and-transportation/transportation-services/safe-routes-school-srt...",
      "pubDate": "Tue, 07 Sep 2021 16:09:17 -0500",
      "timestamp": 1631048957000,
      "feedName": "FCPS Safe Routes to School",
      "category": "FCPS Safe Routes to School",
      "feedSource": "http://www.fcps.edu/",
      "feedInfo": {
        "title": "Safe Routes to School - Recent Updates",
        "description": "Safe Routes to School - Recent Updates",
        "link": "http://www.fcps.edu/"
      }
    },
    {
      "id": "NDkwOTU2NjA=",
      "title": "Parent Representative Needed",
      "link": "https://content.govdelivery.com/accounts/VAEDUFCPS/bulletins/2ed23ec",
      "description": "\n        \n\n\n  \n\n\n\n\n\n\n\n<p><a></a>Having trouble viewing this email? <a href=\"https://content.govdelivery.com/accounts/VAEDUFCPS/bulletins/2ed23ec\">View it as a Web page</a>.</p>\n\n\n\n\n\n\n\n\n\n\n\n<a href=\"https://grahamroades.fcps.edu/?utm_content=&amp;utm_medium=email&amp;utm_name=&amp;utm_source=govdelive...",
      "pubDate": "Tue, 17 Aug 2021 16:00:18 -0500",
      "timestamp": 1629234018000,
      "feedName": "Graham Road Elementary School",
      "category": "Graham Road Elementary School",
      "feedSource": "http://www.fcps.edu/index.shtml",
      "feedInfo": {
        "title": "Graham Road Elementary School News and announcements - Recent Updates",
        "description": "Graham Road Elementary School News and announcements",
        "link": "http://www.fcps.edu/index.shtml"
      }
    },
    {
      "id": "NDkwNjExMDY=",
      "title": "Welcome Back to In Person Learning",
      "link": "https://content.govdelivery.com/accounts/VAEDUFCPS/bulletins/2ec9cf2",
      "description": "\n        \n\n\n  \n\n\n\n\n\n\n\n<p><a></a>Having trouble viewing this email? <a href=\"https://content.govdelivery.com/accounts/VAEDUFCPS/bulletins/2ec9cf2\">View it as a Web page</a>.</p>\n\n\n\n\n\n\n\n\n\n\n\n<a href=\"https://www.fcps.edu/resources/safety-and-transportation/transportation-services/safe-routes-school-srt...",
      "pubDate": "Mon, 16 Aug 2021 14:12:38 -0500",
      "timestamp": 1629141158000,
      "feedName": "FCPS Safe Routes to School",
      "category": "FCPS Safe Routes to School",
      "feedSource": "http://www.fcps.edu/",
      "feedInfo": {
        "title": "Safe Routes to School - Recent Updates",
        "description": "Safe Routes to School - Recent Updates",
        "link": "http://www.fcps.edu/"
      }
    },
    {
      "id": "NDkwMTc4NTU=",
      "title": "Welcome our new family liaison, Marita Collins!",
      "link": "https://content.govdelivery.com/accounts/VAEDUFCPS/bulletins/2ebf3ff",
      "description": "\n        \n\n\n  \n\n\n\n\n\n\n\n<p><a></a>Having trouble viewing this email? <a href=\"https://content.govdelivery.com/accounts/VAEDUFCPS/bulletins/2ebf3ff\">View it as a Web page</a>.</p>\n\n\n\n\n\n\n\n\n\n\n\n<a href=\"https://grahamroades.fcps.edu/?utm_content=&amp;utm_medium=email&amp;utm_name=&amp;utm_source=govdelive...",
      "pubDate": "Mon, 09 Aug 2021 11:00:30 -0500",
      "timestamp": 1628524830000,
      "feedName": "Graham Road Elementary School",
      "category": "Graham Road Elementary School",
      "feedSource": "http://www.fcps.edu/index.shtml",
      "feedInfo": {
        "title": "Graham Road Elementary School News and announcements - Recent Updates",
        "description": "Graham Road Elementary School News and announcements",
        "link": "http://www.fcps.edu/index.shtml"
      }
    },
    {
      "id": "NDg5MzY0NTI=",
      "title": "Back to School Important Dates - corrected",
      "link": "https://content.govdelivery.com/accounts/VAEDUFCPS/bulletins/2eab604",
      "description": "\n        \n\n\n  \n\n\n\n\n\n\n\n<p><a></a>Having trouble viewing this email? <a href=\"https://content.govdelivery.com/accounts/VAEDUFCPS/bulletins/2eab604\">View it as a Web page</a>.</p>\n\n\n\n\n\n\n\n\n\n\n\n<a href=\"https://grahamroades.fcps.edu/?utm_content=&amp;utm_medium=email&amp;utm_name=&amp;utm_source=govdelive...",
      "pubDate": "Fri, 30 Jul 2021 11:22:49 -0500",
      "timestamp": 1627662169000,
      "feedName": "Graham Road Elementary School",
      "category": "Graham Road Elementary School",
      "feedSource": "http://www.fcps.edu/index.shtml",
      "feedInfo": {
        "title": "Graham Road Elementary School News and announcements - Recent Updates",
        "description": "Graham Road Elementary School News and announcements",
        "link": "http://www.fcps.edu/index.shtml"
      }
    },
    {
      "id": "NDg5Mjc3MDk=",
      "title": "Back to School Important Dates!",
      "link": "https://content.govdelivery.com/accounts/VAEDUFCPS/bulletins/2ea93dd",
      "description": "\n        \n\n\n  \n\n\n\n\n\n\n\n<p><a></a>Having trouble viewing this email? <a href=\"https://content.govdelivery.com/accounts/VAEDUFCPS/bulletins/2ea93dd\">View it as a Web page</a>.</p>\n\n\n\n\n\n\n\n\n\n\n\n<a href=\"https://grahamroades.fcps.edu/?utm_content=&amp;utm_medium=email&amp;utm_name=&amp;utm_source=govdelive...",
      "pubDate": "Fri, 30 Jul 2021 11:00:17 -0500",
      "timestamp": 1627660817000,
      "feedName": "Graham Road Elementary School",
      "category": "Graham Road Elementary School",
      "feedSource": "http://www.fcps.edu/index.shtml",
      "feedInfo": {
        "title": "Graham Road Elementary School News and announcements - Recent Updates",
        "description": "Graham Road Elementary School News and announcements",
        "link": "http://www.fcps.edu/index.shtml"
      }
    },
    {
      "id": "NDg0NzEyMTk=",
      "title": "FCPS Wellness Newsletter Summer 2021",
      "link": "https://content.govdelivery.com/accounts/VAEDUFCPS/bulletins/2e39cb3",
      "description": "\n        \n\n\n  \n\n\n\n\n\n\n\n<p>Having trouble viewing this email? <a href=\"https://content.govdelivery.com/accounts/VAEDUFCPS/bulletins/2e39cb3\">View it as a Web page</a>.</p>\n\n\n\n\n\n\n\n\n\n\n\n\n\n\n\n\n\n\n\n\n\n\n\n\n\n\n\n<p><strong>Summer 2021</strong></p>\nFCPS Wellness Newsletter\n<strong>June is #NationalSafetyMonth</stro...",
      "pubDate": "Fri, 11 Jun 2021 11:20:33 -0500",
      "timestamp": 1623428433000,
      "feedName": "FCPS Wellness Newsletter",
      "category": "FCPS Wellness Newsletter",
      "feedSource": "http://www.fcps.edu/",
      "feedInfo": {
        "title": "FCPS Wellness - Recent Updates",
        "description": "FCPS Wellness - Recent Updates",
        "link": "http://www.fcps.edu/"
      }
    }
  ],
  "hasNext": true,
  "hasPrev": true
}