{
  "page": 239,
  "totalPages": 268,
  "totalItems": 5354,
  "itemsPerPage": 20,
  "items": [
    {
      "id": "NjI1MzIwNzU=",
      "title": "Louise Archer Updates - 10/11/24",
      "link": "https://content.govdelivery.com/accounts/VAEDUFCPS/bulletins/3ba29eb",
      "description": "\n        \n\n\n  \n\n\n\n\n\n\n\n<p><a></a>Having trouble viewing this email? <a href=\"https://content.govdelivery.com/accounts/VAEDUFCPS/bulletins/3ba29eb\">View it as a Web page</a>.</p>\n\n\n\n\n\n\n\n\n\n\n\n<a href=\"http://www2.fcps.edu/LouiseArcherES/?utm_content=&amp;utm_medium=email&amp;utm_name=&amp;utm_source=gov...",
      "pubDate": "Fri, 11 Oct 2024 08:30:13 -0500",
      "timestamp": 1728653413000,
      "feedName": "Louise Archer Elementary School",
      "category": "Louise Archer Elementary School",
      "feedSource": "http://www.fcps.edu/index.shtml",
      "feedInfo": {
        "title": "Louise Archer Elementary School News and announcements - Recent Updates",
        "description": "Louise Archer Elementary School News and announcements",
        "link": "http://www.fcps.edu/index.shtml"
      }
    },
    {
      "id": "NjI2MTQyOTM=",
      "title": "Lancer Activities Weekly Newsletter",
      "link": "https://content.govdelivery.com/accounts/VAEDUFCPS/bulletins/3bb6b15",
      "description": "\n        \n\n\n  \n\n\n\n\n\n\n\n<p><a></a>Having trouble viewing this email? <a href=\"https://content.govdelivery.com/accounts/VAEDUFCPS/bulletins/3bb6b15\">View it as a Web page</a>.</p>\n\n\n\n\n\n\n\n\n\n\n\n<a href=\"https://leehs.fcps.edu/?utm_content=&amp;utm_medium=email&amp;utm_name=&amp;utm_source=govdelivery&amp;...",
      "pubDate": "Fri, 11 Oct 2024 08:21:44 -0500",
      "timestamp": 1728652904000,
      "feedName": "John R. Lewis High School",
      "category": "John R. Lewis High School",
      "feedSource": "http://www.fcps.edu/index.shtml",
      "feedInfo": {
        "title": "Lewis High School News and announcements - Recent Updates",
        "description": "Lewis High School News and announcements",
        "link": "http://www.fcps.edu/index.shtml"
      }
    },
    {
      "id": "NjI0OTgwMDg=",
      "title": "The Davis Center Needs Your Help!",
      "link": "https://content.govdelivery.com/accounts/VAEDUFCPS/bulletins/3b9a4d8",
      "description": "\n        \n\n\n  \n\n\n\n\n\n\n\n<p><a></a>Having trouble viewing this email? <a href=\"https://content.govdelivery.com/accounts/VAEDUFCPS/bulletins/3b9a4d8\">View it as a Web page</a>.</p>\n\n\n\n\n\n\n\n\n\n\n\n<a href=\"https://daviscenter.fcps.edu/?utm_campaign+=&amp;utm_medium=email&amp;utm_source=govdelivery\" target=\"_...",
      "pubDate": "Thu, 10 Oct 2024 10:25:13 -0500",
      "timestamp": 1728573913000,
      "feedName": "Davis Career Center",
      "category": "Davis Career Center",
      "feedSource": "http://www.fcps.edu/index.shtml",
      "feedInfo": {
        "title": "Davis Career Center News and announcements - Recent Updates",
        "description": "Davis Career Special Education Center News and announcements",
        "link": "http://www.fcps.edu/index.shtml"
      }
    },
    {
      "id": "NjI1OTk5MDU=",
      "title": "CONGRATULATIONS- \"On The Run\" newsletter 10-9-24",
      "link": "https://content.govdelivery.com/accounts/VAEDUFCPS/bulletins/3bb32e1",
      "description": "\n        \n\n\n  \n\n\n\n\n\n\n\n<p><a></a>Having trouble viewing this email? <a href=\"https://content.govdelivery.com/accounts/VAEDUFCPS/bulletins/3bb32e1\">View it as a Web page</a>.</p>\n\n\n\n\n\n\n\n\n\n\n\n<a href=\"http://www2.fcps.edu/colvinrunes/?utm_campaign+=&amp;utm_medium=email&amp;utm_source=govdelivery\" targe...",
      "pubDate": "Thu, 10 Oct 2024 09:40:07 -0500",
      "timestamp": 1728571207000,
      "feedName": "Colvin Run Elementary School",
      "category": "Colvin Run Elementary School",
      "feedSource": "http://www.fcps.edu/index.shtml",
      "feedInfo": {
        "title": "Colvin Run Elementary School News and announcements - Recent Updates",
        "description": "Colvin Run Elementary School News and announcements",
        "link": "http://www.fcps.edu/index.shtml"
      }
    },
    {
      "id": "NjI1NzA2OTg=",
      "title": "October 2024 Newsletter - Indigenous Peoples' Day is Oct 14, LGBTQIA+ History Month, Fall Highlights, Student Opportunities and more!",
      "link": "https://content.govdelivery.com/accounts/VAEDUFCPS/bulletins/3bac0ca",
      "description": "\n        \n\n\n  \n\n\n\n\n\n\n\n<p><a></a>Having trouble viewing this email? <a href=\"https://content.govdelivery.com/accounts/VAEDUFCPS/bulletins/3bac0ca\">View it as a Web page</a>.</p>\n\n\n\n\n\n\n\n\n\n\n\n<a href=\"https://www.fcps.edu/staff/seema-dixit?utm_campaign+=&amp;utm_medium=email&amp;utm_source=govdelivery\" ...",
      "pubDate": "Thu, 10 Oct 2024 09:20:51 -0500",
      "timestamp": 1728570051000,
      "feedName": "FCPS School Board Sully District",
      "category": "FCPS School Board Sully District",
      "feedSource": "http://www.fcps.edu/index.shtml",
      "feedInfo": {
        "title": "Sully District Member - Seema Dixit - Recent Updates",
        "description": "Sully District Member - Seema Dixit - Recent Updates",
        "link": "http://www.fcps.edu/index.shtml"
      }
    },
    {
      "id": "NjI1ODQwMTE=",
      "title": "News from Fairfax Academy 10/9/24: Academy Events, Early Release Schedule, College Visits",
      "link": "https://content.govdelivery.com/accounts/VAEDUFCPS/bulletins/3baf4cb",
      "description": "\n        \n\n\n  \n\n\n\n\n\n\n\n<p><a></a>Having trouble viewing this email? <a href=\"https://content.govdelivery.com/accounts/VAEDUFCPS/bulletins/3baf4cb\">View it as a Web\npage</a>.</p>\n\n\n\n\n\n\n\n\n\n\n\n<a href=\"http://www2.fcps.edu/FairfaxAcademy?utm_campaign+=&amp;utm_medium=email&amp;utm_source=govdelivery\" tar...",
      "pubDate": "Wed, 09 Oct 2024 10:44:48 -0500",
      "timestamp": 1728488688000,
      "feedName": "Fairfax Academy",
      "category": "Fairfax Academy",
      "feedSource": "http://www.fcps.edu/index.shtml",
      "feedInfo": {
        "title": "Fairfax Academy News and Announcements - Recent Updates",
        "description": "Fairfax Academy News and Announcements - Recent Updates",
        "link": "http://www.fcps.edu/index.shtml"
      }
    },
    {
      "id": "NjI1NzMyNzk=",
      "title": "Principal Updates",
      "link": "https://content.govdelivery.com/accounts/VAEDUFCPS/bulletins/3bacadf",
      "description": "\n        \n\n\n  \n\n\n\n\n\n\n\n<p><a></a>October 8, 2024</p>\n\n\n\n\n\n\n\n\n\n\n\n<a href=\"http://www2.fcps.edu/masoncrestes?utm_campaign+=&amp;utm_medium=email&amp;utm_source=govdelivery\" target=\"_blank\"></a>\n\n\n\n\n\n\n\n\n\n\n\n\n\n\n\n<p><strong><a href=\"https://masoncrestes.fcps.edu/aggregator/sources/1?utm_campaign+=&amp;utm_...",
      "pubDate": "Tue, 08 Oct 2024 14:54:53 -0500",
      "timestamp": 1728417293000,
      "feedName": "Mason Crest Elementary School",
      "category": "Mason Crest Elementary School",
      "feedSource": "http://www.fcps.edu/index.shtml",
      "feedInfo": {
        "title": "Mason Crest Elementary School News and announcements - Recent Updates",
        "description": "Mason Crest Elementary School News and announcements",
        "link": "http://www.fcps.edu/index.shtml"
      }
    },
    {
      "id": "NjI1NzA2NjM=",
      "title": "Fall Community Flyer Distribution",
      "link": "https://content.govdelivery.com/accounts/VAEDUFCPS/bulletins/3bac0a7",
      "description": "\n        \n\n\n  \n\n\n\n\n\n\n\n<p><a></a>Having trouble viewing this email? <a href=\"https://content.govdelivery.com/accounts/VAEDUFCPS/bulletins/3bac0a7\">View it as a Web page</a>.</p>\n\n\n\n\n\n\n\n\n\n\n\n<a href=\"http://www2.fcps.edu/GreatFallsES/?utm_campaign+=&amp;utm_medium=email&amp;utm_source=govdelivery\" targ...",
      "pubDate": "Tue, 08 Oct 2024 11:31:43 -0500",
      "timestamp": 1728405103000,
      "feedName": "Great Falls Elementary School",
      "category": "Great Falls Elementary School",
      "feedSource": "http://www.fcps.edu/index.shtml",
      "feedInfo": {
        "title": "Great Falls Elementary School News and Announcements - Recent Updates",
        "description": "Great Falls Elementary School News and announcements",
        "link": "http://www.fcps.edu/index.shtml"
      }
    },
    {
      "id": "NjI1MjI0OTE=",
      "title": "The Dunne Dispatch (Calendar Edition) - 10/07/2024",
      "link": "https://content.govdelivery.com/accounts/VAEDUFCPS/bulletins/3ba047b",
      "description": "\n        \n\n\n  \n\n\n\n\n\n\n\n<p><a></a>Having trouble viewing this email? <a href=\"https://content.govdelivery.com/accounts/VAEDUFCPS/bulletins/3ba047b\">View it as a Web page</a>.</p>\n\n\n\n\n\n\n\n\n\n\n\n<a href=\"https://www.fcps.edu/staff/mateo-dunne?utm_campaign+=&amp;utm_medium=email&amp;utm_source=govdelivery\" ...",
      "pubDate": "Mon, 07 Oct 2024 15:38:57 -0500",
      "timestamp": 1728333537000,
      "feedName": "FCPS School Board Mount Vernon District",
      "category": "FCPS School Board Mount Vernon District",
      "feedSource": "http://www.fcps.edu/index.shtml",
      "feedInfo": {
        "title": "Mount Vernon District Member - Mateo Dunne - Recent Updates",
        "description": "Mount Vernon District Member - Mateo Dunne - Recent Updates",
        "link": "http://www.fcps.edu/index.shtml"
      }
    },
    {
      "id": "NjI1NTc2MTY=",
      "title": "October 2024: Upcoming School Board Meetings and Updates",
      "link": "https://content.govdelivery.com/accounts/VAEDUFCPS/bulletins/3ba8db0",
      "description": "\n        \n\n\n  \n\n\n\n\n\n\n\n<p><a></a>Having trouble viewing this email? <a href=\"https://content.govdelivery.com/accounts/VAEDUFCPS/bulletins/3ba8db0\">View it as a Web page</a>.</p>\n\n\n\n\n\n\n\n\n\n\n\n<a href=\"https://www.fcps.edu/staff/robyn-lady?utm_campaign+=&amp;utm_medium=email&amp;utm_source=govdelivery\" t...",
      "pubDate": "Mon, 07 Oct 2024 15:38:49 -0500",
      "timestamp": 1728333529000,
      "feedName": "FCPS School Board Dranesville District",
      "category": "FCPS School Board Dranesville District",
      "feedSource": "http://www.fcps.edu/index.shtml",
      "feedInfo": {
        "title": "Dranesville District Member - Robyn Lady - Recent Updates",
        "description": "Dranesville District Member - Robyn Lady - Recent Updates",
        "link": "http://www.fcps.edu/index.shtml"
      }
    },
    {
      "id": "NjI0NzY2Mzk=",
      "title": "📢 New facilities at schools; HS athletics; remember to vote!",
      "link": "https://content.govdelivery.com/accounts/VAEDUFCPS/bulletins/3b9515f",
      "description": "\n        \n\n\n  \n\n\n\n\n\n\n\n<p><a></a>Having trouble viewing this email? <a href=\"https://content.govdelivery.com/accounts/VAEDUFCPS/bulletins/3b9515f\">View it as a Web page</a>.</p>\n\n\n\n\n\n\n\n\n\n\n\n<a href=\"https://www.fcps.edu/staff/melanie-k-meren?utm_campaign+=&amp;utm_medium=email&amp;utm_source=govdelive...",
      "pubDate": "Mon, 07 Oct 2024 11:10:56 -0500",
      "timestamp": 1728317456000,
      "feedName": "FCPS School Board Hunter District",
      "category": "FCPS School Board Hunter District",
      "feedSource": "http://www.fcps.edu/index.shtml",
      "feedInfo": {
        "title": "Hunter Mill District Member - Melanie Meren - Recent Updates",
        "description": "Hunter Mill District Member - Melanie Meren - Recent Updates",
        "link": "http://www.fcps.edu/index.shtml"
      }
    },
    {
      "id": "NjI1MjU5Nzg=",
      "title": "Hawktivities Update 10/7/24",
      "link": "https://content.govdelivery.com/accounts/VAEDUFCPS/bulletins/3ba121a",
      "description": "\n        \n\n\n  \n\n\n\n\n\n\n\n\n\n\n\n\n\n\n\n\n\n\n\n<a href=\"https://hayfieldss.fcps.edu/?utm_campaign+=&amp;utm_medium=email&amp;utm_source=govdelivery\" target=\"_blank\"></a>\n\n\n\n\n\n\n\n\n\n\n\n\n\n\n\nStudent Activities Update\n\n<p>Please see all the information below from the Hayfield Student Activities office. </p>\n<p>If you w...",
      "pubDate": "Sun, 06 Oct 2024 16:00:51 -0500",
      "timestamp": 1728248451000,
      "feedName": "Hayfield Secondary School",
      "category": "Hayfield Secondary School",
      "feedSource": "http://www.fcps.edu/index.shtml",
      "feedInfo": {
        "title": "Hayfield Secondary School News and Announcements - Recent Updates",
        "description": "Hayfield Secondary School News and announcements",
        "link": "http://www.fcps.edu/index.shtml"
      }
    },
    {
      "id": "NjIzNzQ0Mjg=",
      "title": "October Newsletter - What We’ve Learned in the First Month!",
      "link": "https://content.govdelivery.com/accounts/VAEDUFCPS/bulletins/3b7c21c",
      "description": "\n        \n\n\n  \n\n\n\n\n\n\n\n<p><a></a>Having trouble viewing this email? <a href=\"https://content.govdelivery.com/accounts/VAEDUFCPS/bulletins/3b7c21c\">View it as a Web page</a>.</p>\n\n\n\n\n\n\n\n\n\n\n\n<a href=\"https://www.fcps.edu/staff/ilryong-moon?utm_campaign+=&amp;utm_medium=email&amp;utm_source=govdelivery\"...",
      "pubDate": "Fri, 04 Oct 2024 18:00:22 -0500",
      "timestamp": 1728082822000,
      "feedName": "FCPS School Board Member at Large (Ilryong Moon)",
      "category": "FCPS School Board Member at Large (Ilryong Moon)",
      "feedSource": "http://www.fcps.edu/",
      "feedInfo": {
        "title": "At-Large Member - Ilryong Moon - Recent Updates",
        "description": "At-Large Member - Ilryong Moon - Recent Updates",
        "link": "http://www.fcps.edu/"
      }
    },
    {
      "id": "NjI1MjA1Mzc=",
      "title": "GFES Updates--Oct 4",
      "link": "https://content.govdelivery.com/accounts/VAEDUFCPS/bulletins/3b9fcd9",
      "description": "\n        \n\n\n  \n\n\n\n\n\n\n\n<p><a></a>Having trouble viewing this email? <a href=\"https://content.govdelivery.com/accounts/VAEDUFCPS/bulletins/3b9fcd9\">View it as a Web page</a>.</p>\n\n\n\n\n\n\n\n\n\n\n\n<a href=\"http://www2.fcps.edu/GreatFallsES/?utm_campaign+=&amp;utm_medium=email&amp;utm_source=govdelivery\" targ...",
      "pubDate": "Fri, 04 Oct 2024 13:43:34 -0500",
      "timestamp": 1728067414000,
      "feedName": "Great Falls Elementary School",
      "category": "Great Falls Elementary School",
      "feedSource": "http://www.fcps.edu/index.shtml",
      "feedInfo": {
        "title": "Great Falls Elementary School News and Announcements - Recent Updates",
        "description": "Great Falls Elementary School News and announcements",
        "link": "http://www.fcps.edu/index.shtml"
      }
    },
    {
      "id": "NjI1MjI4NjA=",
      "title": "Lynbrook Principal's Newsletter",
      "link": "https://content.govdelivery.com/accounts/VAEDUFCPS/bulletins/3ba05ec",
      "description": "\n        \n\n\n  \n\n\n\n\n\n\n\n<p><a></a>Having trouble viewing this email? <a href=\"https://content.govdelivery.com/accounts/VAEDUFCPS/bulletins/3ba05ec\">View it as a Web page</a>.</p>\n\n\n\n\n\n\n\n\n\n\n\n<a href=\"https://lynbrookes.fcps.edu/?utm_campaign+=&amp;utm_medium=email&amp;utm_source=govdelivery\" target=\"_b...",
      "pubDate": "Fri, 04 Oct 2024 11:06:01 -0500",
      "timestamp": 1728057961000,
      "feedName": "Lynbrook Elementary School",
      "category": "Lynbrook Elementary School",
      "feedSource": "http://www.fcps.edu/index.shtml",
      "feedInfo": {
        "title": "Lynbrook ES Noticias y anuncios en español - Recent Updates",
        "description": "Lynbrook ES Noticias y anuncios en español - Recent Updates",
        "link": "http://www.fcps.edu/index.shtml"
      }
    },
    {
      "id": "NjI1MjE4NTA=",
      "title": "DCC Halloween Dance - Friday, October 25th",
      "link": "https://content.govdelivery.com/accounts/VAEDUFCPS/bulletins/3ba01fa",
      "description": "\n        \n\n\n  \n\n\n\n\n\n\n\n<p><a></a>Having trouble viewing this email? <a href=\"https://content.govdelivery.com/accounts/VAEDUFCPS/bulletins/3ba01fa\">View it as a Web page</a>.</p>\n\n\n\n\n\n\n\n\n\n\n\n<a href=\"https://daviscenter.fcps.edu/?utm_campaign+=&amp;utm_medium=email&amp;utm_source=govdelivery\" target=\"_...",
      "pubDate": "Fri, 04 Oct 2024 09:34:32 -0500",
      "timestamp": 1728052472000,
      "feedName": "Davis Career Center",
      "category": "Davis Career Center",
      "feedSource": "http://www.fcps.edu/index.shtml",
      "feedInfo": {
        "title": "Davis Career Center News and announcements - Recent Updates",
        "description": "Davis Career Special Education Center News and announcements",
        "link": "http://www.fcps.edu/index.shtml"
      }
    },
    {
      "id": "NjI0OTAzNDM=",
      "title": "The Ram Gram! Hot Off the Press!",
      "link": "https://content.govdelivery.com/accounts/VAEDUFCPS/bulletins/3b986e7",
      "description": "\n        \n\n\n  \n\n\n\n\n\n\n\n<p><a></a>Having trouble viewing this email? <a href=\"https://content.govdelivery.com/accounts/VAEDUFCPS/bulletins/3b986e7\">View it as a Web page</a>.</p>\n\n\n\n\n\n\n\n\n\n\n\n<a href=\"http://www2.fcps.edu/CentreRidgeES/?utm_campaign+=&amp;utm_medium=email&amp;utm_source=govdelivery\" tar...",
      "pubDate": "Thu, 03 Oct 2024 13:19:47 -0500",
      "timestamp": 1727979587000,
      "feedName": "Centre Ridge Elementary School",
      "category": "Centre Ridge Elementary School",
      "feedSource": "http://www.fcps.edu/index.shtml",
      "feedInfo": {
        "title": "Centre Ridge Elementary School News and Announcements - Recent Updates",
        "description": "Centre Ridge Elementary School News and Announcements",
        "link": "http://www.fcps.edu/index.shtml"
      }
    },
    {
      "id": "NjI0OTU0NjM=",
      "title": "10/2/24 News From the Nest: Family Edition",
      "link": "https://content.govdelivery.com/accounts/VAEDUFCPS/bulletins/3b99ae7",
      "description": "\n        \n\n\n  \n\n\n\n\n\n\n\n<p><a></a>Having trouble viewing this email? <a href=\"https://content.govdelivery.com/accounts/VAEDUFCPS/bulletins/3b99ae7\">View it as a Web page</a>.</p>\n\n\n\n\n\n\n\n\n\n\n\n<a href=\"https://glenforestes.fcps.edu/?utm_campaign+=&amp;utm_medium=email&amp;utm_source=govdelivery\" target=\"...",
      "pubDate": "Wed, 02 Oct 2024 16:30:13 -0500",
      "timestamp": 1727904613000,
      "feedName": "Glen Forest Elementary School",
      "category": "Glen Forest Elementary School",
      "feedSource": "http://www.fcps.edu/index.shtml",
      "feedInfo": {
        "title": "Glen Forest Elementary School News and announcements - Recent Updates",
        "description": "Glen Forest Elementary School News and announcements",
        "link": "http://www.fcps.edu/index.shtml"
      }
    },
    {
      "id": "NjIzMTM5MjQ=",
      "title": "Mosaic Matters - October 2, 2024",
      "link": "https://content.govdelivery.com/accounts/VAEDUFCPS/bulletins/3b6d5c4",
      "description": "\n        \n\n\n  \n\n\n\n\n\n\n\n<p><a></a>Having trouble viewing this email? <a href=\"https://content.govdelivery.com/accounts/VAEDUFCPS/bulletins/3b6d5c4\">View it as a Web page</a>.</p>\n\n\n\n\n\n\n\n\n\n\n\n<a href=\"https://mosaices.fcps.edu/?utm_campaign+=&amp;utm_medium=email&amp;utm_source=govdelivery\" target=\"_bla...",
      "pubDate": "Wed, 02 Oct 2024 16:30:12 -0500",
      "timestamp": 1727904612000,
      "feedName": "Mosaic Elementary School",
      "category": "Mosaic Elementary School",
      "feedSource": "http://www.fcps.edu/index.shtml",
      "feedInfo": {
        "title": "Mosaic Elementary School News and announcements - Recent Updates",
        "description": "Mosaic Elementary School News and announcements",
        "link": "http://www.fcps.edu/index.shtml"
      }
    },
    {
      "id": "NjI0OTc1ODU=",
      "title": "The Davis Center Needs Your Help!",
      "link": "https://content.govdelivery.com/accounts/VAEDUFCPS/bulletins/3b9a331",
      "description": "\n        \n\n\n  \n\n\n\n\n\n\n\n<p><a></a>Having trouble viewing this email? <a href=\"https://content.govdelivery.com/accounts/VAEDUFCPS/bulletins/3b9a331\">View it as a Web page</a>.</p>\n\n\n\n\n\n\n\n\n\n\n\n<a href=\"https://daviscenter.fcps.edu/?utm_campaign+=&amp;utm_medium=email&amp;utm_source=govdelivery\" target=\"_...",
      "pubDate": "Wed, 02 Oct 2024 16:24:40 -0500",
      "timestamp": 1727904280000,
      "feedName": "Davis Career Center",
      "category": "Davis Career Center",
      "feedSource": "http://www.fcps.edu/index.shtml",
      "feedInfo": {
        "title": "Davis Career Center News and announcements - Recent Updates",
        "description": "Davis Career Special Education Center News and announcements",
        "link": "http://www.fcps.edu/index.shtml"
      }
    }
  ],
  "hasNext": true,
  "hasPrev": true
}