{
  "page": 218,
  "totalPages": 268,
  "totalItems": 5354,
  "itemsPerPage": 20,
  "items": [
    {
      "id": "NjM3OTA5MjA=",
      "title": "Hybla Happenings: January 17, 2025 Edition",
      "link": "https://content.govdelivery.com/accounts/VAEDUFCPS/bulletins/3cd5f48",
      "description": "\n        \n\n\n  \n\n\n\n\n\n\n\n<p><a></a><a href=\"https://urldefense.com/v3/__https:/links-1.govdelivery.com/CL0/https:*2F*2Furldefense.com*2Fv3*2F__https:*2Flinks-1.govdelivery.com*2FCL0*2Fhttps:*2F*2Furldefense.com*2Fv3*2F__https:*2Flnks.gd*2Fl*2FeyJhbGciOiJIUzI1NiJ9.eyJidWxsZXRpbl9saW5rX2lkIjoxMDEsInVyaSI...",
      "pubDate": "Fri, 17 Jan 2025 15:37:45 -0600",
      "timestamp": 1737149865000,
      "feedName": "Hybla Valley Elementary School",
      "category": "Hybla Valley Elementary School",
      "feedSource": "http://www.fcps.edu/index.shtml",
      "feedInfo": {
        "title": "Hybla Valley Elementary School News and announcements - Recent Updates",
        "description": "Hybla Valley Elementary School News and announcements",
        "link": "http://www.fcps.edu/index.shtml"
      }
    },
    {
      "id": "NjM3NzQyMTY=",
      "title": "RAVENS' NEST 01/17/2025",
      "link": "https://content.govdelivery.com/accounts/VAEDUFCPS/bulletins/3cd1e08",
      "description": "\n        \n\n\n  \n\n\n\n\n\n\n\n<p><a></a>Having trouble viewing this email? <a href=\"https://content.govdelivery.com/accounts/VAEDUFCPS/bulletins/3cd1e08\">View it as a Web page</a>.</p>\n\n\n\n\n\n\n\n\n\n\n\n<a href=\"http://www2.fcps.edu/RavensworthES/?utm_campaign+=&amp;utm_medium=email&amp;utm_source=govdelivery\" tar...",
      "pubDate": "Fri, 17 Jan 2025 15:35:14 -0600",
      "timestamp": 1737149714000,
      "feedName": "Ravensworth Elementary School",
      "category": "Ravensworth Elementary School",
      "feedSource": "http://www.fcps.edu/index.shtml",
      "feedInfo": {
        "title": "Ravensworth Elementary School News and announcements - Recent Updates",
        "description": "Ravensworth Elementary School News and announcements",
        "link": "http://www.fcps.edu/index.shtml"
      }
    },
    {
      "id": "NjM3NzQ5NDY=",
      "title": "Weyanoke Update for January 17, 2025",
      "link": "https://content.govdelivery.com/accounts/VAEDUFCPS/bulletins/3cd20e2",
      "description": "\n        \n\n\n  \n\n\n\n\n\n\n\n<p><a></a>Having trouble viewing this email? <a href=\"https://content.govdelivery.com/accounts/VAEDUFCPS/bulletins/3cd20e2\">View it as a Web page</a>.</p>\n\n\n\n\n\n\n\n\n\n\n\n<a href=\"https://weyanokees.fcps.edu/?utm_campaign+=&amp;utm_medium=email&amp;utm_source=govdelivery\" target=\"_b...",
      "pubDate": "Fri, 17 Jan 2025 15:30:13 -0600",
      "timestamp": 1737149413000,
      "feedName": "Weyanoke Elementary School",
      "category": "Weyanoke Elementary School",
      "feedSource": "http://www.fcps.edu/index.shtml",
      "feedInfo": {
        "title": "Weyanoke Elementary School News and announcements - Recent Updates",
        "description": "Weyanoke Elementary School News and announcements",
        "link": "http://www.fcps.edu/index.shtml"
      }
    },
    {
      "id": "NjM3ODk5NTI=",
      "title": "Family Newsletter January 17, 2025",
      "link": "https://content.govdelivery.com/accounts/VAEDUFCPS/bulletins/3cd5b80",
      "description": "\n        \n\n\n  \n\n\n\n\n\n\n\n<p><a></a>Having trouble viewing this email? <a href=\"https://content.govdelivery.com/accounts/VAEDUFCPS/bulletins/3cd5b80\">View it as a Web page</a>.</p>\n\n\n\n\n\n\n\n\n\n\n\n<a href=\"https://camerones.fcps.edu/?utm_campaign+=&amp;utm_medium=email&amp;utm_source=govdelivery\" target=\"_bl...",
      "pubDate": "Fri, 17 Jan 2025 15:29:25 -0600",
      "timestamp": 1737149365000,
      "feedName": "Cameron Elementary School",
      "category": "Cameron Elementary School",
      "feedSource": "http://www.fcps.edu/index.shtml",
      "feedInfo": {
        "title": "Cameron Elementary School News and announcements - Recent Updates",
        "description": "Cameron Elementary School News and announcements",
        "link": "http://www.fcps.edu/index.shtml"
      }
    },
    {
      "id": "NjM3NDI2MTU=",
      "title": "Roadrunner Express!!!",
      "link": "https://content.govdelivery.com/accounts/VAEDUFCPS/bulletins/3cca297",
      "description": "\n        \n\n\n  \n\n\n\n\n\n\n\n<p><a></a>[VIEW_THIS]]</p>\n\n\n\n\n\n\n\n\n\n\n\n<a href=\"http://www2.fcps.edu/lortonstationes/?utm_campaign+=&amp;utm_medium=email&amp;utm_source=govdelivery\" target=\"_blank\"></a>\n\n\n\n\n\n\n\n\n\n\n\n\n\n\n\n\n\n<p><strong>Jan. 19: </strong>Orthodox Epiphany</p>\n<p><strong>Jan. 20:</strong> Martin Luth...",
      "pubDate": "Fri, 17 Jan 2025 15:14:15 -0600",
      "timestamp": 1737148455000,
      "feedName": "Lorton Station Elementary School",
      "category": "Lorton Station Elementary School",
      "feedSource": "http://www.fcps.edu/index.shtml",
      "feedInfo": {
        "title": "Lorton Station Elementary School News and announcements - Recent Updates",
        "description": "Lorton Station Elementary School News and announcements",
        "link": "http://www.fcps.edu/index.shtml"
      }
    },
    {
      "id": "NjM3NTg3NDg=",
      "title": "Weekly Message",
      "link": "https://content.govdelivery.com/accounts/VAEDUFCPS/bulletins/3cce19c",
      "description": "\n        \n\n\n  \n\n\n\n\n\n\n\n<p><a></a>Having trouble viewing this email? <a href=\"https://content.govdelivery.com/accounts/VAEDUFCPS/bulletins/3cce19c\">View it as a Web page</a>.</p>\n\n\n\n\n\n\n\n\n\n\n\n<a href=\"https://oaktones.fcps.edu/?utm_content=&amp;utm_medium=email&amp;utm_name=&amp;utm_source=govdelivery&a...",
      "pubDate": "Fri, 17 Jan 2025 15:05:16 -0600",
      "timestamp": 1737147916000,
      "feedName": "Oakton Elementary School",
      "category": "Oakton Elementary School",
      "feedSource": "http://www.fcps.edu/index.shtml",
      "feedInfo": {
        "title": "Oakton Elementary School News and announcements - Recent Updates",
        "description": "Oakton Elementary School News and announcements",
        "link": "http://www.fcps.edu/index.shtml"
      }
    },
    {
      "id": "NjM3Mzc4MDY=",
      "title": "Panther Press- January 17, 2025",
      "link": "https://content.govdelivery.com/accounts/VAEDUFCPS/bulletins/3cc8fce",
      "description": "\n        \n\n\n  \n\n\n\n\n\n\n\n<p><a></a>Having trouble viewing this email? <a href=\"https://content.govdelivery.com/accounts/VAEDUFCPS/bulletins/3cc8fce\">View it as a Web page</a>.</p>\n\n\n\n\n\n\n\n\n\n\n\n<a href=\"https://mountvernonwoodses.fcps.edu/?utm_campaign+=&amp;utm_medium=email&amp;utm_source=govdelivery\" ta...",
      "pubDate": "Fri, 17 Jan 2025 15:01:36 -0600",
      "timestamp": 1737147696000,
      "feedName": "Mount Vernon Woods Elementary School",
      "category": "Mount Vernon Woods Elementary School",
      "feedSource": "http://www.fcps.edu/index.shtml",
      "feedInfo": {
        "title": "Mount Vernon Woods Elementary School News and announcements - Recent Updates",
        "description": "Mount Vernon Woods Elementary School News and announcements",
        "link": "http://www.fcps.edu/index.shtml"
      }
    },
    {
      "id": "NjM3MzA3NDc=",
      "title": "Cougar Connections",
      "link": "https://content.govdelivery.com/accounts/VAEDUFCPS/bulletins/3cc743b",
      "description": "\n        \n\n\n  \n\n\n\n\n\n\n\n<p><a></a>Having trouble viewing this email? <a href=\"https://content.govdelivery.com/accounts/VAEDUFCPS/bulletins/3cc743b\">View it as a Web page</a>.</p>\n\n\n\n\n\n\n\n\n\n\n\n<a href=\"http://www2.fcps.edu/CanterburyWoodsES/?utm_campaign+=&amp;utm_medium=email&amp;utm_source=govdelivery\"...",
      "pubDate": "Fri, 17 Jan 2025 14:38:56 -0600",
      "timestamp": 1737146336000,
      "feedName": "Canterbury Woods Elementary School",
      "category": "Canterbury Woods Elementary School",
      "feedSource": "http://www.fcps.edu/index.shtml",
      "feedInfo": {
        "title": "Canterbury Woods Elementary School News and announcements - Recent Updates",
        "description": "Canterbury Woods Elementary School News and announcements",
        "link": "http://www.fcps.edu/index.shtml"
      }
    },
    {
      "id": "NjM3NTMzMjg=",
      "title": "Message from Holmes MS  - 1/17/2025",
      "link": "https://content.govdelivery.com/accounts/VAEDUFCPS/bulletins/3cccc70",
      "description": "\n        \n\n\n  \n\n\n\n\n\n\n\n<p><a></a>Having trouble viewing this email? <a href=\"https://content.govdelivery.com/accounts/VAEDUFCPS/bulletins/3cccc70\">View it as a Web page</a>.</p>\n\n\n\n\n\n\n\n\n\n\n\n<a href=\"https://holmesms.fcps.edu/?utm_campaign+=&amp;utm_medium=email&amp;utm_source=govdelivery\" target=\"_bla...",
      "pubDate": "Fri, 17 Jan 2025 14:21:59 -0600",
      "timestamp": 1737145319000,
      "feedName": "Holmes Middle School",
      "category": "Holmes Middle School",
      "feedSource": "http://www.fcps.edu/index.shtml",
      "feedInfo": {
        "title": "Holmes Middle School News and announcements - Recent Updates",
        "description": "Holmes Middle School News and announcements",
        "link": "http://www.fcps.edu/index.shtml"
      }
    },
    {
      "id": "NjM3ODU4MjI=",
      "title": "Chantilly Academy Program Highlights",
      "link": "https://content.govdelivery.com/accounts/VAEDUFCPS/bulletins/3cd4b5e",
      "description": "\n        \n\n\n  \n\n\n\n\n\n\n\n<p><a></a>Having trouble viewing this email? <a href=\"https://content.govdelivery.com/accounts/VAEDUFCPS/bulletins/3cd4b5e\">View it as a Web page</a>.</p>\n\n\n\n\n\n\n\n\n\n\n\n<a href=\"https://chantillyacademy.fcps.edu/?utm_campaign+=&amp;utm_medium=email&amp;utm_source=govdelivery\" targ...",
      "pubDate": "Fri, 17 Jan 2025 14:15:13 -0600",
      "timestamp": 1737144913000,
      "feedName": "Chantilly Academy",
      "category": "Chantilly Academy",
      "feedSource": "http://www.fcps.edu/index.shtml",
      "feedInfo": {
        "title": "Chantilly Academy News and Announcements - Recent Updates",
        "description": "Chantilly Academy News and Announcements - Recent Updates",
        "link": "http://www.fcps.edu/index.shtml"
      }
    },
    {
      "id": "NjM3ODcxNzQ=",
      "title": "Keene Mill News &amp; Notes",
      "link": "https://content.govdelivery.com/accounts/VAEDUFCPS/bulletins/3cd50a6",
      "description": "\n        \n\n\n  \n\n\n\n\n\n\n\n<p><a></a>Having trouble viewing this email? <a href=\"https://content.govdelivery.com/accounts/VAEDUFCPS/bulletins/3cd50a6\">View it as a Web page</a>.</p>\n\n\n\n\n\n\n\n\n\n\n\n<a href=\"https://keenemilles.fcps.edu/?utm_campaign+=&amp;utm_medium=email&amp;utm_source=govdelivery\" target=\"_...",
      "pubDate": "Fri, 17 Jan 2025 14:10:17 -0600",
      "timestamp": 1737144617000,
      "feedName": "Keene Mill Elementary School",
      "category": "Keene Mill Elementary School",
      "feedSource": "http://www.fcps.edu/index.shtml",
      "feedInfo": {
        "title": "Keene Mill Elementary School News and Notes - Recent Updates",
        "description": "Keene Mill Elementary School News and Announcements",
        "link": "http://www.fcps.edu/index.shtml"
      }
    },
    {
      "id": "NjM3ODYwNjY=",
      "title": "Falls Church Academy News!  January News!",
      "link": "https://content.govdelivery.com/accounts/VAEDUFCPS/bulletins/3cd4c52",
      "description": "\n        \n\n\n  \n\n\n\n\n\n\n\n<p><a></a>Having trouble viewing this email? <a href=\"https://content.govdelivery.com/accounts/VAEDUFCPS/bulletins/3cd4c52\">View it as a Web page</a>.</p>\n\n\n\n\n\n\n\n\n\n\n\n<a href=\"https://fallschurchacademy.fcps.edu/?utm_content=&amp;utm_medium=email&amp;utm_name=&amp;utm_source=gov...",
      "pubDate": "Fri, 17 Jan 2025 13:35:48 -0600",
      "timestamp": 1737142548000,
      "feedName": "Falls Church Academy",
      "category": "Falls Church Academy",
      "feedSource": "http://www.fcps.edu/index.shtml",
      "feedInfo": {
        "title": "Falls Church Academy News and Announcements - Recent Updates",
        "description": "Falls Church Academy News and Announcements - Recent Updates",
        "link": "http://www.fcps.edu/index.shtml"
      }
    },
    {
      "id": "NjM3NTk3ODI=",
      "title": "Principal's Message",
      "link": "https://content.govdelivery.com/accounts/VAEDUFCPS/bulletins/3cce5a6",
      "description": "\n        \n\n\n  \n\n\n\n\n\n\n\n<p><a></a>Having trouble viewing this email? <a href=\"https://content.govdelivery.com/accounts/VAEDUFCPS/bulletins/3cce5a6\">View it as a Web page</a>.</p>\n\n\n\n\n\n\n\n\n\n\n\n<a href=\"https://hughesms.fcps.edu/?utm_campaign+=&amp;utm_medium=email&amp;utm_source=govdelivery\" target=\"_bla...",
      "pubDate": "Fri, 17 Jan 2025 13:33:32 -0600",
      "timestamp": 1737142412000,
      "feedName": "Hughes Middle School",
      "category": "Hughes Middle School",
      "feedSource": "http://www.fcps.edu/index.shtml",
      "feedInfo": {
        "title": "Hughes Middle School News and announcements - Recent Updates",
        "description": "Hughes Middle School News and announcements",
        "link": "http://www.fcps.edu/index.shtml"
      }
    },
    {
      "id": "NjM3ODM2MjQ=",
      "title": "Mountain View newsletter 1/17/25",
      "link": "https://content.govdelivery.com/accounts/VAEDUFCPS/bulletins/3cd42c8",
      "description": "\n        \n\n\n  \n\n\n\n\n\n\n\n<p><a></a>Having trouble viewing this email? <a href=\"https://content.govdelivery.com/accounts/VAEDUFCPS/bulletins/3cd42c8\">View it as a Web page</a>.</p>\n\n\n\n\n\n\n\n\n\n\n\n<a href=\"https://mountainviewhs.fcps.edu/?utm_campaign+=&amp;utm_medium=email&amp;utm_source=govdelivery\" target...",
      "pubDate": "Fri, 17 Jan 2025 13:30:17 -0600",
      "timestamp": 1737142217000,
      "feedName": "Mountain View High School",
      "category": "Mountain View High School",
      "feedSource": "http://www.fcps.edu/index.shtml",
      "feedInfo": {
        "title": "Mountain View High School News and Announcements - Recent Updates",
        "description": "Mountain View High School News and announcements",
        "link": "http://www.fcps.edu/index.shtml"
      }
    },
    {
      "id": "NjM3ODY0NjQ=",
      "title": "Kilmer MS Newsletter - January 17, 2025",
      "link": "https://content.govdelivery.com/accounts/VAEDUFCPS/bulletins/3cd4de0",
      "description": "\n        \n\n\n  \n\n\n\n\n\n\n\n<p><a></a>Having trouble viewing this email? <a href=\"https://content.govdelivery.com/accounts/VAEDUFCPS/bulletins/3cd4de0\">View it as a Web page</a>.</p>\n\n\n\n\n\n\n\n\n\n\n\n<a href=\"https://kilmerms.fcps.edu/?utm_campaign+=&amp;utm_medium=email&amp;utm_source=govdelivery\" target=\"_bla...",
      "pubDate": "Fri, 17 Jan 2025 13:30:16 -0600",
      "timestamp": 1737142216000,
      "feedName": "Kilmer Middle School",
      "category": "Kilmer Middle School",
      "feedSource": "http://www.fcps.edu/index.shtml",
      "feedInfo": {
        "title": "Kilmer Middle School News and announcements - Recent Updates",
        "description": "Kilmer Middle School News and announcements",
        "link": "http://www.fcps.edu/index.shtml"
      }
    },
    {
      "id": "NjM3MDkwMTM=",
      "title": "Luther Jackson January 17, 2024",
      "link": "https://content.govdelivery.com/accounts/VAEDUFCPS/bulletins/3cc1f55",
      "description": "\n        \n\n\n  \n\n\n\n\n\n\n\n\n\n\n\n\n\n\n\n\n\n\n\n<p><a href=\"https://translate.google.com/translate?hl=en&amp;sl=en&amp;tl=es&amp;u=https%3A%2F%2Fcontent.govdelivery.com%2Faccounts%2FVAEDUFCPS%2Fbulletins%2F3cc1f55&amp;utm_campaign+=&amp;utm_medium=email&amp;utm_source=govdelivery\" target=\"_blank\">Espanol</a></p>\n...",
      "pubDate": "Fri, 17 Jan 2025 13:23:38 -0600",
      "timestamp": 1737141818000,
      "feedName": "Jackson Middle School",
      "category": "Jackson Middle School",
      "feedSource": "http://www.fcps.edu/index.shtml",
      "feedInfo": {
        "title": "Jackson Middle School News and Announcements - Recent Updates",
        "description": "Jackson Middle School News and announcements",
        "link": "http://www.fcps.edu/index.shtml"
      }
    },
    {
      "id": "NjM3MDkzNjM=",
      "title": "Mason Students in the News, Middle School Start Times, CIP, Scholarships, Upcoming Survey, and More!",
      "link": "https://content.govdelivery.com/accounts/VAEDUFCPS/bulletins/3cc20b3",
      "description": "\n        \n\n\n  \n\n\n\n\n\n\n\n<p><a></a>Having trouble viewing this email? <a href=\"https://content.govdelivery.com/accounts/VAEDUFCPS/bulletins/3cc20b3\">View it as a Web page</a>.</p>\n\n\n\n\n\n\n\n\n\n\n\n<a href=\"https://www.fcps.edu/staff/ricardy-anderson?utm_campaign+=&amp;utm_medium=email&amp;utm_source=govdeliv...",
      "pubDate": "Fri, 17 Jan 2025 13:22:26 -0600",
      "timestamp": 1737141746000,
      "feedName": "School Board Mason District",
      "category": "School Board Mason District",
      "feedSource": "http://www.fcps.edu/index.shtml",
      "feedInfo": {
        "title": "Mason District Member - Ricardy Anderson - Recent Updates",
        "description": "Mason District Member - Ricardy Anderson - Recent Updates",
        "link": "http://www.fcps.edu/index.shtml"
      }
    },
    {
      "id": "NjM3NTcwNjc=",
      "title": "Panther Press: January 17",
      "link": "https://content.govdelivery.com/accounts/VAEDUFCPS/bulletins/3ccdb0b",
      "description": "\n        \n\n\n  \n\n\n\n\n\n\n\n<p><a></a>Having trouble viewing this email? <a href=\"https://content.govdelivery.com/accounts/VAEDUFCPS/bulletins/3ccdb0b\">View it as a Web page</a>.</p>\n\n\n\n\n\n\n\n\n\n\n\n<a href=\"http://www2.fcps.edu/ProvidenceES/?utm_campaign+=&amp;utm_medium=email&amp;utm_source=govdelivery\" targ...",
      "pubDate": "Fri, 17 Jan 2025 12:52:49 -0600",
      "timestamp": 1737139969000,
      "feedName": "Providence Elementary School",
      "category": "Providence Elementary School",
      "feedSource": "http://www.fcps.edu/index.shtml",
      "feedInfo": {
        "title": "Providence Elementary School News and Announcements - Recent Updates",
        "description": "Providence Elementary School News and announcements",
        "link": "http://www.fcps.edu/index.shtml"
      }
    },
    {
      "id": "NjM1NjQ3Mjg=",
      "title": "Louise Archer Sunshine News - 1-17-25",
      "link": "https://content.govdelivery.com/accounts/VAEDUFCPS/bulletins/3c9ebb8",
      "description": "\n        \n\n\n  \n\n\n\n\n\n\n\n<p><a></a>Having trouble viewing this email? <a href=\"https://content.govdelivery.com/accounts/VAEDUFCPS/bulletins/3c9ebb8\">View it as a Web page</a>.</p>\n\n\n\n\n\n\n\n\n\n\n\n<a href=\"http://www2.fcps.edu/LouiseArcherES/?utm_content=&amp;utm_medium=email&amp;utm_name=&amp;utm_source=gov...",
      "pubDate": "Fri, 17 Jan 2025 12:45:11 -0600",
      "timestamp": 1737139511000,
      "feedName": "Louise Archer Elementary School",
      "category": "Louise Archer Elementary School",
      "feedSource": "http://www.fcps.edu/index.shtml",
      "feedInfo": {
        "title": "Louise Archer Elementary School News and announcements - Recent Updates",
        "description": "Louise Archer Elementary School News and announcements",
        "link": "http://www.fcps.edu/index.shtml"
      }
    },
    {
      "id": "NjMzODQzOTI=",
      "title": "January 17, 2025 - NSES News",
      "link": "https://content.govdelivery.com/accounts/VAEDUFCPS/bulletins/3c72b48",
      "description": "\n        \n\n\n  \n\n\n\n\n\n\n\n<p><a></a>Having trouble viewing this email? <a href=\"https://content.govdelivery.com/accounts/VAEDUFCPS/bulletins/3c72b48\">View it as a Web\npage</a>.</p>\n\n\n\n\n\n\n\n\n\n\n\n<a href=\"https://northspringfieldes.fcps.edu/?utm_content=&amp;utm_medium=email&amp;utm_name=&amp;utm_source=gov...",
      "pubDate": "Fri, 17 Jan 2025 12:44:50 -0600",
      "timestamp": 1737139490000,
      "feedName": "North Springfield Elementary School",
      "category": "North Springfield Elementary School",
      "feedSource": "http://www.fcps.edu/index.shtml",
      "feedInfo": {
        "title": "North Springfield Elementary School News and announcements - Recent Updates",
        "description": "North Springfield Elementary School News and announcements",
        "link": "http://www.fcps.edu/index.shtml"
      }
    }
  ],
  "hasNext": true,
  "hasPrev": true
}