{
  "page": 34,
  "totalPages": 268,
  "totalItems": 5354,
  "itemsPerPage": 20,
  "items": [
    {
      "id": "NjU2MTMwMzQ=",
      "title": "Pre-K Program at Lane Accepting Applications",
      "link": "https://content.govdelivery.com/accounts/VAEDUFCPS/bulletins/3e92cea",
      "description": "\n        \n\n\n  \n\n\n\n\n\n\n\n<p><a></a>Having trouble viewing this email? <a href=\"https://content.govdelivery.com/accounts/VAEDUFCPS/bulletins/3e92cea\">View it as a Web page</a>.</p>\n\n\n\n\n\n\n\n\n\n\n\n<a href=\"https://lanees.fcps.edu/?utm_campaign+=&amp;utm_medium=email&amp;utm_source=govdelivery\" target=\"_blank...",
      "pubDate": "Fri, 11 Jul 2025 20:17:40 -0500",
      "timestamp": 1752283060000,
      "feedName": "Lane Elementary School",
      "category": "Lane Elementary School",
      "feedSource": "http://www.fcps.edu/index.shtml",
      "feedInfo": {
        "title": "Lane Elementary School News and announcements - Recent Updates",
        "description": "Lane Elementary School News and announcements",
        "link": "http://www.fcps.edu/index.shtml"
      }
    },
    {
      "id": "NjU2MDk2NTg=",
      "title": "From Athletics",
      "link": "https://content.govdelivery.com/accounts/VAEDUFCPS/bulletins/3e91fba",
      "description": "\n        \n\n\n  \n\n\n\n\n\n\n\n<p><a></a>Having trouble viewing this email? <a href=\"https://content.govdelivery.com/accounts/VAEDUFCPS/bulletins/3e91fba\">View it as a Web page</a>.</p>\n\n\n\n\n\n\n\n\n\n\n\n<a href=\"https://herndonhs.fcps.edu/?utm_campaign+=&amp;utm_medium=email&amp;utm_source=govdelivery\" target=\"_bl...",
      "pubDate": "Fri, 11 Jul 2025 16:00:20 -0500",
      "timestamp": 1752267620000,
      "feedName": "Herndon High School",
      "category": "Herndon High School",
      "feedSource": "http://www.fcps.edu/index.shtml",
      "feedInfo": {
        "title": "Herndon High School News and Announcements - Recent Updates",
        "description": "Herndon High School News and Announcements",
        "link": "http://www.fcps.edu/index.shtml"
      }
    },
    {
      "id": "NjU1MTA1MTY=",
      "title": "Mustang Message - July 11, 2025",
      "link": "https://content.govdelivery.com/accounts/VAEDUFCPS/bulletins/3e79c74",
      "description": "\n        \n\n\n  \n\n\n\n\n\n\n\n<p><a></a>Having trouble viewing this email? <a href=\"https://content.govdelivery.com/accounts/VAEDUFCPS/bulletins/3e79c74\">View it as a Web page</a>.</p>\n\n\n\n\n\n\n\n\n\n\n\n<a href=\"https://brenmarparkes.fcps.edu/?utm_campaign+=&amp;utm_medium=email&amp;utm_source=govdelivery\" target=...",
      "pubDate": "Fri, 11 Jul 2025 15:30:16 -0500",
      "timestamp": 1752265816000,
      "feedName": "Bren Mar Park Elementary School",
      "category": "Bren Mar Park Elementary School",
      "feedSource": "http://www.fcps.edu/index.shtml",
      "feedInfo": {
        "title": "Bren Mar Park Elementary School News and announcements - Recent Updates",
        "description": "Bren Mar Park Elementary School News and announcements",
        "link": "http://www.fcps.edu/index.shtml"
      }
    },
    {
      "id": "NjU2MTAzMTA=",
      "title": "ðŸ–ï¸PreK Program - Accepting ApplicationsðŸ” ",
      "link": "https://content.govdelivery.com/accounts/VAEDUFCPS/bulletins/3e92246",
      "description": "\n        \n\n\n  \n\n\n\n\n\n\n\n<p><a></a>Having trouble viewing this email? <a href=\"https://content.govdelivery.com/accounts/VAEDUFCPS/bulletins/3e92246\">View it as a Web page</a>.</p>\n\n\n\n\n\n\n\n\n\n\n\n<a href=\"http://www2.fcps.edu/PoplarTreeES?utm_content=&amp;utm_medium=email&amp;utm_name=&amp;utm_source=govdel...",
      "pubDate": "Fri, 11 Jul 2025 15:07:02 -0500",
      "timestamp": 1752264422000,
      "feedName": "Poplar Tree Elementary School",
      "category": "Poplar Tree Elementary School",
      "feedSource": "http://www.fcps.edu/index.shtml",
      "feedInfo": {
        "title": "Poplar Tree Elementary School News and announcements - Recent Updates",
        "description": "Poplar Tree Elementary School News and announcements",
        "link": "http://www.fcps.edu/index.shtml"
      }
    },
    {
      "id": "NjU1OTQ2NjI=",
      "title": "From the Principal's Desk",
      "link": "https://content.govdelivery.com/accounts/VAEDUFCPS/bulletins/3e8e526",
      "description": "\n        \n\n\n  \n\n\n\n\n\n\n\n\n\n\n\n\n\n\n\n\n\n\n\n\n\n\n\n\n\n\n\n\n\n\n\n\n\n\n\n\n  \n    <a href=\"https://fairfaxhs.fcps.edu/events?utm_content=&amp;utm_medium=email&amp;utm_name=&amp;utm_source=govdelivery&amp;utm_term=\" target=\"_blank\"></a>\n\n\nUpcoming Events\n<p>Â </p>\n<p><strong>August 5-7: </strong>Lions On the Rise, 9am-12pm</...",
      "pubDate": "Fri, 11 Jul 2025 14:30:58 -0500",
      "timestamp": 1752262258000,
      "feedName": "Fairfax High School",
      "category": "Fairfax High School",
      "feedSource": "http://www.fcps.edu/index.shtml",
      "feedInfo": {
        "title": "Fairfax HS News and Announcements - Recent Updates",
        "description": "Fairfax High School News and announcements",
        "link": "http://www.fcps.edu/index.shtml"
      }
    },
    {
      "id": "NjU2MDk0ODQ=",
      "title": "Hollin Meadows Buzz Bulletin for July 11, 2025",
      "link": "https://content.govdelivery.com/accounts/VAEDUFCPS/bulletins/3e91f0c",
      "description": "\n        \n\n\n  \n\n\n\n\n\n\n\n<p><a></a>Having trouble viewing this email? <a href=\"https://content.govdelivery.com/accounts/VAEDUFCPS/bulletins/3e91f0c\">View it as a Web page</a>.</p>\n\n\n\n\n\n\n\n\n\n\n\n<a href=\"http://www2.fcps.edu/HollinMeadowsES/?utm_campaign+=&amp;utm_medium=email&amp;utm_source=govdelivery\" t...",
      "pubDate": "Fri, 11 Jul 2025 14:29:58 -0500",
      "timestamp": 1752262198000,
      "feedName": "Hollin Meadows Elementary School",
      "category": "Hollin Meadows Elementary School",
      "feedSource": "http://www.fcps.edu/index.shtml",
      "feedInfo": {
        "title": "Hollin Meadows Elementary School News and announcements - Recent Updates",
        "description": "Hollin Meadows Elementary School News and announcements",
        "link": "http://www.fcps.edu/index.shtml"
      }
    },
    {
      "id": "NjU1OTUyNzY=",
      "title": "Save the Date- 2025-26 Welcome Events at Rocky Run!",
      "link": "https://content.govdelivery.com/accounts/VAEDUFCPS/bulletins/3e8e78c",
      "description": "\n        \n\n\n  \n\n\n\n\n\n\n\n<p><a></a>Having trouble viewing this email? <a href=\"https://content.govdelivery.com/accounts/VAEDUFCPS/bulletins/3e8e78c\">View it as a Web page</a>.</p>\n\n\n\n\n\n\n\n\n\n\n\n<a href=\"https://rockyrunms.fcps.edu/?utm_campaign+=&amp;utm_medium=email&amp;utm_source=govdelivery\" target=\"_b...",
      "pubDate": "Fri, 11 Jul 2025 14:27:45 -0500",
      "timestamp": 1752262065000,
      "feedName": "Rocky Run Middle School",
      "category": "Rocky Run Middle School",
      "feedSource": "https://public.govdelivery.com/topics/Rocky_Run_MS_News/feed.rss",
      "feedInfo": {
        "title": "Rocky Run Middle School News and Announcements",
        "description": "Rocky Run Middle School News and Announcements",
        "link": "https://public.govdelivery.com/topics/Rocky_Run_MS_News/feed.rss"
      }
    },
    {
      "id": "NjU0OTI5OTc=",
      "title": "EHS Weekly Update - July 11, 2025",
      "link": "https://content.govdelivery.com/accounts/VAEDUFCPS/bulletins/3e75805",
      "description": "\n        \n\n\n  \n\n\n\n\n\n\n\n<p><a></a>Having trouble viewing this email? <a href=\"https://content.govdelivery.com/accounts/VAEDUFCPS/bulletins/3e75805\">View it as a Web page</a>.</p>\n\n\n\n\n\n\n\n\n\n\n\n<a href=\"https://edisonhs.fcps.edu?utm_campaign+=&amp;utm_medium=email&amp;utm_source=govdelivery\" target=\"_blan...",
      "pubDate": "Fri, 11 Jul 2025 14:18:33 -0500",
      "timestamp": 1752261513000,
      "feedName": "Edison High School",
      "category": "Edison High School",
      "feedSource": "http://www.fcps.edu/index.shtml",
      "feedInfo": {
        "title": "Edison High School News and announcements - Recent Updates",
        "description": "Edison High School News and announcements",
        "link": "http://www.fcps.edu/index.shtml"
      }
    },
    {
      "id": "NjU1OTU4NzE=",
      "title": "RVES News and Notes - July 11",
      "link": "https://content.govdelivery.com/accounts/VAEDUFCPS/bulletins/3e8e9df",
      "description": "\n        \n\n\n  \n\n\n\n\n\n\n\n<p><a></a>Having trouble viewing this email? <a href=\"https://content.govdelivery.com/accounts/VAEDUFCPS/bulletins/3e8e9df\">View it as a Web page</a>.</p>\n\n\n\n\n\n\n\n\n\n\n\n<a href=\"http://www2.fcps.edu/RollingValleyES/?utm_campaign+=&amp;utm_medium=email&amp;utm_source=govdelivery\" t...",
      "pubDate": "Fri, 11 Jul 2025 13:30:32 -0500",
      "timestamp": 1752258632000,
      "feedName": "Rolling Valley Elementary School",
      "category": "Rolling Valley Elementary School",
      "feedSource": "http://www.fcps.edu/index.shtml",
      "feedInfo": {
        "title": "Rolling Valley Elementary School News and announcements - Recent Updates",
        "description": "Rolling Valley Elementary School News and announcements",
        "link": "http://www.fcps.edu/index.shtml"
      }
    },
    {
      "id": "NjU1NzA0NjM=",
      "title": "Roadrunner Express!!!",
      "link": "https://content.govdelivery.com/accounts/VAEDUFCPS/bulletins/3e8869f",
      "description": "\n        \n\n\n  \n\n\n\n\n\n\n\n<p><a></a>[VIEW_THIS]]</p>\n\n\n\n\n\n\n\n\n\n\n\n<a href=\"http://www2.fcps.edu/lortonstationes/?utm_campaign+=&amp;utm_medium=email&amp;utm_source=govdelivery\" target=\"_blank\"></a>\n\n\n\n\n\n\n\n\n\n\n\n\n\n\n\n\n<p>Good afternoon, Lorton Station families!</p>\n<p>We hope your summer is off to a great sta...",
      "pubDate": "Fri, 11 Jul 2025 12:13:55 -0500",
      "timestamp": 1752254035000,
      "feedName": "Lorton Station Elementary School",
      "category": "Lorton Station Elementary School",
      "feedSource": "http://www.fcps.edu/index.shtml",
      "feedInfo": {
        "title": "Lorton Station Elementary School News and announcements - Recent Updates",
        "description": "Lorton Station Elementary School News and announcements",
        "link": "http://www.fcps.edu/index.shtml"
      }
    },
    {
      "id": "NjU1OTM2NDI=",
      "title": "Katherine Johnson MS Weekly News - July 11, 2025",
      "link": "https://content.govdelivery.com/accounts/VAEDUFCPS/bulletins/3e8e12a",
      "description": "\n        \n\n\n  \n\n\n\n\n\n\n\n<p><a></a>Having trouble viewing this email? <a href=\"https://content.govdelivery.com/accounts/VAEDUFCPS/bulletins/3e8e12a\">View it as a Web page</a>.</p>\n\n\n\n\n\n\n\n\n\n\n\n<a href=\"https://johnsonms.fcps.edu/?utm_campaign+=&amp;utm_medium=email&amp;utm_source=govdelivery\" target=\"_bl...",
      "pubDate": "Fri, 11 Jul 2025 12:00:19 -0500",
      "timestamp": 1752253219000,
      "feedName": "Katherine Johnson Middle School",
      "category": "Katherine Johnson Middle School",
      "feedSource": "http://www.fcps.edu/index.shtml",
      "feedInfo": {
        "title": "Katherine Johnson Middle School News and Announcements - Recent Updates",
        "description": "Katherine Johnson Middle School News and announcements",
        "link": "http://www.fcps.edu/index.shtml"
      }
    },
    {
      "id": "NjU2MDQ3ODE=",
      "title": "Cardinal Forest ES - 7-11-2025",
      "link": "https://content.govdelivery.com/accounts/VAEDUFCPS/bulletins/3e90cad",
      "description": "\n        \n\n\n  \n\n\n\n\n\n\n\n<p><a></a>Having trouble viewing this email? <a href=\"https://content.govdelivery.com/accounts/VAEDUFCPS/bulletins/3e90cad\">View it as a Web page</a>.</p>\n\n\n\n\n\n\n\n\n\n\n\n<a href=\"https://cardinalforestes.fcps.edu/?utm_campaign+=&amp;utm_medium=email&amp;utm_source=govdelivery\" targ...",
      "pubDate": "Fri, 11 Jul 2025 11:22:03 -0500",
      "timestamp": 1752250923000,
      "feedName": "Cardinal Forest Elementary School",
      "category": "Cardinal Forest Elementary School",
      "feedSource": "http://www.fcps.edu/index.shtml",
      "feedInfo": {
        "title": "Cardinal Forest Elementary School News and announcements - Recent Updates",
        "description": "Cardinal Forest Elementary School News and announcements",
        "link": "http://www.fcps.edu/index.shtml"
      }
    },
    {
      "id": "NjU1NTAyNDU=",
      "title": "7/11 Chantilly Chargers Connect",
      "link": "https://content.govdelivery.com/accounts/VAEDUFCPS/bulletins/3e837a5",
      "description": "\n        \n\n\n  \n\n\n\n\n\n\n\n\n\n\n\n\n\n\n\n\n\n\n\n\n\n\n\n\n\n\n\n\n\n\n\n\n\n\n\n\n\n<p><strong><a href=\"https://chantillyhs.fcps.edu/aggregator/sources/1?utm_content=&amp;utm_medium=email&amp;utm_name=&amp;utm_source=govdelivery&amp;utm_term=#modal-language-switcher\" target=\"_blank\">English</a> | <a href=\"https://chantillyhs.fcps....",
      "pubDate": "Fri, 11 Jul 2025 09:54:54 -0500",
      "timestamp": 1752245694000,
      "feedName": "Chantilly High School",
      "category": "Chantilly High School",
      "feedSource": "http://www.fcps.edu/index.shtml",
      "feedInfo": {
        "title": "Chantilly High School News and announcements - Recent Updates",
        "description": "Chantilly High School News and announcements",
        "link": "http://www.fcps.edu/index.shtml"
      }
    },
    {
      "id": "NjU2MDU4MTc=",
      "title": "Apply now for our PreK program",
      "link": "https://content.govdelivery.com/accounts/VAEDUFCPS/bulletins/3e910b9",
      "description": "\n        \n\n\n  \n\n\n\n\n\n\n\n<p><a></a>Having trouble viewing this email? <a href=\"https://content.govdelivery.com/accounts/VAEDUFCPS/bulletins/3e910b9\">View it as a Web page</a>.</p>\n\n\n\n\n\n\n\n\n\n\n\n<a href=\"http://www2.fcps.edu/GarfieldES/?utm_campaign+=&amp;utm_medium=email&amp;utm_source=govdelivery\" target...",
      "pubDate": "Fri, 11 Jul 2025 08:45:49 -0500",
      "timestamp": 1752241549000,
      "feedName": "Garfield Elementary School",
      "category": "Garfield Elementary School",
      "feedSource": "http://www.fcps.edu/index.shtml",
      "feedInfo": {
        "title": "Garfield Elementary School - Recent Updates",
        "description": "Garfield Elementary School - Recent Updates",
        "link": "http://www.fcps.edu/index.shtml"
      }
    },
    {
      "id": "NjU2MDU2ODM=",
      "title": "Popsicle Social",
      "link": "https://content.govdelivery.com/accounts/VAEDUFCPS/bulletins/3e91033",
      "description": "\n        \n\n\n  \n\n\n\n\n\n\n\n<p><a></a>Having trouble viewing this email? <a href=\"https://content.govdelivery.com/accounts/VAEDUFCPS/bulletins/3e91033\">View it as a Web page</a>.</p>\n\n\n\n\n\n\n\n\n\n\n\n<a href=\"https://waynewoodes.fcps.edu/?utm_campaign+=&amp;utm_medium=email&amp;utm_source=govdelivery\" target=\"_...",
      "pubDate": "Fri, 11 Jul 2025 08:27:28 -0500",
      "timestamp": 1752240448000,
      "feedName": "Waynewood Elementary School",
      "category": "Waynewood Elementary School",
      "feedSource": "http://www.fcps.edu/index.shtml",
      "feedInfo": {
        "title": "Waynewood Elementary School News and announcements - Recent Updates",
        "description": "Waynewood Elementary School News and announcements",
        "link": "http://www.fcps.edu/index.shtml"
      }
    },
    {
      "id": "NjU2MDU0NDE=",
      "title": "Ms. Hestmark - New Assistant Principal at Stratford Landing ES",
      "link": "https://content.govdelivery.com/accounts/VAEDUFCPS/bulletins/3e90f41",
      "description": "\n        \n\n\n  \n\n\n\n\n\n\n\n<p><a></a>Having trouble viewing this email? <a href=\"https://content.govdelivery.com/accounts/VAEDUFCPS/bulletins/3e90f41\">View it as a Web page</a>.</p>\n\n\n\n\n\n\n\n\n\n\n\n<a href=\"https://columbiaes.fcps.edu/?utm_campaign+=&amp;utm_medium=email&amp;utm_source=govdelivery\" target=\"_b...",
      "pubDate": "Fri, 11 Jul 2025 08:21:44 -0500",
      "timestamp": 1752240104000,
      "feedName": "Columbia Elementary School",
      "category": "Columbia Elementary School",
      "feedSource": "http://www.fcps.edu/index.shtml",
      "feedInfo": {
        "title": "Columbia Elementary School News and Announcements - Recent Updates",
        "description": "Columbia Elementary School News and Announcements",
        "link": "http://www.fcps.edu/index.shtml"
      }
    },
    {
      "id": "NjU2MDUzNjY=",
      "title": "Brookfield Families, Apply Now for Our PreK Program",
      "link": "https://content.govdelivery.com/accounts/VAEDUFCPS/bulletins/3e90ef6",
      "description": "\n        \n\n\n  \n\n\n\n\n\n\n\n<p><a></a>Having trouble viewing this email? <a href=\"https://content.govdelivery.com/accounts/VAEDUFCPS/bulletins/3e90ef6\">View it as a Web page</a>.</p>\n\n\n\n\n\n\n\n\n\n\n\n<a href=\"https://brookfieldes.fcps.edu/?utm_campaign+=&amp;utm_medium=email&amp;utm_source=govdelivery\" target=\"...",
      "pubDate": "Fri, 11 Jul 2025 08:20:37 -0500",
      "timestamp": 1752240037000,
      "feedName": "Brookfield Elementary School",
      "category": "Brookfield Elementary School",
      "feedSource": "http://www.fcps.edu/index.shtml",
      "feedInfo": {
        "title": "Brookfield Elementary School News and announcements - Recent Updates",
        "description": "Brookfield Elementary School News and announcements",
        "link": "http://www.fcps.edu/index.shtml"
      }
    },
    {
      "id": "NjU1OTI1MzE=",
      "title": "Glasgow Middle School - July 10, 2025",
      "link": "https://content.govdelivery.com/accounts/VAEDUFCPS/bulletins/3e8dcd3",
      "description": "\n        \n\n\n  \n\n\n\n\n\n\n\n<p><a></a>Having trouble viewing this email? <a href=\"https://content.govdelivery.com/accounts/VAEDUFCPS/bulletins/3e8dcd3\">View it as a Web page</a>.</p>\n\n\n\n\n\n\n\n\n\n\n\n<a href=\"https://glasgowms.fcps.edu/?utm_campaign+=&amp;utm_medium=email&amp;utm_source=govdelivery\" target=\"_bl...",
      "pubDate": "Thu, 10 Jul 2025 16:00:16 -0500",
      "timestamp": 1752181216000,
      "feedName": "Glasgow Middle School",
      "category": "Glasgow Middle School",
      "feedSource": "http://www.fcps.edu/index.shtml",
      "feedInfo": {
        "title": "Glasgow Middle School News and Announcements - Recent Updates",
        "description": "Glasgow Middle School News and Announcements",
        "link": "http://www.fcps.edu/index.shtml"
      }
    },
    {
      "id": "NjU1Njk2MDA=",
      "title": "Brookfield News and Notes 7/10/2025",
      "link": "https://content.govdelivery.com/accounts/VAEDUFCPS/bulletins/3e88340",
      "description": "\n        \n\n\n  \n\n\n\n\n\n\n\n<p><a></a>Having trouble viewing this email? <a href=\"https://content.govdelivery.com/accounts/VAEDUFCPS/bulletins/3e88340\">View it as a Web page</a>.</p>\n\n\n\n\n\n\n\n\n\n\n\n<a href=\"https://brookfieldes.fcps.edu/?utm_campaign+=&amp;utm_medium=email&amp;utm_source=govdelivery\" target=\"...",
      "pubDate": "Thu, 10 Jul 2025 14:18:52 -0500",
      "timestamp": 1752175132000,
      "feedName": "Brookfield Elementary School",
      "category": "Brookfield Elementary School",
      "feedSource": "http://www.fcps.edu/index.shtml",
      "feedInfo": {
        "title": "Brookfield Elementary School News and announcements - Recent Updates",
        "description": "Brookfield Elementary School News and announcements",
        "link": "http://www.fcps.edu/index.shtml"
      }
    },
    {
      "id": "NjU1Njk1ODE=",
      "title": "Willow Springs School News: 7/9/25",
      "link": "https://content.govdelivery.com/accounts/VAEDUFCPS/bulletins/3e8832d",
      "description": "\n        \n\n\n  \n\n\n\n\n\n\n\n<p><a href=\"https://content.govdelivery.com/accounts/VAEDUFCPS/bulletins/3e8832d\">Having trouble viewing this email? <a href=\"https://content.govdelivery.com/accounts/VAEDUFCPS/bulletins/3e8832d\">View it as a Web page</a>.</a></p>\n\n\n\n\n\n\n\n\n\n\n\n<a href=\"https://willowspringses.fcp...",
      "pubDate": "Thu, 10 Jul 2025 13:26:38 -0500",
      "timestamp": 1752171998000,
      "feedName": "Willow Springs Elementary School",
      "category": "Willow Springs Elementary School",
      "feedSource": "https://willowspringses.fcps.edu",
      "feedInfo": {
        "title": "Willow Springs Elementary School",
        "description": "Willow Springs Elementary School News and announcements",
        "link": "https://willowspringses.fcps.edu"
      }
    }
  ],
  "hasNext": true,
  "hasPrev": true
}