{
  "page": 107,
  "totalPages": 268,
  "totalItems": 5354,
  "itemsPerPage": 20,
  "items": [
    {
      "id": "NjQ5MjY2Nzk=",
      "title": "Pine Spring Paw Print",
      "link": "https://content.govdelivery.com/accounts/VAEDUFCPS/bulletins/3deb3d7",
      "description": "\n        \n\n\n  \n\n\n\n\n\n\n\n<p><a></a>Having trouble viewing this email? <a href=\"https://content.govdelivery.com/accounts/VAEDUFCPS/bulletins/3deb3d7\">View it as a Web page</a>.</p>\n\n\n\n\n\n\n\n\n\n\n\n<a href=\"https://pinespringes.fcps.edu/?utm_campaign+=&amp;utm_medium=email&amp;utm_source=govdelivery\" target=\"...",
      "pubDate": "Sun, 04 May 2025 20:22:40 -0500",
      "timestamp": 1746408160000,
      "feedName": "Pine Spring Elementary School",
      "category": "Pine Spring Elementary School",
      "feedSource": "http://www.fcps.edu/index.shtml",
      "feedInfo": {
        "title": "Pine Spring Elementary School News and announcements - Recent Updates",
        "description": "Pine Spring Elementary School News and announcements",
        "link": "http://www.fcps.edu/index.shtml"
      }
    },
    {
      "id": "NjQ5MjAwODM=",
      "title": "Navy News &amp; Notes ðŸ—žï¸ðŸ“Œ 5.4.25",
      "link": "https://content.govdelivery.com/accounts/VAEDUFCPS/bulletins/3de9a13",
      "description": "\n        \n\n\n  \n\n\n\n\n\n\n\n<p><a></a>Having trouble viewing this email? <a href=\"https://content.govdelivery.com/accounts/VAEDUFCPS/bulletins/3de9a13\">View it as a Web page</a>.</p>\n\n\n\n\n\n\n\n\n\n\n\n<a href=\"https://navyes.fcps.edu/?utm_campaign+=&amp;utm_medium=email&amp;utm_source=govdelivery\" target=\"_blank...",
      "pubDate": "Sun, 04 May 2025 17:00:14 -0500",
      "timestamp": 1746396014000,
      "feedName": "Navy Elementary School",
      "category": "Navy Elementary School",
      "feedSource": "http://www.fcps.edu/index.shtml",
      "feedInfo": {
        "title": "Navy Elementary School News and announcements - Recent Updates",
        "description": "Navy Elementary School News and announcements",
        "link": "http://www.fcps.edu/index.shtml"
      }
    },
    {
      "id": "NjQ5NDA2Mjk=",
      "title": "Hollin Meadows Buzz Bulletin for May 4, 2025",
      "link": "https://content.govdelivery.com/accounts/VAEDUFCPS/bulletins/3deea55",
      "description": "\n        \n\n\n  \n\n\n\n\n\n\n\n<p><a></a>Having trouble viewing this email? <a href=\"https://content.govdelivery.com/accounts/VAEDUFCPS/bulletins/3deea55\">View it as a Web page</a>.</p>\n\n\n\n\n\n\n\n\n\n\n\n<a href=\"http://www2.fcps.edu/HollinMeadowsES/?utm_campaign+=&amp;utm_medium=email&amp;utm_source=govdelivery\" t...",
      "pubDate": "Sun, 04 May 2025 16:59:22 -0500",
      "timestamp": 1746395962000,
      "feedName": "Hollin Meadows Elementary School",
      "category": "Hollin Meadows Elementary School",
      "feedSource": "http://www.fcps.edu/index.shtml",
      "feedInfo": {
        "title": "Hollin Meadows Elementary School News and announcements - Recent Updates",
        "description": "Hollin Meadows Elementary School News and announcements",
        "link": "http://www.fcps.edu/index.shtml"
      }
    },
    {
      "id": "NjQ5MTMxNjg=",
      "title": "Woodlawn News May 4, 2025",
      "link": "https://content.govdelivery.com/accounts/VAEDUFCPS/bulletins/3de7f10",
      "description": "\n        \n\n\n  \n\n\n\n\n\n\n\n\n\n\n\n\n\n\n\n\n\n\n\n<a href=\"http://www2.fcps.edu/WoodlawnES/?utm_campaign+=&amp;utm_medium=email&amp;utm_source=govdelivery\" target=\"_blank\"></a>\n\n\n\n\n\n\n\n\n\n\n\n\n\n\n\n<a href=\"https://woodlawnes.fcps.edu/aggregator/sources/1?utm_campaign+=&amp;utm_medium=email&amp;utm_source=govdelivery\" ta...",
      "pubDate": "Sun, 04 May 2025 16:30:16 -0500",
      "timestamp": 1746394216000,
      "feedName": "Woodlawn Elementary School",
      "category": "Woodlawn Elementary School",
      "feedSource": "http://www.fcps.edu/index.shtml",
      "feedInfo": {
        "title": "Woodlawn Elementary School News and announcements - Recent Updates",
        "description": "Woodlawn Elementary School News and announcements",
        "link": "http://www.fcps.edu/index.shtml"
      }
    },
    {
      "id": "NjQ4ODA0NDg=",
      "title": "May 2025 Newsletter - Teacher Appreciation Week, #AAPIHeritageMonth, Family Resources, Student Resources and more!",
      "link": "https://content.govdelivery.com/accounts/VAEDUFCPS/bulletins/3ddff40",
      "description": "\n        \n\n\n  \n\n\n\n\n\n\n\n<p><a></a>Having trouble viewing this email? <a href=\"https://content.govdelivery.com/accounts/VAEDUFCPS/bulletins/3ddff40\">View it as a Web page</a>.</p>\n\n\n\n\n\n\n\n\n\n\n\n<a href=\"https://www.fcps.edu/staff/seema-dixit?utm_campaign+=&amp;utm_medium=email&amp;utm_source=govdelivery\" ...",
      "pubDate": "Sun, 04 May 2025 16:10:07 -0500",
      "timestamp": 1746393007000,
      "feedName": "FCPS School Board Sully District",
      "category": "FCPS School Board Sully District",
      "feedSource": "http://www.fcps.edu/index.shtml",
      "feedInfo": {
        "title": "Sully District Member - Seema Dixit - Recent Updates",
        "description": "Sully District Member - Seema Dixit - Recent Updates",
        "link": "http://www.fcps.edu/index.shtml"
      }
    },
    {
      "id": "NjQ5NDAyMjQ=",
      "title": "The Wildcat Weekly - May 4, 2025",
      "link": "https://content.govdelivery.com/accounts/VAEDUFCPS/bulletins/3dee8c0",
      "description": "\n        \n\n\n  \n\n\n\n\n\n\n\n<p><a></a>Having trouble viewing this email? <a href=\"https://content.govdelivery.com/accounts/VAEDUFCPS/bulletins/3dee8c0\">View it as a Web page</a>.</p>\n\n\n\n\n\n\n\n\n\n\n\n<a href=\"https://centrevillehs.fcps.edu?utm_campaign+=&amp;utm_medium=email&amp;utm_source=govdelivery\" target=\"...",
      "pubDate": "Sun, 04 May 2025 16:00:12 -0500",
      "timestamp": 1746392412000,
      "feedName": "Centreville High School",
      "category": "Centreville High School",
      "feedSource": "http://www.fcps.edu/index.shtml",
      "feedInfo": {
        "title": "Centreville High School News and announcements - Recent Updates",
        "description": "Centreville High School News and announcements",
        "link": "http://www.fcps.edu/index.shtml"
      }
    },
    {
      "id": "NjQ5MTExOTI=",
      "title": "This Week at Langley",
      "link": "https://content.govdelivery.com/accounts/VAEDUFCPS/bulletins/3de7758",
      "description": "\n        \n\n\n  \n\n\n\n\n\n\n\n<p><a></a>Having trouble viewing this email? <a href=\"https://content.govdelivery.com/accounts/VAEDUFCPS/bulletins/3de7758\">View it as a Web page</a>.</p>\n\n\n\n\n\n\n\n\n\n\n\n<a href=\"http://langleyhs.fcps.edu/?utm_content=&amp;utm_medium=email&amp;utm_name=&amp;utm_source=govdelivery&a...",
      "pubDate": "Sun, 04 May 2025 16:00:12 -0500",
      "timestamp": 1746392412000,
      "feedName": "Langley High School",
      "category": "Langley High School",
      "feedSource": "http://www.fcps.edu/index.shtml",
      "feedInfo": {
        "title": "Langley HS News and Announcements - Recent Updates",
        "description": "Langley HS News and Announcements",
        "link": "http://www.fcps.edu/index.shtml"
      }
    },
    {
      "id": "NjQ5NDA2MTM=",
      "title": "Hornet Happenings: Week of May 5th",
      "link": "https://content.govdelivery.com/accounts/VAEDUFCPS/bulletins/3deea45",
      "description": "\n        \n\n\n  \n\n\n\n\n\n\n\n<p><a></a>Having trouble viewing this email? <a href=\"https://content.govdelivery.com/accounts/VAEDUFCPS/bulletins/3deea45\">View it as a Web page</a>.</p>\n\n\n\n\n\n\n\n\n\n\n\n<a href=\"http://www2.fcps.edu/HalleyES/?utm_campaign+=&amp;utm_medium=email&amp;utm_source=govdelivery\" target=\"...",
      "pubDate": "Sun, 04 May 2025 15:26:50 -0500",
      "timestamp": 1746390410000,
      "feedName": "Halley Elementary School",
      "category": "Halley Elementary School",
      "feedSource": "http://www.fcps.edu/index.shtml",
      "feedInfo": {
        "title": "Halley Elementary School News and announcements - Recent Updates",
        "description": "Halley Elementary School News and announcements",
        "link": "http://www.fcps.edu/index.shtml"
      }
    },
    {
      "id": "NjQ5NDAwNjQ=",
      "title": "Forestville Updates",
      "link": "https://content.govdelivery.com/accounts/VAEDUFCPS/bulletins/3dee820",
      "description": "\n        \n\n\n  \n\n\n\n\n\n\n\n<p><a></a>Having trouble viewing this email? <a href=\"https://content.govdelivery.com/accounts/VAEDUFCPS/bulletins/3dee820\">View it as a Web page</a>.</p>\n\n\n\n\n\n\n\n\n\n\n\n<a href=\"https://forestvillees.fcps.edu/?utm_campaign+=&amp;utm_medium=email&amp;utm_source=govdelivery\" target=...",
      "pubDate": "Sun, 04 May 2025 15:11:43 -0500",
      "timestamp": 1746389503000,
      "feedName": "Forestville Elementary School",
      "category": "Forestville Elementary School",
      "feedSource": "http://www.fcps.edu/index.shtml",
      "feedInfo": {
        "title": "Forestville Elementary School News and Announcements - Recent Updates",
        "description": "Forestville Elementary School News and announcements",
        "link": "http://www.fcps.edu/index.shtml"
      }
    },
    {
      "id": "NjQ5NDAzNDg=",
      "title": "Principal's Message May 4, 2025",
      "link": "https://content.govdelivery.com/accounts/VAEDUFCPS/bulletins/3dee93c",
      "description": "\n        \n\n\n  \n\n\n\n\n\n\n\n<p><a></a>Having trouble viewing this email? <a href=\"https://content.govdelivery.com/accounts/VAEDUFCPS/bulletins/3dee93c\">View it as a Web page</a>.</p>\n\n\n\n\n\n\n\n\n\n\n\n<a href=\"https://stonems.fcps.edu/?utm_campaign+=&amp;utm_medium=email&amp;utm_source=govdelivery\" target=\"_blan...",
      "pubDate": "Sun, 04 May 2025 15:04:54 -0500",
      "timestamp": 1746389094000,
      "feedName": "Stone Middle School",
      "category": "Stone Middle School",
      "feedSource": "http://www.fcps.edu/index.shtml",
      "feedInfo": {
        "title": "Stone Middle School News and announcements - Recent Updates",
        "description": "Stone Middle School News and announcements",
        "link": "http://www.fcps.edu/index.shtml"
      }
    },
    {
      "id": "NjQ4ODcxNjE=",
      "title": "Weekly News From South County High School",
      "link": "https://content.govdelivery.com/accounts/VAEDUFCPS/bulletins/3de1979",
      "description": "\n        \n\n\n  \n\n\n\n\n\n\n\n<p><a></a>Having trouble viewing this email? <a href=\"https://content.govdelivery.com/accounts/VAEDUFCPS/bulletins/3de1979\">View it as a Web page</a>.</p>\n\n\n\n\n\n\n\n\n\n\n\n<a href=\"https://southcountyhs.fcps.edu/?utm_campaign+=&amp;utm_medium=email&amp;utm_source=govdelivery\" target=...",
      "pubDate": "Sun, 04 May 2025 14:46:30 -0500",
      "timestamp": 1746387990000,
      "feedName": "South County High School",
      "category": "South County High School",
      "feedSource": "http://www.fcps.edu/index.shtml",
      "feedInfo": {
        "title": "South County High School News and announcements - Recent Updates",
        "description": "South County High School News and announcements",
        "link": "http://www.fcps.edu/index.shtml"
      }
    },
    {
      "id": "NjQ5MjQwMzI=",
      "title": "News From the Nest 05.04.25",
      "link": "https://content.govdelivery.com/accounts/VAEDUFCPS/bulletins/3dea980",
      "description": "\n        \n\n\n  \n\n\n\n\n\n\n\n<p><a></a>Having trouble viewing this email? <a href=\"https://content.govdelivery.com/accounts/VAEDUFCPS/bulletins/3dea980\">View it as a Web page</a>.</p>\n\n\n\n\n\n\n\n\n\n\n\n<a href=\"https://crestwoodes.fcps.edu/?utm_campaign+=&amp;utm_medium=email&amp;utm_source=govdelivery\" target=\"_...",
      "pubDate": "Sun, 04 May 2025 14:36:42 -0500",
      "timestamp": 1746387402000,
      "feedName": "Crestwood Elementary School",
      "category": "Crestwood Elementary School",
      "feedSource": "http://www.fcps.edu/index.shtml",
      "feedInfo": {
        "title": "Crestwood Elementary School News and announcements - Recent Updates",
        "description": "Crestwood Elementary School News and announcements",
        "link": "http://www.fcps.edu/index.shtml"
      }
    },
    {
      "id": "NjQ4NjA1OTg=",
      "title": "Roadrunner Express!!!",
      "link": "https://content.govdelivery.com/accounts/VAEDUFCPS/bulletins/3ddb1b6",
      "description": "\n        \n\n\n  \n\n\n\n\n\n\n\n<p><a></a>[VIEW_THIS]]</p>\n\n\n\n\n\n\n\n\n\n\n\n<a href=\"http://www2.fcps.edu/lortonstationes/?utm_campaign+=&amp;utm_medium=email&amp;utm_source=govdelivery\" target=\"_blank\"></a>\n\n\n\n\n\n\n\n\n\n\n\n\n\n\n\n\n\n\n<p><strong>May: Asian American and Pacific Islander Heritage Month</strong></p>\n<p><strong...",
      "pubDate": "Sun, 04 May 2025 12:59:14 -0500",
      "timestamp": 1746381554000,
      "feedName": "Lorton Station Elementary School",
      "category": "Lorton Station Elementary School",
      "feedSource": "http://www.fcps.edu/index.shtml",
      "feedInfo": {
        "title": "Lorton Station Elementary School News and announcements - Recent Updates",
        "description": "Lorton Station Elementary School News and announcements",
        "link": "http://www.fcps.edu/index.shtml"
      }
    },
    {
      "id": "NjQ5MzkwNTM=",
      "title": "LRES Community News 5.4.25",
      "link": "https://content.govdelivery.com/accounts/VAEDUFCPS/bulletins/3dee42d",
      "description": "\n        \n\n\n  \n\n\n\n\n\n\n\n<p><a></a>Having trouble viewing this email? <a href=\"https://content.govdelivery.com/accounts/VAEDUFCPS/bulletins/3dee42d\">View it as a Web page</a>.</p>\n\n\n\n\n\n\n\n\n\n\n\n<a href=\"https://lemonroades.fcps.edu/?utm_campaign+=&amp;utm_medium=email&amp;utm_source=govdelivery\" target=\"_...",
      "pubDate": "Sun, 04 May 2025 12:21:25 -0500",
      "timestamp": 1746379285000,
      "feedName": "Lemon Road Elementary School",
      "category": "Lemon Road Elementary School",
      "feedSource": "http://www.fcps.edu/index.shtml",
      "feedInfo": {
        "title": "Lemon Road Elementary School News and announcements - Recent Updates",
        "description": "Lemon Road Elementary School News and announcements",
        "link": "http://www.fcps.edu/index.shtml"
      }
    },
    {
      "id": "NjQ5Mzk1Nzk=",
      "title": "Panther Press for May 4, 2025",
      "link": "https://content.govdelivery.com/accounts/VAEDUFCPS/bulletins/3dee63b",
      "description": "\n        \n\n\n  \n\n\n\n\n\n\n\n<p><a></a>Having trouble viewing this email? <a href=\"https://content.govdelivery.com/accounts/VAEDUFCPS/bulletins/3dee63b\">View it as a Web page</a>.</p>\n\n\n\n\n\n\n\n\n\n\n\n<a href=\"http://www2.fcps.edu/ParklawnES/?utm_campaign+=&amp;utm_medium=email&amp;utm_source=govdelivery\" target...",
      "pubDate": "Sun, 04 May 2025 12:05:13 -0500",
      "timestamp": 1746378313000,
      "feedName": "Parklawn Elementary School",
      "category": "Parklawn Elementary School",
      "feedSource": "http://www.fcps.edu/index.shtml",
      "feedInfo": {
        "title": "Panther Press - Recent Updates",
        "description": "Panther Press - Recent Updates",
        "link": "http://www.fcps.edu/index.shtml"
      }
    },
    {
      "id": "NjQ4NzE5MTM=",
      "title": "ðŸ¦ðŸ’»ðŸ“š Reading SOL (Grades 3-6) This Week!",
      "link": "https://content.govdelivery.com/accounts/VAEDUFCPS/bulletins/3dddde9",
      "description": "\n        \n\n\n  \n\n\n\n\n\n\n\n<p><a></a>Having trouble viewing this email? <a href=\"https://content.govdelivery.com/accounts/VAEDUFCPS/bulletins/3dddde9\">View it as a Web page</a>.</p>\n\n\n\n\n\n\n\n\n\n\n\n<a href=\"http://www2.fcps.edu/LondonTowneES/?utm_campaign+=&amp;utm_medium=email&amp;utm_source=govdelivery\" tar...",
      "pubDate": "Sun, 04 May 2025 12:00:11 -0500",
      "timestamp": 1746378011000,
      "feedName": "London Towne Elementary School",
      "category": "London Towne Elementary School",
      "feedSource": "http://www.fcps.edu/index.shtml",
      "feedInfo": {
        "title": "London Towne Elementary School News and Announcements - Recent Updates",
        "description": "London Towne Elementary School News and announcements",
        "link": "http://www.fcps.edu/index.shtml"
      }
    },
    {
      "id": "NjQ5MzE2NzI=",
      "title": "KG News 5.4.2025",
      "link": "https://content.govdelivery.com/accounts/VAEDUFCPS/bulletins/3dec758",
      "description": "\n        \n\n\n  \n\n\n\n\n\n\n\n<p><a></a>Having trouble viewing this email? <a href=\"https://content.govdelivery.com/accounts/VAEDUFCPS/bulletins/3dec758\">View it as a Web page</a>.</p>\n\n\n\n\n\n\n\n\n\n\n\n<a href=\"http://www2.fcps.edu/KentGardensES/?utm_campaign+=&amp;utm_medium=email&amp;utm_source=govdelivery\" tar...",
      "pubDate": "Sun, 04 May 2025 11:00:12 -0500",
      "timestamp": 1746374412000,
      "feedName": "Kent Gardens Elementary School",
      "category": "Kent Gardens Elementary School",
      "feedSource": "http://www.fcps.edu/index.shtml",
      "feedInfo": {
        "title": "Kent Gardens Elementary School News and Announcements - Recent Updates",
        "description": "Kent Gardens Elementary School News and announcements",
        "link": "http://www.fcps.edu/index.shtml"
      }
    },
    {
      "id": "NjQ5MjM3MDQ=",
      "title": "FH Weekly Update - Staff Appreciation Week",
      "link": "https://content.govdelivery.com/accounts/VAEDUFCPS/bulletins/3dea838",
      "description": "\n        \n\n\n  \n\n\n\n\n\n\n\n<p><a></a>Having trouble viewing this email? <a href=\"https://content.govdelivery.com/accounts/VAEDUFCPS/bulletins/3dea838\">View it as a Web page</a>.</p>\n\n\n\n\n\n\n\n\n\n\n\n<a href=\"http://www2.fcps.edu/FreedomHillES/?utm_campaign+=&amp;utm_medium=email&amp;utm_source=govdelivery\" tar...",
      "pubDate": "Sun, 04 May 2025 10:35:40 -0500",
      "timestamp": 1746372940000,
      "feedName": "Freedom Hill Elementary School",
      "category": "Freedom Hill Elementary School",
      "feedSource": "http://www.fcps.edu/index.shtml",
      "feedInfo": {
        "title": "Freedom Hill Elementary School News and announcements - Recent Updates",
        "description": "Freedom Hill Elementary School News and announcements",
        "link": "http://www.fcps.edu/index.shtml"
      }
    },
    {
      "id": "NjQ4OTgxMzU=",
      "title": "Sunrise Valley News",
      "link": "https://content.govdelivery.com/accounts/VAEDUFCPS/bulletins/3de4457",
      "description": "\n        \n\n\n  \n\n\n\n\n\n\n\n<p><a></a>Having trouble viewing this email? <a href=\"https://content.govdelivery.com/accounts/VAEDUFCPS/bulletins/3de4457\">View it as a Web page</a>.</p>\n\n\n\n\n\n\n\n\n\n\n\n<a href=\"https://sunrisevalleyes.fcps.edu/?utm_campaign+=&amp;utm_medium=email&amp;utm_source=govdelivery\" targe...",
      "pubDate": "Sun, 04 May 2025 07:00:15 -0500",
      "timestamp": 1746360015000,
      "feedName": "Sunrise Valley Elementary School",
      "category": "Sunrise Valley Elementary School",
      "feedSource": "http://www.fcps.edu/index.shtml",
      "feedInfo": {
        "title": "Sunrise Valley Elementary School News and Announcements - Recent Updates",
        "description": "Sunrise Valley Elementary School News and announcements",
        "link": "http://www.fcps.edu/index.shtml"
      }
    },
    {
      "id": "NjQ5MzY2NTk=",
      "title": "Newsletter",
      "link": "https://content.govdelivery.com/accounts/VAEDUFCPS/bulletins/3dedad3",
      "description": "\n        <p>Â </p>\n<p>Please view the newsletter link below:Eagles Nest: </p>\n<p>Â </p>\n<p><a href=\"https://secure.smore.com/n/p5xcb?utm_campaign+=&amp;utm_medium=email&amp;utm_source=govdelivery\">https://secure.smore.com/n/p5xcb</a></p>\n<p>Â </p>\n      ",
      "pubDate": "Sat, 03 May 2025 19:59:57 -0500",
      "timestamp": 1746320397000,
      "feedName": "Waples Mill Elementary School",
      "category": "Waples Mill Elementary School",
      "feedSource": "http://www.fcps.edu/index.shtml",
      "feedInfo": {
        "title": "Waples Mill Elementary School News and announcements - Recent Updates",
        "description": "Waples Mill Elementary School News and announcements",
        "link": "http://www.fcps.edu/index.shtml"
      }
    }
  ],
  "hasNext": true,
  "hasPrev": true
}