{
  "page": 232,
  "totalPages": 268,
  "totalItems": 5354,
  "itemsPerPage": 20,
  "items": [
    {
      "id": "NjMxNDE4MjE=",
      "title": "Panther Press- November 22, 2024",
      "link": "https://content.govdelivery.com/accounts/VAEDUFCPS/bulletins/3c377bd",
      "description": "\n        \n\n\n  \n\n\n\n\n\n\n\n<p><a></a>Having trouble viewing this email? <a href=\"https://content.govdelivery.com/accounts/VAEDUFCPS/bulletins/3c377bd\">View it as a Web page</a>.</p>\n\n\n\n\n\n\n\n\n\n\n\n<a href=\"https://mountvernonwoodses.fcps.edu/?utm_campaign+=&amp;utm_medium=email&amp;utm_source=govdelivery\" ta...",
      "pubDate": "Fri, 22 Nov 2024 15:10:33 -0600",
      "timestamp": 1732309833000,
      "feedName": "Mount Vernon Woods Elementary School",
      "category": "Mount Vernon Woods Elementary School",
      "feedSource": "http://www.fcps.edu/index.shtml",
      "feedInfo": {
        "title": "Mount Vernon Woods Elementary School News and announcements - Recent Updates",
        "description": "Mount Vernon Woods Elementary School News and announcements",
        "link": "http://www.fcps.edu/index.shtml"
      }
    },
    {
      "id": "NjMxMzgzNTg=",
      "title": "LBSS Weekly News - November 22, 2024",
      "link": "https://content.govdelivery.com/accounts/VAEDUFCPS/bulletins/3c36a36",
      "description": "\n        \n\n\n  \n\n\n\n\n\n\n\n<p><a></a>Having trouble viewing this email? <a href=\"https://content.govdelivery.com/accounts/VAEDUFCPS/bulletins/3c36a36\">View it as a Web page</a>.</p>\n\n\n\n\n\n\n\n\n\n\n\n<a href=\"https://lakebraddockss.fcps.edu/?utm_campaign+=&amp;utm_medium=email&amp;utm_source=govdelivery\" target...",
      "pubDate": "Fri, 22 Nov 2024 14:52:01 -0600",
      "timestamp": 1732308721000,
      "feedName": "Lake Braddock Secondary School",
      "category": "Lake Braddock Secondary School",
      "feedSource": "http://www.fcps.edu/index.shtml",
      "feedInfo": {
        "title": "Lake Braddock Secondary School News and announcements - Recent Updates",
        "description": "Lake Braddock Secondary School News and announcements",
        "link": "http://www.fcps.edu/index.shtml"
      }
    },
    {
      "id": "NjMwMzg5MzM=",
      "title": "Chantilly Academy Program Highlights",
      "link": "https://content.govdelivery.com/accounts/VAEDUFCPS/bulletins/3c1e5d5",
      "description": "\n        \n\n\n  \n\n\n\n\n\n\n\n<p><a></a>Having trouble viewing this email? <a href=\"https://content.govdelivery.com/accounts/VAEDUFCPS/bulletins/3c1e5d5\">View it as a Web page</a>.</p>\n\n\n\n\n\n\n\n\n\n\n\n<a href=\"https://chantillyacademy.fcps.edu/?utm_campaign+=&amp;utm_medium=email&amp;utm_source=govdelivery\" targ...",
      "pubDate": "Fri, 22 Nov 2024 14:15:12 -0600",
      "timestamp": 1732306512000,
      "feedName": "Chantilly Academy",
      "category": "Chantilly Academy",
      "feedSource": "http://www.fcps.edu/index.shtml",
      "feedInfo": {
        "title": "Chantilly Academy News and Announcements - Recent Updates",
        "description": "Chantilly Academy News and Announcements - Recent Updates",
        "link": "http://www.fcps.edu/index.shtml"
      }
    },
    {
      "id": "NjMxMzg0Nzk=",
      "title": "Principal's Message",
      "link": "https://content.govdelivery.com/accounts/VAEDUFCPS/bulletins/3c36aaf",
      "description": "\n        \n\n\n  \n\n\n\n\n\n\n\n<p><a></a>Having trouble viewing this email? <a href=\"https://content.govdelivery.com/accounts/VAEDUFCPS/bulletins/3c36aaf\">View it as a Web page</a>.</p>\n\n\n\n\n\n\n\n\n\n\n\n<a href=\"https://hughesms.fcps.edu/?utm_campaign+=&amp;utm_medium=email&amp;utm_source=govdelivery\" target=\"_bla...",
      "pubDate": "Fri, 22 Nov 2024 13:25:24 -0600",
      "timestamp": 1732303524000,
      "feedName": "Hughes Middle School",
      "category": "Hughes Middle School",
      "feedSource": "http://www.fcps.edu/index.shtml",
      "feedInfo": {
        "title": "Hughes Middle School News and announcements - Recent Updates",
        "description": "Hughes Middle School News and announcements",
        "link": "http://www.fcps.edu/index.shtml"
      }
    },
    {
      "id": "NjMwOTMwOTI=",
      "title": "ðŸ¦ƒðŸ‚Thanksgiving Holiday &amp; Boundary Review Community Meeting, Dec 2nd @ Westfield High School",
      "link": "https://content.govdelivery.com/accounts/VAEDUFCPS/bulletins/3c2b964",
      "description": "\n        \n\n\n  \n\n\n\n\n\n\n\n<p><a></a>Having trouble viewing this email? <a href=\"https://content.govdelivery.com/accounts/VAEDUFCPS/bulletins/3c2b964\">View it as a Web page</a>.</p>\n\n\n\n\n\n\n\n\n\n\n\n<a href=\"https://www.fcps.edu/staff/seema-dixit?utm_campaign+=&amp;utm_medium=email&amp;utm_source=govdelivery\" ...",
      "pubDate": "Fri, 22 Nov 2024 12:51:26 -0600",
      "timestamp": 1732301486000,
      "feedName": "FCPS School Board Sully District",
      "category": "FCPS School Board Sully District",
      "feedSource": "http://www.fcps.edu/index.shtml",
      "feedInfo": {
        "title": "Sully District Member - Seema Dixit - Recent Updates",
        "description": "Sully District Member - Seema Dixit - Recent Updates",
        "link": "http://www.fcps.edu/index.shtml"
      }
    },
    {
      "id": "NjMxMjgxNzE=",
      "title": "Family Newsletter November 22, 2024",
      "link": "https://content.govdelivery.com/accounts/VAEDUFCPS/bulletins/3c3426b",
      "description": "\n        \n\n\n  \n\n\n\n\n\n\n\n<p><a></a>Having trouble viewing this email? <a href=\"https://content.govdelivery.com/accounts/VAEDUFCPS/bulletins/3c3426b\">View it as a Web page</a>.</p>\n\n\n\n\n\n\n\n\n\n\n\n<a href=\"https://camerones.fcps.edu/?utm_campaign+=&amp;utm_medium=email&amp;utm_source=govdelivery\" target=\"_bl...",
      "pubDate": "Fri, 22 Nov 2024 11:41:35 -0600",
      "timestamp": 1732297295000,
      "feedName": "Cameron Elementary School",
      "category": "Cameron Elementary School",
      "feedSource": "http://www.fcps.edu/index.shtml",
      "feedInfo": {
        "title": "Cameron Elementary School News and announcements - Recent Updates",
        "description": "Cameron Elementary School News and announcements",
        "link": "http://www.fcps.edu/index.shtml"
      }
    },
    {
      "id": "NjMwOTU0MTg=",
      "title": "ðŸ“¢ Donâ€™t miss these School Board updates - so much happening!",
      "link": "https://content.govdelivery.com/accounts/VAEDUFCPS/bulletins/3c2c27a",
      "description": "\n        \n\n\n  \n\n\n\n\n\n\n\n<p><a></a>Having trouble viewing this email? <a href=\"https://content.govdelivery.com/accounts/VAEDUFCPS/bulletins/3c2c27a\">View it as a Web page</a>.</p>\n\n\n\n\n\n\n\n\n\n\n\n<a href=\"https://www.fcps.edu/staff/melanie-k-meren?utm_campaign+=&amp;utm_medium=email&amp;utm_source=govdelive...",
      "pubDate": "Fri, 22 Nov 2024 10:58:30 -0600",
      "timestamp": 1732294710000,
      "feedName": "FCPS School Board Hunter District",
      "category": "FCPS School Board Hunter District",
      "feedSource": "http://www.fcps.edu/index.shtml",
      "feedInfo": {
        "title": "Hunter Mill District Member - Melanie Meren - Recent Updates",
        "description": "Hunter Mill District Member - Melanie Meren - Recent Updates",
        "link": "http://www.fcps.edu/index.shtml"
      }
    },
    {
      "id": "NjMwMzM4ODM=",
      "title": "Louise Archer Sunshine News - 11-22-24",
      "link": "https://content.govdelivery.com/accounts/VAEDUFCPS/bulletins/3c1d21b",
      "description": "\n        \n\n\n  \n\n\n\n\n\n\n\n<p><a></a>Having trouble viewing this email? <a href=\"https://content.govdelivery.com/accounts/VAEDUFCPS/bulletins/3c1d21b\">View it as a Web page</a>.</p>\n\n\n\n\n\n\n\n\n\n\n\n<a href=\"http://www2.fcps.edu/LouiseArcherES/?utm_content=&amp;utm_medium=email&amp;utm_name=&amp;utm_source=gov...",
      "pubDate": "Fri, 22 Nov 2024 10:56:28 -0600",
      "timestamp": 1732294588000,
      "feedName": "Louise Archer Elementary School",
      "category": "Louise Archer Elementary School",
      "feedSource": "http://www.fcps.edu/index.shtml",
      "feedInfo": {
        "title": "Louise Archer Elementary School News and announcements - Recent Updates",
        "description": "Louise Archer Elementary School News and announcements",
        "link": "http://www.fcps.edu/index.shtml"
      }
    },
    {
      "id": "NjMxMzcwMTE=",
      "title": "Lynbrook Principal's Newsletter",
      "link": "https://content.govdelivery.com/accounts/VAEDUFCPS/bulletins/3c364f3",
      "description": "\n        \n\n\n  \n\n\n\n\n\n\n\n<p><a></a>Having trouble viewing this email? <a href=\"https://content.govdelivery.com/accounts/VAEDUFCPS/bulletins/3c364f3\">View it as a Web page</a>.</p>\n\n\n\n\n\n\n\n\n\n\n\n<a href=\"https://lynbrookes.fcps.edu/?utm_campaign+=&amp;utm_medium=email&amp;utm_source=govdelivery\" target=\"_b...",
      "pubDate": "Fri, 22 Nov 2024 09:52:05 -0600",
      "timestamp": 1732290725000,
      "feedName": "Lynbrook Elementary School",
      "category": "Lynbrook Elementary School",
      "feedSource": "http://www.fcps.edu/index.shtml",
      "feedInfo": {
        "title": "Lynbrook ES Noticias y anuncios en espaÃ±ol - Recent Updates",
        "description": "Lynbrook ES Noticias y anuncios en espaÃ±ol - Recent Updates",
        "link": "http://www.fcps.edu/index.shtml"
      }
    },
    {
      "id": "NjMxMjA3MTY=",
      "title": "\"On The Run\" Newsletter 11-20-2024",
      "link": "https://content.govdelivery.com/accounts/VAEDUFCPS/bulletins/3c3254c",
      "description": "\n        \n\n\n  \n\n\n\n\n\n\n\n<p><a></a>Having trouble viewing this email? <a href=\"https://content.govdelivery.com/accounts/VAEDUFCPS/bulletins/3c3254c\">View it as a Web page</a>.</p>\n\n\n\n\n\n\n\n\n\n\n\n<a href=\"http://www2.fcps.edu/colvinrunes/?utm_campaign+=&amp;utm_medium=email&amp;utm_source=govdelivery\" targe...",
      "pubDate": "Thu, 21 Nov 2024 06:54:30 -0600",
      "timestamp": 1732193670000,
      "feedName": "Colvin Run Elementary School",
      "category": "Colvin Run Elementary School",
      "feedSource": "http://www.fcps.edu/index.shtml",
      "feedInfo": {
        "title": "Colvin Run Elementary School News and announcements - Recent Updates",
        "description": "Colvin Run Elementary School News and announcements",
        "link": "http://www.fcps.edu/index.shtml"
      }
    },
    {
      "id": "NjMxMTEyNTI=",
      "title": "Book Fair Family Night and Thanksgiving Lunch",
      "link": "https://content.govdelivery.com/accounts/VAEDUFCPS/bulletins/3c30054",
      "description": "\n        \n\n\n  \n\n\n\n\n\n\n\n<p><a></a>Having trouble viewing this email? <a href=\"https://content.govdelivery.com/accounts/VAEDUFCPS/bulletins/3c30054\">View it as a Web page</a>.</p>\n\n\n\n\n\n\n\n\n\n\n\n<a href=\"https://forestvillees.fcps.edu/?utm_campaign+=&amp;utm_medium=email&amp;utm_source=govdelivery\" target=...",
      "pubDate": "Wed, 20 Nov 2024 14:09:32 -0600",
      "timestamp": 1732133372000,
      "feedName": "Forestville Elementary School",
      "category": "Forestville Elementary School",
      "feedSource": "http://www.fcps.edu/index.shtml",
      "feedInfo": {
        "title": "Forestville Elementary School News and Announcements - Recent Updates",
        "description": "Forestville Elementary School News and announcements",
        "link": "http://www.fcps.edu/index.shtml"
      }
    },
    {
      "id": "NjMxMTI0NTc=",
      "title": "Fairfax Academy News 11/20 - November Events &amp; More!",
      "link": "https://content.govdelivery.com/accounts/VAEDUFCPS/bulletins/3c30509",
      "description": "\n        \n\n\n  \n\n\n\n\n\n\n\n<p><a></a>Having trouble viewing this email? <a href=\"https://content.govdelivery.com/accounts/VAEDUFCPS/bulletins/3c30509\">View it as a Web\npage</a>.</p>\n\n\n\n\n\n\n\n\n\n\n\n<a href=\"http://www2.fcps.edu/FairfaxAcademy?utm_campaign+=&amp;utm_medium=email&amp;utm_source=govdelivery\" tar...",
      "pubDate": "Wed, 20 Nov 2024 14:05:26 -0600",
      "timestamp": 1732133126000,
      "feedName": "Fairfax Academy",
      "category": "Fairfax Academy",
      "feedSource": "http://www.fcps.edu/index.shtml",
      "feedInfo": {
        "title": "Fairfax Academy News and Announcements - Recent Updates",
        "description": "Fairfax Academy News and Announcements - Recent Updates",
        "link": "http://www.fcps.edu/index.shtml"
      }
    },
    {
      "id": "NjMxMTIyNDY=",
      "title": "The Liberty Ledger: November 20, 2024",
      "link": "https://content.govdelivery.com/accounts/VAEDUFCPS/bulletins/3c30436",
      "description": "\n        \n\n\n  \n\n\n\n\n\n\n\n<p><a></a>Having trouble viewing this email? <a href=\"https://content.govdelivery.com/accounts/VAEDUFCPS/bulletins/3c30436\">View it as a Web page</a>.</p>\n\n\n\n\n\n\n\n\n\n\n\n<a href=\"https://libertyms.fcps.edu/?utm_campaign+=&amp;utm_medium=email&amp;utm_source=govdelivery\" target=\"_bl...",
      "pubDate": "Wed, 20 Nov 2024 13:46:34 -0600",
      "timestamp": 1732131994000,
      "feedName": "Liberty Middle School",
      "category": "Liberty Middle School",
      "feedSource": "http://www.fcps.edu/index.shtml",
      "feedInfo": {
        "title": "Liberty Middle School News and announcements - Recent Updates",
        "description": "Liberty Middle School News and announcements",
        "link": "http://www.fcps.edu/index.shtml"
      }
    },
    {
      "id": "NjMwNzYwMDM=",
      "title": "FCHS News &amp; Announcements - 11/18/24",
      "link": "https://content.govdelivery.com/accounts/VAEDUFCPS/bulletins/3c276a3",
      "description": "\n        \n\n\n  \n\n\n\n\n\n\n\n<p><a></a>Having trouble viewing this email? <a href=\"https://content.govdelivery.com/accounts/VAEDUFCPS/bulletins/3c276a3\">View it as a Web page</a>.</p>\n\n\n\n\n\n\n\n\n\n\n\n<a href=\"https://fallschurchhs.fcps.edu/?utm_campaign+=&amp;utm_medium=email&amp;utm_source=govdelivery\" target=...",
      "pubDate": "Mon, 18 Nov 2024 17:56:58 -0600",
      "timestamp": 1731974218000,
      "feedName": "Falls Church High School",
      "category": "Falls Church High School",
      "feedSource": "https://fallschurchhs.fcps.edu",
      "feedInfo": {
        "title": "Falls Church High School News and announcements",
        "description": "Falls Church High School News and announcements",
        "link": "https://fallschurchhs.fcps.edu"
      }
    },
    {
      "id": "NjMwNzE1Nzg=",
      "title": "Washington Mill",
      "link": "https://content.govdelivery.com/accounts/VAEDUFCPS/bulletins/3c2655a",
      "description": "\n        <p><strong>Message from the Principal</strong></p>\n<p>Dear Washington Mill Families,</p>\n<p>I hope this message finds you well as we wrap up the first quarter of the school year. Here are a few important updates and reminders for our community:</p>\n<p><strong>End of Quarter Parent Conferenc...",
      "pubDate": "Mon, 18 Nov 2024 15:54:58 -0600",
      "timestamp": 1731966898000,
      "feedName": "Washington Mill Elementary School",
      "category": "Washington Mill Elementary School",
      "feedSource": "http://www.fcps.edu/index.shtml",
      "feedInfo": {
        "title": "Washington Mill Elementary School News and announcements - Recent Updates",
        "description": "Washington Mill Elementary School News and announcements",
        "link": "http://www.fcps.edu/index.shtml"
      }
    },
    {
      "id": "NjI5NzMzODQ=",
      "title": "Forestville Updates 11/18",
      "link": "https://content.govdelivery.com/accounts/VAEDUFCPS/bulletins/3c0e5c8",
      "description": "\n        \n\n\n  \n\n\n\n\n\n\n\n<p><a></a>Having trouble viewing this email? <a href=\"https://content.govdelivery.com/accounts/VAEDUFCPS/bulletins/3c0e5c8\">View it as a Web page</a>.</p>\n\n\n\n\n\n\n\n\n\n\n\n<a href=\"https://forestvillees.fcps.edu/?utm_campaign+=&amp;utm_medium=email&amp;utm_source=govdelivery\" target=...",
      "pubDate": "Mon, 18 Nov 2024 15:28:20 -0600",
      "timestamp": 1731965300000,
      "feedName": "Forestville Elementary School",
      "category": "Forestville Elementary School",
      "feedSource": "http://www.fcps.edu/index.shtml",
      "feedInfo": {
        "title": "Forestville Elementary School News and Announcements - Recent Updates",
        "description": "Forestville Elementary School News and announcements",
        "link": "http://www.fcps.edu/index.shtml"
      }
    },
    {
      "id": "NjMwODA2NzI=",
      "title": "Orange Hunt News We HOOT",
      "link": "https://content.govdelivery.com/accounts/VAEDUFCPS/bulletins/3c288e0",
      "description": "\n        \n\n\n  \n\n\n\n\n\n\n\n<p><a></a>Having trouble viewing this email? <a href=\"https://content.govdelivery.com/accounts/VAEDUFCPS/bulletins/3c288e0\">View it as a Web page</a>.</p>\n\n\n\n\n\n\n\n\n\n\n\n<a href=\"https://orangehuntes.fcps.edu?utm_content=&amp;utm_medium=email&amp;utm_name=&amp;utm_source=govdeliver...",
      "pubDate": "Mon, 18 Nov 2024 14:05:46 -0600",
      "timestamp": 1731960346000,
      "feedName": "Orange Hunt Elementary School",
      "category": "Orange Hunt Elementary School",
      "feedSource": "http://www.fcps.edu/index.shtml",
      "feedInfo": {
        "title": "Orange Hunt ES News and Announcements - Recent Updates",
        "description": "Orange Hunt ES News and Announcements",
        "link": "http://www.fcps.edu/index.shtml"
      }
    },
    {
      "id": "NjMwODE2MTQ=",
      "title": "Events Reminder: Region 2 Boundary Meeting and Wolfpack Madness",
      "link": "https://content.govdelivery.com/accounts/VAEDUFCPS/bulletins/3c28c8e",
      "description": "\n        \n\n\n  \n\n\n\n\n\n\n\n<p><a></a>Having trouble viewing this email? <a href=\"https://content.govdelivery.com/accounts/VAEDUFCPS/bulletins/3c28c8e\">View it as a Web page</a>.</p>\n\n\n\n\n\n\n\n\n\n\n\n<a href=\"https://www.fcps.edu/staff/ricardy-anderson?utm_campaign+=&amp;utm_medium=email&amp;utm_source=govdeliv...",
      "pubDate": "Mon, 18 Nov 2024 12:06:56 -0600",
      "timestamp": 1731953216000,
      "feedName": "School Board Mason District",
      "category": "School Board Mason District",
      "feedSource": "http://www.fcps.edu/index.shtml",
      "feedInfo": {
        "title": "Mason District Member - Ricardy Anderson - Recent Updates",
        "description": "Mason District Member - Ricardy Anderson - Recent Updates",
        "link": "http://www.fcps.edu/index.shtml"
      }
    },
    {
      "id": "NjMwODA5Nzg=",
      "title": "Eagle Express - Nov 18, 2024",
      "link": "https://content.govdelivery.com/accounts/VAEDUFCPS/bulletins/3c28a12",
      "description": "\n        \n\n\n  \n\n\n\n\n\n\n\n<p><a></a>Having trouble viewing this email? <a href=\"https://content.govdelivery.com/accounts/VAEDUFCPS/bulletins/3c28a12\">View it as a Web page</a>.</p>\n\n\n\n\n\n\n\n\n\n\n\n<a href=\"http://www2.fcps.edu/BraddockES/?utm_campaign+=&amp;utm_medium=email&amp;utm_source=govdelivery\" target...",
      "pubDate": "Mon, 18 Nov 2024 11:06:43 -0600",
      "timestamp": 1731949603000,
      "feedName": "Braddock Elementary School",
      "category": "Braddock Elementary School",
      "feedSource": "http://www.fcps.edu/index.shtml",
      "feedInfo": {
        "title": "Braddock ES - The Eagle Express - Recent Updates",
        "description": "Braddock Elementary School News and announcements",
        "link": "http://www.fcps.edu/index.shtml"
      }
    },
    {
      "id": "NjMwNzgyNDE=",
      "title": "Update: The Ram Gram! Hot Off the Press! (Thanksgiving lunch is Thursday.)",
      "link": "https://content.govdelivery.com/accounts/VAEDUFCPS/bulletins/3c27f61",
      "description": "\n        \n\n\n  \n\n\n\n\n\n\n\n<p><a></a>Having trouble viewing this email? <a href=\"https://content.govdelivery.com/accounts/VAEDUFCPS/bulletins/3c27f61\">View it as a Web page</a>.</p>\n\n\n\n\n\n\n\n\n\n\n\n<a href=\"http://www2.fcps.edu/CentreRidgeES/?utm_campaign+=&amp;utm_medium=email&amp;utm_source=govdelivery\" tar...",
      "pubDate": "Mon, 18 Nov 2024 08:59:38 -0600",
      "timestamp": 1731941978000,
      "feedName": "Centre Ridge Elementary School",
      "category": "Centre Ridge Elementary School",
      "feedSource": "http://www.fcps.edu/index.shtml",
      "feedInfo": {
        "title": "Centre Ridge Elementary School News and Announcements - Recent Updates",
        "description": "Centre Ridge Elementary School News and Announcements",
        "link": "http://www.fcps.edu/index.shtml"
      }
    }
  ],
  "hasNext": true,
  "hasPrev": true
}