{
  "page": 189,
  "totalPages": 268,
  "totalItems": 5354,
  "itemsPerPage": 20,
  "items": [
    {
      "id": "NjQyMTEzODY=",
      "title": "Washington Mill",
      "link": "https://content.govdelivery.com/accounts/VAEDUFCPS/bulletins/3d3c9ba",
      "description": "\n        \n\n\n  \n\n\n\n\n\n\n\n\n\n\n\n\n\n\n\n\n\n\n\n<a href=\"http://www2.fcps.edu/WashingtonMillES/?utm_campaign+=&amp;utm_medium=email&amp;utm_source=govdelivery\" target=\"_blank\"></a>Principal's Message\n\n\n\n\n\n\n\n\n\n\n\n\n\n\n\n<p>Dear WMES Families,</p>\n<p>We hope you are having a wonderful week! As always, we are grateful f...",
      "pubDate": "Tue, 25 Feb 2025 11:09:19 -0600",
      "timestamp": 1740503359000,
      "feedName": "Washington Mill Elementary School",
      "category": "Washington Mill Elementary School",
      "feedSource": "http://www.fcps.edu/index.shtml",
      "feedInfo": {
        "title": "Washington Mill Elementary School News and announcements - Recent Updates",
        "description": "Washington Mill Elementary School News and announcements",
        "link": "http://www.fcps.edu/index.shtml"
      }
    },
    {
      "id": "NjQyMzAzODQ=",
      "title": "Westfield HS Band Mattress Fundraiser",
      "link": "https://content.govdelivery.com/accounts/VAEDUFCPS/bulletins/3d413f0",
      "description": "\n        \n\n\n  \n\n\n\n\n\n\n\n<p><a></a>Having trouble viewing this email? <a href=\"https://content.govdelivery.com/accounts/VAEDUFCPS/bulletins/3d413f0\">View it as a Web page</a>.</p>\n\n\n\n\n\n\n\n\n\n\n\n<a href=\"https://westfieldhs.fcps.edu/?utm_campaign+=&amp;utm_medium=email&amp;utm_source=govdelivery\" target=\"_...",
      "pubDate": "Tue, 25 Feb 2025 10:18:10 -0600",
      "timestamp": 1740500290000,
      "feedName": "Westfield High School",
      "category": "Westfield High School",
      "feedSource": "http://www.fcps.edu/index.shtml",
      "feedInfo": {
        "title": "Westfield High School News and announcements - Recent Updates",
        "description": "Westfield High School News and announcements",
        "link": "http://www.fcps.edu/index.shtml"
      }
    },
    {
      "id": "NjQxNTI4NzE=",
      "title": "McLean HS: Dr. Reilly's Monday Message 2/24/2025",
      "link": "https://content.govdelivery.com/accounts/VAEDUFCPS/bulletins/3d2e527",
      "description": "\n        \n\n\n  \n\n\n\n\n\n\n\n<p><a></a>Having trouble viewing this email? <a href=\"https://content.govdelivery.com/accounts/VAEDUFCPS/bulletins/3d2e527\">View it as a Web page</a>.</p>\n\n\n\n\n\n\n\n\n\n\n\n<a href=\"https://mcleanhs.fcps.edu/?utm_content=&amp;utm_medium=email&amp;utm_name=&amp;utm_source=govdelivery&a...",
      "pubDate": "Mon, 24 Feb 2025 17:00:20 -0600",
      "timestamp": 1740438020000,
      "feedName": "McLean High School",
      "category": "McLean High School",
      "feedSource": "http://www.fcps.edu/index.shtml",
      "feedInfo": {
        "title": "McLean HS: News and Announcements - Recent Updates",
        "description": "McLean HS: News and Announcements",
        "link": "http://www.fcps.edu/index.shtml"
      }
    },
    {
      "id": "NjQxNTgxMjc=",
      "title": "News from THE LAKES - February 24 Edition",
      "link": "https://content.govdelivery.com/accounts/VAEDUFCPS/bulletins/3d2f9af",
      "description": "\n        \n\n\n  \n\n\n\n\n\n\n\n<p><a></a>Having trouble viewing this email? <a href=\"https://content.govdelivery.com/accounts/VAEDUFCPS/bulletins/3d2f9af\">View it as a Web page</a>.</p>\n\n\n\n\n\n\n\n\n\n\n\n<a href=\"https://southlakeshs.fcps.edu/?utm_campaign+=&amp;utm_medium=email&amp;utm_source=govdelivery\" target=\"...",
      "pubDate": "Mon, 24 Feb 2025 17:00:19 -0600",
      "timestamp": 1740438019000,
      "feedName": "South Lakes High School",
      "category": "South Lakes High School",
      "feedSource": "http://www.fcps.edu/index.shtml",
      "feedInfo": {
        "title": "South Lakes High School General News & Announcements - Recent Updates",
        "description": "South Lakes High School News and announcements",
        "link": "http://www.fcps.edu/index.shtml"
      }
    },
    {
      "id": "NjQxNTU3Mzc=",
      "title": "Principal Updates - February 24",
      "link": "https://content.govdelivery.com/accounts/VAEDUFCPS/bulletins/3d2f059",
      "description": "\n        \n\n\n  \n\n\n\n\n\n\n\n<p><a></a>Having trouble viewing this email? <a href=\"https://content.govdelivery.com/accounts/VAEDUFCPS/bulletins/3d2f059\">View it as a Web page</a>.</p>\n\n\n\n\n\n\n\n\n\n\n\n<a href=\"https://oaktonhs.fcps.edu/?utm_campaign+=&amp;utm_medium=email&amp;utm_source=govdelivery\" target=\"_bla...",
      "pubDate": "Mon, 24 Feb 2025 16:30:13 -0600",
      "timestamp": 1740436213000,
      "feedName": "Oakton High School",
      "category": "Oakton High School",
      "feedSource": "http://live-fcps-oakton-hs.pantheonsite.io/newsfeed",
      "feedInfo": {
        "title": "Oakton High School News and announcements",
        "description": "Oakton High School News and announcements",
        "link": "http://live-fcps-oakton-hs.pantheonsite.io/newsfeed"
      }
    },
    {
      "id": "NjQyMjA5NDM=",
      "title": "Roadrunner Report - 2/24/25",
      "link": "https://content.govdelivery.com/accounts/VAEDUFCPS/bulletins/3d3ef0f",
      "description": "\n        \n\n\n  \n\n\n\n\n\n\n\n<p><a></a>Having trouble viewing this email? <a href=\"https://content.govdelivery.com/accounts/VAEDUFCPS/bulletins/3d3ef0f\">View it as a Web page</a>.</p>\n\n\n\n\n\n\n\n\n\n\n\n<a href=\"https://marshallroades.fcps.edu/?utm_campaign+=&amp;utm_medium=email&amp;utm_source=govdelivery\" target...",
      "pubDate": "Mon, 24 Feb 2025 16:24:05 -0600",
      "timestamp": 1740435845000,
      "feedName": "Marshall Road Elementary School",
      "category": "Marshall Road Elementary School",
      "feedSource": "http://www.fcps.edu/index.shtml",
      "feedInfo": {
        "title": "Marshall Road ES News and Announcements - Recent Updates",
        "description": "Marshall Road Elementary School News and announcements",
        "link": "http://www.fcps.edu/index.shtml"
      }
    },
    {
      "id": "NjQxNzkwNTU=",
      "title": "Terra Centre Newsletter 02/24/2025",
      "link": "https://content.govdelivery.com/accounts/VAEDUFCPS/bulletins/3d34b6f",
      "description": "\n        \n\n\n  \n\n\n\n\n\n\n\n<p><a></a>Having trouble viewing this email? <a href=\"https://content.govdelivery.com/accounts/VAEDUFCPS/bulletins/3d34b6f\">View it as a Web page</a>.</p>\n\n\n\n\n\n\n\n\n\n\n\n<a href=\"https://terracentrees.fcps.edu/?utm_campaign+=&amp;utm_medium=email&amp;utm_source=govdelivery\" target=...",
      "pubDate": "Mon, 24 Feb 2025 16:15:12 -0600",
      "timestamp": 1740435312000,
      "feedName": "Terra Centre Elementary School",
      "category": "Terra Centre Elementary School",
      "feedSource": "http://www.fcps.edu/index.shtml",
      "feedInfo": {
        "title": "Terra Centre Elementary School News and Announcements - Recent Updates",
        "description": "Terra Centre Elementary School News and Announcements",
        "link": "http://www.fcps.edu/index.shtml"
      }
    },
    {
      "id": "NjQyMjA1NzI=",
      "title": "Reminder - Thursday is Family Cultural Night - 6:30 pm",
      "link": "https://content.govdelivery.com/accounts/VAEDUFCPS/bulletins/3d3ed9c",
      "description": "\n        \n\n\n  \n\n\n\n\n\n\n\n<p><a></a>Having trouble viewing this email? <a href=\"https://content.govdelivery.com/accounts/VAEDUFCPS/bulletins/3d3ed9c\">View it as a Web page</a>.</p>\n\n\n\n\n\n\n\n\n\n\n\n<a href=\"https://wakefieldforestes.fcps.edu/?utm_campaign+=&amp;utm_medium=email&amp;utm_source=govdelivery\" tar...",
      "pubDate": "Mon, 24 Feb 2025 15:48:50 -0600",
      "timestamp": 1740433730000,
      "feedName": "Wakefield Forest Elementary School",
      "category": "Wakefield Forest Elementary School",
      "feedSource": "http://www.fcps.edu/index.shtml",
      "feedInfo": {
        "title": "Wakefield Forest Elementary School News and announcements - Recent Updates",
        "description": "Wakefield Forest Elementary School News and announcements",
        "link": "http://www.fcps.edu/index.shtml"
      }
    },
    {
      "id": "NjQyMjE3Nzg=",
      "title": "Churchill Chatter School Newsletter - February 24, 2025 UPDATED",
      "link": "https://content.govdelivery.com/accounts/VAEDUFCPS/bulletins/3d3f252",
      "description": "\n        \n\n\n  \n\n\n\n\n\n\n\n<p><a></a>Having trouble viewing this email? <a href=\"https://content.govdelivery.com/accounts/VAEDUFCPS/bulletins/3d3f252\">View it as a Web page</a>.</p>\n\n\n\n\n\n\n\n\n\n\n\n<a href=\"https://churchillroades.fcps.edu/?utm_campaign+=&amp;utm_medium=email&amp;utm_source=govdelivery\" targe...",
      "pubDate": "Mon, 24 Feb 2025 15:40:16 -0600",
      "timestamp": 1740433216000,
      "feedName": "Churchill Road Elementary School",
      "category": "Churchill Road Elementary School",
      "feedSource": "http://www.fcps.edu/index.shtml",
      "feedInfo": {
        "title": "Churchill Road Elementary School News and announcements - Recent Updates",
        "description": "Churchill Road Elementary School News and announcements",
        "link": "http://www.fcps.edu/index.shtml"
      }
    },
    {
      "id": "NjQyMjA5NDI=",
      "title": "Monday, February 24, 2025 Lancer Times",
      "link": "https://content.govdelivery.com/accounts/VAEDUFCPS/bulletins/3d3ef0e",
      "description": "\n        \n\n\n  \n\n\n\n\n\n\n\n<p><a></a>Having trouble viewing this email? <a href=\"https://content.govdelivery.com/accounts/VAEDUFCPS/bulletins/3d3ef0e\">View it as a Web page</a>.</p>\n\n\n\n\n\n\n\n\n\n\n\n<a href=\"https://longfellowms.fcps.edu/?utm_campaign+=&amp;utm_medium=email&amp;utm_source=govdelivery\" target=\"...",
      "pubDate": "Mon, 24 Feb 2025 15:30:16 -0600",
      "timestamp": 1740432616000,
      "feedName": "Longfellow Middle School",
      "category": "Longfellow Middle School",
      "feedSource": "http://www.fcps.edu/index.shtml",
      "feedInfo": {
        "title": "Longfellow Middle School News and announcements - Recent Updates",
        "description": "Longfellow Middle School News and announcements",
        "link": "http://www.fcps.edu/index.shtml"
      }
    },
    {
      "id": "NjQyMTkzODQ=",
      "title": "REMINDER: Sully District Budget Town Hall on March 10th @ Rocky Run Middle School, Staff Assistant Position Available, Math Resources Volunteer Needed!",
      "link": "https://content.govdelivery.com/accounts/VAEDUFCPS/bulletins/3d3e8f8",
      "description": "\n        \n\n\n  \n\n\n\n\n\n\n\n<p><a></a>Having trouble viewing this email? <a href=\"https://content.govdelivery.com/accounts/VAEDUFCPS/bulletins/3d3e8f8\">View it as a Web page</a>.</p>\n\n\n\n\n\n\n\n\n\n\n\n<a href=\"https://www.fcps.edu/staff/seema-dixit?utm_campaign+=&amp;utm_medium=email&amp;utm_source=govdelivery\" ...",
      "pubDate": "Mon, 24 Feb 2025 15:25:37 -0600",
      "timestamp": 1740432337000,
      "feedName": "FCPS School Board Sully District",
      "category": "FCPS School Board Sully District",
      "feedSource": "http://www.fcps.edu/index.shtml",
      "feedInfo": {
        "title": "Sully District Member - Seema Dixit - Recent Updates",
        "description": "Sully District Member - Seema Dixit - Recent Updates",
        "link": "http://www.fcps.edu/index.shtml"
      }
    },
    {
      "id": "NjQxOTYyNjg=",
      "title": "Churchill Chatter School Newsletter - February 24, 2025",
      "link": "https://content.govdelivery.com/accounts/VAEDUFCPS/bulletins/3d38eac",
      "description": "\n        \n\n\n  \n\n\n\n\n\n\n\n<p><a></a>Having trouble viewing this email? <a href=\"https://content.govdelivery.com/accounts/VAEDUFCPS/bulletins/3d38eac\">View it as a Web page</a>.</p>\n\n\n\n\n\n\n\n\n\n\n\n<a href=\"https://churchillroades.fcps.edu/?utm_campaign+=&amp;utm_medium=email&amp;utm_source=govdelivery\" targe...",
      "pubDate": "Mon, 24 Feb 2025 15:10:12 -0600",
      "timestamp": 1740431412000,
      "feedName": "Churchill Road Elementary School",
      "category": "Churchill Road Elementary School",
      "feedSource": "http://www.fcps.edu/index.shtml",
      "feedInfo": {
        "title": "Churchill Road Elementary School News and announcements - Recent Updates",
        "description": "Churchill Road Elementary School News and announcements",
        "link": "http://www.fcps.edu/index.shtml"
      }
    },
    {
      "id": "NjQyMTc0MDU=",
      "title": "Board Meeting Recap: Adopting the Superintendent’s Advertised Budget",
      "link": "https://content.govdelivery.com/accounts/VAEDUFCPS/bulletins/3d3e13d",
      "description": "\n        \n\n\n  \n\n\n\n\n\n\n\n<p><a></a>Having trouble viewing this email? <a href=\"https://content.govdelivery.com/accounts/VAEDUFCPS/bulletins/3d3e13d\">View it as a Web page</a>.</p>\n\n\n\n\n\n\n\n\n\n\n\n<a href=\"https://www.fcps.edu/staff/karl-frisch?utm_campaign+=&amp;utm_medium=email&amp;utm_source=govdelivery\" ...",
      "pubDate": "Mon, 24 Feb 2025 14:50:46 -0600",
      "timestamp": 1740430246000,
      "feedName": "FCPS School Board Providence District",
      "category": "FCPS School Board Providence District",
      "feedSource": "http://www.fcps.edu/index.shtml",
      "feedInfo": {
        "title": "Providence District Member - Karl Frisch - Recent Updates",
        "description": "Providence District Member - Karl Frisch - Recent Updates",
        "link": "http://www.fcps.edu/index.shtml"
      }
    },
    {
      "id": "NjQyMjAyMzk=",
      "title": "FROM THE PRINCIPAL'S DESK",
      "link": "https://content.govdelivery.com/accounts/VAEDUFCPS/bulletins/3d3ec4f",
      "description": "\n        \n\n\n  \n\n\n\n\n\n\n\n<p><a></a>Having trouble viewing this email? <a href=\"https://content.govdelivery.com/accounts/VAEDUFCPS/bulletins/3d3ec4f\">View it as a Web page</a>.</p>\n\n\n\n\n\n\n\n\n\n\n\n<a href=\"https://cherryrunes.fcps.edu/?utm_campaign+=&amp;utm_medium=email&amp;utm_source=govdelivery\" target=\"_...",
      "pubDate": "Mon, 24 Feb 2025 13:37:56 -0600",
      "timestamp": 1740425876000,
      "feedName": "Cherry Run Elementary School",
      "category": "Cherry Run Elementary School",
      "feedSource": "http://www.fcps.edu/index.shtml",
      "feedInfo": {
        "title": "Cherry Run Elementary School News and announcements - Recent Updates",
        "description": "Cherry Run Elementary School News and announcements",
        "link": "http://www.fcps.edu/index.shtml"
      }
    },
    {
      "id": "NjQyMTcxNTA=",
      "title": "Robinson Student Ram Page | February 24th, 2025",
      "link": "https://content.govdelivery.com/accounts/VAEDUFCPS/bulletins/3d3e03e",
      "description": "\n        \n\n\n  \n\n\n\n\n\n\n\n<p><a></a>Having trouble viewing this email? <a href=\"https://content.govdelivery.com/accounts/VAEDUFCPS/bulletins/3d3e03e\">View it as a Web page</a>.</p>\n\n\n\n\n\n\n\n\n\n\n\n<a href=\"http://www2.fcps.edu/RobinsonSS/?utm_campaign+=&amp;utm_medium=email&amp;utm_source=govdelivery\" target...",
      "pubDate": "Mon, 24 Feb 2025 12:25:41 -0600",
      "timestamp": 1740421541000,
      "feedName": "Robinson Secondary School",
      "category": "Robinson Secondary School",
      "feedSource": "http://www.fcps.edu/index.shtml",
      "feedInfo": {
        "title": "Robinson RamPage - Recent Updates",
        "description": "Robinson Secondary School News and Announcements",
        "link": "http://www.fcps.edu/index.shtml"
      }
    },
    {
      "id": "NjQxNTQ0MjM=",
      "title": "Belle View Beat-February 24, 2025",
      "link": "https://content.govdelivery.com/accounts/VAEDUFCPS/bulletins/3d2eb37",
      "description": "\n        \n\n\n  \n\n\n\n\n\n\n\n<p><a></a>Having trouble viewing this email? <a href=\"https://content.govdelivery.com/accounts/VAEDUFCPS/bulletins/3d2eb37\">View it as a Web page</a>.</p>\n\n\n\n\n\n\n\n\n\n\n\n\n\n\n\n\n\n\n\n\n\n\n\n\n\n\n\n<a href=\"https://belleviewes.fcps.edu/?utm_campaign+=&amp;utm_medium=email&amp;utm_source=govdel...",
      "pubDate": "Mon, 24 Feb 2025 08:24:36 -0600",
      "timestamp": 1740407076000,
      "feedName": "Belle View Elementary School",
      "category": "Belle View Elementary School",
      "feedSource": "http://www.fcps.edu/index.shtml",
      "feedInfo": {
        "title": "Belle View Elementary School News and announcements - Recent Updates",
        "description": "Belle View Elementary School News and announcements",
        "link": "http://www.fcps.edu/index.shtml"
      }
    },
    {
      "id": "NjQxNjQ1OTQ=",
      "title": "Bulldog Buzz 02/24/25",
      "link": "https://content.govdelivery.com/accounts/VAEDUFCPS/bulletins/3d312f2",
      "description": "\n        \n\n\n  \n\n\n\n\n\n\n\n<p><a></a>Having trouble viewing this email? <a href=\"https://content.govdelivery.com/accounts/VAEDUFCPS/bulletins/3d312f2\">View it as a Web page</a>.</p>\n\n\n\n\n\n\n\n\n\n\n\n<a href=\"http://www2.fcps.edu/BucknellES/?utm_campaign+=&amp;utm_medium=email&amp;utm_source=govdelivery\" target...",
      "pubDate": "Mon, 24 Feb 2025 06:50:23 -0600",
      "timestamp": 1740401423000,
      "feedName": "Bucknell Elementary School",
      "category": "Bucknell Elementary School",
      "feedSource": "http://live-fcps-bucknell-es.pantheonsite.io/newsfeed",
      "feedInfo": {
        "title": "Bucknell Elementary School News and Announcements",
        "description": "Bucknell Elementary School News and announcements",
        "link": "http://live-fcps-bucknell-es.pantheonsite.io/newsfeed"
      }
    },
    {
      "id": "NjQyMTIzODY=",
      "title": "Mantua ES Weekly Newsletter",
      "link": "https://content.govdelivery.com/accounts/VAEDUFCPS/bulletins/3d3cda2",
      "description": "\n        \n\n\n  \n\n\n\n\n\n\n\n<p><a></a>Having trouble viewing this email? <a href=\"https://content.govdelivery.com/accounts/VAEDUFCPS/bulletins/3d3cda2\">View it as a Web page</a>.</p>\n\n\n\n\n\n\n\n\n\n\n\n<a href=\"https://mantuaes.fcps.edu/?utm_campaign+=&amp;utm_medium=email&amp;utm_source=govdelivery\" target=\"_bla...",
      "pubDate": "Mon, 24 Feb 2025 05:47:37 -0600",
      "timestamp": 1740397657000,
      "feedName": "Mantua Elementary School",
      "category": "Mantua Elementary School",
      "feedSource": "http://www.fcps.edu/index.shtml",
      "feedInfo": {
        "title": "Mantua Elementary School News and announcements - Recent Updates",
        "description": "Mantua Elementary School News and announcements",
        "link": "http://www.fcps.edu/index.shtml"
      }
    },
    {
      "id": "NjQyMTA3NDQ=",
      "title": "The Ram Gram! Hot Off the Press!",
      "link": "https://content.govdelivery.com/accounts/VAEDUFCPS/bulletins/3d3c738",
      "description": "\n        \n\n\n  \n\n\n\n\n\n\n\n<p><a></a>Having trouble viewing this email? <a href=\"https://content.govdelivery.com/accounts/VAEDUFCPS/bulletins/3d3c738\">View it as a Web page</a>.</p>\n\n\n\n\n\n\n\n\n\n\n\n<a href=\"http://www2.fcps.edu/CentreRidgeES/?utm_campaign+=&amp;utm_medium=email&amp;utm_source=govdelivery\" tar...",
      "pubDate": "Sun, 23 Feb 2025 17:29:05 -0600",
      "timestamp": 1740353345000,
      "feedName": "Centre Ridge Elementary School",
      "category": "Centre Ridge Elementary School",
      "feedSource": "http://www.fcps.edu/index.shtml",
      "feedInfo": {
        "title": "Centre Ridge Elementary School News and Announcements - Recent Updates",
        "description": "Centre Ridge Elementary School News and Announcements",
        "link": "http://www.fcps.edu/index.shtml"
      }
    },
    {
      "id": "NjQyMDk2NDY=",
      "title": "The Wildcat Weekly - February 23, 2025",
      "link": "https://content.govdelivery.com/accounts/VAEDUFCPS/bulletins/3d3c2ee",
      "description": "\n        \n\n\n  \n\n\n\n\n\n\n\n<p><a></a>Having trouble viewing this email? <a href=\"https://content.govdelivery.com/accounts/VAEDUFCPS/bulletins/3d3c2ee\">View it as a Web page</a>.</p>\n\n\n\n\n\n\n\n\n\n\n\n<a href=\"https://centrevillehs.fcps.edu?utm_campaign+=&amp;utm_medium=email&amp;utm_source=govdelivery\" target=\"...",
      "pubDate": "Sun, 23 Feb 2025 16:00:13 -0600",
      "timestamp": 1740348013000,
      "feedName": "Centreville High School",
      "category": "Centreville High School",
      "feedSource": "http://www.fcps.edu/index.shtml",
      "feedInfo": {
        "title": "Centreville High School News and announcements - Recent Updates",
        "description": "Centreville High School News and announcements",
        "link": "http://www.fcps.edu/index.shtml"
      }
    }
  ],
  "hasNext": true,
  "hasPrev": true
}