{
  "page": 247,
  "totalPages": 268,
  "totalItems": 5354,
  "itemsPerPage": 20,
  "items": [
    {
      "id": "NjA1MDcwNTk=",
      "title": "Welcome to My May Newsletter -- Spring is Exploding with Opportunity",
      "link": "https://content.govdelivery.com/accounts/VAEDUFCPS/bulletins/39b43b3",
      "description": "\n        \n\n\n  \n\n\n\n\n\n\n\n<p><a></a>Having trouble viewing this email? <a href=\"https://content.govdelivery.com/accounts/VAEDUFCPS/bulletins/39b43b3\">View it as a Web page</a>.</p>\n\n\n\n\n\n\n\n\n\n\n\n<a href=\"https://www.fcps.edu/staff/ilryong-moon?utm_campaign+=&amp;utm_medium=email&amp;utm_source=govdelivery\"...",
      "pubDate": "Tue, 14 May 2024 10:00:57 -0500",
      "timestamp": 1715698857000,
      "feedName": "FCPS School Board Member at Large (Ilryong Moon)",
      "category": "FCPS School Board Member at Large (Ilryong Moon)",
      "feedSource": "http://www.fcps.edu/",
      "feedInfo": {
        "title": "At-Large Member - Ilryong Moon - Recent Updates",
        "description": "At-Large Member - Ilryong Moon - Recent Updates",
        "link": "http://www.fcps.edu/"
      }
    },
    {
      "id": "NjA0NDY0NTc=",
      "title": "News and Announcements May 10th Edition",
      "link": "https://content.govdelivery.com/accounts/VAEDUFCPS/bulletins/39a56f9",
      "description": "\n        \n\n\n  \n\n\n\n\n\n\n\n\n<a href=\"https://mountvernonhs.fcps.edu/aggregator/sources/2?utm_campaign+=&amp;utm_medium=email&amp;utm_source=govdelivery\" target=\"_blank\">https://mountvernonhs.fcps.edu/aggregator/sources/2</a>\nHaga clic aquí para traducir este mensaje.\n\n\n\n\n\n\n\n\n\n\n\n<a href=\"https://mountvern...",
      "pubDate": "Fri, 10 May 2024 16:00:35 -0500",
      "timestamp": 1715374835000,
      "feedName": "Mount Vernon High School",
      "category": "Mount Vernon High School",
      "feedSource": "http://www.fcps.edu/index.shtml",
      "feedInfo": {
        "title": "Mount Vernon High School News and announcements - Recent Updates",
        "description": "Mount Vernon High School News and announcements",
        "link": "http://www.fcps.edu/index.shtml"
      }
    },
    {
      "id": "NjA1MzQ2MDM=",
      "title": "Falls Church Academy News!",
      "link": "https://content.govdelivery.com/accounts/VAEDUFCPS/bulletins/39baf4b",
      "description": "\n        \n\n\n  \n\n\n\n\n\n\n\n<p><a></a>Having trouble viewing this email? <a href=\"https://content.govdelivery.com/accounts/VAEDUFCPS/bulletins/39baf4b\">View it as a Web page</a>.</p>\n\n\n\n\n\n\n\n\n\n\n\n<a href=\"https://fallschurchacademy.fcps.edu/?utm_content=&amp;utm_medium=email&amp;utm_name=&amp;utm_source=gov...",
      "pubDate": "Fri, 10 May 2024 14:33:21 -0500",
      "timestamp": 1715369601000,
      "feedName": "Falls Church Academy",
      "category": "Falls Church Academy",
      "feedSource": "http://www.fcps.edu/index.shtml",
      "feedInfo": {
        "title": "Falls Church Academy News and Announcements - Recent Updates",
        "description": "Falls Church Academy News and Announcements - Recent Updates",
        "link": "http://www.fcps.edu/index.shtml"
      }
    },
    {
      "id": "NjA1MDUxNDE=",
      "title": "MESSAGE FROM THE PRINCIPAL:  Military Families Listening Session",
      "link": "https://content.govdelivery.com/accounts/VAEDUFCPS/bulletins/39b3c35",
      "description": "\n        \n\n\n  \n\n\n\n\n\n\n\n<p><a></a>Having trouble viewing this email? <a href=\"https://content.govdelivery.com/accounts/VAEDUFCPS/bulletins/39b3c35\">View it as a Web page</a>.</p>\n\n\n\n\n\n\n\n\n\n\n\n<a href=\"https://westfieldhs.fcps.edu/?utm_campaign+=&amp;utm_medium=email&amp;utm_source=govdelivery\" target=\"_...",
      "pubDate": "Wed, 08 May 2024 08:06:19 -0500",
      "timestamp": 1715173579000,
      "feedName": "Westfield High School",
      "category": "Westfield High School",
      "feedSource": "http://www.fcps.edu/index.shtml",
      "feedInfo": {
        "title": "Westfield High School News and announcements - Recent Updates",
        "description": "Westfield High School News and announcements",
        "link": "http://www.fcps.edu/index.shtml"
      }
    },
    {
      "id": "NjA0OTIxNDc=",
      "title": "May is Jewish American Heritage Month",
      "link": "https://content.govdelivery.com/accounts/VAEDUFCPS/bulletins/39b0973",
      "description": "\n        \n\n\n  \n\n\n\n\n\n\n\n<p><a></a>Having trouble viewing this email? <a href=\"https://content.govdelivery.com/accounts/VAEDUFCPS/bulletins/39b0973\">View it as a Web page</a>.</p>\n\n\n\n\n\n\n\n\n\n\n\n<a href=\"https://www.fcps.edu/resources/family-engagement/family-engagement-resources?utm_campaign+=&amp;utm_med...",
      "pubDate": "Wed, 08 May 2024 07:29:16 -0500",
      "timestamp": 1715171356000,
      "feedName": "FCPS Tuesday Tips",
      "category": "FCPS Tuesday Tips",
      "feedSource": "http://www.fcps.edu/index.shtml",
      "feedInfo": {
        "title": "Family and School Partnerships - Recent Updates",
        "description": "Family and School Partnerships - Recent Updates",
        "link": "http://www.fcps.edu/index.shtml"
      }
    },
    {
      "id": "NjA0OTY2NTE=",
      "title": "Edison Academy Awards",
      "link": "https://content.govdelivery.com/accounts/VAEDUFCPS/bulletins/39b1b0b",
      "description": "\n        <p>You are cordially invited to attend the Edison Academy Awards! Please see below for details! </p>\n<p> </p>\n<p></p>\n      ",
      "pubDate": "Tue, 07 May 2024 15:02:16 -0500",
      "timestamp": 1715112136000,
      "feedName": "Edison Academy",
      "category": "Edison Academy",
      "feedSource": "http://www.fcps.edu/index.shtml",
      "feedInfo": {
        "title": "Edison Academy News and announcements - Recent Updates",
        "description": "Edison Academy News and announcements - Recent Updates",
        "link": "http://www.fcps.edu/index.shtml"
      }
    },
    {
      "id": "NjA0OTMzOTM=",
      "title": "Hybla Happenings: May 7 Edition",
      "link": "https://content.govdelivery.com/accounts/VAEDUFCPS/bulletins/39b0e51",
      "description": "\n        \n\n\n  \n\n\n\n\n\n\n\n<p><a></a>Having trouble viewing this email? <a href=\"https://content.govdelivery.com/accounts/VAEDUFCPS/bulletins/39b0e51\">View it as a Web page</a>.</p>\n\n\n\n\n\n\n\n\n\n\n\n<a href=\"http://www2.fcps.edu/HyblaValleyES/?utm_campaign+=&amp;utm_medium=email&amp;utm_source=govdelivery\" tar...",
      "pubDate": "Tue, 07 May 2024 11:45:12 -0500",
      "timestamp": 1715100312000,
      "feedName": "Hybla Valley Elementary School",
      "category": "Hybla Valley Elementary School",
      "feedSource": "http://www.fcps.edu/index.shtml",
      "feedInfo": {
        "title": "Hybla Valley Elementary School News and announcements - Recent Updates",
        "description": "Hybla Valley Elementary School News and announcements",
        "link": "http://www.fcps.edu/index.shtml"
      }
    },
    {
      "id": "NjA0NDM1NTg=",
      "title": "Woodlawn News 5 4 2024",
      "link": "https://content.govdelivery.com/accounts/VAEDUFCPS/bulletins/39a4ba6",
      "description": "\n        \n\n\n  \n\n\n\n\n\n\n\n<p><a></a>Having trouble viewing this email? <a href=\"https://content.govdelivery.com/accounts/VAEDUFCPS/bulletins/39a4ba6\">View it as a Web page</a>.</p>\n\n\n\n\n\n\n\n\n\n\n\n<a href=\"http://www2.fcps.edu/WoodlawnES/?utm_campaign+=&amp;utm_medium=email&amp;utm_source=govdelivery\" target...",
      "pubDate": "Sat, 04 May 2024 13:30:15 -0500",
      "timestamp": 1714847415000,
      "feedName": "Woodlawn Elementary School",
      "category": "Woodlawn Elementary School",
      "feedSource": "http://www.fcps.edu/index.shtml",
      "feedInfo": {
        "title": "Woodlawn Elementary School News and announcements - Recent Updates",
        "description": "Woodlawn Elementary School News and announcements",
        "link": "http://www.fcps.edu/index.shtml"
      }
    },
    {
      "id": "NjA0NDYyMTc=",
      "title": "News and Announcements May 3rd Edition",
      "link": "https://content.govdelivery.com/accounts/VAEDUFCPS/bulletins/39a5609",
      "description": "\n        \n\n\n  \n\n\n\n\n\n\n\n\n<a href=\"https://mountvernonhs.fcps.edu/aggregator/sources/2?utm_campaign+=&amp;utm_medium=email&amp;utm_source=govdelivery\" target=\"_blank\">https://mountvernonhs.fcps.edu/aggregator/sources/2</a>\nHaga clic aquí para traducir este mensaje.\n\n\n\n\n\n\n\n\n\n\n\n<a href=\"https://mountvern...",
      "pubDate": "Fri, 03 May 2024 16:00:36 -0500",
      "timestamp": 1714770036000,
      "feedName": "Mount Vernon High School",
      "category": "Mount Vernon High School",
      "feedSource": "http://www.fcps.edu/index.shtml",
      "feedInfo": {
        "title": "Mount Vernon High School News and announcements - Recent Updates",
        "description": "Mount Vernon High School News and announcements",
        "link": "http://www.fcps.edu/index.shtml"
      }
    },
    {
      "id": "NjA0MTU0MzY=",
      "title": "FCPS Updates and News",
      "link": "https://content.govdelivery.com/accounts/VAEDUFCPS/bulletins/399ddcc",
      "description": "\n        \n\n\n  \n\n\n\n\n\n\n\n<p><a></a>Having trouble viewing this email? <a href=\"https://content.govdelivery.com/accounts/VAEDUFCPS/bulletins/399ddcc\">View it as a Web page</a>.</p>\n\n\n\n\n\n\n\n\n\n\n\n<a href=\"https://www.fcps.edu/staff/marcia-st-john-cunning?utm_campaign+=&amp;utm_medium=email&amp;utm_source=go...",
      "pubDate": "Thu, 02 May 2024 11:58:22 -0500",
      "timestamp": 1714669102000,
      "feedName": "FCPS School Board Franconia District",
      "category": "FCPS School Board Franconia District",
      "feedSource": "http://www.fcps.edu/index.shtml",
      "feedInfo": {
        "title": "Franconia District Member - Marcia St. John-Cunning - Recent Updates",
        "description": "Franconia District Member - Marcia St. John-Cunning - Recent Updates",
        "link": "http://www.fcps.edu/index.shtml"
      }
    },
    {
      "id": "NjA0MTc0Nzg=",
      "title": "Reminder: PTA Meeting Tonight at 7pm",
      "link": "https://content.govdelivery.com/accounts/VAEDUFCPS/bulletins/399e5c6",
      "description": "\n        \n\n\n  \n\n\n\n\n\n\n\n<p><a></a>Having trouble viewing this email? <a href=\"https://content.govdelivery.com/accounts/VAEDUFCPS/bulletins/399e5c6\">View it as a Web page</a>.</p>\n\n\n\n\n\n\n\n\n\n\n\n<a href=\"https://forestdalees.fcps.edu/?utm_campaign+=&amp;utm_medium=email&amp;utm_source=govdelivery\" target=\"...",
      "pubDate": "Wed, 01 May 2024 12:46:06 -0500",
      "timestamp": 1714585566000,
      "feedName": "Forestdale Elementary School",
      "category": "Forestdale Elementary School",
      "feedSource": "http://www.fcps.edu/index.shtml",
      "feedInfo": {
        "title": "Forestdale Elementary School News and announcements - Recent Updates",
        "description": "Forestdale Elementary School News and announcements",
        "link": "http://www.fcps.edu/index.shtml"
      }
    },
    {
      "id": "NTk4NDExMDE=",
      "title": "Bryant March &amp; April 2024 Newsletter",
      "link": "https://content.govdelivery.com/accounts/VAEDUFCPS/bulletins/3911a4d",
      "description": "\n        \n\n\n  \n\n\n\n\n\n\n\n<p><a></a>Having trouble viewing this email? <a href=\"https://content.govdelivery.com/accounts/VAEDUFCPS/bulletins/3911a4d\">View it as a Web page</a>.</p>\n\n\n\n\n\n\n\n\n\n\n\n<a href=\"https://bryanths.fcps.edu/?utm_campaign+=&amp;utm_medium=email&amp;utm_source=govdelivery\" target=\"_bla...",
      "pubDate": "Tue, 30 Apr 2024 15:00:48 -0500",
      "timestamp": 1714507248000,
      "feedName": "Bryant High School",
      "category": "Bryant High School",
      "feedSource": "http://www.fcps.edu/index.shtml",
      "feedInfo": {
        "title": "Bryant High School News and Announcements - Recent Updates",
        "description": "Bryant High School News and announcements",
        "link": "http://www.fcps.edu/index.shtml"
      }
    },
    {
      "id": "NjAzNTUwNjM=",
      "title": "News and Announcements April 26th Edition",
      "link": "https://content.govdelivery.com/accounts/VAEDUFCPS/bulletins/398f1f7",
      "description": "\n        \n\n\n  \n\n\n\n\n\n\n\n\n<a href=\"https://mountvernonhs.fcps.edu/aggregator/sources/2?utm_campaign+=&amp;utm_medium=email&amp;utm_source=govdelivery\" target=\"_blank\">https://mountvernonhs.fcps.edu/aggregator/sources/2</a>\nHaga clic aquí para traducir este mensaje.\n\n\n\n\n\n\n\n\n\n\n\n<a href=\"https://mountvern...",
      "pubDate": "Fri, 26 Apr 2024 16:00:25 -0500",
      "timestamp": 1714165225000,
      "feedName": "Mount Vernon High School",
      "category": "Mount Vernon High School",
      "feedSource": "http://www.fcps.edu/index.shtml",
      "feedInfo": {
        "title": "Mount Vernon High School News and announcements - Recent Updates",
        "description": "Mount Vernon High School News and announcements",
        "link": "http://www.fcps.edu/index.shtml"
      }
    },
    {
      "id": "NjAzMDUwMjY=",
      "title": "Falls Church Academy News!",
      "link": "https://content.govdelivery.com/accounts/VAEDUFCPS/bulletins/3982e82",
      "description": "\n        \n\n\n  \n\n\n\n\n\n\n\n<p><a></a>Having trouble viewing this email? <a href=\"https://content.govdelivery.com/accounts/VAEDUFCPS/bulletins/3982e82\">View it as a Web page</a>.</p>\n\n\n\n\n\n\n\n\n\n\n\n<a href=\"https://fallschurchacademy.fcps.edu/?utm_content=&amp;utm_medium=email&amp;utm_name=&amp;utm_source=gov...",
      "pubDate": "Thu, 25 Apr 2024 12:51:39 -0500",
      "timestamp": 1714067499000,
      "feedName": "Falls Church Academy",
      "category": "Falls Church Academy",
      "feedSource": "http://www.fcps.edu/index.shtml",
      "feedInfo": {
        "title": "Falls Church Academy News and Announcements - Recent Updates",
        "description": "Falls Church Academy News and Announcements - Recent Updates",
        "link": "http://www.fcps.edu/index.shtml"
      }
    },
    {
      "id": "NjAwNjc1MjM=",
      "title": "Falcon Press 4.24.24",
      "link": "https://content.govdelivery.com/accounts/VAEDUFCPS/bulletins/3948ec3",
      "description": "\n        \n\n\n  \n\n\n\n\n\n\n\n<p><a></a>Having trouble viewing this email? <a href=\"https://content.govdelivery.com/accounts/VAEDUFCPS/bulletins/3948ec3\">View it as a Web page</a>.</p>\n\n\n\n\n\n\n\n\n\n\n\n<a href=\"https://forestdalees.fcps.edu/?utm_campaign+=&amp;utm_medium=email&amp;utm_source=govdelivery\" target=\"...",
      "pubDate": "Tue, 23 Apr 2024 20:31:26 -0500",
      "timestamp": 1713922286000,
      "feedName": "Forestdale Elementary School",
      "category": "Forestdale Elementary School",
      "feedSource": "http://www.fcps.edu/index.shtml",
      "feedInfo": {
        "title": "Forestdale Elementary School News and announcements - Recent Updates",
        "description": "Forestdale Elementary School News and announcements",
        "link": "http://www.fcps.edu/index.shtml"
      }
    },
    {
      "id": "NjAxNjIxNjg=",
      "title": "News and Announcements April 19th Edition",
      "link": "https://content.govdelivery.com/accounts/VAEDUFCPS/bulletins/3960078",
      "description": "\n        \n\n\n  \n\n\n\n\n\n\n\n\n<a href=\"https://mountvernonhs.fcps.edu/aggregator/sources/2?utm_campaign+=&amp;utm_medium=email&amp;utm_source=govdelivery\" target=\"_blank\">https://mountvernonhs.fcps.edu/aggregator/sources/2</a>\nHaga clic aquí para traducir este mensaje.\n\n\n\n\n\n\n\n\n\n\n\n<a href=\"https://mountvern...",
      "pubDate": "Fri, 19 Apr 2024 16:00:35 -0500",
      "timestamp": 1713560435000,
      "feedName": "Mount Vernon High School",
      "category": "Mount Vernon High School",
      "feedSource": "http://www.fcps.edu/index.shtml",
      "feedInfo": {
        "title": "Mount Vernon High School News and announcements - Recent Updates",
        "description": "Mount Vernon High School News and announcements",
        "link": "http://www.fcps.edu/index.shtml"
      }
    },
    {
      "id": "NjAyNjQ5OTU=",
      "title": "Reminder: Literacy/STEAM Night Tonight 5:30-7",
      "link": "https://content.govdelivery.com/accounts/VAEDUFCPS/bulletins/3979223",
      "description": "\n        \n\n\n  \n\n\n\n\n\n\n\n<p><a></a>Having trouble viewing this email? <a href=\"https://content.govdelivery.com/accounts/VAEDUFCPS/bulletins/3979223\">View it as a Web page</a>.</p>\n\n\n\n\n\n\n\n\n\n\n\n<a href=\"https://forestdalees.fcps.edu/?utm_campaign+=&amp;utm_medium=email&amp;utm_source=govdelivery\" target=\"...",
      "pubDate": "Fri, 19 Apr 2024 15:16:38 -0500",
      "timestamp": 1713557798000,
      "feedName": "Forestdale Elementary School",
      "category": "Forestdale Elementary School",
      "feedSource": "http://www.fcps.edu/index.shtml",
      "feedInfo": {
        "title": "Forestdale Elementary School News and announcements - Recent Updates",
        "description": "Forestdale Elementary School News and announcements",
        "link": "http://www.fcps.edu/index.shtml"
      }
    },
    {
      "id": "NjAyNDAxMTg=",
      "title": "Online Special Education Resource Fair",
      "link": "https://content.govdelivery.com/accounts/VAEDUFCPS/bulletins/39730f6",
      "description": "\n        \n\n\n  \n\n\n\n\n\n\n\n<p><a></a>Having trouble viewing this email? <a href=\"https://content.govdelivery.com/accounts/VAEDUFCPS/bulletins/39730f6\">View it as a Web page</a>.</p>\n\n\n\n\n\n\n\n\n\n\n\n<a href=\"https://www.fcps.edu/academics/academic-overview/special-education-instruction?utm_content=&amp;utm_med...",
      "pubDate": "Thu, 18 Apr 2024 12:00:34 -0500",
      "timestamp": 1713459634000,
      "feedName": "FCPS Special Education Update",
      "category": "FCPS Special Education Update",
      "feedSource": "https://www.fcps.edu/",
      "feedInfo": {
        "title": "Special Education and 504 Newsletter - Recent Updates",
        "description": "Special Education and 504 Newsletter - Recent Updates",
        "link": "https://www.fcps.edu/"
      }
    },
    {
      "id": "NjAyMTQ5NjQ=",
      "title": "LAST DAY TO ORDER YEARBOOKS is April 19th",
      "link": "https://content.govdelivery.com/accounts/VAEDUFCPS/bulletins/396ceb4",
      "description": "\n        \n\n\n  \n\n\n\n\n\n\n\n<p><a></a>Having trouble viewing this email? <a href=\"https://content.govdelivery.com/accounts/VAEDUFCPS/bulletins/396ceb4\">View it as a Web page</a>.</p>\n\n\n\n\n\n\n\n\n\n\n\n<a href=\"https://waynewoodes.fcps.edu/?utm_campaign+=&amp;utm_medium=email&amp;utm_source=govdelivery\" target=\"_...",
      "pubDate": "Tue, 16 Apr 2024 14:28:12 -0500",
      "timestamp": 1713295692000,
      "feedName": "Waynewood Elementary School",
      "category": "Waynewood Elementary School",
      "feedSource": "http://www.fcps.edu/index.shtml",
      "feedInfo": {
        "title": "Waynewood Elementary School News and announcements - Recent Updates",
        "description": "Waynewood Elementary School News and announcements",
        "link": "http://www.fcps.edu/index.shtml"
      }
    },
    {
      "id": "NjAxOTQxNjg=",
      "title": "April 15, 2024",
      "link": "https://content.govdelivery.com/accounts/VAEDUFCPS/bulletins/3967d78",
      "description": "\n        \n\n\n  \n\n\n\n\n\n\n\n<p><a></a>Having trouble viewing this email? <a href=\"https://content.govdelivery.com/accounts/VAEDUFCPS/bulletins/3967d78\">View it as a Web page</a>.</p>\n\n\n\n\n\n\n\n\n\n\n\n<a href=\"https://whitmanms.fcps.edu/?utm_campaign+=&amp;utm_medium=email&amp;utm_source=govdelivery\" target=\"_bl...",
      "pubDate": "Mon, 15 Apr 2024 10:17:23 -0500",
      "timestamp": 1713194243000,
      "feedName": "Whitman Middle School",
      "category": "Whitman Middle School",
      "feedSource": "http://www.fcps.edu/index.shtml",
      "feedInfo": {
        "title": "Whitman Middle School News and announcements - Recent Updates",
        "description": "Whitman Middle School News and announcements",
        "link": "http://www.fcps.edu/index.shtml"
      }
    }
  ],
  "hasNext": true,
  "hasPrev": true
}