{
  "page": 252,
  "totalPages": 268,
  "totalItems": 5354,
  "itemsPerPage": 20,
  "items": [
    {
      "id": "NTgxOTIxODY=",
      "title": "Bryant High School October 2023 Newsletter",
      "link": "https://content.govdelivery.com/accounts/VAEDUFCPS/bulletins/377f13a",
      "description": "\n        \n\n\n  \n\n\n\n\n\n\n\n<p><a></a>Having trouble viewing this email? <a href=\"https://content.govdelivery.com/accounts/VAEDUFCPS/bulletins/377f13a\">View it as a Web page</a>.</p>\n\n\n\n\n\n\n\n\n\n\n\n<a href=\"https://bryanths.fcps.edu/?utm_campaign+=&amp;utm_medium=email&amp;utm_source=govdelivery\" target=\"_bla...",
      "pubDate": "Tue, 31 Oct 2023 14:01:05 -0500",
      "timestamp": 1698778865000,
      "feedName": "Bryant High School",
      "category": "Bryant High School",
      "feedSource": "http://www.fcps.edu/index.shtml",
      "feedInfo": {
        "title": "Bryant High School News and Announcements - Recent Updates",
        "description": "Bryant High School News and announcements",
        "link": "http://www.fcps.edu/index.shtml"
      }
    },
    {
      "id": "NTgxMjI0MTE=",
      "title": "October Newsletter",
      "link": "https://content.govdelivery.com/accounts/VAEDUFCPS/bulletins/376e0ab",
      "description": "\n        \n\n\n  \n\n\n\n\n\n\n\n<p><a></a>Having trouble viewing this email? <a href=\"https://content.govdelivery.com/accounts/VAEDUFCPS/bulletins/376e0ab\">View it as a Web page</a>.</p>\n\n\n\n\n\n\n\n\n\n\n\n<a href=\"https://www.fcps.edu/staff/rachna-sizemore-heizer?utm_campaign+=&amp;utm_medium=email&amp;utm_source=go...",
      "pubDate": "Mon, 23 Oct 2023 15:31:51 -0500",
      "timestamp": 1698093111000,
      "feedName": "FCPS School Board Member at Large (Kyle McDaniel)",
      "category": "FCPS School Board Member at Large (Kyle McDaniel)",
      "feedSource": "http://www.fcps.edu/",
      "feedInfo": {
        "title": "At-Large Member - Kyle McDaniel - Recent Updates",
        "description": "At-Large Member - Kyle McDaniel - Recent Updates",
        "link": "http://www.fcps.edu/"
      }
    },
    {
      "id": "NTgxMjcyNjM=",
      "title": "October 21, 2023- NSES News",
      "link": "https://content.govdelivery.com/accounts/VAEDUFCPS/bulletins/376f39f",
      "description": "\n        \n\n\n  \n\n\n\n\n\n\n\n<p><a></a>Having trouble viewing this email? <a href=\"https://content.govdelivery.com/accounts/VAEDUFCPS/bulletins/376f39f\">View it as a Web\npage</a>.</p>\n\n\n\n\n\n\n\n\n\n\n\n<a href=\"https://northspringfieldes.fcps.edu/?utm_content=&amp;utm_medium=email&amp;utm_name=&amp;utm_source=gov...",
      "pubDate": "Sat, 21 Oct 2023 09:10:02 -0500",
      "timestamp": 1697897402000,
      "feedName": "North Springfield Elementary School",
      "category": "North Springfield Elementary School",
      "feedSource": "http://www.fcps.edu/index.shtml",
      "feedInfo": {
        "title": "North Springfield Elementary School News and announcements - Recent Updates",
        "description": "North Springfield Elementary School News and announcements",
        "link": "http://www.fcps.edu/index.shtml"
      }
    },
    {
      "id": "NTc5NTQ3NjA=",
      "title": "School Board Message, International Girls Day, Food and Nutrition News, TJHSST Freshman Application, Upcoming Events and Performances, Exemplar Awards and more...",
      "link": "https://content.govdelivery.com/accounts/VAEDUFCPS/bulletins/37451c8",
      "description": "\n        \n\n\n  \n\n\n\n\n\n\n\n<p><a></a>Having trouble viewing this email? <a href=\"https://content.govdelivery.com/accounts/VAEDUFCPS/bulletins/37451c8\">View it as a Web page</a>.</p>\n\n\n\n\n\n\n\n\n\n\n\n<a href=\"https://www.fcps.edu/school-board/tamara-derenak-kaufax?utm_campaign+=&amp;utm_medium=email&amp;utm_sou...",
      "pubDate": "Thu, 19 Oct 2023 13:30:13 -0500",
      "timestamp": 1697740213000,
      "feedName": "FCPS School Board Franconia District",
      "category": "FCPS School Board Franconia District",
      "feedSource": "http://www.fcps.edu/index.shtml",
      "feedInfo": {
        "title": "Franconia District Member - Marcia St. John-Cunning - Recent Updates",
        "description": "Franconia District Member - Marcia St. John-Cunning - Recent Updates",
        "link": "http://www.fcps.edu/index.shtml"
      }
    },
    {
      "id": "NTc5NzA0MTE=",
      "title": "October 6, 2023- NSES News",
      "link": "https://content.govdelivery.com/accounts/VAEDUFCPS/bulletins/3748eeb",
      "description": "\n        \n\n\n  \n\n\n\n\n\n\n\n<p><a></a>Having trouble viewing this email? <a href=\"https://content.govdelivery.com/accounts/VAEDUFCPS/bulletins/3748eeb\">View it as a Web\npage</a>.</p>\n\n\n\n\n\n\n\n\n\n\n\n<a href=\"https://northspringfieldes.fcps.edu/?utm_content=&amp;utm_medium=email&amp;utm_name=&amp;utm_source=gov...",
      "pubDate": "Fri, 06 Oct 2023 14:48:39 -0500",
      "timestamp": 1696621719000,
      "feedName": "North Springfield Elementary School",
      "category": "North Springfield Elementary School",
      "feedSource": "http://www.fcps.edu/index.shtml",
      "feedInfo": {
        "title": "North Springfield Elementary School News and announcements - Recent Updates",
        "description": "North Springfield Elementary School News and announcements",
        "link": "http://www.fcps.edu/index.shtml"
      }
    },
    {
      "id": "NTc5MTM0NjA=",
      "title": "Happy Fall, Updates and School Board Governance",
      "link": "https://content.govdelivery.com/accounts/VAEDUFCPS/bulletins/373b074",
      "description": "\n        \n\n\n  \n\n\n\n\n\n\n\n<p><a></a>Having trouble viewing this email? <a href=\"https://content.govdelivery.com/accounts/VAEDUFCPS/bulletins/373b074\">View it as a Web page</a>.</p>\n\n\n\n\n\n\n\n\n\n\n\n<a href=\"https://www.fcps.edu/school-board/karen-keys-gamarra?utm_campaign+=&amp;utm_medium=email&amp;utm_source...",
      "pubDate": "Wed, 04 Oct 2023 13:21:48 -0500",
      "timestamp": 1696443708000,
      "feedName": "FCPS School Board Member at Large (Ryan McElveen)",
      "category": "FCPS School Board Member at Large (Ryan McElveen)",
      "feedSource": "http://www.fcps.edu/index.shtml",
      "feedInfo": {
        "title": "At-Large Member - Ryan McElveen - Recent Updates",
        "description": "At-Large Member - Ryan McElveen - Recent Updates",
        "link": "http://www.fcps.edu/index.shtml"
      }
    },
    {
      "id": "NTc3OTQ1Mzk=",
      "title": "Bryant High School September Newsletter",
      "link": "https://content.govdelivery.com/accounts/VAEDUFCPS/bulletins/371dfeb",
      "description": "\n        \n\n\n  \n\n\n\n\n\n\n\n<p><a></a>Having trouble viewing this email? <a href=\"https://content.govdelivery.com/accounts/VAEDUFCPS/bulletins/371dfeb\">View it as a Web page</a>.</p>\n\n\n\n\n\n\n\n\n\n\n\n<a href=\"https://bryanths.fcps.edu/?utm_campaign+=&amp;utm_medium=email&amp;utm_source=govdelivery\" target=\"_bla...",
      "pubDate": "Fri, 29 Sep 2023 14:30:15 -0500",
      "timestamp": 1696015815000,
      "feedName": "Bryant High School",
      "category": "Bryant High School",
      "feedSource": "http://www.fcps.edu/index.shtml",
      "feedInfo": {
        "title": "Bryant High School News and Announcements - Recent Updates",
        "description": "Bryant High School News and announcements",
        "link": "http://www.fcps.edu/index.shtml"
      }
    },
    {
      "id": "NTc3OTc4Njk=",
      "title": "Falls Church Academy - September News!",
      "link": "https://content.govdelivery.com/accounts/VAEDUFCPS/bulletins/371eced",
      "description": "\n        \n\n\n  \n\n\n\n\n\n\n\n<p><a></a>Having trouble viewing this email? <a href=\"https://content.govdelivery.com/accounts/VAEDUFCPS/bulletins/371eced\">View it as a Web page</a>.</p>\n\n\n\n\n\n\n\n\n\n\n\n<a href=\"https://fallschurchacademy.fcps.edu/?utm_content=&amp;utm_medium=email&amp;utm_name=&amp;utm_source=gov...",
      "pubDate": "Fri, 29 Sep 2023 12:52:35 -0500",
      "timestamp": 1696009955000,
      "feedName": "Falls Church Academy",
      "category": "Falls Church Academy",
      "feedSource": "http://www.fcps.edu/index.shtml",
      "feedInfo": {
        "title": "Falls Church Academy News and Announcements - Recent Updates",
        "description": "Falls Church Academy News and Announcements - Recent Updates",
        "link": "http://www.fcps.edu/index.shtml"
      }
    },
    {
      "id": "NTc3MDcwNDA=",
      "title": "FCPS Wellness Newsletter Fall 2023",
      "link": "https://content.govdelivery.com/accounts/VAEDUFCPS/bulletins/3708a20",
      "description": "\n        \n\n\n  \n\n\n\n\n\n\n\n<p>Having trouble viewing this email? <a href=\"https://content.govdelivery.com/accounts/VAEDUFCPS/bulletins/3708a20\">View it as a Web page</a>.</p>\n\n\n\n\n\n\n\n\n\n\n\n\n\n\n\n\n\n\n\n\n\n\n\n\n\n\n\n<p><strong>Fall 2023</strong></p>\n<p> </p>\nFCPS Wellness Newsletter\n\n<strong>Be Wise, Immunize: The Imp...",
      "pubDate": "Thu, 21 Sep 2023 08:00:30 -0500",
      "timestamp": 1695301230000,
      "feedName": "FCPS Wellness Newsletter",
      "category": "FCPS Wellness Newsletter",
      "feedSource": "http://www.fcps.edu/",
      "feedInfo": {
        "title": "FCPS Wellness - Recent Updates",
        "description": "FCPS Wellness - Recent Updates",
        "link": "http://www.fcps.edu/"
      }
    },
    {
      "id": "NTc0NjM1MzM=",
      "title": "School Board Meetings, Superintendent Community Conversations, Volunteer Opportunities, Student Health Information and more!",
      "link": "https://content.govdelivery.com/accounts/VAEDUFCPS/bulletins/36cd2ed",
      "description": "\n        \n\n\n  \n\n\n\n\n\n\n\n<p><a></a>Having trouble viewing this email? <a href=\"https://content.govdelivery.com/accounts/VAEDUFCPS/bulletins/36cd2ed\">View it as a Web page</a>.</p>\n\n\n\n\n\n\n\n\n\n\n\n<a href=\"https://www.fcps.edu/school-board/tamara-derenak-kaufax?utm_campaign+=&amp;utm_medium=email&amp;utm_sou...",
      "pubDate": "Wed, 20 Sep 2023 13:00:39 -0500",
      "timestamp": 1695232839000,
      "feedName": "FCPS School Board Franconia District",
      "category": "FCPS School Board Franconia District",
      "feedSource": "http://www.fcps.edu/index.shtml",
      "feedInfo": {
        "title": "Franconia District Member - Marcia St. John-Cunning - Recent Updates",
        "description": "Franconia District Member - Marcia St. John-Cunning - Recent Updates",
        "link": "http://www.fcps.edu/index.shtml"
      }
    },
    {
      "id": "NTc3NTAyODk=",
      "title": "September News, Updates and Resources",
      "link": "https://content.govdelivery.com/accounts/VAEDUFCPS/bulletins/3713311",
      "description": "\n        \n\n\n  \n\n\n\n\n\n\n\n<p><a></a>Having trouble viewing this email? <a href=\"https://content.govdelivery.com/accounts/VAEDUFCPS/bulletins/3713311\">View it as a Web page</a>.</p>\n\n\n\n\n\n\n\n\n\n\n\n<a href=\"https://www.fcps.edu/staff/rachna-sizemore-heizer?utm_campaign+=&amp;utm_medium=email&amp;utm_source=go...",
      "pubDate": "Tue, 19 Sep 2023 15:42:34 -0500",
      "timestamp": 1695156154000,
      "feedName": "FCPS School Board Member at Large (Kyle McDaniel)",
      "category": "FCPS School Board Member at Large (Kyle McDaniel)",
      "feedSource": "http://www.fcps.edu/",
      "feedInfo": {
        "title": "At-Large Member - Kyle McDaniel - Recent Updates",
        "description": "At-Large Member - Kyle McDaniel - Recent Updates",
        "link": "http://www.fcps.edu/"
      }
    },
    {
      "id": "NTc3MTE2NDk=",
      "title": "September 15, 2023- NSES News",
      "link": "https://content.govdelivery.com/accounts/VAEDUFCPS/bulletins/3709c21",
      "description": "\n        \n\n\n  \n\n\n\n\n\n\n\n<p><a></a>Having trouble viewing this email? <a href=\"https://content.govdelivery.com/accounts/VAEDUFCPS/bulletins/3709c21\">View it as a Web\npage</a>.</p>\n\n\n\n\n\n\n\n\n\n\n\n<a href=\"https://northspringfieldes.fcps.edu/?utm_content=&amp;utm_medium=email&amp;utm_name=&amp;utm_source=gov...",
      "pubDate": "Fri, 15 Sep 2023 13:47:30 -0500",
      "timestamp": 1694803650000,
      "feedName": "North Springfield Elementary School",
      "category": "North Springfield Elementary School",
      "feedSource": "http://www.fcps.edu/index.shtml",
      "feedInfo": {
        "title": "North Springfield Elementary School News and announcements - Recent Updates",
        "description": "North Springfield Elementary School News and announcements",
        "link": "http://www.fcps.edu/index.shtml"
      }
    },
    {
      "id": "NTcwNDc5MTc=",
      "title": "Back to School. Now What?: Tips and Tools for the New School Year",
      "link": "https://content.govdelivery.com/accounts/VAEDUFCPS/bulletins/3667b6d",
      "description": "\n        \n\n\n  \n\n\n\n\n\n\n\n<p><a></a>Having trouble viewing this email? <a href=\"https://content.govdelivery.com/accounts/VAEDUFCPS/bulletins/3667b6d\">View it as a Web page</a>.</p>\n\n\n\n\n\n\n\n\n\n\n\n<a href=\"https://www.fcps.edu/school-board/karen-keys-gamarra?utm_campaign+=&amp;utm_medium=email&amp;utm_source...",
      "pubDate": "Tue, 12 Sep 2023 18:43:08 -0500",
      "timestamp": 1694562188000,
      "feedName": "FCPS School Board Member at Large (Ryan McElveen)",
      "category": "FCPS School Board Member at Large (Ryan McElveen)",
      "feedSource": "http://www.fcps.edu/index.shtml",
      "feedInfo": {
        "title": "At-Large Member - Ryan McElveen - Recent Updates",
        "description": "At-Large Member - Ryan McElveen - Recent Updates",
        "link": "http://www.fcps.edu/index.shtml"
      }
    },
    {
      "id": "NTc2MjM2Mzc=",
      "title": "Marshall Academy Connector",
      "link": "https://content.govdelivery.com/accounts/VAEDUFCPS/bulletins/36f4455",
      "description": "\n        \n\n\n  \n\n\n\n\n\n\n\n<p><a></a>Having trouble viewing this email? <a href=\"https://content.govdelivery.com/accounts/VAEDUFCPS/bulletins/36f4455\">View it as a Web page</a>.</p>\n\n\n\n\n\n\n\n\n\n\n\n<a href=\"https://marshallacademy.fcps.edu/?utm_campaign+=&amp;utm_medium=email&amp;utm_source=govdelivery\" targe...",
      "pubDate": "Fri, 08 Sep 2023 14:45:12 -0500",
      "timestamp": 1694202312000,
      "feedName": "Marshall Academy",
      "category": "Marshall Academy",
      "feedSource": "http://www.fcps.edu/index.shtml",
      "feedInfo": {
        "title": "Marshall Academy News and Announcements - Recent Updates",
        "description": "Marshall Academy News and Announcements - Recent Updates",
        "link": "http://www.fcps.edu/index.shtml"
      }
    },
    {
      "id": "NTc0NzIzODM=",
      "title": "Welcome Back Bryant Students and Families!",
      "link": "https://content.govdelivery.com/accounts/VAEDUFCPS/bulletins/36cf57f",
      "description": "\n        \n\n\n  \n\n\n\n\n\n\n\n<p><a></a>Having trouble viewing this email? <a href=\"https://content.govdelivery.com/accounts/VAEDUFCPS/bulletins/36cf57f\">View it as a Web page</a>.</p>\n\n\n\n\n\n\n\n\n\n\n\n<a href=\"https://bryanths.fcps.edu/?utm_campaign+=&amp;utm_medium=email&amp;utm_source=govdelivery\" target=\"_bla...",
      "pubDate": "Fri, 01 Sep 2023 07:03:07 -0500",
      "timestamp": 1693569787000,
      "feedName": "Bryant High School",
      "category": "Bryant High School",
      "feedSource": "http://www.fcps.edu/index.shtml",
      "feedInfo": {
        "title": "Bryant High School News and Announcements - Recent Updates",
        "description": "Bryant High School News and announcements",
        "link": "http://www.fcps.edu/index.shtml"
      }
    },
    {
      "id": "NTc1MjYyNjg=",
      "title": "Marshall Academy Connector: BTSN, Academy Resources &amp; More",
      "link": "https://content.govdelivery.com/accounts/VAEDUFCPS/bulletins/36dc7fc",
      "description": "\n        \n\n\n  \n\n\n\n\n\n\n\n<p><a></a>Having trouble viewing this email? <a href=\"https://content.govdelivery.com/accounts/VAEDUFCPS/bulletins/36dc7fc\">View it as a Web page</a>.</p>\n\n\n\n\n\n\n\n\n\n\n\n<a href=\"https://marshallacademy.fcps.edu/?utm_campaign+=&amp;utm_medium=email&amp;utm_source=govdelivery\" targe...",
      "pubDate": "Thu, 31 Aug 2023 13:35:13 -0500",
      "timestamp": 1693506913000,
      "feedName": "Marshall Academy",
      "category": "Marshall Academy",
      "feedSource": "http://www.fcps.edu/index.shtml",
      "feedInfo": {
        "title": "Marshall Academy News and Announcements - Recent Updates",
        "description": "Marshall Academy News and Announcements - Recent Updates",
        "link": "http://www.fcps.edu/index.shtml"
      }
    },
    {
      "id": "NTc1Mjk2NjY=",
      "title": "August 31, 2023- NSES News",
      "link": "https://content.govdelivery.com/accounts/VAEDUFCPS/bulletins/36dd542",
      "description": "\n        \n\n\n  \n\n\n\n\n\n\n\n<p><a></a>Having trouble viewing this email? <a href=\"https://content.govdelivery.com/accounts/VAEDUFCPS/bulletins/36dd542\">View it as a Web\npage</a>.</p>\n\n\n\n\n\n\n\n\n\n\n\n<a href=\"https://northspringfieldes.fcps.edu/?utm_content=&amp;utm_medium=email&amp;utm_name=&amp;utm_source=gov...",
      "pubDate": "Thu, 31 Aug 2023 12:11:07 -0500",
      "timestamp": 1693501867000,
      "feedName": "North Springfield Elementary School",
      "category": "North Springfield Elementary School",
      "feedSource": "http://www.fcps.edu/index.shtml",
      "feedInfo": {
        "title": "North Springfield Elementary School News and announcements - Recent Updates",
        "description": "North Springfield Elementary School News and announcements",
        "link": "http://www.fcps.edu/index.shtml"
      }
    },
    {
      "id": "NTc0OTA2NTc=",
      "title": "Falls Church Academy - Back To School Night 2023-24!",
      "link": "https://content.govdelivery.com/accounts/VAEDUFCPS/bulletins/36d3ce1",
      "description": "\n        \n\n\n  \n\n\n\n\n\n\n\n<p><a></a>Having trouble viewing this email? <a href=\"https://content.govdelivery.com/accounts/VAEDUFCPS/bulletins/36d3ce1\">View it as a Web page</a>.</p>\n\n\n\n\n\n\n\n\n\n\n\n<a href=\"https://fallschurchacademy.fcps.edu/?utm_content=&amp;utm_medium=email&amp;utm_name=&amp;utm_source=gov...",
      "pubDate": "Tue, 29 Aug 2023 08:00:10 -0500",
      "timestamp": 1693314010000,
      "feedName": "Falls Church Academy",
      "category": "Falls Church Academy",
      "feedSource": "http://www.fcps.edu/index.shtml",
      "feedInfo": {
        "title": "Falls Church Academy News and Announcements - Recent Updates",
        "description": "Falls Church Academy News and Announcements - Recent Updates",
        "link": "http://www.fcps.edu/index.shtml"
      }
    },
    {
      "id": "NTc0NjEzMDc=",
      "title": "Message from Student Representative",
      "link": "https://content.govdelivery.com/accounts/VAEDUFCPS/bulletins/36cca3b",
      "description": "\n        \n\n\n  \n\n\n\n\n\n\n\n<p><a></a>Having trouble viewing this email? <a href=\"https://content.govdelivery.com/accounts/VAEDUFCPS/bulletins/36cca3b\">View it as a Web page</a>.</p>\n\n\n\n\n\n\n\n\n\n\n\n<a href=\"https://www.fcps.edu/staff/rachna-sizemore-heizer?utm_campaign+=&amp;utm_medium=email&amp;utm_source=go...",
      "pubDate": "Fri, 25 Aug 2023 16:31:57 -0500",
      "timestamp": 1692999117000,
      "feedName": "FCPS School Board Member at Large (Kyle McDaniel)",
      "category": "FCPS School Board Member at Large (Kyle McDaniel)",
      "feedSource": "http://www.fcps.edu/",
      "feedInfo": {
        "title": "At-Large Member - Kyle McDaniel - Recent Updates",
        "description": "At-Large Member - Kyle McDaniel - Recent Updates",
        "link": "http://www.fcps.edu/"
      }
    },
    {
      "id": "NTc0NjEzODc=",
      "title": "Marshall Academy Connector",
      "link": "https://content.govdelivery.com/accounts/VAEDUFCPS/bulletins/36cca8b",
      "description": "\n        \n\n\n  \n\n\n\n\n\n\n\n<p><a></a>Having trouble viewing this email? <a href=\"https://content.govdelivery.com/accounts/VAEDUFCPS/bulletins/36cca8b\">View it as a Web page</a>.</p>\n\n\n\n\n\n\n\n\n\n\n\n<a href=\"https://marshallacademy.fcps.edu/?utm_campaign+=&amp;utm_medium=email&amp;utm_source=govdelivery\" targe...",
      "pubDate": "Fri, 25 Aug 2023 14:44:18 -0500",
      "timestamp": 1692992658000,
      "feedName": "Marshall Academy",
      "category": "Marshall Academy",
      "feedSource": "http://www.fcps.edu/index.shtml",
      "feedInfo": {
        "title": "Marshall Academy News and Announcements - Recent Updates",
        "description": "Marshall Academy News and Announcements - Recent Updates",
        "link": "http://www.fcps.edu/index.shtml"
      }
    }
  ],
  "hasNext": true,
  "hasPrev": true
}