{
  "page": 268,
  "totalPages": 268,
  "totalItems": 5354,
  "itemsPerPage": 20,
  "items": [
    {
      "id": "MzI2Mjc5MjU=",
      "title": "Hutchison Elementary Spirit Day!",
      "link": "https://content.govdelivery.com/accounts/VAEDUFCPS/bulletins/1f1dcd5",
      "description": "\n        <a></a>\n\n\n  \n\n\n\n\n\n\n\n<p><a></a>Having trouble viewing this email? <a href=\"https://content.govdelivery.com/accounts/VAEDUFCPS/bulletins/1f1dcd5\">View it as a Web page</a>.</p>\n\n\n\n\n\n\n\n\n\n\n\n<a href=\"http://www2.fcps.edu/HutchisonES/?utm_content=&amp;utm_medium=email&amp;utm_name=&amp;utm_source...",
      "pubDate": "Tue, 22 May 2018 17:25:11 -0500",
      "timestamp": 1527027911000,
      "feedName": "Hutchison Elementary School",
      "category": "Hutchison Elementary School",
      "feedSource": "http://www.fcps.edu/index.shtml",
      "feedInfo": {
        "title": "Hutchison Elementary School News and announcements - Recent Updates",
        "description": "Hutchison Elementary School News and announcements",
        "link": "http://www.fcps.edu/index.shtml"
      }
    },
    {
      "id": "MzIzMzIzNDM=",
      "title": "Guapo's Spirit Night  Tuesday, May 15th 4-8 p.m.",
      "link": "https://content.govdelivery.com/accounts/VAEDUFCPS/bulletins/1ed5a37",
      "description": "\n        <a></a>\n\n\n  \n\n\n\n\n\n\n\n<p><a></a>Having trouble viewing this email? <a href=\"https://content.govdelivery.com/accounts/VAEDUFCPS/bulletins/1ed5a37\">View it as a Web page</a>.</p>\n\n\n\n\n\n\n\n\n\n\n\n<a href=\"http://www2.fcps.edu/HutchisonES/?utm_content=&amp;utm_medium=email&amp;utm_name=&amp;utm_source...",
      "pubDate": "Mon, 14 May 2018 16:45:11 -0500",
      "timestamp": 1526334311000,
      "feedName": "Hutchison Elementary School",
      "category": "Hutchison Elementary School",
      "feedSource": "http://www.fcps.edu/index.shtml",
      "feedInfo": {
        "title": "Hutchison Elementary School News and announcements - Recent Updates",
        "description": "Hutchison Elementary School News and announcements",
        "link": "http://www.fcps.edu/index.shtml"
      }
    },
    {
      "id": "MzI0MDM0ODQ=",
      "title": "Summer Adventures: Open House &amp; Registration",
      "link": "https://content.govdelivery.com/accounts/VAEDUFCPS/bulletins/1ee701c",
      "description": "\n        <a></a>\n\n\n  \n\n\n\n\n\n\n\n<p><a></a>Having trouble viewing this email? <a href=\"https://content.govdelivery.com/accounts/VAEDUFCPS/bulletins/1ee701c\">View it as a Web page</a>.</p>\n\n\n\n\n\n\n\n\n\n\n\n<a href=\"http://www2.fcps.edu/HutchisonES/?utm_content=&amp;utm_medium=email&amp;utm_name=&amp;utm_source...",
      "pubDate": "Tue, 08 May 2018 16:50:14 -0500",
      "timestamp": 1525816214000,
      "feedName": "Hutchison Elementary School",
      "category": "Hutchison Elementary School",
      "feedSource": "http://www.fcps.edu/index.shtml",
      "feedInfo": {
        "title": "Hutchison Elementary School News and announcements - Recent Updates",
        "description": "Hutchison Elementary School News and announcements",
        "link": "http://www.fcps.edu/index.shtml"
      }
    },
    {
      "id": "MzI0MDM0NDU=",
      "title": "Teacher Appreciation--Student Note",
      "link": "https://content.govdelivery.com/accounts/VAEDUFCPS/bulletins/1ee6ff5",
      "description": "\n        <a></a>\n\n\n  \n\n\n\n\n\n\n\n<p><a></a>Having trouble viewing this email? <a href=\"https://content.govdelivery.com/accounts/VAEDUFCPS/bulletins/1ee6ff5\">View it as a Web page</a>.</p>\n\n\n\n\n\n\n\n\n\n\n\n<a href=\"http://www2.fcps.edu/HutchisonES/?utm_content=&amp;utm_medium=email&amp;utm_name=&amp;utm_source...",
      "pubDate": "Mon, 07 May 2018 16:05:13 -0500",
      "timestamp": 1525727113000,
      "feedName": "Hutchison Elementary School",
      "category": "Hutchison Elementary School",
      "feedSource": "http://www.fcps.edu/index.shtml",
      "feedInfo": {
        "title": "Hutchison Elementary School News and announcements - Recent Updates",
        "description": "Hutchison Elementary School News and announcements",
        "link": "http://www.fcps.edu/index.shtml"
      }
    },
    {
      "id": "MzIzNjk4Nzc=",
      "title": "Parent Coffee--Friday May 4th at 9 a.m.",
      "link": "https://content.govdelivery.com/accounts/VAEDUFCPS/bulletins/1edecd5",
      "description": "\n        <a></a>\n\n\n  \n\n\n\n\n\n\n\n<p><a></a>Having trouble viewing this email? <a href=\"https://content.govdelivery.com/accounts/VAEDUFCPS/bulletins/1edecd5\">View it as a Web page</a>.</p>\n\n\n\n\n\n\n\n\n\n\n\n<a href=\"http://www2.fcps.edu/HutchisonES/?utm_content=&amp;utm_medium=email&amp;utm_name=&amp;utm_source...",
      "pubDate": "Thu, 03 May 2018 17:24:34 -0500",
      "timestamp": 1525386274000,
      "feedName": "Hutchison Elementary School",
      "category": "Hutchison Elementary School",
      "feedSource": "http://www.fcps.edu/index.shtml",
      "feedInfo": {
        "title": "Hutchison Elementary School News and announcements - Recent Updates",
        "description": "Hutchison Elementary School News and announcements",
        "link": "http://www.fcps.edu/index.shtml"
      }
    },
    {
      "id": "MzIzNTM3OTY=",
      "title": "Tonight---Art Show   Thursday, May 3rd  5-8 p.m.",
      "link": "https://content.govdelivery.com/accounts/VAEDUFCPS/bulletins/1edae04",
      "description": "\n        <a></a>\n\n\n  \n\n\n\n\n\n\n\n<p><a></a>Having trouble viewing this email? <a href=\"https://content.govdelivery.com/accounts/VAEDUFCPS/bulletins/1edae04\">View it as a Web page</a>.</p>\n\n\n\n\n\n\n\n\n\n\n\n<a href=\"http://www2.fcps.edu/HutchisonES/?utm_content=&amp;utm_medium=email&amp;utm_name=&amp;utm_source...",
      "pubDate": "Thu, 03 May 2018 06:30:57 -0500",
      "timestamp": 1525347057000,
      "feedName": "Hutchison Elementary School",
      "category": "Hutchison Elementary School",
      "feedSource": "http://www.fcps.edu/index.shtml",
      "feedInfo": {
        "title": "Hutchison Elementary School News and announcements - Recent Updates",
        "description": "Hutchison Elementary School News and announcements",
        "link": "http://www.fcps.edu/index.shtml"
      }
    },
    {
      "id": "MzIzNTM3MTc=",
      "title": "Parent Input Classroom Placement Next School Year",
      "link": "https://content.govdelivery.com/accounts/VAEDUFCPS/bulletins/1edadb5",
      "description": "\n        <a></a>\n\n\n  \n\n\n\n\n\n\n\n<p><a></a>Having trouble viewing this email? <a href=\"https://content.govdelivery.com/accounts/VAEDUFCPS/bulletins/1edadb5\">View it as a Web page</a>.</p>\n\n\n\n\n\n\n\n\n\n\n\n<a href=\"http://www2.fcps.edu/HutchisonES/?utm_content=&amp;utm_medium=email&amp;utm_name=&amp;utm_source...",
      "pubDate": "Wed, 02 May 2018 17:16:13 -0500",
      "timestamp": 1525299373000,
      "feedName": "Hutchison Elementary School",
      "category": "Hutchison Elementary School",
      "feedSource": "http://www.fcps.edu/index.shtml",
      "feedInfo": {
        "title": "Hutchison Elementary School News and announcements - Recent Updates",
        "description": "Hutchison Elementary School News and announcements",
        "link": "http://www.fcps.edu/index.shtml"
      }
    },
    {
      "id": "MzIzNTM1MjI=",
      "title": "Reminder for Upcoming Testing",
      "link": "https://content.govdelivery.com/accounts/VAEDUFCPS/bulletins/1edacf2",
      "description": "\n        <a></a>\n\n\n  \n\n\n\n\n\n\n\n<p><a></a>Having trouble viewing this email? <a href=\"https://content.govdelivery.com/accounts/VAEDUFCPS/bulletins/1edacf2\">View it as a Web page</a>.</p>\n\n\n\n\n\n\n\n\n\n\n\n<a href=\"http://www2.fcps.edu/HutchisonES/?utm_content=&amp;utm_medium=email&amp;utm_name=&amp;utm_source...",
      "pubDate": "Wed, 02 May 2018 16:53:35 -0500",
      "timestamp": 1525298015000,
      "feedName": "Hutchison Elementary School",
      "category": "Hutchison Elementary School",
      "feedSource": "http://www.fcps.edu/index.shtml",
      "feedInfo": {
        "title": "Hutchison Elementary School News and announcements - Recent Updates",
        "description": "Hutchison Elementary School News and announcements",
        "link": "http://www.fcps.edu/index.shtml"
      }
    },
    {
      "id": "MzIyODYwNzI=",
      "title": "Hutchison ES--Art Night  May 3rd",
      "link": "https://content.govdelivery.com/accounts/VAEDUFCPS/bulletins/1eca578",
      "description": "\n        <a></a>\n\n\n  \n\n\n\n\n\n\n\n<p><a></a>Having trouble viewing this email? <a href=\"https://content.govdelivery.com/accounts/VAEDUFCPS/bulletins/1eca578\">View it as a Web page</a>.</p>\n\n\n\n\n\n\n\n\n\n\n\n<a href=\"http://www2.fcps.edu/HutchisonES/?utm_content=&amp;utm_medium=email&amp;utm_name=&amp;utm_source...",
      "pubDate": "Fri, 27 Apr 2018 14:10:53 -0500",
      "timestamp": 1524856253000,
      "feedName": "Hutchison Elementary School",
      "category": "Hutchison Elementary School",
      "feedSource": "http://www.fcps.edu/index.shtml",
      "feedInfo": {
        "title": "Hutchison Elementary School News and announcements - Recent Updates",
        "description": "Hutchison Elementary School News and announcements",
        "link": "http://www.fcps.edu/index.shtml"
      }
    },
    {
      "id": "MzIyNTM5MzM=",
      "title": "Book Fair open until 8pm tonight",
      "link": "https://content.govdelivery.com/accounts/VAEDUFCPS/bulletins/1ec27ed",
      "description": "\n        <a></a>\n\n\n  \n\n\n\n\n\n\n\n<p><a></a>Having trouble viewing this email? <a href=\"https://content.govdelivery.com/accounts/VAEDUFCPS/bulletins/1ec27ed\">View it as a Web page</a>.</p>\n\n\n\n\n\n\n\n\n\n\n\n<a href=\"https://armstronges.fcps.edu/?utm_content=&amp;utm_medium=email&amp;utm_name=&amp;utm_source=gov...",
      "pubDate": "Wed, 25 Apr 2018 14:51:47 -0500",
      "timestamp": 1524685907000,
      "feedName": "Armstrong Elementary School",
      "category": "Armstrong Elementary School",
      "feedSource": "http://www.fcps.edu/index.shtml",
      "feedInfo": {
        "title": "Armstrong Elementary School News and announcements - Recent Updates",
        "description": "Armstrong Elementary School News and announcements",
        "link": "http://www.fcps.edu/index.shtml"
      }
    },
    {
      "id": "MzE5MDcxMTc=",
      "title": "Summer RecPAC at Hutchison Elementary",
      "link": "https://content.govdelivery.com/accounts/VAEDUFCPS/bulletins/1e6dd2d",
      "description": "\n        <a></a>\n\n\n  \n\n\n\n\n\n\n\n<p><a></a>Having trouble viewing this email? <a href=\"https://content.govdelivery.com/accounts/VAEDUFCPS/bulletins/1e6dd2d\">View it as a Web page</a>.</p>\n\n\n\n\n\n\n\n\n\n\n\n<a href=\"http://www2.fcps.edu/HutchisonES/?utm_content=&amp;utm_medium=email&amp;utm_name=&amp;utm_source...",
      "pubDate": "Mon, 09 Apr 2018 16:40:11 -0500",
      "timestamp": 1523310011000,
      "feedName": "Hutchison Elementary School",
      "category": "Hutchison Elementary School",
      "feedSource": "http://www.fcps.edu/index.shtml",
      "feedInfo": {
        "title": "Hutchison Elementary School News and announcements - Recent Updates",
        "description": "Hutchison Elementary School News and announcements",
        "link": "http://www.fcps.edu/index.shtml"
      }
    },
    {
      "id": "MzEzMTc4MTQ=",
      "title": "FCPS Wellness Newsletter - Spring 2018",
      "link": "https://content.govdelivery.com/accounts/VAEDUFCPS/bulletins/1dddf36",
      "description": "\n        <a></a>\n\n\n  \n\n\n\n\n\n\n\n\n\n\n\n\n\n\n\n\n\n\n\n\n\n\n\n\n\n\n\n\n\n\n\n\n\n\n\n<p>Spring 2018</p>\nFCPS Wellness Newsletter\n\n<p>\n\n</p>\nWellness\nTeams\n<p>\n\n</p>\n<p>\n\n\n</p>\n<p>By now, each school should have\nformed their wellness team and begun to assess their school’s strengths and\nweaknesses with relation to staff and stu...",
      "pubDate": "Thu, 01 Mar 2018 14:25:14 -0600",
      "timestamp": 1519935914000,
      "feedName": "FCPS Wellness Newsletter",
      "category": "FCPS Wellness Newsletter",
      "feedSource": "http://www.fcps.edu/",
      "feedInfo": {
        "title": "FCPS Wellness - Recent Updates",
        "description": "FCPS Wellness - Recent Updates",
        "link": "http://www.fcps.edu/"
      }
    },
    {
      "id": "MjkxNDQ3MTA=",
      "title": "Early Release Reminder",
      "link": "https://content.govdelivery.com/accounts/VAEDUFCPS/bulletins/1bcb686",
      "description": "\n        <a></a>\n\n\n  \n\n\n\n\n\n\n\n<p><a></a>Having trouble viewing this email? <a href=\"https://content.govdelivery.com/accounts/VAEDUFCPS/bulletins/1bcb686\">View it as a Web page</a>.</p>\n\n\n\n\n\n\n\n\n\n\n\n<a href=\"http://www.fcps.edu/QuanderRoadSchool/index.html?utm_content=&amp;utm_medium=email&amp;utm_name=...",
      "pubDate": "Wed, 11 Oct 2017 07:35:07 -0500",
      "timestamp": 1507725307000,
      "feedName": "Quander Road School",
      "category": "Quander Road School",
      "feedSource": "http://www.fcps.edu/index.shtml",
      "feedInfo": {
        "title": "Quander Road School News and announcements - Recent Updates",
        "description": "Quander Road Special Education Center News and announcements",
        "link": "http://www.fcps.edu/index.shtml"
      }
    },
    {
      "id": "Mjc4ODExODE=",
      "title": "YMHFA Training Opportunity",
      "link": "https://content.govdelivery.com/accounts/VAEDUFCPS/bulletins/1a96edd",
      "description": "\n        <a></a>\n\n\n  \n\n\n\n\n\n\n\n<p><a></a>Having trouble viewing this email? <a href=\"https://content.govdelivery.com/accounts/VAEDUFCPS/bulletins/1a96edd\">View it as a Web page</a>.</p>\n\n\n\n\n\n\n\n\n\n\n\n<a href=\"http://www.fcps.edu/WestPotomacHS?utm_content=&amp;utm_medium=email&amp;utm_name=&amp;utm_source...",
      "pubDate": "Wed, 12 Jul 2017 08:44:39 -0500",
      "timestamp": 1499867079000,
      "feedName": "West Potomac Academy",
      "category": "West Potomac Academy",
      "feedSource": "http://www.fcps.edu/index.shtml",
      "feedInfo": {
        "title": "West Potomac Academy News and Announcements - Recent Updates",
        "description": "West Potomac Academy News and Announcements - Recent Updates",
        "link": "http://www.fcps.edu/index.shtml"
      }
    }
  ],
  "hasNext": false,
  "hasPrev": true
}