{
  "page": 90,
  "totalPages": 268,
  "totalItems": 5354,
  "itemsPerPage": 20,
  "items": [
    {
      "id": "NjUwMzU1NTc=",
      "title": "Mustang Memo 5.16.25",
      "link": "https://content.govdelivery.com/accounts/VAEDUFCPS/bulletins/3e05d25",
      "description": "\n        \n\n\n  \n\n\n\n\n\n\n\n\n\n\n\n\n\n\n\n\n\n\n\n<a href=\"http://www2.fcps.edu/WestSpringfieldES/?utm_campaign+=&amp;utm_medium=email&amp;utm_source=govdelivery\" target=\"_blank\"></a>\n\n\n\n\n\n\n\n\n\n\n\n\n\n\n\n<p>Donut Stress, SOL Testing is Nearly Over!</p>\n\nNote from Dr. Sheers\n<p>We have received several community (and pol...",
      "pubDate": "Fri, 16 May 2025 08:42:38 -0500",
      "timestamp": 1747402958000,
      "feedName": "West Springfield Elementary School",
      "category": "West Springfield Elementary School",
      "feedSource": "http://www.fcps.edu/index.shtml",
      "feedInfo": {
        "title": "West Springfield Elementary School News and announcements - Recent Updates",
        "description": "West Springfield Elementary School News and announcements",
        "link": "http://www.fcps.edu/index.shtml"
      }
    },
    {
      "id": "NjUwNTk0NDA=",
      "title": "Volunteer Appreciation Breakfast",
      "link": "https://content.govdelivery.com/accounts/VAEDUFCPS/bulletins/3e0ba70",
      "description": "\n        \n\n\n  \n\n\n\n\n\n\n\n<p><a></a>Having trouble viewing this email? <a href=\"https://content.govdelivery.com/accounts/VAEDUFCPS/bulletins/3e0ba70\">View it as a Web page</a>.</p>\n\n\n\n\n\n\n\n\n\n\n\n<a href=\"http://www2.fcps.edu/OakViewES/?utm_campaign+=&amp;utm_medium=email&amp;utm_source=govdelivery\" target=...",
      "pubDate": "Fri, 16 May 2025 08:32:00 -0500",
      "timestamp": 1747402320000,
      "feedName": "Oak Hill Elementary School",
      "category": "Oak Hill Elementary School",
      "feedSource": "http://www.fcps.edu/index.shtml",
      "feedInfo": {
        "title": "Oak Hill Elementary School News and Announcements - Recent Updates",
        "description": "Oak Hill Elementary School News and Announcements",
        "link": "http://www.fcps.edu/index.shtml"
      }
    },
    {
      "id": "NjUwNTkwNDA=",
      "title": "Lancer Activities Weekly Newsletter",
      "link": "https://content.govdelivery.com/accounts/VAEDUFCPS/bulletins/3e0b8e0",
      "description": "\n        \n\n\n  \n\n\n\n\n\n\n\n<p><a></a>Having trouble viewing this email? <a href=\"https://content.govdelivery.com/accounts/VAEDUFCPS/bulletins/3e0b8e0\">View it as a Web page</a>.</p>\n\n\n\n\n\n\n\n\n\n\n\n<a href=\"https://leehs.fcps.edu/?utm_content=&amp;utm_medium=email&amp;utm_name=&amp;utm_source=govdelivery&amp;...",
      "pubDate": "Fri, 16 May 2025 07:49:13 -0500",
      "timestamp": 1747399753000,
      "feedName": "John R. Lewis High School",
      "category": "John R. Lewis High School",
      "feedSource": "http://www.fcps.edu/index.shtml",
      "feedInfo": {
        "title": "Lewis High School News and announcements - Recent Updates",
        "description": "Lewis High School News and announcements",
        "link": "http://www.fcps.edu/index.shtml"
      }
    },
    {
      "id": "NjUwMTE0MDE=",
      "title": "Orange Hunt News We HOOT",
      "link": "https://content.govdelivery.com/accounts/VAEDUFCPS/bulletins/3dffec9",
      "description": "\n        \n\n\n  \n\n\n\n\n\n\n\n<p><a></a>Having trouble viewing this email? <a href=\"https://content.govdelivery.com/accounts/VAEDUFCPS/bulletins/3dffec9\">View it as a Web page</a>.</p>\n\n\n\n\n\n\n\n\n\n\n\n<a href=\"https://orangehuntes.fcps.edu?utm_content=&amp;utm_medium=email&amp;utm_name=&amp;utm_source=govdeliver...",
      "pubDate": "Thu, 15 May 2025 19:20:48 -0500",
      "timestamp": 1747354848000,
      "feedName": "Orange Hunt Elementary School",
      "category": "Orange Hunt Elementary School",
      "feedSource": "http://www.fcps.edu/index.shtml",
      "feedInfo": {
        "title": "Orange Hunt ES News and Announcements - Recent Updates",
        "description": "Orange Hunt ES News and Announcements",
        "link": "http://www.fcps.edu/index.shtml"
      }
    },
    {
      "id": "NjUwMzk5ODI=",
      "title": "Sangster News From The Nest 5-15-25",
      "link": "https://content.govdelivery.com/accounts/VAEDUFCPS/bulletins/3e06e6e",
      "description": "\n        \n\n\n  \n\n\n\n\n\n\n\n\n\n\n\n\n\n\n\n\n\n\n\n<a href=\"https://sangsteres.fcps.edu/?utm_content=&amp;utm_medium=email&amp;utm_name=&amp;utm_source=govdelivery&amp;utm_term=\" target=\"_blank\"></a>\n\n\n\n\n\n\n\n\n\n\n\n\n\n\n\n\n\n  \n    \n\n\nIMPORTANT DATES \n \nSOL Testing: Ongoing throughout May\n \nMay 23  PTA Movie Night\nMay 26  M...",
      "pubDate": "Thu, 15 May 2025 19:00:14 -0500",
      "timestamp": 1747353614000,
      "feedName": "Sangster Elementary School",
      "category": "Sangster Elementary School",
      "feedSource": "http://www.fcps.edu/index.shtml",
      "feedInfo": {
        "title": "Sangster Elementary School News and announcements - Recent Updates",
        "description": "Sangster Elementary School News and announcements",
        "link": "http://www.fcps.edu/index.shtml"
      }
    },
    {
      "id": "NjUwMzg3MjM=",
      "title": "Shrevewood Wise Words 5/15/25",
      "link": "https://content.govdelivery.com/accounts/VAEDUFCPS/bulletins/3e06983",
      "description": "\n        \n\n\n  \n\n\n\n\n\n\n\n<p><a></a>Having trouble viewing this email? <a href=\"https://content.govdelivery.com/accounts/VAEDUFCPS/bulletins/3e06983\">View it as a Web page</a>.</p>\n\n\n\n\n\n\n\n\n\n\n\n<a href=\"https://shrevewoodes.fcps.edu/?utm_campaign+=&amp;utm_medium=email&amp;utm_source=govdelivery\" target=\"...",
      "pubDate": "Thu, 15 May 2025 18:02:10 -0500",
      "timestamp": 1747350130000,
      "feedName": "Shrevewood Elementary School",
      "category": "Shrevewood Elementary School",
      "feedSource": "http://www.fcps.edu/index.shtml",
      "feedInfo": {
        "title": "Shrevewood Elementary School News and announcements - Recent Updates",
        "description": "Shrevewood Elementary School News and announcements",
        "link": "http://www.fcps.edu/index.shtml"
      }
    },
    {
      "id": "NjUwNTIzNzY=",
      "title": "Saratoga Connection",
      "link": "https://content.govdelivery.com/accounts/VAEDUFCPS/bulletins/3e09ed8",
      "description": "\n        \n\n\n  \n\n\n\n\n\n\n\n<p><a></a>Having trouble viewing this email? <a href=\"https://content.govdelivery.com/accounts/VAEDUFCPS/bulletins/3e09ed8\">View it as a Web page</a>.</p>\n\n\n\n\n\n\n\n\n\n\n\n<a href=\"http://www2.fcps.edu/SaratogaES/?utm_campaign+=&amp;utm_medium=email&amp;utm_source=govdelivery\" target...",
      "pubDate": "Thu, 15 May 2025 17:00:18 -0500",
      "timestamp": 1747346418000,
      "feedName": "Saratoga Elementary School",
      "category": "Saratoga Elementary School",
      "feedSource": "http://www.fcps.edu/index.shtml",
      "feedInfo": {
        "title": "Saratoga Elementary School News and announcements - Recent Updates",
        "description": "Saratoga Elementary School News and announcements",
        "link": "http://www.fcps.edu/index.shtml"
      }
    },
    {
      "id": "NjUwNDc0MDE=",
      "title": "Mosaic Matters - May 15, 2025",
      "link": "https://content.govdelivery.com/accounts/VAEDUFCPS/bulletins/3e08b69",
      "description": "\n        \n\n\n  \n\n\n\n\n\n\n\n<p><a></a>Having trouble viewing this email? <a href=\"https://content.govdelivery.com/accounts/VAEDUFCPS/bulletins/3e08b69\">View it as a Web page</a>.</p>\n\n\n\n\n\n\n\n\n\n\n\n<a href=\"https://mosaices.fcps.edu/?utm_campaign+=&amp;utm_medium=email&amp;utm_source=govdelivery\" target=\"_bla...",
      "pubDate": "Thu, 15 May 2025 17:00:17 -0500",
      "timestamp": 1747346417000,
      "feedName": "Mosaic Elementary School",
      "category": "Mosaic Elementary School",
      "feedSource": "http://www.fcps.edu/index.shtml",
      "feedInfo": {
        "title": "Mosaic Elementary School News and announcements - Recent Updates",
        "description": "Mosaic Elementary School News and announcements",
        "link": "http://www.fcps.edu/index.shtml"
      }
    },
    {
      "id": "NjUwMjc4MDE=",
      "title": "VES Newsletter - May 15th, 2025",
      "link": "https://content.govdelivery.com/accounts/VAEDUFCPS/bulletins/3e03ed9",
      "description": "\n        \n\n\n  \n\n\n\n\n\n\n\n<p><a></a>Having trouble viewing this email? <a href=\"https://content.govdelivery.com/accounts/VAEDUFCPS/bulletins/3e03ed9\">View it as a Web page</a>.</p>\n\n\n\n\n\n\n\n\n\n\n\n<a href=\"https://viennaes.fcps.edu/aggregator/sources/1?utm_campaign+=&amp;utm_medium=email&amp;utm_source=govde...",
      "pubDate": "Thu, 15 May 2025 17:00:14 -0500",
      "timestamp": 1747346414000,
      "feedName": "Vienna Elementary School",
      "category": "Vienna Elementary School",
      "feedSource": "http://www.fcps.edu/index.shtml",
      "feedInfo": {
        "title": "Vienna Elementary School News and announcements - Recent Updates",
        "description": "Vienna Elementary School News and announcements",
        "link": "http://www.fcps.edu/index.shtml"
      }
    },
    {
      "id": "NjQ5ODQwMDE=",
      "title": "Floris Family Message 5/15/25",
      "link": "https://content.govdelivery.com/accounts/VAEDUFCPS/bulletins/3df93c1",
      "description": "\n        \n\n\n  \n\n\n\n\n\n\n\n<p><a></a>Having trouble viewing this email? <a href=\"https://content.govdelivery.com/accounts/VAEDUFCPS/bulletins/3df93c1\">View it as a Web page</a>.</p>\n\n\n\n\n\n\n\n\n\n\n\n<a href=\"https://florises.fcps.edu/?utm_content=&amp;utm_medium=email&amp;utm_name=&amp;utm_source=govdelivery&a...",
      "pubDate": "Thu, 15 May 2025 16:50:42 -0500",
      "timestamp": 1747345842000,
      "feedName": "Floris Elementary School",
      "category": "Floris Elementary School",
      "feedSource": "http://www.fcps.edu/index.shtml",
      "feedInfo": {
        "title": "Floris Friday Message",
        "description": "Floris Elementary School News and announcements",
        "link": "http://www.fcps.edu/index.shtml"
      }
    },
    {
      "id": "NjUwNDIzMzg=",
      "title": "The BULLS Bulletin (Week of 05/19)",
      "link": "https://content.govdelivery.com/accounts/VAEDUFCPS/bulletins/3e077a2",
      "description": "\n        \n\n\n  \n\n\n\n\n\n\n\n<p><a></a>Having trouble viewing this email? <a href=\"https://content.govdelivery.com/accounts/VAEDUFCPS/bulletins/3e077a2\">View it as a Web page</a>.</p>\n\n\n\n\n\n\n\n\n\n\n\n<a href=\"https://bullrunes.fcps.edu/?utm_content=&amp;utm_medium=email&amp;utm_name=&amp;utm_source=govdelivery&...",
      "pubDate": "Thu, 15 May 2025 16:00:15 -0500",
      "timestamp": 1747342815000,
      "feedName": "Bull Run Elementary School",
      "category": "Bull Run Elementary School",
      "feedSource": "http://www.fcps.edu/index.shtml",
      "feedInfo": {
        "title": "Bull Run Elementary School News and announcements - Recent Updates",
        "description": "Bull Run Elementary School News and announcements",
        "link": "http://www.fcps.edu/index.shtml"
      }
    },
    {
      "id": "NjUwNTIxMDk=",
      "title": "Hunt Valley ES PTA 05-15-2025",
      "link": "https://content.govdelivery.com/accounts/VAEDUFCPS/bulletins/3e09dcd",
      "description": "\n        \n\n\n  \n\n\n\n\n\n\n\n<p><a></a>Having trouble viewing this email? <a href=\"https://content.govdelivery.com/accounts/VAEDUFCPS/bulletins/3e09dcd\">View it as a Web page</a>.</p>\n\n\n\n\n\n\n\n\n\n\n\n\n\n\n\n\n\n\n\n\n\n\n\n\n\n\n\n\n\nHunt Valley PTA News You Choose\n\n\n\n\n<p>We communicate with PTA members and the entire Hunt Val...",
      "pubDate": "Thu, 15 May 2025 15:45:11 -0500",
      "timestamp": 1747341911000,
      "feedName": "Hunt Valley Elementary School",
      "category": "Hunt Valley Elementary School",
      "feedSource": "http://www.fcps.edu/index.shtml",
      "feedInfo": {
        "title": "Hunt Valley Elementary School News and announcements - Recent Updates",
        "description": "Hunt Valley Elementary School News and announcements",
        "link": "http://www.fcps.edu/index.shtml"
      }
    },
    {
      "id": "NjUwNTE0MjY=",
      "title": "Falcon Flyer: May 15th, 2025",
      "link": "https://content.govdelivery.com/accounts/VAEDUFCPS/bulletins/3e09b22",
      "description": "\n        \n\n\n  \n\n\n\n\n\n\n\n\n\n\n\n\n\n\n\n\n\n\n\n\n\n\n\n\n\n\n\n\n\n\n\n\n\n\n\n<p>May 15th, 2025</p>\n\nFlint Hill Updates\n\n<p>Good Afternoon Flint Hill Families,</p>\n<p>It was busy week at Flint Hill and the rain did not slow us down! In 1st grade, students in<strong> Mrs. Wolters' class</strong> were working on sight words. Stu...",
      "pubDate": "Thu, 15 May 2025 15:40:13 -0500",
      "timestamp": 1747341613000,
      "feedName": "Flint Hill Elementary School",
      "category": "Flint Hill Elementary School",
      "feedSource": "http://www.fcps.edu/index.shtml",
      "feedInfo": {
        "title": "Flint Hill Elementary School News and Announcements - Recent Updates",
        "description": "Flint Hill Elementary School News and Announcements",
        "link": "http://www.fcps.edu/index.shtml"
      }
    },
    {
      "id": "NjUwMzcxOTg=",
      "title": "Greenbriar West ES Update 05-15-2025",
      "link": "https://content.govdelivery.com/accounts/VAEDUFCPS/bulletins/3e0638e",
      "description": "\n        \n\n\n  \n\n\n\n\n\n\n\n<p><a></a>Having trouble viewing this email? <a href=\"https://content.govdelivery.com/accounts/VAEDUFCPS/bulletins/3e0638e\">View it as a Web page</a>.</p>\n\n\n\n\n\n\n\n\n\n\n\n<a href=\"https://greenbriarwestes.fcps.edu/?utm_campaign+=&amp;utm_medium=email&amp;utm_source=govdelivery\" targ...",
      "pubDate": "Thu, 15 May 2025 15:30:12 -0500",
      "timestamp": 1747341012000,
      "feedName": "Greenbriar West Elementary School",
      "category": "Greenbriar West Elementary School",
      "feedSource": "http://www.fcps.edu/index.shtml",
      "feedInfo": {
        "title": "Greenbriar West Elementary School News and Announcements - Recent Updates",
        "description": "Greenbriar West Elementary School News and Announcements",
        "link": "http://www.fcps.edu/index.shtml"
      }
    },
    {
      "id": "NjQ5OTE2NzI=",
      "title": "Deer Park Elementary News and Information   May 15, 2025",
      "link": "https://content.govdelivery.com/accounts/VAEDUFCPS/bulletins/3dfb1b8",
      "description": "\n        \n\n\n  \n\n\n\n\n\n\n\n<p><a></a>Having trouble viewing this email? <a href=\"https://content.govdelivery.com/accounts/VAEDUFCPS/bulletins/3dfb1b8\">View it as a Web page</a>.</p>\n\n\n\n\n\n\n\n\n\n\n\n<a href=\"https://deerparkes.fcps.edu/?utm_campaign+=&amp;utm_medium=email&amp;utm_source=govdelivery\" target=\"_b...",
      "pubDate": "Thu, 15 May 2025 15:20:12 -0500",
      "timestamp": 1747340412000,
      "feedName": "Deer Park Elementary School",
      "category": "Deer Park Elementary School",
      "feedSource": "http://www.fcps.edu/index.shtml",
      "feedInfo": {
        "title": "Deer Park Elementary School News and Announcements - Recent Updates",
        "description": "Deer Park Elementary School News and announcements",
        "link": "http://www.fcps.edu/index.shtml"
      }
    },
    {
      "id": "NjUwNTI1Njc=",
      "title": "Notification of Norovirus Cases",
      "link": "https://content.govdelivery.com/accounts/VAEDUFCPS/bulletins/3e09f97",
      "description": "\n        \n\n\n  \n\n\n\n\n\n\n\n<p><a></a>Having trouble viewing this email? <a href=\"https://content.govdelivery.com/accounts/VAEDUFCPS/bulletins/3e09f97\">View it as a Web page</a>.</p>\n\n\n\n\n\n\n\n\n\n\n\n<a href=\"http://www2.fcps.edu/HayfieldES/?utm_campaign+=&amp;utm_medium=email&amp;utm_source=govdelivery\" target...",
      "pubDate": "Thu, 15 May 2025 14:38:57 -0500",
      "timestamp": 1747337937000,
      "feedName": "Hayfield Elementary School",
      "category": "Hayfield Elementary School",
      "feedSource": "https://public.govdelivery.com/topics/Hayfield_ES_News/feed.rss",
      "feedInfo": {
        "title": "Hayfield ES News and Announcements",
        "description": "Hayfield Elementary School News and Announcements",
        "link": "https://public.govdelivery.com/topics/Hayfield_ES_News/feed.rss"
      }
    },
    {
      "id": "NjUwMzQ4ODM=",
      "title": "Kilmer Center School Tiger Tales",
      "link": "https://content.govdelivery.com/accounts/VAEDUFCPS/bulletins/3e05a83",
      "description": "\n        \n\n\n  \n\n\n\n\n\n\n\n<p><a></a>Having trouble viewing this email? <a href=\"https://content.govdelivery.com/accounts/VAEDUFCPS/bulletins/3e05a83\">View it as a Web page</a>.</p>\n\n\n\n\n\n\n\n\n\n\n\n<a href=\"https://kilmercenter.fcps.edu/?utm_campaign+=&amp;utm_medium=email&amp;utm_source=govdelivery\" target=\"...",
      "pubDate": "Thu, 15 May 2025 14:00:13 -0500",
      "timestamp": 1747335613000,
      "feedName": "Kilmer Center",
      "category": "Kilmer Center",
      "feedSource": "http://www.fcps.edu/index.shtml",
      "feedInfo": {
        "title": "Kilmer Center News and announcements - Recent Updates",
        "description": "Kilmer Special Education Center News and announcements",
        "link": "http://www.fcps.edu/index.shtml"
      }
    },
    {
      "id": "NjQ5OTAxMjQ=",
      "title": "SLES News You Choose",
      "link": "https://content.govdelivery.com/accounts/VAEDUFCPS/bulletins/3dfabac",
      "description": "\n        \n\n\n  \n\n\n\n\n\n\n\n<p><a></a>Having trouble viewing this email? <a href=\"https://content.govdelivery.com/accounts/VAEDUFCPS/bulletins/3dfabac\">View it as a Web page</a>.</p>\n\n\n\n\n\n\n\n\n\n\n\n<a href=\"https://stratfordlandinges.fcps.edu/?utm_campaign+=&amp;utm_medium=email&amp;utm_source=govdelivery\" ta...",
      "pubDate": "Thu, 15 May 2025 14:00:12 -0500",
      "timestamp": 1747335612000,
      "feedName": "Stratford Landing Elementary School",
      "category": "Stratford Landing Elementary School",
      "feedSource": "http://www.fcps.edu/index.shtml",
      "feedInfo": {
        "title": "Stratford Landing Elementary School News and announcements - Recent Updates",
        "description": "Stratford Landing Elementary School News and announcements",
        "link": "http://www.fcps.edu/index.shtml"
      }
    },
    {
      "id": "NjUwMjM2NDU=",
      "title": "Wolftrap Connection - May 15, 2025",
      "link": "https://content.govdelivery.com/accounts/VAEDUFCPS/bulletins/3e02e9d",
      "description": "\n        \n\n\n  \n\n\n\n\n\n\n\n<p><a></a>Having trouble viewing this email? <a href=\"https://content.govdelivery.com/accounts/VAEDUFCPS/bulletins/3e02e9d\">View it as a Web page</a>.</p>\n\n\n\n\n\n\n\n\n\n\n\n\n\n\n\n\n\n\n\n\n\n\n\n\n\n\n\n\n\n<p>Inside this week's Connection:</p>\n<ul>\n<li>PTA general meeting TONIGHT! (last of the schoo...",
      "pubDate": "Thu, 15 May 2025 13:18:50 -0500",
      "timestamp": 1747333130000,
      "feedName": "Wolftrap Elementary School",
      "category": "Wolftrap Elementary School",
      "feedSource": "http://www.fcps.edu/index.shtml",
      "feedInfo": {
        "title": "Wolftrap Elementary School News and Announcements - Recent Updates",
        "description": "Wolftrap Elementary School News and announcements",
        "link": "http://www.fcps.edu/index.shtml"
      }
    },
    {
      "id": "NjUwNDg5NDk=",
      "title": "5K race is this SATURDAY, May 17th!",
      "link": "https://content.govdelivery.com/accounts/VAEDUFCPS/bulletins/3e09175",
      "description": "\n        \n\n\n  \n\n\n\n\n\n\n\n<p><a></a>Having trouble viewing this email? <a href=\"https://content.govdelivery.com/accounts/VAEDUFCPS/bulletins/3e09175\">View it as a Web page</a>.</p>\n\n\n\n\n\n\n\n\n\n\n\n<a href=\"http://www2.fcps.edu/OakViewES/?utm_campaign+=&amp;utm_medium=email&amp;utm_source=govdelivery\" target=...",
      "pubDate": "Thu, 15 May 2025 11:01:55 -0500",
      "timestamp": 1747324915000,
      "feedName": "Oak Hill Elementary School",
      "category": "Oak Hill Elementary School",
      "feedSource": "http://www.fcps.edu/index.shtml",
      "feedInfo": {
        "title": "Oak Hill Elementary School News and Announcements - Recent Updates",
        "description": "Oak Hill Elementary School News and Announcements",
        "link": "http://www.fcps.edu/index.shtml"
      }
    }
  ],
  "hasNext": true,
  "hasPrev": true
}