{
  "page": 251,
  "totalPages": 268,
  "totalItems": 5354,
  "itemsPerPage": 20,
  "items": [
    {
      "id": "NTg3NTY2MDU=",
      "title": "December Newsletter",
      "link": "https://content.govdelivery.com/accounts/VAEDUFCPS/bulletins/3808dfd",
      "description": "\n        \n\n\n  \n\n\n\n\n\n\n\n<p><a></a>Having trouble viewing this email? <a href=\"https://content.govdelivery.com/accounts/VAEDUFCPS/bulletins/3808dfd\">View it as a Web page</a>.</p>\n\n\n\n\n\n\n\n\n\n\n\n<a href=\"https://bryanths.fcps.edu/?utm_campaign+=&amp;utm_medium=email&amp;utm_source=govdelivery\" target=\"_bla...",
      "pubDate": "Wed, 27 Dec 2023 15:00:30 -0600",
      "timestamp": 1703710830000,
      "feedName": "Bryant High School",
      "category": "Bryant High School",
      "feedSource": "http://www.fcps.edu/index.shtml",
      "feedInfo": {
        "title": "Bryant High School News and Announcements - Recent Updates",
        "description": "Bryant High School News and announcements",
        "link": "http://www.fcps.edu/index.shtml"
      }
    },
    {
      "id": "NTg3OTYxOTE=",
      "title": "Winter Well Wishes and Farewell",
      "link": "https://content.govdelivery.com/accounts/VAEDUFCPS/bulletins/381289f",
      "description": "\n        \n\n\n  \n\n\n\n\n\n\n\n<p><a></a>Having trouble viewing this email? <a href=\"https://content.govdelivery.com/accounts/VAEDUFCPS/bulletins/381289f\">View it as a Web page</a>.</p>\n\n\n\n\n\n\n\n\n\n\n\n<a href=\"https://www.fcps.edu/school-board/karen-keys-gamarra?utm_campaign+=&amp;utm_medium=email&amp;utm_source...",
      "pubDate": "Thu, 21 Dec 2023 14:08:29 -0600",
      "timestamp": 1703189309000,
      "feedName": "FCPS School Board Member at Large (Ryan McElveen)",
      "category": "FCPS School Board Member at Large (Ryan McElveen)",
      "feedSource": "http://www.fcps.edu/index.shtml",
      "feedInfo": {
        "title": "At-Large Member - Ryan McElveen - Recent Updates",
        "description": "At-Large Member - Ryan McElveen - Recent Updates",
        "link": "http://www.fcps.edu/index.shtml"
      }
    },
    {
      "id": "NTg3OTYxMzk=",
      "title": "We're Hiring",
      "link": "https://content.govdelivery.com/accounts/VAEDUFCPS/bulletins/381286b",
      "description": "\n        \n\n\n  \n\n\n\n\n\n\n\n<p><a></a>Having trouble viewing this email? <a href=\"https://content.govdelivery.com/accounts/VAEDUFCPS/bulletins/381286b\">View it as a Web page</a>.</p>\n\n\n\n\n\n\n\n\n\n\n\n<a href=\"https://www.fcps.edu/staff/rachna-sizemore-heizer?utm_campaign+=&amp;utm_medium=email&amp;utm_source=go...",
      "pubDate": "Thu, 21 Dec 2023 11:29:44 -0600",
      "timestamp": 1703179784000,
      "feedName": "FCPS School Board Member at Large (Kyle McDaniel)",
      "category": "FCPS School Board Member at Large (Kyle McDaniel)",
      "feedSource": "http://www.fcps.edu/",
      "feedInfo": {
        "title": "At-Large Member - Kyle McDaniel - Recent Updates",
        "description": "At-Large Member - Kyle McDaniel - Recent Updates",
        "link": "http://www.fcps.edu/"
      }
    },
    {
      "id": "NTg3NzMxMDU=",
      "title": "Thank You For Giving Me The Opportunity To Serve You and HAPPY HOLIDAYS!",
      "link": "https://content.govdelivery.com/accounts/VAEDUFCPS/bulletins/380ce71",
      "description": "\n        \n\n\n  \n\n\n\n\n\n\n\n<p><a></a>Having trouble viewing this email? <a href=\"https://content.govdelivery.com/accounts/VAEDUFCPS/bulletins/380ce71\">View it as a Web page</a>.</p>\n\n\n\n\n\n\n\n\n\n\n\n<a href=\"https://www.fcps.edu/school-board/tamara-derenak-kaufax?utm_campaign+=&amp;utm_medium=email&amp;utm_sou...",
      "pubDate": "Wed, 20 Dec 2023 10:45:12 -0600",
      "timestamp": 1703090712000,
      "feedName": "FCPS School Board Franconia District",
      "category": "FCPS School Board Franconia District",
      "feedSource": "http://www.fcps.edu/index.shtml",
      "feedInfo": {
        "title": "Franconia District Member - Marcia St. John-Cunning - Recent Updates",
        "description": "Franconia District Member - Marcia St. John-Cunning - Recent Updates",
        "link": "http://www.fcps.edu/index.shtml"
      }
    },
    {
      "id": "NTg2MTI2MzM=",
      "title": "Falls Church Academy News!",
      "link": "https://content.govdelivery.com/accounts/VAEDUFCPS/bulletins/37e5b99",
      "description": "\n        \n\n\n  \n\n\n\n\n\n\n\n<p><a></a>Having trouble viewing this email? <a href=\"https://content.govdelivery.com/accounts/VAEDUFCPS/bulletins/37e5b99\">View it as a Web page</a>.</p>\n\n\n\n\n\n\n\n\n\n\n\n<a href=\"https://fallschurchacademy.fcps.edu/?utm_content=&amp;utm_medium=email&amp;utm_name=&amp;utm_source=gov...",
      "pubDate": "Fri, 15 Dec 2023 12:10:55 -0600",
      "timestamp": 1702663855000,
      "feedName": "Falls Church Academy",
      "category": "Falls Church Academy",
      "feedSource": "http://www.fcps.edu/index.shtml",
      "feedInfo": {
        "title": "Falls Church Academy News and Announcements - Recent Updates",
        "description": "Falls Church Academy News and Announcements - Recent Updates",
        "link": "http://www.fcps.edu/index.shtml"
      }
    },
    {
      "id": "NTg3MjIzNjc=",
      "title": "Marshall Academy Connector - Winter Break Edition",
      "link": "https://content.govdelivery.com/accounts/VAEDUFCPS/bulletins/380083f",
      "description": "\n        \n\n\n  \n\n\n\n\n\n\n\n<p><a></a>Having trouble viewing this email? <a href=\"https://content.govdelivery.com/accounts/VAEDUFCPS/bulletins/380083f\">View it as a Web page</a>.</p>\n\n\n\n\n\n\n\n\n\n\n\n<a href=\"https://marshallacademy.fcps.edu/?utm_campaign+=&amp;utm_medium=email&amp;utm_source=govdelivery\" targe...",
      "pubDate": "Thu, 14 Dec 2023 19:00:47 -0600",
      "timestamp": 1702602047000,
      "feedName": "Marshall Academy",
      "category": "Marshall Academy",
      "feedSource": "http://www.fcps.edu/index.shtml",
      "feedInfo": {
        "title": "Marshall Academy News and Announcements - Recent Updates",
        "description": "Marshall Academy News and Announcements - Recent Updates",
        "link": "http://www.fcps.edu/index.shtml"
      }
    },
    {
      "id": "NTg2MTQxMjE=",
      "title": "Prepare for Winter Weather and Holiday Break",
      "link": "https://content.govdelivery.com/accounts/VAEDUFCPS/bulletins/37e6169",
      "description": "\n        \n\n\n  \n\n\n\n\n\n\n\n<p><a></a>Having trouble viewing this email? <a href=\"https://content.govdelivery.com/accounts/VAEDUFCPS/bulletins/37e6169\">View it as a Web page</a>.</p>\n\n\n\n\n\n\n\n\n\n\n\n<a href=\"https://www.fcps.edu/school-board/karen-keys-gamarra?utm_campaign+=&amp;utm_medium=email&amp;utm_source...",
      "pubDate": "Thu, 14 Dec 2023 13:53:46 -0600",
      "timestamp": 1702583626000,
      "feedName": "FCPS School Board Member at Large (Ryan McElveen)",
      "category": "FCPS School Board Member at Large (Ryan McElveen)",
      "feedSource": "http://www.fcps.edu/index.shtml",
      "feedInfo": {
        "title": "At-Large Member - Ryan McElveen - Recent Updates",
        "description": "At-Large Member - Ryan McElveen - Recent Updates",
        "link": "http://www.fcps.edu/index.shtml"
      }
    },
    {
      "id": "NTg2OTIwODA=",
      "title": "December Newsletter - Happy Winter Break",
      "link": "https://content.govdelivery.com/accounts/VAEDUFCPS/bulletins/37f91f0",
      "description": "\n        \n\n\n  \n\n\n\n\n\n\n\n<p><a></a>Having trouble viewing this email? <a href=\"https://content.govdelivery.com/accounts/VAEDUFCPS/bulletins/37f91f0\">View it as a Web page</a>.</p>\n\n\n\n\n\n\n\n\n\n\n\n<a href=\"https://www.fcps.edu/staff/rachna-sizemore-heizer?utm_campaign+=&amp;utm_medium=email&amp;utm_source=go...",
      "pubDate": "Tue, 12 Dec 2023 13:10:17 -0600",
      "timestamp": 1702408217000,
      "feedName": "FCPS School Board Member at Large (Kyle McDaniel)",
      "category": "FCPS School Board Member at Large (Kyle McDaniel)",
      "feedSource": "http://www.fcps.edu/",
      "feedInfo": {
        "title": "At-Large Member - Kyle McDaniel - Recent Updates",
        "description": "At-Large Member - Kyle McDaniel - Recent Updates",
        "link": "http://www.fcps.edu/"
      }
    },
    {
      "id": "NTg2MTU5ODg=",
      "title": "FCPS Wellness Newsletter Winter 2023",
      "link": "https://content.govdelivery.com/accounts/VAEDUFCPS/bulletins/37e68b4",
      "description": "\n        \n\n\n  \n\n\n\n\n\n\n\n<p>Having trouble viewing this email? <a href=\"https://content.govdelivery.com/accounts/VAEDUFCPS/bulletins/37e68b4\">View it as a Web page</a>.</p>\n\n\n\n\n\n\n\n\n\n\n\n\n\n\n\n\n\n\n\n\n\n\n\n\n\n\n\n<p><strong>Winter 2023</strong></p>\n<p> </p>\nFCPS Wellness Newsletter\n\n<strong>Preventing Seasonal Flu<...",
      "pubDate": "Thu, 07 Dec 2023 08:05:13 -0600",
      "timestamp": 1701957913000,
      "feedName": "FCPS Wellness Newsletter",
      "category": "FCPS Wellness Newsletter",
      "feedSource": "http://www.fcps.edu/",
      "feedInfo": {
        "title": "FCPS Wellness - Recent Updates",
        "description": "FCPS Wellness - Recent Updates",
        "link": "http://www.fcps.edu/"
      }
    },
    {
      "id": "NTg1Nzc5MDE=",
      "title": "December 1, 2023- NSES News",
      "link": "https://content.govdelivery.com/accounts/VAEDUFCPS/bulletins/37dd3ed",
      "description": "\n        \n\n\n  \n\n\n\n\n\n\n\n<p><a></a>Having trouble viewing this email? <a href=\"https://content.govdelivery.com/accounts/VAEDUFCPS/bulletins/37dd3ed\">View it as a Web\npage</a>.</p>\n\n\n\n\n\n\n\n\n\n\n\n<a href=\"https://northspringfieldes.fcps.edu/?utm_content=&amp;utm_medium=email&amp;utm_name=&amp;utm_source=gov...",
      "pubDate": "Fri, 01 Dec 2023 14:46:01 -0600",
      "timestamp": 1701463561000,
      "feedName": "North Springfield Elementary School",
      "category": "North Springfield Elementary School",
      "feedSource": "http://www.fcps.edu/index.shtml",
      "feedInfo": {
        "title": "North Springfield Elementary School News and announcements - Recent Updates",
        "description": "North Springfield Elementary School News and announcements",
        "link": "http://www.fcps.edu/index.shtml"
      }
    },
    {
      "id": "NTg1MjM4NDM=",
      "title": "Bryant High School November Newsletter",
      "link": "https://content.govdelivery.com/accounts/VAEDUFCPS/bulletins/37d00c3",
      "description": "\n        \n\n\n  \n\n\n\n\n\n\n\n<p><a></a>Having trouble viewing this email? <a href=\"https://content.govdelivery.com/accounts/VAEDUFCPS/bulletins/37d00c3\">View it as a Web page</a>.</p>\n\n\n\n\n\n\n\n\n\n\n\n<a href=\"https://bryanths.fcps.edu/?utm_campaign+=&amp;utm_medium=email&amp;utm_source=govdelivery\" target=\"_bla...",
      "pubDate": "Thu, 30 Nov 2023 15:00:24 -0600",
      "timestamp": 1701378024000,
      "feedName": "Bryant High School",
      "category": "Bryant High School",
      "feedSource": "http://www.fcps.edu/index.shtml",
      "feedInfo": {
        "title": "Bryant High School News and Announcements - Recent Updates",
        "description": "Bryant High School News and announcements",
        "link": "http://www.fcps.edu/index.shtml"
      }
    },
    {
      "id": "NTg0MzI0MTY=",
      "title": "Falls Church Academy News!",
      "link": "https://content.govdelivery.com/accounts/VAEDUFCPS/bulletins/37b9ba0",
      "description": "\n        \n\n\n  \n\n\n\n\n\n\n\n<p><a></a>Having trouble viewing this email? <a href=\"https://content.govdelivery.com/accounts/VAEDUFCPS/bulletins/37b9ba0\">View it as a Web page</a>.</p>\n\n\n\n\n\n\n\n\n\n\n\n<a href=\"https://fallschurchacademy.fcps.edu/?utm_content=&amp;utm_medium=email&amp;utm_name=&amp;utm_source=gov...",
      "pubDate": "Thu, 30 Nov 2023 10:22:10 -0600",
      "timestamp": 1701361330000,
      "feedName": "Falls Church Academy",
      "category": "Falls Church Academy",
      "feedSource": "http://www.fcps.edu/index.shtml",
      "feedInfo": {
        "title": "Falls Church Academy News and Announcements - Recent Updates",
        "description": "Falls Church Academy News and Announcements - Recent Updates",
        "link": "http://www.fcps.edu/index.shtml"
      }
    },
    {
      "id": "NTg0NjcwNjA=",
      "title": "November 21, 2023- NSES News",
      "link": "https://content.govdelivery.com/accounts/VAEDUFCPS/bulletins/37c22f4",
      "description": "\n        \n\n\n  \n\n\n\n\n\n\n\n<p><a></a>Having trouble viewing this email? <a href=\"https://content.govdelivery.com/accounts/VAEDUFCPS/bulletins/37c22f4\">View it as a Web\npage</a>.</p>\n\n\n\n\n\n\n\n\n\n\n\n<a href=\"https://northspringfieldes.fcps.edu/?utm_content=&amp;utm_medium=email&amp;utm_name=&amp;utm_source=gov...",
      "pubDate": "Tue, 21 Nov 2023 14:45:12 -0600",
      "timestamp": 1700599512000,
      "feedName": "North Springfield Elementary School",
      "category": "North Springfield Elementary School",
      "feedSource": "http://www.fcps.edu/index.shtml",
      "feedInfo": {
        "title": "North Springfield Elementary School News and announcements - Recent Updates",
        "description": "North Springfield Elementary School News and announcements",
        "link": "http://www.fcps.edu/index.shtml"
      }
    },
    {
      "id": "NTg0Mjc3MzM=",
      "title": "Happy Thanksgiving - November News",
      "link": "https://content.govdelivery.com/accounts/VAEDUFCPS/bulletins/37b8955",
      "description": "\n        \n\n\n  \n\n\n\n\n\n\n\n<p><a></a>Having trouble viewing this email? <a href=\"https://content.govdelivery.com/accounts/VAEDUFCPS/bulletins/37b8955\">View it as a Web page</a>.</p>\n\n\n\n\n\n\n\n\n\n\n\n<a href=\"https://www.fcps.edu/staff/rachna-sizemore-heizer?utm_campaign+=&amp;utm_medium=email&amp;utm_source=go...",
      "pubDate": "Mon, 20 Nov 2023 17:25:29 -0600",
      "timestamp": 1700522729000,
      "feedName": "FCPS School Board Member at Large (Kyle McDaniel)",
      "category": "FCPS School Board Member at Large (Kyle McDaniel)",
      "feedSource": "http://www.fcps.edu/",
      "feedInfo": {
        "title": "At-Large Member - Kyle McDaniel - Recent Updates",
        "description": "At-Large Member - Kyle McDaniel - Recent Updates",
        "link": "http://www.fcps.edu/"
      }
    },
    {
      "id": "NTgzMTQ1Mjg=",
      "title": "Happy Thanksgiving!",
      "link": "https://content.govdelivery.com/accounts/VAEDUFCPS/bulletins/379cf20",
      "description": "\n        \n\n\n  \n\n\n\n\n\n\n\n<p><a></a>Having trouble viewing this email? <a href=\"https://content.govdelivery.com/accounts/VAEDUFCPS/bulletins/379cf20\">View it as a Web page</a>.</p>\n\n\n\n\n\n\n\n\n\n\n\n<a href=\"https://www.fcps.edu/school-board/tamara-derenak-kaufax?utm_campaign+=&amp;utm_medium=email&amp;utm_sou...",
      "pubDate": "Mon, 20 Nov 2023 14:00:38 -0600",
      "timestamp": 1700510438000,
      "feedName": "FCPS School Board Franconia District",
      "category": "FCPS School Board Franconia District",
      "feedSource": "http://www.fcps.edu/index.shtml",
      "feedInfo": {
        "title": "Franconia District Member - Marcia St. John-Cunning - Recent Updates",
        "description": "Franconia District Member - Marcia St. John-Cunning - Recent Updates",
        "link": "http://www.fcps.edu/index.shtml"
      }
    },
    {
      "id": "NTg0MDUyMDc=",
      "title": "November 15, 2023",
      "link": "https://content.govdelivery.com/accounts/VAEDUFCPS/bulletins/37b3157",
      "description": "\n        \n\n\n  \n\n\n\n\n\n\n\n<p><a></a>Having trouble viewing this email? <a href=\"https://content.govdelivery.com/accounts/VAEDUFCPS/bulletins/37b3157\">View it as a Web page</a>.</p>\n\n\n\n\n\n\n\n\n\n\n\n<a href=\"https://whitmanms.fcps.edu/?utm_campaign+=&amp;utm_medium=email&amp;utm_source=govdelivery\" target=\"_bl...",
      "pubDate": "Wed, 15 Nov 2023 15:16:43 -0600",
      "timestamp": 1700083003000,
      "feedName": "Whitman Middle School",
      "category": "Whitman Middle School",
      "feedSource": "http://www.fcps.edu/index.shtml",
      "feedInfo": {
        "title": "Whitman Middle School News and announcements - Recent Updates",
        "description": "Whitman Middle School News and announcements",
        "link": "http://www.fcps.edu/index.shtml"
      }
    },
    {
      "id": "NTgzNTQ4MjM=",
      "title": "November 10, 2023- NSES News",
      "link": "https://content.govdelivery.com/accounts/VAEDUFCPS/bulletins/37a6c87",
      "description": "\n        \n\n\n  \n\n\n\n\n\n\n\n<p><a></a>Having trouble viewing this email? <a href=\"https://content.govdelivery.com/accounts/VAEDUFCPS/bulletins/37a6c87\">View it as a Web\npage</a>.</p>\n\n\n\n\n\n\n\n\n\n\n\n<a href=\"https://northspringfieldes.fcps.edu/?utm_content=&amp;utm_medium=email&amp;utm_name=&amp;utm_source=gov...",
      "pubDate": "Fri, 10 Nov 2023 14:25:58 -0600",
      "timestamp": 1699647958000,
      "feedName": "North Springfield Elementary School",
      "category": "North Springfield Elementary School",
      "feedSource": "http://www.fcps.edu/index.shtml",
      "feedInfo": {
        "title": "North Springfield Elementary School News and announcements - Recent Updates",
        "description": "North Springfield Elementary School News and announcements",
        "link": "http://www.fcps.edu/index.shtml"
      }
    },
    {
      "id": "NTgyNjY1ODQ=",
      "title": "November 3, 2023",
      "link": "https://content.govdelivery.com/accounts/VAEDUFCPS/bulletins/37913d8",
      "description": "\n        \n\n\n  \n\n\n\n\n\n\n\n<p><a></a>Having trouble viewing this email? <a href=\"https://content.govdelivery.com/accounts/VAEDUFCPS/bulletins/37913d8\">View it as a Web page</a>.</p>\n\n\n\n\n\n\n\n\n\n\n\n<a href=\"https://whitmanms.fcps.edu/?utm_campaign+=&amp;utm_medium=email&amp;utm_source=govdelivery\" target=\"_bl...",
      "pubDate": "Fri, 03 Nov 2023 12:57:10 -0500",
      "timestamp": 1699034230000,
      "feedName": "Whitman Middle School",
      "category": "Whitman Middle School",
      "feedSource": "http://www.fcps.edu/index.shtml",
      "feedInfo": {
        "title": "Whitman Middle School News and announcements - Recent Updates",
        "description": "Whitman Middle School News and announcements",
        "link": "http://www.fcps.edu/index.shtml"
      }
    },
    {
      "id": "NTc5MTU4MzM=",
      "title": "Falls Church Academy - October News!",
      "link": "https://content.govdelivery.com/accounts/VAEDUFCPS/bulletins/373b9b9",
      "description": "\n        \n\n\n  \n\n\n\n\n\n\n\n<p><a></a>Having trouble viewing this email? <a href=\"https://content.govdelivery.com/accounts/VAEDUFCPS/bulletins/373b9b9\">View it as a Web page</a>.</p>\n\n\n\n\n\n\n\n\n\n\n\n<a href=\"https://fallschurchacademy.fcps.edu/?utm_content=&amp;utm_medium=email&amp;utm_name=&amp;utm_source=gov...",
      "pubDate": "Fri, 03 Nov 2023 07:25:34 -0500",
      "timestamp": 1699014334000,
      "feedName": "Falls Church Academy",
      "category": "Falls Church Academy",
      "feedSource": "http://www.fcps.edu/index.shtml",
      "feedInfo": {
        "title": "Falls Church Academy News and Announcements - Recent Updates",
        "description": "Falls Church Academy News and Announcements - Recent Updates",
        "link": "http://www.fcps.edu/index.shtml"
      }
    },
    {
      "id": "NTgyNDgzODM=",
      "title": "MESSAGE FROM THE PRINCIPAL: Outstanding Employee Nominations",
      "link": "https://content.govdelivery.com/accounts/VAEDUFCPS/bulletins/378ccbf",
      "description": "\n        \n\n\n  \n\n\n\n\n\n\n\n<p><a></a>Having trouble viewing this email? <a href=\"https://content.govdelivery.com/accounts/VAEDUFCPS/bulletins/378ccbf\">View it as a Web page</a>.</p>\n\n\n\n\n\n\n\n\n\n\n\n<a href=\"https://westfieldhs.fcps.edu/?utm_campaign+=&amp;utm_medium=email&amp;utm_source=govdelivery\" target=\"_...",
      "pubDate": "Wed, 01 Nov 2023 08:45:39 -0500",
      "timestamp": 1698846339000,
      "feedName": "Westfield High School",
      "category": "Westfield High School",
      "feedSource": "http://www.fcps.edu/index.shtml",
      "feedInfo": {
        "title": "Westfield High School News and announcements - Recent Updates",
        "description": "Westfield High School News and announcements",
        "link": "http://www.fcps.edu/index.shtml"
      }
    }
  ],
  "hasNext": true,
  "hasPrev": true
}