{
  "page": 199,
  "totalPages": 268,
  "totalItems": 5354,
  "itemsPerPage": 20,
  "items": [
    {
      "id": "NjQwNzYzMDA=",
      "title": "Franklin MS Update- 02/14/2025",
      "link": "https://content.govdelivery.com/accounts/VAEDUFCPS/bulletins/3d1ba0c",
      "description": "\n        \n\n\n  \n\n\n\n\n\n\n\n<p><a></a>Having trouble viewing this email? <a href=\"https://content.govdelivery.com/accounts/VAEDUFCPS/bulletins/3d1ba0c\">View it as a Web page</a>.</p>\n\n\n\n\n\n\n\n\n\n\n\n<a href=\"https://franklinms.fcps.edu/?utm_campaign+=&amp;utm_medium=email&amp;utm_source=govdelivery\" target=\"_b...",
      "pubDate": "Fri, 14 Feb 2025 14:36:28 -0600",
      "timestamp": 1739565388000,
      "feedName": "Franklin Middle School",
      "category": "Franklin Middle School",
      "feedSource": "http://www.fcps.edu/index.shtml",
      "feedInfo": {
        "title": "Franklin Middle School News and announcements - Recent Updates",
        "description": "Franklin Middle School News and announcements",
        "link": "http://www.fcps.edu/index.shtml"
      }
    },
    {
      "id": "NjQwNzYzMDA=",
      "title": "Franklin MS Update- 02/14/2025",
      "link": "https://content.govdelivery.com/accounts/VAEDUFCPS/bulletins/3d1ba0c",
      "description": "\n        \n\n\n  \n\n\n\n\n\n\n\n<p><a></a>Having trouble viewing this email? <a href=\"https://content.govdelivery.com/accounts/VAEDUFCPS/bulletins/3d1ba0c\">View it as a Web page</a>.</p>\n\n\n\n\n\n\n\n\n\n\n\n<a href=\"https://franklinms.fcps.edu/?utm_campaign+=&amp;utm_medium=email&amp;utm_source=govdelivery\" target=\"_b...",
      "pubDate": "Fri, 14 Feb 2025 14:36:28 -0600",
      "timestamp": 1739565388000,
      "feedName": "Franklin Sherman Elementary School",
      "category": "Franklin Sherman Elementary School",
      "feedSource": "http://www.fcps.edu/index.shtml",
      "feedInfo": {
        "title": "Franklin Middle School News and announcements - Recent Updates",
        "description": "Franklin Middle School News and announcements",
        "link": "http://www.fcps.edu/index.shtml"
      }
    },
    {
      "id": "NjQxMDg2MTQ=",
      "title": "The Dunne Dispatch (Potential Changes to School Start Times) - 02/14/2025",
      "link": "https://content.govdelivery.com/accounts/VAEDUFCPS/bulletins/3d23846",
      "description": "\n        \n\n\n  \n\n\n\n\n\n\n\n<p><a></a>Having trouble viewing this email? <a href=\"https://content.govdelivery.com/accounts/VAEDUFCPS/bulletins/3d23846\">View it as a Web page</a>.</p>\n\n\n\n\n\n\n\n\n\n\n\n<a href=\"https://www.fcps.edu/staff/mateo-dunne?utm_campaign+=&amp;utm_medium=email&amp;utm_source=govdelivery\" ...",
      "pubDate": "Fri, 14 Feb 2025 14:36:11 -0600",
      "timestamp": 1739565371000,
      "feedName": "FCPS School Board Mount Vernon District",
      "category": "FCPS School Board Mount Vernon District",
      "feedSource": "http://www.fcps.edu/index.shtml",
      "feedInfo": {
        "title": "Mount Vernon District Member - Mateo Dunne - Recent Updates",
        "description": "Mount Vernon District Member - Mateo Dunne - Recent Updates",
        "link": "http://www.fcps.edu/index.shtml"
      }
    },
    {
      "id": "NjQxMTc3MjI=",
      "title": "Principal's Message",
      "link": "https://content.govdelivery.com/accounts/VAEDUFCPS/bulletins/3d25bda",
      "description": "\n        \n\n\n  \n\n\n\n\n\n\n\n<p><a></a>Having trouble viewing this email? <a href=\"https://content.govdelivery.com/accounts/VAEDUFCPS/bulletins/3d25bda\">View it as a Web page</a>.</p>\n\n\n\n\n\n\n\n\n\n\n\n<a href=\"https://hughesms.fcps.edu/?utm_campaign+=&amp;utm_medium=email&amp;utm_source=govdelivery\" target=\"_bla...",
      "pubDate": "Fri, 14 Feb 2025 14:34:39 -0600",
      "timestamp": 1739565279000,
      "feedName": "Hughes Middle School",
      "category": "Hughes Middle School",
      "feedSource": "http://www.fcps.edu/index.shtml",
      "feedInfo": {
        "title": "Hughes Middle School News and announcements - Recent Updates",
        "description": "Hughes Middle School News and announcements",
        "link": "http://www.fcps.edu/index.shtml"
      }
    },
    {
      "id": "NjQxMDUzMDc=",
      "title": "Oak View Review",
      "link": "https://content.govdelivery.com/accounts/VAEDUFCPS/bulletins/3d22b5b",
      "description": "\n        \n\n\n  \n\n\n\n\n\n\n\n<p><a></a>Having trouble viewing this email? <a href=\"https://content.govdelivery.com/accounts/VAEDUFCPS/bulletins/3d22b5b\">View it as a Web page</a>.</p>\n\n\n\n\n\n\n\n\n\n\n\n<a href=\"http://www2.fcps.edu/OakViewES/?utm_content=&amp;utm_medium=email&amp;utm_name=&amp;utm_source=govdeliv...",
      "pubDate": "Fri, 14 Feb 2025 14:30:11 -0600",
      "timestamp": 1739565011000,
      "feedName": "Oak View Elementary School",
      "category": "Oak View Elementary School",
      "feedSource": "http://www.fcps.edu/index.shtml",
      "feedInfo": {
        "title": "Oak View ES News and Announcements - Recent Updates",
        "description": "Oak View Elementary School News and announcements",
        "link": "http://www.fcps.edu/index.shtml"
      }
    },
    {
      "id": "NjQxMDYwNjk=",
      "title": "Chantilly Academy Program Highlights",
      "link": "https://content.govdelivery.com/accounts/VAEDUFCPS/bulletins/3d22e55",
      "description": "\n        \n\n\n  \n\n\n\n\n\n\n\n<p><a></a>Having trouble viewing this email? <a href=\"https://content.govdelivery.com/accounts/VAEDUFCPS/bulletins/3d22e55\">View it as a Web page</a>.</p>\n\n\n\n\n\n\n\n\n\n\n\n<a href=\"https://chantillyacademy.fcps.edu/?utm_campaign+=&amp;utm_medium=email&amp;utm_source=govdelivery\" targ...",
      "pubDate": "Fri, 14 Feb 2025 14:15:13 -0600",
      "timestamp": 1739564113000,
      "feedName": "Chantilly Academy",
      "category": "Chantilly Academy",
      "feedSource": "http://www.fcps.edu/index.shtml",
      "feedInfo": {
        "title": "Chantilly Academy News and Announcements - Recent Updates",
        "description": "Chantilly Academy News and Announcements - Recent Updates",
        "link": "http://www.fcps.edu/index.shtml"
      }
    },
    {
      "id": "NjQwNjMwODI=",
      "title": "Brookfield News and Notes 2/14/2025",
      "link": "https://content.govdelivery.com/accounts/VAEDUFCPS/bulletins/3d1866a",
      "description": "\n        \n\n\n  \n\n\n\n\n\n\n\n<p><a></a>Having trouble viewing this email? <a href=\"https://content.govdelivery.com/accounts/VAEDUFCPS/bulletins/3d1866a\">View it as a Web page</a>.</p>\n\n\n\n\n\n\n\n\n\n\n\n<a href=\"https://brookfieldes.fcps.edu/?utm_campaign+=&amp;utm_medium=email&amp;utm_source=govdelivery\" target=\"...",
      "pubDate": "Fri, 14 Feb 2025 14:00:14 -0600",
      "timestamp": 1739563214000,
      "feedName": "Brookfield Elementary School",
      "category": "Brookfield Elementary School",
      "feedSource": "http://www.fcps.edu/index.shtml",
      "feedInfo": {
        "title": "Brookfield Elementary School News and announcements - Recent Updates",
        "description": "Brookfield Elementary School News and announcements",
        "link": "http://www.fcps.edu/index.shtml"
      }
    },
    {
      "id": "NjM5NTg4NDE=",
      "title": "2/14/25 News From the Nest: Family Edition",
      "link": "https://content.govdelivery.com/accounts/VAEDUFCPS/bulletins/3cfef39",
      "description": "\n        \n\n\n  \n\n\n\n\n\n\n\n<p><a></a>Having trouble viewing this email? <a href=\"https://content.govdelivery.com/accounts/VAEDUFCPS/bulletins/3cfef39\">View it as a Web page</a>.</p>\n\n\n\n\n\n\n\n\n\n\n\n<a href=\"https://glenforestes.fcps.edu/?utm_campaign+=&amp;utm_medium=email&amp;utm_source=govdelivery\" target=\"...",
      "pubDate": "Fri, 14 Feb 2025 13:45:14 -0600",
      "timestamp": 1739562314000,
      "feedName": "Glen Forest Elementary School",
      "category": "Glen Forest Elementary School",
      "feedSource": "http://www.fcps.edu/index.shtml",
      "feedInfo": {
        "title": "Glen Forest Elementary School News and announcements - Recent Updates",
        "description": "Glen Forest Elementary School News and announcements",
        "link": "http://www.fcps.edu/index.shtml"
      }
    },
    {
      "id": "NjQxMTkyODA=",
      "title": "Thoreau Matters Friday, February 14th, 2025",
      "link": "https://content.govdelivery.com/accounts/VAEDUFCPS/bulletins/3d261f0",
      "description": "\n        \n\n\n  \n\n\n\n\n\n\n\n<p><a></a>Having trouble viewing this email? <a href=\"https://content.govdelivery.com/accounts/VAEDUFCPS/bulletins/3d261f0\">View it as a Web page</a>.</p>\n\n\n\n\n\n\n\n\n\n\n\n<a href=\"https://thoreaums.fcps.edu/?utm_campaign+=&amp;utm_medium=email&amp;utm_source=govdelivery\" target=\"_bl...",
      "pubDate": "Fri, 14 Feb 2025 13:45:14 -0600",
      "timestamp": 1739562314000,
      "feedName": "Thoreau Middle School",
      "category": "Thoreau Middle School",
      "feedSource": "http://www.fcps.edu/index.shtml",
      "feedInfo": {
        "title": "Thoreau Middle School News and Announcements - Recent Updates",
        "description": "Thoreau Middle School News and Announcements",
        "link": "http://www.fcps.edu/index.shtml"
      }
    },
    {
      "id": "NjQxMDY4NDk=",
      "title": "Edison Academy Celebrations, Highlights, and Reminders",
      "link": "https://content.govdelivery.com/accounts/VAEDUFCPS/bulletins/3d23161",
      "description": "\n        <strong></strong><strong>Reminders</strong>\nNext week is a short week for students. Monday, February 17, there will be no school in honor of President’s Day. \n<p>February is Black History Month, which is an annual celebration of achievements by African Americans and a time for recognizing t...",
      "pubDate": "Fri, 14 Feb 2025 13:39:42 -0600",
      "timestamp": 1739561982000,
      "feedName": "Edison Academy",
      "category": "Edison Academy",
      "feedSource": "http://www.fcps.edu/index.shtml",
      "feedInfo": {
        "title": "Edison Academy News and announcements - Recent Updates",
        "description": "Edison Academy News and announcements - Recent Updates",
        "link": "http://www.fcps.edu/index.shtml"
      }
    },
    {
      "id": "NjQxMDY3NDI=",
      "title": "Message from Holmes MS  - 2/14/2025",
      "link": "https://content.govdelivery.com/accounts/VAEDUFCPS/bulletins/3d230f6",
      "description": "\n        \n\n\n  \n\n\n\n\n\n\n\n<p><a></a>Having trouble viewing this email? <a href=\"https://content.govdelivery.com/accounts/VAEDUFCPS/bulletins/3d230f6\">View it as a Web page</a>.</p>\n\n\n\n\n\n\n\n\n\n\n\n<a href=\"https://holmesms.fcps.edu/?utm_campaign+=&amp;utm_medium=email&amp;utm_source=govdelivery\" target=\"_bla...",
      "pubDate": "Fri, 14 Feb 2025 13:32:43 -0600",
      "timestamp": 1739561563000,
      "feedName": "Holmes Middle School",
      "category": "Holmes Middle School",
      "feedSource": "http://www.fcps.edu/index.shtml",
      "feedInfo": {
        "title": "Holmes Middle School News and announcements - Recent Updates",
        "description": "Holmes Middle School News and announcements",
        "link": "http://www.fcps.edu/index.shtml"
      }
    },
    {
      "id": "NjQxMTcxMjY=",
      "title": "Kilmer MS Newsletter - February 14, 2025",
      "link": "https://content.govdelivery.com/accounts/VAEDUFCPS/bulletins/3d25986",
      "description": "\n        \n\n\n  \n\n\n\n\n\n\n\n<p><a></a>Having trouble viewing this email? <a href=\"https://content.govdelivery.com/accounts/VAEDUFCPS/bulletins/3d25986\">View it as a Web page</a>.</p>\n\n\n\n\n\n\n\n\n\n\n\n<a href=\"https://kilmerms.fcps.edu/?utm_campaign+=&amp;utm_medium=email&amp;utm_source=govdelivery\" target=\"_bla...",
      "pubDate": "Fri, 14 Feb 2025 13:30:15 -0600",
      "timestamp": 1739561415000,
      "feedName": "Kilmer Middle School",
      "category": "Kilmer Middle School",
      "feedSource": "http://www.fcps.edu/index.shtml",
      "feedInfo": {
        "title": "Kilmer Middle School News and announcements - Recent Updates",
        "description": "Kilmer Middle School News and announcements",
        "link": "http://www.fcps.edu/index.shtml"
      }
    },
    {
      "id": "NjQxMjExMjU=",
      "title": "Kings Glen Gator Bytes SPRING PICTURE DAY:  TUESDAY, FEB. 18",
      "link": "https://content.govdelivery.com/accounts/VAEDUFCPS/bulletins/3d26925",
      "description": "\n        \n\n\n  \n\n\n\n\n\n\n\n<p><a></a>Having trouble viewing this email? <a href=\"https://content.govdelivery.com/accounts/VAEDUFCPS/bulletins/3d26925\">View it as a Web page</a>.</p>\n\n\n\n\n\n\n\n\n\n\n\n<a href=\"https://kingsglenes.fcps.edu/?utm_content=&amp;utm_medium=email&amp;utm_name=&amp;utm_source=govdeliver...",
      "pubDate": "Fri, 14 Feb 2025 13:30:14 -0600",
      "timestamp": 1739561414000,
      "feedName": "Kings Glen Elementary School",
      "category": "Kings Glen Elementary School",
      "feedSource": "http://www.fcps.edu/index.shtml",
      "feedInfo": {
        "title": "Kings Glen Elementary School News and announcements - Recent Updates",
        "description": "Kings Glen Elementary School News and announcements",
        "link": "http://www.fcps.edu/index.shtml"
      }
    },
    {
      "id": "NjQxMDI1NjI=",
      "title": "Mountain View newsletter 2/14/25",
      "link": "https://content.govdelivery.com/accounts/VAEDUFCPS/bulletins/3d220a2",
      "description": "\n        \n\n\n  \n\n\n\n\n\n\n\n<p><a></a>Having trouble viewing this email? <a href=\"https://content.govdelivery.com/accounts/VAEDUFCPS/bulletins/3d220a2\">View it as a Web page</a>.</p>\n\n\n\n\n\n\n\n\n\n\n\n<a href=\"https://mountainviewhs.fcps.edu/?utm_campaign+=&amp;utm_medium=email&amp;utm_source=govdelivery\" target...",
      "pubDate": "Fri, 14 Feb 2025 13:30:12 -0600",
      "timestamp": 1739561412000,
      "feedName": "Mountain View High School",
      "category": "Mountain View High School",
      "feedSource": "http://www.fcps.edu/index.shtml",
      "feedInfo": {
        "title": "Mountain View High School News and Announcements - Recent Updates",
        "description": "Mountain View High School News and announcements",
        "link": "http://www.fcps.edu/index.shtml"
      }
    },
    {
      "id": "NjQwNjM5NTY=",
      "title": "Luther Jackson February 14, 2025",
      "link": "https://content.govdelivery.com/accounts/VAEDUFCPS/bulletins/3d189d4",
      "description": "\n        \n\n\n  \n\n\n\n\n\n\n\n\n\n\n\n\n\n\n\n\n\n\n\n<p><a href=\"https://translate.google.com/translate?hl=en&amp;sl=en&amp;tl=es&amp;u=https%3A%2F%2Fcontent.govdelivery.com%2Faccounts%2FVAEDUFCPS%2Fbulletins%2F3d189d4&amp;utm_campaign+=&amp;utm_medium=email&amp;utm_source=govdelivery\" target=\"_blank\">Espanol</a></p>\n...",
      "pubDate": "Fri, 14 Feb 2025 13:21:00 -0600",
      "timestamp": 1739560860000,
      "feedName": "Jackson Middle School",
      "category": "Jackson Middle School",
      "feedSource": "http://www.fcps.edu/index.shtml",
      "feedInfo": {
        "title": "Jackson Middle School News and Announcements - Recent Updates",
        "description": "Jackson Middle School News and announcements",
        "link": "http://www.fcps.edu/index.shtml"
      }
    },
    {
      "id": "NjQwMTMxOTQ=",
      "title": "Falls Church Academy News!  February News!",
      "link": "https://content.govdelivery.com/accounts/VAEDUFCPS/bulletins/3d0c38a",
      "description": "\n        \n\n\n  \n\n\n\n\n\n\n\n<p><a></a>Having trouble viewing this email? <a href=\"https://content.govdelivery.com/accounts/VAEDUFCPS/bulletins/3d0c38a\">View it as a Web page</a>.</p>\n\n\n\n\n\n\n\n\n\n\n\n<a href=\"https://fallschurchacademy.fcps.edu/?utm_content=&amp;utm_medium=email&amp;utm_name=&amp;utm_source=gov...",
      "pubDate": "Fri, 14 Feb 2025 13:12:19 -0600",
      "timestamp": 1739560339000,
      "feedName": "Falls Church Academy",
      "category": "Falls Church Academy",
      "feedSource": "http://www.fcps.edu/index.shtml",
      "feedInfo": {
        "title": "Falls Church Academy News and Announcements - Recent Updates",
        "description": "Falls Church Academy News and Announcements - Recent Updates",
        "link": "http://www.fcps.edu/index.shtml"
      }
    },
    {
      "id": "NjM4OTkyMjA=",
      "title": "February's Sweet Scoop - FCPS Focus on Franconia!",
      "link": "https://content.govdelivery.com/accounts/VAEDUFCPS/bulletins/3cf0654",
      "description": "\n        \n\n\n  \n\n\n\n\n\n\n\n<p><a></a>Having trouble viewing this email? <a href=\"https://content.govdelivery.com/accounts/VAEDUFCPS/bulletins/3cf0654\">View it as a Web page</a>.</p>\n\n\n\n\n\n\n\n\n\n\n\n<a href=\"https://www.fcps.edu/staff/marcia-st-john-cunning?utm_campaign+=&amp;utm_medium=email&amp;utm_source=go...",
      "pubDate": "Fri, 14 Feb 2025 12:29:55 -0600",
      "timestamp": 1739557795000,
      "feedName": "FCPS School Board Franconia District",
      "category": "FCPS School Board Franconia District",
      "feedSource": "http://www.fcps.edu/index.shtml",
      "feedInfo": {
        "title": "Franconia District Member - Marcia St. John-Cunning - Recent Updates",
        "description": "Franconia District Member - Marcia St. John-Cunning - Recent Updates",
        "link": "http://www.fcps.edu/index.shtml"
      }
    },
    {
      "id": "NjQxMDM0NDc=",
      "title": "LBSS Weekly News - February 14, 2025",
      "link": "https://content.govdelivery.com/accounts/VAEDUFCPS/bulletins/3d22417",
      "description": "\n        \n\n\n  \n\n\n\n\n\n\n\n<p><a></a>Having trouble viewing this email? <a href=\"https://content.govdelivery.com/accounts/VAEDUFCPS/bulletins/3d22417\">View it as a Web page</a>.</p>\n\n\n\n\n\n\n\n\n\n\n\n<a href=\"https://lakebraddockss.fcps.edu/?utm_campaign+=&amp;utm_medium=email&amp;utm_source=govdelivery\" target...",
      "pubDate": "Fri, 14 Feb 2025 11:51:15 -0600",
      "timestamp": 1739555475000,
      "feedName": "Lake Braddock Secondary School",
      "category": "Lake Braddock Secondary School",
      "feedSource": "http://www.fcps.edu/index.shtml",
      "feedInfo": {
        "title": "Lake Braddock Secondary School News and announcements - Recent Updates",
        "description": "Lake Braddock Secondary School News and announcements",
        "link": "http://www.fcps.edu/index.shtml"
      }
    },
    {
      "id": "NjQxMTg1NjU=",
      "title": "FROM THE PRINCIPAL'S DESK",
      "link": "https://content.govdelivery.com/accounts/VAEDUFCPS/bulletins/3d25f25",
      "description": "\n        \n\n\n  \n\n\n\n\n\n\n\n<p><a></a>Having trouble viewing this email? <a href=\"https://content.govdelivery.com/accounts/VAEDUFCPS/bulletins/3d25f25\">View it as a Web page</a>.</p>\n\n\n\n\n\n\n\n\n\n\n\n<a href=\"https://cherryrunes.fcps.edu/?utm_campaign+=&amp;utm_medium=email&amp;utm_source=govdelivery\" target=\"_...",
      "pubDate": "Fri, 14 Feb 2025 11:46:06 -0600",
      "timestamp": 1739555166000,
      "feedName": "Cherry Run Elementary School",
      "category": "Cherry Run Elementary School",
      "feedSource": "http://www.fcps.edu/index.shtml",
      "feedInfo": {
        "title": "Cherry Run Elementary School News and announcements - Recent Updates",
        "description": "Cherry Run Elementary School News and announcements",
        "link": "http://www.fcps.edu/index.shtml"
      }
    },
    {
      "id": "NjQwMTY4ODM=",
      "title": "Louise Archer Sunshine News 2-14-25",
      "link": "https://content.govdelivery.com/accounts/VAEDUFCPS/bulletins/3d0d1f3",
      "description": "\n        \n\n\n  \n\n\n\n\n\n\n\n<p><a></a>Having trouble viewing this email? <a href=\"https://content.govdelivery.com/accounts/VAEDUFCPS/bulletins/3d0d1f3\">View it as a Web page</a>.</p>\n\n\n\n\n\n\n\n\n\n\n\n<a href=\"https://twitter.com/LouiseArcherES?utm_content=&amp;utm_medium=email&amp;utm_name=&amp;utm_source=govde...",
      "pubDate": "Fri, 14 Feb 2025 11:38:39 -0600",
      "timestamp": 1739554719000,
      "feedName": "Louise Archer Elementary School",
      "category": "Louise Archer Elementary School",
      "feedSource": "http://www.fcps.edu/index.shtml",
      "feedInfo": {
        "title": "Louise Archer Elementary School News and announcements - Recent Updates",
        "description": "Louise Archer Elementary School News and announcements",
        "link": "http://www.fcps.edu/index.shtml"
      }
    }
  ],
  "hasNext": true,
  "hasPrev": true
}