{
  "page": 262,
  "totalPages": 268,
  "totalItems": 5354,
  "itemsPerPage": 20,
  "items": [
    {
      "id": "NDQ2ODY3MjM=",
      "title": "Ruby Bridges Walk to School Day",
      "link": "https://content.govdelivery.com/accounts/VAEDUFCPS/bulletins/2a9dd83",
      "description": "\n        \n\n\n  \n\n\n\n\n\n\n\n<p><a></a>Having trouble viewing this email? <a href=\"https://content.govdelivery.com/accounts/VAEDUFCPS/bulletins/2a9dd83\">View it as a Web page</a>.</p>\n\n\n\n\n\n\n\n\n\n\n\n<a href=\"https://www.fcps.edu/resources/safety-and-transportation/transportation-services/safe-routes-school-srt...",
      "pubDate": "Wed, 04 Nov 2020 10:12:59 -0600",
      "timestamp": 1604506379000,
      "feedName": "FCPS Safe Routes to School",
      "category": "FCPS Safe Routes to School",
      "feedSource": "http://www.fcps.edu/",
      "feedInfo": {
        "title": "Safe Routes to School - Recent Updates",
        "description": "Safe Routes to School - Recent Updates",
        "link": "http://www.fcps.edu/"
      }
    },
    {
      "id": "NDQ1MTMwNjc=",
      "title": "VDOT Safe Routes to School Survey",
      "link": "https://content.govdelivery.com/accounts/VAEDUFCPS/bulletins/2a7372b",
      "description": "\n        \n\n\n  \n\n\n\n\n\n\n\n<p><a></a>Having trouble viewing this email? <a href=\"https://content.govdelivery.com/accounts/VAEDUFCPS/bulletins/2a7372b\">View it as a Web page</a>.</p>\n\n\n\n\n\n\n\n\n\n\n\n<a href=\"https://www.fcps.edu/resources/safety-and-transportation/transportation-services/safe-routes-school-srt...",
      "pubDate": "Fri, 23 Oct 2020 09:38:20 -0500",
      "timestamp": 1603463900000,
      "feedName": "FCPS Safe Routes to School",
      "category": "FCPS Safe Routes to School",
      "feedSource": "http://www.fcps.edu/",
      "feedInfo": {
        "title": "Safe Routes to School - Recent Updates",
        "description": "Safe Routes to School - Recent Updates",
        "link": "http://www.fcps.edu/"
      }
    },
    {
      "id": "NDQyOTI2MzQ=",
      "title": "Walk to School Day Any Way You Can",
      "link": "https://content.govdelivery.com/accounts/VAEDUFCPS/bulletins/2a3da1a",
      "description": "\n        \n\n\n  \n\n\n\n\n\n\n\n<p><a></a>Having trouble viewing this email? <a href=\"https://content.govdelivery.com/accounts/VAEDUFCPS/bulletins/2a3da1a\">View it as a Web page</a>.</p>\n\n\n\n\n\n\n\n\n\n\n\n<a href=\"https://www.fcps.edu/resources/safety-and-transportation/transportation-services/safe-routes-school-srt...",
      "pubDate": "Sun, 04 Oct 2020 18:44:04 -0500",
      "timestamp": 1601855044000,
      "feedName": "FCPS Safe Routes to School",
      "category": "FCPS Safe Routes to School",
      "feedSource": "http://www.fcps.edu/",
      "feedInfo": {
        "title": "Safe Routes to School - Recent Updates",
        "description": "Safe Routes to School - Recent Updates",
        "link": "http://www.fcps.edu/"
      }
    },
    {
      "id": "NDM4NDMzOTg=",
      "title": "Welcome Back",
      "link": "https://content.govdelivery.com/accounts/VAEDUFCPS/bulletins/29cff46",
      "description": "\n        \n\n\n  \n\n\n\n\n\n\n\n<p><a></a>Having trouble viewing this email? <a href=\"https://content.govdelivery.com/accounts/VAEDUFCPS/bulletins/29cff46\">View it as a Web page</a>.</p>\n\n\n\n\n\n\n\n\n\n\n\n<a href=\"https://www.fcps.edu/resources/safety-and-transportation/transportation-services/safe-routes-school-srt...",
      "pubDate": "Thu, 03 Sep 2020 14:56:18 -0500",
      "timestamp": 1599162978000,
      "feedName": "FCPS Safe Routes to School",
      "category": "FCPS Safe Routes to School",
      "feedSource": "http://www.fcps.edu/",
      "feedInfo": {
        "title": "Safe Routes to School - Recent Updates",
        "description": "Safe Routes to School - Recent Updates",
        "link": "http://www.fcps.edu/"
      }
    },
    {
      "id": "NDM4MzE1OTk=",
      "title": "Important Announcments",
      "link": "https://content.govdelivery.com/accounts/VAEDUFCPS/bulletins/29cd12f",
      "description": "\n        \n\n\n  \n\n\n\n\n\n\n\n<p><a></a>Having trouble viewing this email? <a href=\"https://content.govdelivery.com/accounts/VAEDUFCPS/bulletins/29cd12f\">View it as a Web page</a>.</p>\n\n\n\n\n\n\n\n\n\n\n\n<a href=\"https://marshallhs.fcps.edu/?utm_content=&amp;utm_medium=email&amp;utm_name=&amp;utm_source=govdelivery...",
      "pubDate": "Tue, 01 Sep 2020 15:01:12 -0500",
      "timestamp": 1598990472000,
      "feedName": "Marshall High School",
      "category": "Marshall High School",
      "feedSource": "http://www.fcps.edu/index.shtml",
      "feedInfo": {
        "title": "Marshall High School News and announcements - Recent Updates",
        "description": "Marshall High School News and announcements",
        "link": "http://www.fcps.edu/index.shtml"
      }
    },
    {
      "id": "NDM3NzczMzA=",
      "title": "Welcome to the West Potomac Academy!",
      "link": "https://content.govdelivery.com/accounts/VAEDUFCPS/bulletins/29bfd32",
      "description": "\n        \n\n\n  \n\n\n\n\n\n\n\n<p><a></a>Having trouble viewing this email? <a href=\"https://content.govdelivery.com/accounts/VAEDUFCPS/bulletins/29bfd32\">View it as a Web page</a>.</p>\n\n\n\n\n\n\n\n\n\n\n\n<a href=\"http://www2.fcps.edu/WestPotomacAcademy/?utm_content=&amp;utm_medium=email&amp;utm_name=&amp;utm_source...",
      "pubDate": "Wed, 26 Aug 2020 17:18:06 -0500",
      "timestamp": 1598480286000,
      "feedName": "West Potomac Academy",
      "category": "West Potomac Academy",
      "feedSource": "http://www.fcps.edu/index.shtml",
      "feedInfo": {
        "title": "West Potomac Academy News and Announcements - Recent Updates",
        "description": "West Potomac Academy News and Announcements - Recent Updates",
        "link": "http://www.fcps.edu/index.shtml"
      }
    },
    {
      "id": "NDM3NjA1MTI=",
      "title": "Announcements #3",
      "link": "https://content.govdelivery.com/accounts/VAEDUFCPS/bulletins/29bbb80",
      "description": "\n        \n\n\n  \n\n\n\n\n\n\n\n<p><a></a>Having trouble viewing this email? <a href=\"https://content.govdelivery.com/accounts/VAEDUFCPS/bulletins/29bbb80\">View it as a Web page</a>.</p>\n\n\n\n\n\n\n\n\n\n\n\n<a href=\"https://marshallhs.fcps.edu/?utm_content=&amp;utm_medium=email&amp;utm_name=&amp;utm_source=govdelivery...",
      "pubDate": "Tue, 25 Aug 2020 09:59:44 -0500",
      "timestamp": 1598367584000,
      "feedName": "Marshall High School",
      "category": "Marshall High School",
      "feedSource": "http://www.fcps.edu/index.shtml",
      "feedInfo": {
        "title": "Marshall High School News and announcements - Recent Updates",
        "description": "Marshall High School News and announcements",
        "link": "http://www.fcps.edu/index.shtml"
      }
    },
    {
      "id": "NDM2ODgyNDQ=",
      "title": "Announcements #2",
      "link": "https://content.govdelivery.com/accounts/VAEDUFCPS/bulletins/29aa134",
      "description": "\n        \n\n\n  \n\n\n\n\n\n\n\n<p><a></a>Having trouble viewing this email? <a href=\"https://content.govdelivery.com/accounts/VAEDUFCPS/bulletins/29aa134\">View it as a Web page</a>.</p>\n\n\n\n\n\n\n\n\n\n\n\n<a href=\"https://marshallhs.fcps.edu/?utm_content=&amp;utm_medium=email&amp;utm_name=&amp;utm_source=govdelivery...",
      "pubDate": "Mon, 17 Aug 2020 14:48:03 -0500",
      "timestamp": 1597693683000,
      "feedName": "Marshall High School",
      "category": "Marshall High School",
      "feedSource": "http://www.fcps.edu/index.shtml",
      "feedInfo": {
        "title": "Marshall High School News and announcements - Recent Updates",
        "description": "Marshall High School News and announcements",
        "link": "http://www.fcps.edu/index.shtml"
      }
    },
    {
      "id": "NDM2MTI1NTE=",
      "title": "Beginning of the Year Announcements #1",
      "link": "https://content.govdelivery.com/accounts/VAEDUFCPS/bulletins/2997987",
      "description": "\n        \n\n\n  \n\n\n\n\n\n\n\n<p><a></a>Having trouble viewing this email? <a href=\"https://content.govdelivery.com/accounts/VAEDUFCPS/bulletins/2997987\">View it as a Web page</a>.</p>\n\n\n\n\n\n\n\n\n\n\n\n<a href=\"https://marshallhs.fcps.edu/?utm_content=&amp;utm_medium=email&amp;utm_name=&amp;utm_source=govdelivery...",
      "pubDate": "Sun, 09 Aug 2020 14:00:16 -0500",
      "timestamp": 1596999616000,
      "feedName": "Marshall High School",
      "category": "Marshall High School",
      "feedSource": "http://www.fcps.edu/index.shtml",
      "feedInfo": {
        "title": "Marshall High School News and announcements - Recent Updates",
        "description": "Marshall High School News and announcements",
        "link": "http://www.fcps.edu/index.shtml"
      }
    },
    {
      "id": "NDMzNjI0NjI=",
      "title": "Return to Learn Update",
      "link": "https://content.govdelivery.com/accounts/VAEDUFCPS/bulletins/295a89e",
      "description": "\n        \n\n\n  \n\n\n\n\n\n\n\n<p><a></a>Having trouble viewing this email? <a href=\"https://content.govdelivery.com/accounts/VAEDUFCPS/bulletins/295a89e\">View it as a Web page</a>.</p>\n\n\n\n\n\n\n\n\n\n\n\n<a href=\"https://marshallhs.fcps.edu/?utm_content=&amp;utm_medium=email&amp;utm_name=&amp;utm_source=govdelivery...",
      "pubDate": "Tue, 14 Jul 2020 13:11:27 -0500",
      "timestamp": 1594750287000,
      "feedName": "Marshall High School",
      "category": "Marshall High School",
      "feedSource": "http://www.fcps.edu/index.shtml",
      "feedInfo": {
        "title": "Marshall High School News and announcements - Recent Updates",
        "description": "Marshall High School News and announcements",
        "link": "http://www.fcps.edu/index.shtml"
      }
    },
    {
      "id": "NDMzNDc4MzU=",
      "title": "Town Hall Recording",
      "link": "https://content.govdelivery.com/accounts/VAEDUFCPS/bulletins/2956f7b",
      "description": "\n        \n\n\n  \n\n\n\n\n\n\n\n<p><a></a>Having trouble viewing this email? <a href=\"https://content.govdelivery.com/accounts/VAEDUFCPS/bulletins/2956f7b\">View it as a Web page</a>.</p>\n\n\n\n\n\n\n\n\n\n\n\n<a href=\"https://marshallhs.fcps.edu/?utm_content=&amp;utm_medium=email&amp;utm_name=&amp;utm_source=govdelivery...",
      "pubDate": "Mon, 13 Jul 2020 11:22:03 -0500",
      "timestamp": 1594657323000,
      "feedName": "Marshall High School",
      "category": "Marshall High School",
      "feedSource": "http://www.fcps.edu/index.shtml",
      "feedInfo": {
        "title": "Marshall High School News and announcements - Recent Updates",
        "description": "Marshall High School News and announcements",
        "link": "http://www.fcps.edu/index.shtml"
      }
    },
    {
      "id": "NDMzMTAyNTg=",
      "title": "Reminder",
      "link": "https://content.govdelivery.com/accounts/VAEDUFCPS/bulletins/294dcb2",
      "description": "\n        \n\n\n  \n\n\n\n\n\n\n\n<p><a></a>Having trouble viewing this email? <a href=\"https://content.govdelivery.com/accounts/VAEDUFCPS/bulletins/294dcb2\">View it as a Web page</a>.</p>\n\n\n\n\n\n\n\n\n\n\n\n<a href=\"https://marshallhs.fcps.edu/?utm_content=&amp;utm_medium=email&amp;utm_name=&amp;utm_source=govdelivery...",
      "pubDate": "Thu, 09 Jul 2020 12:42:22 -0500",
      "timestamp": 1594316542000,
      "feedName": "Marshall High School",
      "category": "Marshall High School",
      "feedSource": "http://www.fcps.edu/index.shtml",
      "feedInfo": {
        "title": "Marshall High School News and announcements - Recent Updates",
        "description": "Marshall High School News and announcements",
        "link": "http://www.fcps.edu/index.shtml"
      }
    },
    {
      "id": "NDI5MDUyNzg=",
      "title": "Marshall Pyramid Message",
      "link": "https://content.govdelivery.com/accounts/VAEDUFCPS/bulletins/28eaebe",
      "description": "\n        \n\n\n  \n\n\n\n\n\n\n\n<p><a></a>Having trouble viewing this email? <a href=\"https://content.govdelivery.com/accounts/VAEDUFCPS/bulletins/28eaebe\">View it as a Web page</a>.</p>\n\n\n\n\n\n\n\n\n\n\n\n<a href=\"https://marshallhs.fcps.edu/?utm_content=&amp;utm_medium=email&amp;utm_name=&amp;utm_source=govdelivery...",
      "pubDate": "Tue, 02 Jun 2020 13:57:10 -0500",
      "timestamp": 1591124230000,
      "feedName": "Marshall High School",
      "category": "Marshall High School",
      "feedSource": "http://www.fcps.edu/index.shtml",
      "feedInfo": {
        "title": "Marshall High School News and announcements - Recent Updates",
        "description": "Marshall High School News and announcements",
        "link": "http://www.fcps.edu/index.shtml"
      }
    },
    {
      "id": "NDI4NjY4MDc=",
      "title": "New Assistant Principal at Marshall High School",
      "link": "https://content.govdelivery.com/accounts/VAEDUFCPS/bulletins/28e1877",
      "description": "\n        \n\n\n  \n\n\n\n\n\n\n\n<p><a></a>Having trouble viewing this email? <a href=\"https://content.govdelivery.com/accounts/VAEDUFCPS/bulletins/28e1877\">View it as a Web page</a>.</p>\n\n\n\n\n\n\n\n\n\n\n\n<a href=\"https://marshallhs.fcps.edu/?utm_content=&amp;utm_medium=email&amp;utm_name=&amp;utm_source=govdelivery...",
      "pubDate": "Tue, 02 Jun 2020 13:54:31 -0500",
      "timestamp": 1591124071000,
      "feedName": "Marshall High School",
      "category": "Marshall High School",
      "feedSource": "http://www.fcps.edu/index.shtml",
      "feedInfo": {
        "title": "Marshall High School News and announcements - Recent Updates",
        "description": "Marshall High School News and announcements",
        "link": "http://www.fcps.edu/index.shtml"
      }
    },
    {
      "id": "NDI4OTY0OTY=",
      "title": "A Message from Camelot ES and the FC Pyramid",
      "link": "https://content.govdelivery.com/accounts/VAEDUFCPS/bulletins/28e8c70",
      "description": "\n        \n\n\n  \n\n\n\n\n\n\n\n<a href=\"http://www2.fcps.edu/CamelotES/?utm_content=&amp;utm_medium=email&amp;utm_name=&amp;utm_source=govdelivery&amp;utm_term=\" target=\"_blank\"></a><p><a></a>Having trouble viewing this email? <a href=\"https://content.govdelivery.com/accounts/VAEDUFCPS/bulletins/28e8c70\">Vie...",
      "pubDate": "Tue, 02 Jun 2020 12:05:12 -0500",
      "timestamp": 1591117512000,
      "feedName": "Camelot Elementary School",
      "category": "Camelot Elementary School",
      "feedSource": "http://www.fcps.edu/index.shtml",
      "feedInfo": {
        "title": "Camelot Elementary School News and announcements - Recent Updates",
        "description": "Camelot Elementary School News and announcements",
        "link": "http://www.fcps.edu/index.shtml"
      }
    },
    {
      "id": "NDI3NjEyMjg=",
      "title": "Camelot's Weekly Events 5-21-20",
      "link": "https://content.govdelivery.com/accounts/VAEDUFCPS/bulletins/28c7c0c",
      "description": "\n        \n\n\n  \n\n\n\n\n\n\n\n<a href=\"http://www2.fcps.edu/CamelotES/?utm_content=&amp;utm_medium=email&amp;utm_name=&amp;utm_source=govdelivery&amp;utm_term=\" target=\"_blank\"></a><p><a></a>Having trouble viewing this email? <a href=\"https://content.govdelivery.com/accounts/VAEDUFCPS/bulletins/28c7c0c\">Vie...",
      "pubDate": "Thu, 21 May 2020 13:55:36 -0500",
      "timestamp": 1590087336000,
      "feedName": "Camelot Elementary School",
      "category": "Camelot Elementary School",
      "feedSource": "http://www.fcps.edu/index.shtml",
      "feedInfo": {
        "title": "Camelot Elementary School News and announcements - Recent Updates",
        "description": "Camelot Elementary School News and announcements",
        "link": "http://www.fcps.edu/index.shtml"
      }
    },
    {
      "id": "NDI3NTk2NDA=",
      "title": "Class of 2020 Message",
      "link": "https://content.govdelivery.com/accounts/VAEDUFCPS/bulletins/28c75d8",
      "description": "\n        \n\n\n  \n\n\n\n\n\n\n\n<p><a></a>Having trouble viewing this email? <a href=\"https://content.govdelivery.com/accounts/VAEDUFCPS/bulletins/28c75d8\">View it as a Web page</a>.</p>\n\n\n\n\n\n\n\n\n\n\n\n<a href=\"https://marshallhs.fcps.edu/?utm_content=&amp;utm_medium=email&amp;utm_name=&amp;utm_source=govdelivery...",
      "pubDate": "Tue, 19 May 2020 17:40:51 -0500",
      "timestamp": 1589928051000,
      "feedName": "Marshall High School",
      "category": "Marshall High School",
      "feedSource": "http://www.fcps.edu/index.shtml",
      "feedInfo": {
        "title": "Marshall High School News and announcements - Recent Updates",
        "description": "Marshall High School News and announcements",
        "link": "http://www.fcps.edu/index.shtml"
      }
    },
    {
      "id": "NDI2Nzc3NDQ=",
      "title": "Announcements for Academy Class of 2020 Parents and Students",
      "link": "https://content.govdelivery.com/accounts/VAEDUFCPS/bulletins/28b35f0",
      "description": "\n        \n\n\n  \n\n\n\n\n\n\n\n<p><a></a>Having trouble viewing this email? <a href=\"https://content.govdelivery.com/accounts/VAEDUFCPS/bulletins/28b35f0\">View it as a Web page</a>.</p>\n\n\n\n\n\n\n\n\n\n\n\n<a href=\"https://marshallacademy.fcps.edu/?utm_content=&amp;utm_medium=email&amp;utm_name=&amp;utm_source=govdel...",
      "pubDate": "Tue, 12 May 2020 14:42:43 -0500",
      "timestamp": 1589312563000,
      "feedName": "Marshall Academy",
      "category": "Marshall Academy",
      "feedSource": "http://www.fcps.edu/index.shtml",
      "feedInfo": {
        "title": "Marshall Academy News and Announcements - Recent Updates",
        "description": "Marshall Academy News and Announcements - Recent Updates",
        "link": "http://www.fcps.edu/index.shtml"
      }
    },
    {
      "id": "NDI2NjU5NDY=",
      "title": "Camelot's Weekly Events 5-12-20",
      "link": "https://content.govdelivery.com/accounts/VAEDUFCPS/bulletins/28b07da",
      "description": "\n        \n\n\n  \n\n\n\n\n\n\n\n<a href=\"http://www2.fcps.edu/CamelotES/?utm_content=&amp;utm_medium=email&amp;utm_name=&amp;utm_source=govdelivery&amp;utm_term=\" target=\"_blank\"></a><p><a></a>Having trouble viewing this email? <a href=\"https://content.govdelivery.com/accounts/VAEDUFCPS/bulletins/28b07da\">Vie...",
      "pubDate": "Tue, 12 May 2020 13:33:45 -0500",
      "timestamp": 1589308425000,
      "feedName": "Camelot Elementary School",
      "category": "Camelot Elementary School",
      "feedSource": "http://www.fcps.edu/index.shtml",
      "feedInfo": {
        "title": "Camelot Elementary School News and announcements - Recent Updates",
        "description": "Camelot Elementary School News and announcements",
        "link": "http://www.fcps.edu/index.shtml"
      }
    },
    {
      "id": "NDI2MjI2MjU=",
      "title": "Camelot's Weekly Events 5-7-20",
      "link": "https://content.govdelivery.com/accounts/VAEDUFCPS/bulletins/28a5ea1",
      "description": "\n        \n\n\n  \n\n\n\n\n\n\n\n<a href=\"http://www2.fcps.edu/CamelotES/?utm_content=&amp;utm_medium=email&amp;utm_name=&amp;utm_source=govdelivery&amp;utm_term=\" target=\"_blank\"></a><p><a></a>Having trouble viewing this email? <a href=\"https://content.govdelivery.com/accounts/VAEDUFCPS/bulletins/28a5ea1\">Vie...",
      "pubDate": "Thu, 07 May 2020 08:46:53 -0500",
      "timestamp": 1588859213000,
      "feedName": "Camelot Elementary School",
      "category": "Camelot Elementary School",
      "feedSource": "http://www.fcps.edu/index.shtml",
      "feedInfo": {
        "title": "Camelot Elementary School News and announcements - Recent Updates",
        "description": "Camelot Elementary School News and announcements",
        "link": "http://www.fcps.edu/index.shtml"
      }
    }
  ],
  "hasNext": true,
  "hasPrev": true
}