{
  "page": 196,
  "totalPages": 268,
  "totalItems": 5354,
  "itemsPerPage": 20,
  "items": [
    {
      "id": "NjQxNDU0MzU=",
      "title": "February Newsletter: School Start Times, Budget and Capital Improvement Plan Updates, and 2025 Teen Job Fairs",
      "link": "https://content.govdelivery.com/accounts/VAEDUFCPS/bulletins/3d2c81b",
      "description": "\n        \n\n\n  \n\n\n\n\n\n\n\n<p><a></a>Having trouble viewing this email? <a href=\"https://content.govdelivery.com/accounts/VAEDUFCPS/bulletins/3d2c81b\">View it as a Web page</a>.</p>\n\n\n\n\n\n\n\n\n\n\n\n<a href=\"https://www.fcps.edu/staff/sandy-anderson?utm_campaign+=&amp;utm_medium=email&amp;utm_source=govdeliver...",
      "pubDate": "Tue, 18 Feb 2025 08:26:53 -0600",
      "timestamp": 1739888813000,
      "feedName": "FCPS School Board Springfield District",
      "category": "FCPS School Board Springfield District",
      "feedSource": "http://www.fcps.edu/index.shtml",
      "feedInfo": {
        "title": "Springfield District Member - Sandy Anderson - Recent Updates",
        "description": "Springfield District Member - Sandy Anderson - Recent Updates",
        "link": "http://www.fcps.edu/index.shtml"
      }
    },
    {
      "id": "NjQxNTEyMzg=",
      "title": "Eagle Express - Feb 17, 2025",
      "link": "https://content.govdelivery.com/accounts/VAEDUFCPS/bulletins/3d2dec6",
      "description": "\n        \n\n\n  \n\n\n\n\n\n\n\n<p><a></a>Having trouble viewing this email? <a href=\"https://content.govdelivery.com/accounts/VAEDUFCPS/bulletins/3d2dec6\">View it as a Web page</a>.</p>\n\n\n\n\n\n\n\n\n\n\n\n<a href=\"http://www2.fcps.edu/BraddockES/?utm_campaign+=&amp;utm_medium=email&amp;utm_source=govdelivery\" target...",
      "pubDate": "Tue, 18 Feb 2025 08:24:23 -0600",
      "timestamp": 1739888663000,
      "feedName": "Braddock Elementary School",
      "category": "Braddock Elementary School",
      "feedSource": "http://www.fcps.edu/index.shtml",
      "feedInfo": {
        "title": "Braddock ES - The Eagle Express - Recent Updates",
        "description": "Braddock Elementary School News and announcements",
        "link": "http://www.fcps.edu/index.shtml"
      }
    },
    {
      "id": "NjQxMzk0MDA=",
      "title": "The Ram Gram! Hot Off the Press!",
      "link": "https://content.govdelivery.com/accounts/VAEDUFCPS/bulletins/3d2b088",
      "description": "\n        \n\n\n  \n\n\n\n\n\n\n\n<p><a></a>Having trouble viewing this email? <a href=\"https://content.govdelivery.com/accounts/VAEDUFCPS/bulletins/3d2b088\">View it as a Web page</a>.</p>\n\n\n\n\n\n\n\n\n\n\n\n<a href=\"http://www2.fcps.edu/CentreRidgeES/?utm_campaign+=&amp;utm_medium=email&amp;utm_source=govdelivery\" tar...",
      "pubDate": "Tue, 18 Feb 2025 05:00:17 -0600",
      "timestamp": 1739876417000,
      "feedName": "Centre Ridge Elementary School",
      "category": "Centre Ridge Elementary School",
      "feedSource": "http://www.fcps.edu/index.shtml",
      "feedInfo": {
        "title": "Centre Ridge Elementary School News and Announcements - Recent Updates",
        "description": "Centre Ridge Elementary School News and Announcements",
        "link": "http://www.fcps.edu/index.shtml"
      }
    },
    {
      "id": "NjQxNDgwMzU=",
      "title": "Principal Updates",
      "link": "https://content.govdelivery.com/accounts/VAEDUFCPS/bulletins/3d2d243",
      "description": "\n        \n\n\n  \n\n\n\n\n\n\n\n<p><a></a>February 17, 2025</p>\n\n\n\n\n\n\n\n\n\n\n\n<a href=\"http://www2.fcps.edu/masoncrestes?utm_campaign+=&amp;utm_medium=email&amp;utm_source=govdelivery\" target=\"_blank\"></a>\n\n\n\n\n\n\n\n\n\n\n\n\n\n\n\n<p><strong><a href=\"https://masoncrestes.fcps.edu/aggregator/sources/1?utm_campaign+=&amp;ut...",
      "pubDate": "Mon, 17 Feb 2025 21:52:09 -0600",
      "timestamp": 1739850729000,
      "feedName": "Mason Crest Elementary School",
      "category": "Mason Crest Elementary School",
      "feedSource": "http://www.fcps.edu/index.shtml",
      "feedInfo": {
        "title": "Mason Crest Elementary School News and announcements - Recent Updates",
        "description": "Mason Crest Elementary School News and announcements",
        "link": "http://www.fcps.edu/index.shtml"
      }
    },
    {
      "id": "NjM3MDYxNDk=",
      "title": "Essay Contest -  Washington Caps Writing in Your Schools Program",
      "link": "https://content.govdelivery.com/accounts/VAEDUFCPS/bulletins/3cc1425",
      "description": "\n        \n\n\n  \n\n\n\n\n\n\n\n<p><a></a>Having trouble viewing this email? <a href=\"https://content.govdelivery.com/accounts/VAEDUFCPS/bulletins/3cc1425\">View it as a Web page</a>.</p>\n\n\n\n\n\n\n\n\n\n\n\n<a href=\"https://chesterbrookes.fcps.edu/?utm_campaign+=&amp;utm_medium=email&amp;utm_source=govdelivery\" target...",
      "pubDate": "Mon, 17 Feb 2025 21:18:39 -0600",
      "timestamp": 1739848719000,
      "feedName": "Chesterbrook Elementary School",
      "category": "Chesterbrook Elementary School",
      "feedSource": "https://chesterbrookes.fcps.edu/aggregator/sources/1",
      "feedInfo": {
        "title": "Chesterbrook Elementary School News and Announcements",
        "description": "Chesterbrook Elementary School News and Announcements",
        "link": "https://chesterbrookes.fcps.edu/aggregator/sources/1"
      }
    },
    {
      "id": "NjQxNDcxMzk=",
      "title": "Pine Spring Paw Print",
      "link": "https://content.govdelivery.com/accounts/VAEDUFCPS/bulletins/3d2cec3",
      "description": "\n        \n\n\n  \n\n\n\n\n\n\n\n<p><a></a>Having trouble viewing this email? <a href=\"https://content.govdelivery.com/accounts/VAEDUFCPS/bulletins/3d2cec3\">View it as a Web page</a>.</p>\n\n\n\n\n\n\n\n\n\n\n\n<a href=\"https://pinespringes.fcps.edu/?utm_campaign+=&amp;utm_medium=email&amp;utm_source=govdelivery\" target=\"...",
      "pubDate": "Mon, 17 Feb 2025 19:36:44 -0600",
      "timestamp": 1739842604000,
      "feedName": "Pine Spring Elementary School",
      "category": "Pine Spring Elementary School",
      "feedSource": "http://www.fcps.edu/index.shtml",
      "feedInfo": {
        "title": "Pine Spring Elementary School News and announcements - Recent Updates",
        "description": "Pine Spring Elementary School News and announcements",
        "link": "http://www.fcps.edu/index.shtml"
      }
    },
    {
      "id": "NjQxMDM1MTg=",
      "title": "McLean HS: Dr. Reilly's Monday Message 2/17/2025",
      "link": "https://content.govdelivery.com/accounts/VAEDUFCPS/bulletins/3d2245e",
      "description": "\n        \n\n\n  \n\n\n\n\n\n\n\n<p><a></a>Having trouble viewing this email? <a href=\"https://content.govdelivery.com/accounts/VAEDUFCPS/bulletins/3d2245e\">View it as a Web page</a>.</p>\n\n\n\n\n\n\n\n\n\n\n\n<a href=\"https://mcleanhs.fcps.edu/?utm_content=&amp;utm_medium=email&amp;utm_name=&amp;utm_source=govdelivery&a...",
      "pubDate": "Mon, 17 Feb 2025 17:00:12 -0600",
      "timestamp": 1739833212000,
      "feedName": "McLean High School",
      "category": "McLean High School",
      "feedSource": "http://www.fcps.edu/index.shtml",
      "feedInfo": {
        "title": "McLean HS: News and Announcements - Recent Updates",
        "description": "McLean HS: News and Announcements",
        "link": "http://www.fcps.edu/index.shtml"
      }
    },
    {
      "id": "NjQxNDM4Mjg=",
      "title": "The Wildcat Weekly - February 17, 2025",
      "link": "https://content.govdelivery.com/accounts/VAEDUFCPS/bulletins/3d2c1d4",
      "description": "\n        \n\n\n  \n\n\n\n\n\n\n\n<p><a></a>Having trouble viewing this email? <a href=\"https://content.govdelivery.com/accounts/VAEDUFCPS/bulletins/3d2c1d4\">View it as a Web page</a>.</p>\n\n\n\n\n\n\n\n\n\n\n\n<a href=\"https://centrevillehs.fcps.edu?utm_campaign+=&amp;utm_medium=email&amp;utm_source=govdelivery\" target=\"...",
      "pubDate": "Mon, 17 Feb 2025 16:00:14 -0600",
      "timestamp": 1739829614000,
      "feedName": "Centreville High School",
      "category": "Centreville High School",
      "feedSource": "http://www.fcps.edu/index.shtml",
      "feedInfo": {
        "title": "Centreville High School News and announcements - Recent Updates",
        "description": "Centreville High School News and announcements",
        "link": "http://www.fcps.edu/index.shtml"
      }
    },
    {
      "id": "NjQxMjEwMzY=",
      "title": "Robinson Student Ram Page | February 17th, 2025",
      "link": "https://content.govdelivery.com/accounts/VAEDUFCPS/bulletins/3d268cc",
      "description": "\n        \n\n\n  \n\n\n\n\n\n\n\n<p><a></a>Having trouble viewing this email? <a href=\"https://content.govdelivery.com/accounts/VAEDUFCPS/bulletins/3d268cc\">View it as a Web page</a>.</p>\n\n\n\n\n\n\n\n\n\n\n\n<a href=\"http://www2.fcps.edu/RobinsonSS/?utm_campaign+=&amp;utm_medium=email&amp;utm_source=govdelivery\" target...",
      "pubDate": "Mon, 17 Feb 2025 13:40:13 -0600",
      "timestamp": 1739821213000,
      "feedName": "Robinson Secondary School",
      "category": "Robinson Secondary School",
      "feedSource": "http://www.fcps.edu/index.shtml",
      "feedInfo": {
        "title": "Robinson RamPage - Recent Updates",
        "description": "Robinson Secondary School News and Announcements",
        "link": "http://www.fcps.edu/index.shtml"
      }
    },
    {
      "id": "NjQwNzkxODM=",
      "title": "FH Weekly Update - 2/17/25",
      "link": "https://content.govdelivery.com/accounts/VAEDUFCPS/bulletins/3d1c54f",
      "description": "\n        \n\n\n  \n\n\n\n\n\n\n\n<p><a></a>Having trouble viewing this email? <a href=\"https://content.govdelivery.com/accounts/VAEDUFCPS/bulletins/3d1c54f\">View it as a Web page</a>.</p>\n\n\n\n\n\n\n\n\n\n\n\n<a href=\"http://www2.fcps.edu/FreedomHillES/?utm_campaign+=&amp;utm_medium=email&amp;utm_source=govdelivery\" tar...",
      "pubDate": "Mon, 17 Feb 2025 11:41:11 -0600",
      "timestamp": 1739814071000,
      "feedName": "Freedom Hill Elementary School",
      "category": "Freedom Hill Elementary School",
      "feedSource": "http://www.fcps.edu/index.shtml",
      "feedInfo": {
        "title": "Freedom Hill Elementary School News and announcements - Recent Updates",
        "description": "Freedom Hill Elementary School News and announcements",
        "link": "http://www.fcps.edu/index.shtml"
      }
    },
    {
      "id": "NjQxMzkxNDE=",
      "title": "Mantua ES Newsletter",
      "link": "https://content.govdelivery.com/accounts/VAEDUFCPS/bulletins/3d2af85",
      "description": "\n        \n\n\n  \n\n\n\n\n\n\n\n<p><a></a>Having trouble viewing this email? <a href=\"https://content.govdelivery.com/accounts/VAEDUFCPS/bulletins/3d2af85\">View it as a Web page</a>.</p>\n\n\n\n\n\n\n\n\n\n\n\n<a href=\"https://mantuaes.fcps.edu/?utm_campaign+=&amp;utm_medium=email&amp;utm_source=govdelivery\" target=\"_bla...",
      "pubDate": "Mon, 17 Feb 2025 09:45:24 -0600",
      "timestamp": 1739807124000,
      "feedName": "Mantua Elementary School",
      "category": "Mantua Elementary School",
      "feedSource": "http://www.fcps.edu/index.shtml",
      "feedInfo": {
        "title": "Mantua Elementary School News and announcements - Recent Updates",
        "description": "Mantua Elementary School News and announcements",
        "link": "http://www.fcps.edu/index.shtml"
      }
    },
    {
      "id": "NjQwNzYyODU=",
      "title": "Belle View Beat-February 17, 2025",
      "link": "https://content.govdelivery.com/accounts/VAEDUFCPS/bulletins/3d1b9fd",
      "description": "\n        \n\n\n  \n\n\n\n\n\n\n\n<p><a></a>Having trouble viewing this email? <a href=\"https://content.govdelivery.com/accounts/VAEDUFCPS/bulletins/3d1b9fd\">View it as a Web page</a>.</p>\n\n\n\n\n\n\n\n\n\n\n\n\n\n\n\n\n\n\n\n\n\n\n\n\n\n\n\n<a href=\"https://belleviewes.fcps.edu/?utm_campaign+=&amp;utm_medium=email&amp;utm_source=govdel...",
      "pubDate": "Mon, 17 Feb 2025 07:55:55 -0600",
      "timestamp": 1739800555000,
      "feedName": "Belle View Elementary School",
      "category": "Belle View Elementary School",
      "feedSource": "http://www.fcps.edu/index.shtml",
      "feedInfo": {
        "title": "Belle View Elementary School News and announcements - Recent Updates",
        "description": "Belle View Elementary School News and announcements",
        "link": "http://www.fcps.edu/index.shtml"
      }
    },
    {
      "id": "NjQxMzc3NzU=",
      "title": "Principal's Message February 16, 2025",
      "link": "https://content.govdelivery.com/accounts/VAEDUFCPS/bulletins/3d2aa2f",
      "description": "\n        \n\n\n  \n\n\n\n\n\n\n\n<p><a></a>Having trouble viewing this email? <a href=\"https://content.govdelivery.com/accounts/VAEDUFCPS/bulletins/3d2aa2f\">View it as a Web page</a>.</p>\n\n\n\n\n\n\n\n\n\n\n\n<a href=\"https://stonems.fcps.edu/?utm_campaign+=&amp;utm_medium=email&amp;utm_source=govdelivery\" target=\"_blan...",
      "pubDate": "Sun, 16 Feb 2025 17:57:38 -0600",
      "timestamp": 1739750258000,
      "feedName": "Stone Middle School",
      "category": "Stone Middle School",
      "feedSource": "http://www.fcps.edu/index.shtml",
      "feedInfo": {
        "title": "Stone Middle School News and announcements - Recent Updates",
        "description": "Stone Middle School News and announcements",
        "link": "http://www.fcps.edu/index.shtml"
      }
    },
    {
      "id": "NjQxMDY5NTQ=",
      "title": "This Week at Langley",
      "link": "https://content.govdelivery.com/accounts/VAEDUFCPS/bulletins/3d231ca",
      "description": "\n        \n\n\n  \n\n\n\n\n\n\n\n<p><a></a>Having trouble viewing this email? <a href=\"https://content.govdelivery.com/accounts/VAEDUFCPS/bulletins/3d231ca\">View it as a Web page</a>.</p>\n\n\n\n\n\n\n\n\n\n\n\n<a href=\"http://langleyhs.fcps.edu/?utm_content=&amp;utm_medium=email&amp;utm_name=&amp;utm_source=govdelivery&a...",
      "pubDate": "Sun, 16 Feb 2025 16:00:19 -0600",
      "timestamp": 1739743219000,
      "feedName": "Langley High School",
      "category": "Langley High School",
      "feedSource": "http://www.fcps.edu/index.shtml",
      "feedInfo": {
        "title": "Langley HS News and Announcements - Recent Updates",
        "description": "Langley HS News and Announcements",
        "link": "http://www.fcps.edu/index.shtml"
      }
    },
    {
      "id": "NjQwOTE5NDQ=",
      "title": "Woodlawn News February 16, 2025",
      "link": "https://content.govdelivery.com/accounts/VAEDUFCPS/bulletins/3d1f728",
      "description": "\n        \n\n\n  \n\n\n\n\n\n\n\n\n\n\n\n\n\n\n\n\n\n\n\n<a href=\"http://www2.fcps.edu/WoodlawnES/?utm_campaign+=&amp;utm_medium=email&amp;utm_source=govdelivery\" target=\"_blank\"></a>\n\n\n\n\n\n\n\n\n\n\n\n\n\n\n\n<a href=\"https://woodlawnes.fcps.edu/aggregator/sources/1?utm_campaign+=&amp;utm_medium=email&amp;utm_source=govdelivery\" ta...",
      "pubDate": "Sun, 16 Feb 2025 14:00:26 -0600",
      "timestamp": 1739736026000,
      "feedName": "Woodlawn Elementary School",
      "category": "Woodlawn Elementary School",
      "feedSource": "http://www.fcps.edu/index.shtml",
      "feedInfo": {
        "title": "Woodlawn Elementary School News and announcements - Recent Updates",
        "description": "Woodlawn Elementary School News and announcements",
        "link": "http://www.fcps.edu/index.shtml"
      }
    },
    {
      "id": "NjQxMjEzNTg=",
      "title": "Panther Press for February 16, 2025",
      "link": "https://content.govdelivery.com/accounts/VAEDUFCPS/bulletins/3d26a0e",
      "description": "\n        \n\n\n  \n\n\n\n\n\n\n\n<p><a></a>Having trouble viewing this email? <a href=\"https://content.govdelivery.com/accounts/VAEDUFCPS/bulletins/3d26a0e\">View it as a Web page</a>.</p>\n\n\n\n\n\n\n\n\n\n\n\n<a href=\"http://www2.fcps.edu/ParklawnES/?utm_campaign+=&amp;utm_medium=email&amp;utm_source=govdelivery\" target...",
      "pubDate": "Sun, 16 Feb 2025 13:00:14 -0600",
      "timestamp": 1739732414000,
      "feedName": "Parklawn Elementary School",
      "category": "Parklawn Elementary School",
      "feedSource": "http://www.fcps.edu/index.shtml",
      "feedInfo": {
        "title": "Panther Press - Recent Updates",
        "description": "Panther Press - Recent Updates",
        "link": "http://www.fcps.edu/index.shtml"
      }
    },
    {
      "id": "NjQxMzYwMjU=",
      "title": "Weekly Updates",
      "link": "https://content.govdelivery.com/accounts/VAEDUFCPS/bulletins/3d2a359",
      "description": "\n        \n\n\n  \n\n\n\n\n\n\n\n<p><a></a>Having trouble viewing this email? <a href=\"https://content.govdelivery.com/accounts/VAEDUFCPS/bulletins/3d2a359\">View it as a Web page</a>.</p>\n\n\n\n\n\n\n\n\n\n\n\n<a href=\"http://www2.fcps.edu/SleepyHollowES/?utm_content=&amp;utm_medium=email&amp;utm_name=&amp;utm_source=gov...",
      "pubDate": "Sun, 16 Feb 2025 12:54:18 -0600",
      "timestamp": 1739732058000,
      "feedName": "Sleepy Hollow Elementary School",
      "category": "Sleepy Hollow Elementary School",
      "feedSource": "http://www.fcps.edu/index.shtml",
      "feedInfo": {
        "title": "Sleepy Hollow Elementary School News and announcements - Recent Updates",
        "description": "Sleepy Hollow Elementary School News and announcements",
        "link": "http://www.fcps.edu/index.shtml"
      }
    },
    {
      "id": "NjQwODAyODI=",
      "title": "ðŸ¦ ðŸ’— ðŸª©PTA Sweetheart Dance!",
      "link": "https://content.govdelivery.com/accounts/VAEDUFCPS/bulletins/3d1c99a",
      "description": "\n        \n\n\n  \n\n\n\n\n\n\n\n<p><a></a>Having trouble viewing this email? <a href=\"https://content.govdelivery.com/accounts/VAEDUFCPS/bulletins/3d1c99a\">View it as a Web page</a>.</p>\n\n\n\n\n\n\n\n\n\n\n\n<a href=\"http://www2.fcps.edu/LondonTowneES/?utm_campaign+=&amp;utm_medium=email&amp;utm_source=govdelivery\" tar...",
      "pubDate": "Sun, 16 Feb 2025 12:00:15 -0600",
      "timestamp": 1739728815000,
      "feedName": "London Towne Elementary School",
      "category": "London Towne Elementary School",
      "feedSource": "http://www.fcps.edu/index.shtml",
      "feedInfo": {
        "title": "London Towne Elementary School News and Announcements - Recent Updates",
        "description": "London Towne Elementary School News and announcements",
        "link": "http://www.fcps.edu/index.shtml"
      }
    },
    {
      "id": "NjQxMTcyMTc=",
      "title": "KG News 2.16.2025",
      "link": "https://content.govdelivery.com/accounts/VAEDUFCPS/bulletins/3d259e1",
      "description": "\n        \n\n\n  \n\n\n\n\n\n\n\n<p><a></a>Having trouble viewing this email? <a href=\"https://content.govdelivery.com/accounts/VAEDUFCPS/bulletins/3d259e1\">View it as a Web page</a>.</p>\n\n\n\n\n\n\n\n\n\n\n\n<a href=\"http://www2.fcps.edu/KentGardensES/?utm_campaign+=&amp;utm_medium=email&amp;utm_source=govdelivery\" tar...",
      "pubDate": "Sun, 16 Feb 2025 11:00:24 -0600",
      "timestamp": 1739725224000,
      "feedName": "Kent Gardens Elementary School",
      "category": "Kent Gardens Elementary School",
      "feedSource": "http://www.fcps.edu/index.shtml",
      "feedInfo": {
        "title": "Kent Gardens Elementary School News and Announcements - Recent Updates",
        "description": "Kent Gardens Elementary School News and announcements",
        "link": "http://www.fcps.edu/index.shtml"
      }
    },
    {
      "id": "NjQwODYzNTQ=",
      "title": "Terra Centre Newsletter 02/16/2025",
      "link": "https://content.govdelivery.com/accounts/VAEDUFCPS/bulletins/3d1e152",
      "description": "\n        \n\n\n  \n\n\n\n\n\n\n\n<p><a></a>Having trouble viewing this email? <a href=\"https://content.govdelivery.com/accounts/VAEDUFCPS/bulletins/3d1e152\">View it as a Web page</a>.</p>\n\n\n\n\n\n\n\n\n\n\n\n<a href=\"https://terracentrees.fcps.edu/?utm_campaign+=&amp;utm_medium=email&amp;utm_source=govdelivery\" target=...",
      "pubDate": "Sun, 16 Feb 2025 11:00:22 -0600",
      "timestamp": 1739725222000,
      "feedName": "Terra Centre Elementary School",
      "category": "Terra Centre Elementary School",
      "feedSource": "http://www.fcps.edu/index.shtml",
      "feedInfo": {
        "title": "Terra Centre Elementary School News and Announcements - Recent Updates",
        "description": "Terra Centre Elementary School News and Announcements",
        "link": "http://www.fcps.edu/index.shtml"
      }
    }
  ],
  "hasNext": true,
  "hasPrev": true
}