{
  "page": 248,
  "totalPages": 268,
  "totalItems": 5354,
  "itemsPerPage": 20,
  "items": [
    {
      "id": "NjAxOTM1ODE=",
      "title": "\"On The Run\" Newsletter 4-12-2024",
      "link": "https://content.govdelivery.com/accounts/VAEDUFCPS/bulletins/3967b2d",
      "description": "\n        \n\n\n  \n\n\n\n\n\n\n\n<p><a></a>Having trouble viewing this email? <a href=\"https://content.govdelivery.com/accounts/VAEDUFCPS/bulletins/3967b2d\">View it as a Web page</a>.</p>\n\n\n\n\n\n\n\n\n\n\n\n<a href=\"http://www2.fcps.edu/colvinrunes/?utm_campaign+=&amp;utm_medium=email&amp;utm_source=govdelivery\" targe...",
      "pubDate": "Mon, 15 Apr 2024 09:50:29 -0500",
      "timestamp": 1713192629000,
      "feedName": "Colvin Run Elementary School",
      "category": "Colvin Run Elementary School",
      "feedSource": "http://www.fcps.edu/index.shtml",
      "feedInfo": {
        "title": "Colvin Run Elementary School News and announcements - Recent Updates",
        "description": "Colvin Run Elementary School News and announcements",
        "link": "http://www.fcps.edu/index.shtml"
      }
    },
    {
      "id": "NjAxNjIxNjk=",
      "title": "News and Announcements April 12th Edition",
      "link": "https://content.govdelivery.com/accounts/VAEDUFCPS/bulletins/3960079",
      "description": "\n        \n\n\n  \n\n\n\n\n\n\n\n\n<a href=\"https://mountvernonhs.fcps.edu/aggregator/sources/2?utm_campaign+=&amp;utm_medium=email&amp;utm_source=govdelivery\" target=\"_blank\">https://mountvernonhs.fcps.edu/aggregator/sources/2</a>\nHaga clic aquí para traducir este mensaje.\n\n\n\n\n\n\n\n\n\n\n\n<a href=\"https://mountvern...",
      "pubDate": "Fri, 12 Apr 2024 16:00:38 -0500",
      "timestamp": 1712955638000,
      "feedName": "Mount Vernon High School",
      "category": "Mount Vernon High School",
      "feedSource": "http://www.fcps.edu/index.shtml",
      "feedInfo": {
        "title": "Mount Vernon High School News and announcements - Recent Updates",
        "description": "Mount Vernon High School News and announcements",
        "link": "http://www.fcps.edu/index.shtml"
      }
    },
    {
      "id": "NjAxMjE2MDI=",
      "title": "MVHS Closed April 10th - Eid al-Fitr",
      "link": "https://content.govdelivery.com/accounts/VAEDUFCPS/bulletins/3956202",
      "description": "\n        \n\n\n  \n\n\n\n\n\n\n\n<p><a></a>Having trouble viewing this email? <a href=\"https://content.govdelivery.com/accounts/VAEDUFCPS/bulletins/3956202\">View it as a Web page</a>.</p>\n\n\n\n\n\n\n\n\n\n\n\n<a href=\"https://mountvernonhs.fcps.edu/?utm_campaign+=&amp;utm_medium=email&amp;utm_source=govdelivery\" target=...",
      "pubDate": "Tue, 09 Apr 2024 15:36:48 -0500",
      "timestamp": 1712695008000,
      "feedName": "Mount Vernon High School",
      "category": "Mount Vernon High School",
      "feedSource": "http://www.fcps.edu/index.shtml",
      "feedInfo": {
        "title": "Mount Vernon High School News and announcements - Recent Updates",
        "description": "Mount Vernon High School News and announcements",
        "link": "http://www.fcps.edu/index.shtml"
      }
    },
    {
      "id": "NjAxMjE1MTI=",
      "title": "Reminder- NO School Wednesday, April 10",
      "link": "https://content.govdelivery.com/accounts/VAEDUFCPS/bulletins/39561a8",
      "description": "\n        \n\n\n  \n\n\n\n\n\n\n\n<p><a></a>Having trouble viewing this email? <a href=\"https://content.govdelivery.com/accounts/VAEDUFCPS/bulletins/39561a8\">View it as a Web page</a>.</p>\n\n\n\n\n\n\n\n\n\n\n\n<a href=\"https://forestdalees.fcps.edu/?utm_campaign+=&amp;utm_medium=email&amp;utm_source=govdelivery\" target=\"...",
      "pubDate": "Tue, 09 Apr 2024 15:35:21 -0500",
      "timestamp": 1712694921000,
      "feedName": "Forestdale Elementary School",
      "category": "Forestdale Elementary School",
      "feedSource": "http://www.fcps.edu/index.shtml",
      "feedInfo": {
        "title": "Forestdale Elementary School News and announcements - Recent Updates",
        "description": "Forestdale Elementary School News and announcements",
        "link": "http://www.fcps.edu/index.shtml"
      }
    },
    {
      "id": "NjAxMTUxOTk=",
      "title": "Spring Pictures - Thursday, April 11",
      "link": "https://content.govdelivery.com/accounts/VAEDUFCPS/bulletins/39548ff",
      "description": "\n        \n\n\n  \n\n\n\n\n\n\n\n<p><a></a>Having trouble viewing this email? <a href=\"https://content.govdelivery.com/accounts/VAEDUFCPS/bulletins/39548ff\">View it as a Web page</a>.</p>\n\n\n\n\n\n\n\n\n\n\n\n<a href=\"https://waynewoodes.fcps.edu/?utm_campaign+=&amp;utm_medium=email&amp;utm_source=govdelivery\" target=\"_...",
      "pubDate": "Tue, 09 Apr 2024 08:56:41 -0500",
      "timestamp": 1712671001000,
      "feedName": "Waynewood Elementary School",
      "category": "Waynewood Elementary School",
      "feedSource": "http://www.fcps.edu/index.shtml",
      "feedInfo": {
        "title": "Waynewood Elementary School News and announcements - Recent Updates",
        "description": "Waynewood Elementary School News and announcements",
        "link": "http://www.fcps.edu/index.shtml"
      }
    },
    {
      "id": "NTk4NzI5MTM=",
      "title": "Falcon Press 4.8.24",
      "link": "https://content.govdelivery.com/accounts/VAEDUFCPS/bulletins/3919691",
      "description": "\n        \n\n\n  \n\n\n\n\n\n\n\n<p><a></a>Having trouble viewing this email? <a href=\"https://content.govdelivery.com/accounts/VAEDUFCPS/bulletins/3919691\">View it as a Web page</a>.</p>\n\n\n\n\n\n\n\n\n\n\n\n<a href=\"https://forestdalees.fcps.edu/?utm_campaign+=&amp;utm_medium=email&amp;utm_source=govdelivery\" target=\"...",
      "pubDate": "Tue, 09 Apr 2024 08:10:44 -0500",
      "timestamp": 1712668244000,
      "feedName": "Forestdale Elementary School",
      "category": "Forestdale Elementary School",
      "feedSource": "http://www.fcps.edu/index.shtml",
      "feedInfo": {
        "title": "Forestdale Elementary School News and announcements - Recent Updates",
        "description": "Forestdale Elementary School News and announcements",
        "link": "http://www.fcps.edu/index.shtml"
      }
    },
    {
      "id": "NjAwMTEyNzY=",
      "title": "Winter VHSL Excellence Leads into Spring having Sprung",
      "link": "https://content.govdelivery.com/accounts/VAEDUFCPS/bulletins/393b30c",
      "description": "\n        \n\n\n  \n\n\n\n\n\n\n\n<p><a></a>Having trouble viewing this email? <a href=\"https://content.govdelivery.com/accounts/VAEDUFCPS/bulletins/393b30c\">View it as a Web page</a>.</p>\n\n\n\n\n\n\n\n\n\n\n\n<a href=\"https://www.fcps.edu/staff/ilryong-moon?utm_campaign+=&amp;utm_medium=email&amp;utm_source=govdelivery\"...",
      "pubDate": "Mon, 08 Apr 2024 18:00:24 -0500",
      "timestamp": 1712617224000,
      "feedName": "FCPS School Board Member at Large (Ilryong Moon)",
      "category": "FCPS School Board Member at Large (Ilryong Moon)",
      "feedSource": "http://www.fcps.edu/",
      "feedInfo": {
        "title": "At-Large Member - Ilryong Moon - Recent Updates",
        "description": "At-Large Member - Ilryong Moon - Recent Updates",
        "link": "http://www.fcps.edu/"
      }
    },
    {
      "id": "NjAwNzQxOTY=",
      "title": "4/5/24 News From the Nest: Family Edition",
      "link": "https://content.govdelivery.com/accounts/VAEDUFCPS/bulletins/394a8d4",
      "description": "\n        \n\n\n  \n\n\n\n\n\n\n\n\n\n\n\n\n\n\n\n\n\n\n\n<a href=\"https://glenforestes.fcps.edu/?utm_campaign+=&amp;utm_medium=email&amp;utm_source=govdelivery\" target=\"_blank\"></a>\n\n\n\n\n\n\n\n\n\n\n\n\n\n\n\n\n  \n    \n      \n      <p>If you need this message in another language, please visit this link: https://glenforestes.fcps.edu/a...",
      "pubDate": "Fri, 05 Apr 2024 16:45:13 -0500",
      "timestamp": 1712353513000,
      "feedName": "Glen Forest Elementary School",
      "category": "Glen Forest Elementary School",
      "feedSource": "http://www.fcps.edu/index.shtml",
      "feedInfo": {
        "title": "Glen Forest Elementary School News and announcements - Recent Updates",
        "description": "Glen Forest Elementary School News and announcements",
        "link": "http://www.fcps.edu/index.shtml"
      }
    },
    {
      "id": "NTk5MDExMjA=",
      "title": "News and Announcements April 5th Edition",
      "link": "https://content.govdelivery.com/accounts/VAEDUFCPS/bulletins/39204c0",
      "description": "\n        \n\n\n  \n\n\n\n\n\n\n\n\n<a href=\"https://mountvernonhs.fcps.edu/aggregator/sources/2?utm_campaign+=&amp;utm_medium=email&amp;utm_source=govdelivery\" target=\"_blank\">https://mountvernonhs.fcps.edu/aggregator/sources/2</a>\nHaga clic aquí para traducir este mensaje.\n\n\n\n\n\n\n\n\n\n\n\n<a href=\"https://mountvern...",
      "pubDate": "Fri, 05 Apr 2024 16:00:13 -0500",
      "timestamp": 1712350813000,
      "feedName": "Mount Vernon High School",
      "category": "Mount Vernon High School",
      "feedSource": "http://www.fcps.edu/index.shtml",
      "feedInfo": {
        "title": "Mount Vernon High School News and announcements - Recent Updates",
        "description": "Mount Vernon High School News and announcements",
        "link": "http://www.fcps.edu/index.shtml"
      }
    },
    {
      "id": "NjAwNTY3ODE=",
      "title": "Hybla Happenings:",
      "link": "https://content.govdelivery.com/accounts/VAEDUFCPS/bulletins/39464cd",
      "description": "\n        \n\n\n  \n\n\n\n\n\n\n\n<p><a></a>Having trouble viewing this email? <a href=\"https://content.govdelivery.com/accounts/VAEDUFCPS/bulletins/39464cd\">View it as a Web page</a>.</p>\n\n\n\n\n\n\n\n\n\n\n\n<a href=\"http://www2.fcps.edu/HyblaValleyES/?utm_campaign+=&amp;utm_medium=email&amp;utm_source=govdelivery\" tar...",
      "pubDate": "Thu, 04 Apr 2024 13:09:11 -0500",
      "timestamp": 1712254151000,
      "feedName": "Hybla Valley Elementary School",
      "category": "Hybla Valley Elementary School",
      "feedSource": "http://www.fcps.edu/index.shtml",
      "feedInfo": {
        "title": "Hybla Valley Elementary School News and announcements - Recent Updates",
        "description": "Hybla Valley Elementary School News and announcements",
        "link": "http://www.fcps.edu/index.shtml"
      }
    },
    {
      "id": "NjAwNDUwNTg=",
      "title": "April 2024",
      "link": "https://content.govdelivery.com/accounts/VAEDUFCPS/bulletins/3943702",
      "description": "\n        \n\n\n  \n\n\n\n\n\n\n\n<p><a></a>Having trouble viewing this email? <a href=\"https://content.govdelivery.com/accounts/VAEDUFCPS/bulletins/3943702\">View it as a Web page</a>.</p>\n\n\n\n\n\n\n\n\n\n\n\n<a href=\"https://whitmanms.fcps.edu/?utm_campaign+=&amp;utm_medium=email&amp;utm_source=govdelivery\" target=\"_bl...",
      "pubDate": "Wed, 03 Apr 2024 16:42:33 -0500",
      "timestamp": 1712180553000,
      "feedName": "Whitman Middle School",
      "category": "Whitman Middle School",
      "feedSource": "http://www.fcps.edu/index.shtml",
      "feedInfo": {
        "title": "Whitman Middle School News and announcements - Recent Updates",
        "description": "Whitman Middle School News and announcements",
        "link": "http://www.fcps.edu/index.shtml"
      }
    },
    {
      "id": "NTk4NzMwMTY=",
      "title": "Falcon Press 4.1.24",
      "link": "https://content.govdelivery.com/accounts/VAEDUFCPS/bulletins/39196f8",
      "description": "\n        \n\n\n  \n\n\n\n\n\n\n\n<p><a></a>Having trouble viewing this email? <a href=\"https://content.govdelivery.com/accounts/VAEDUFCPS/bulletins/39196f8\">View it as a Web page</a>.</p>\n\n\n\n\n\n\n\n\n\n\n\n<a href=\"https://forestdalees.fcps.edu/?utm_campaign+=&amp;utm_medium=email&amp;utm_source=govdelivery\" target=\"...",
      "pubDate": "Tue, 02 Apr 2024 10:51:50 -0500",
      "timestamp": 1712073110000,
      "feedName": "Forestdale Elementary School",
      "category": "Forestdale Elementary School",
      "feedSource": "http://www.fcps.edu/index.shtml",
      "feedInfo": {
        "title": "Forestdale Elementary School News and announcements - Recent Updates",
        "description": "Forestdale Elementary School News and announcements",
        "link": "http://www.fcps.edu/index.shtml"
      }
    },
    {
      "id": "NTk5MDEyNzY=",
      "title": "News and Announcements March 22nd Edition",
      "link": "https://content.govdelivery.com/accounts/VAEDUFCPS/bulletins/392055c",
      "description": "\n        \n\n\n  \n\n\n\n\n\n\n\n\n<a href=\"https://mountvernonhs.fcps.edu/aggregator/sources/2?utm_campaign+=&amp;utm_medium=email&amp;utm_source=govdelivery\" target=\"_blank\">https://mountvernonhs.fcps.edu/aggregator/sources/2</a>\nHaga clic aquí para traducir este mensaje.\n\n\n\n\n\n\n\n\n\n\n\n<a href=\"https://mountvern...",
      "pubDate": "Fri, 22 Mar 2024 16:00:41 -0500",
      "timestamp": 1711141241000,
      "feedName": "Mount Vernon High School",
      "category": "Mount Vernon High School",
      "feedSource": "http://www.fcps.edu/index.shtml",
      "feedInfo": {
        "title": "Mount Vernon High School News and announcements - Recent Updates",
        "description": "Mount Vernon High School News and announcements",
        "link": "http://www.fcps.edu/index.shtml"
      }
    },
    {
      "id": "NTk5MDU0Mzg=",
      "title": "Edison Academy Monthly Newsletter",
      "link": "https://content.govdelivery.com/accounts/VAEDUFCPS/bulletins/392159e",
      "description": "\n        \n\n\n  \n\n\n\n\n\n\n\n<p>Having trouble viewing this email? <a href=\"https://content.govdelivery.com/accounts/VAEDUFCPS/bulletins/392159e\">View it as a Web page</a>.</p>\n\n\n\n\n\n\n\n\n\n\n\n\n\n\n\n\n\n\n\n\n\n\n\n\n\n\n\n\n<p>Edison Academy Families,</p>\n<p>Next week (March 25 - March 29) is Spring Break. Schools and school...",
      "pubDate": "Fri, 22 Mar 2024 13:56:54 -0500",
      "timestamp": 1711133814000,
      "feedName": "Edison Academy",
      "category": "Edison Academy",
      "feedSource": "http://www.fcps.edu/index.shtml",
      "feedInfo": {
        "title": "Edison Academy News and announcements - Recent Updates",
        "description": "Edison Academy News and announcements - Recent Updates",
        "link": "http://www.fcps.edu/index.shtml"
      }
    },
    {
      "id": "NTk4OTA1MzQ=",
      "title": "Edison Academy Monthly Newsletter",
      "link": "https://content.govdelivery.com/accounts/VAEDUFCPS/bulletins/391db66",
      "description": "\n        \n\n\n  \n\n\n\n\n\n\n\n<p>Having trouble viewing this email? <a href=\"https://content.govdelivery.com/accounts/VAEDUFCPS/bulletins/391db66\">View it as a Web page</a>.</p>\n\n\n\n\n\n\n\n\n\n\n\n\n\n\n\n\n\n\n\n\n\n\n\n\n\n\n\n\n<p>Edison Academy Families,</p>\n<p>Next week (March 25 - April 5) is Spring Break. Schools and school ...",
      "pubDate": "Fri, 22 Mar 2024 13:27:31 -0500",
      "timestamp": 1711132051000,
      "feedName": "Edison Academy",
      "category": "Edison Academy",
      "feedSource": "http://www.fcps.edu/index.shtml",
      "feedInfo": {
        "title": "Edison Academy News and announcements - Recent Updates",
        "description": "Edison Academy News and announcements - Recent Updates",
        "link": "http://www.fcps.edu/index.shtml"
      }
    },
    {
      "id": "NTk4NjA2NzE=",
      "title": "Falls Church Academy News!",
      "link": "https://content.govdelivery.com/accounts/VAEDUFCPS/bulletins/39166bf",
      "description": "\n        \n\n\n  \n\n\n\n\n\n\n\n<p><a></a>Having trouble viewing this email? <a href=\"https://content.govdelivery.com/accounts/VAEDUFCPS/bulletins/39166bf\">View it as a Web page</a>.</p>\n\n\n\n\n\n\n\n\n\n\n\n<a href=\"https://fallschurchacademy.fcps.edu/?utm_content=&amp;utm_medium=email&amp;utm_name=&amp;utm_source=gov...",
      "pubDate": "Fri, 22 Mar 2024 12:14:28 -0500",
      "timestamp": 1711127668000,
      "feedName": "Falls Church Academy",
      "category": "Falls Church Academy",
      "feedSource": "http://www.fcps.edu/index.shtml",
      "feedInfo": {
        "title": "Falls Church Academy News and Announcements - Recent Updates",
        "description": "Falls Church Academy News and Announcements - Recent Updates",
        "link": "http://www.fcps.edu/index.shtml"
      }
    },
    {
      "id": "NTk4NzQzNDU=",
      "title": "PTA Clean Kitchen TODAY and TOMORROW  @ PAPA JOHNS",
      "link": "https://content.govdelivery.com/accounts/VAEDUFCPS/bulletins/3919c29",
      "description": "\n        \n\n\n  \n\n\n\n\n\n\n\n<p><a></a>Having trouble viewing this email? <a href=\"https://content.govdelivery.com/accounts/VAEDUFCPS/bulletins/3919c29\">View it as a Web page</a>.</p>\n\n\n\n\n\n\n\n\n\n\n\n<a href=\"https://waynewoodes.fcps.edu/?utm_campaign+=&amp;utm_medium=email&amp;utm_source=govdelivery\" target=\"_...",
      "pubDate": "Wed, 20 Mar 2024 10:45:12 -0500",
      "timestamp": 1710949512000,
      "feedName": "Waynewood Elementary School",
      "category": "Waynewood Elementary School",
      "feedSource": "http://www.fcps.edu/index.shtml",
      "feedInfo": {
        "title": "Waynewood Elementary School News and announcements - Recent Updates",
        "description": "Waynewood Elementary School News and announcements",
        "link": "http://www.fcps.edu/index.shtml"
      }
    },
    {
      "id": "NTk4NTE1ODQ=",
      "title": "DATE CORRECTION: 3/18/24 News From the Nest: Family Edition",
      "link": "https://content.govdelivery.com/accounts/VAEDUFCPS/bulletins/3914340",
      "description": "\n        \n\n\n  \n\n\n\n\n\n\n\n\n\n\n\n\n\n\n\n\n\n\n\n<a href=\"https://glenforestes.fcps.edu/?utm_campaign+=&amp;utm_medium=email&amp;utm_source=govdelivery\" target=\"_blank\"></a>\n\n\n\n\n\n\n\n\n\n\n\n\n\n\n\n\n  \n    \n      \n      <p>If you need this message in another language, please visit this link: https://glenforestes.fcps.edu/a...",
      "pubDate": "Mon, 18 Mar 2024 14:23:28 -0500",
      "timestamp": 1710789808000,
      "feedName": "Glen Forest Elementary School",
      "category": "Glen Forest Elementary School",
      "feedSource": "http://www.fcps.edu/index.shtml",
      "feedInfo": {
        "title": "Glen Forest Elementary School News and announcements - Recent Updates",
        "description": "Glen Forest Elementary School News and announcements",
        "link": "http://www.fcps.edu/index.shtml"
      }
    },
    {
      "id": "NTk4NTA1OTE=",
      "title": "3/18/24 News From the Nest: Family Edition",
      "link": "https://content.govdelivery.com/accounts/VAEDUFCPS/bulletins/3913f5f",
      "description": "\n        \n\n\n  \n\n\n\n\n\n\n\n\n\n\n\n\n\n\n\n\n\n\n\n<a href=\"https://glenforestes.fcps.edu/?utm_campaign+=&amp;utm_medium=email&amp;utm_source=govdelivery\" target=\"_blank\"></a>\n\n\n\n\n\n\n\n\n\n\n\n\n\n\n\n\n  \n    \n      \n      <p>If you need this message in another language, please visit this link: https://glenforestes.fcps.edu/a...",
      "pubDate": "Mon, 18 Mar 2024 14:15:12 -0500",
      "timestamp": 1710789312000,
      "feedName": "Glen Forest Elementary School",
      "category": "Glen Forest Elementary School",
      "feedSource": "http://www.fcps.edu/index.shtml",
      "feedInfo": {
        "title": "Glen Forest Elementary School News and announcements - Recent Updates",
        "description": "Glen Forest Elementary School News and announcements",
        "link": "http://www.fcps.edu/index.shtml"
      }
    },
    {
      "id": "NTk3OTM5MTU=",
      "title": "News and Announcements March 15th Edition",
      "link": "https://content.govdelivery.com/accounts/VAEDUFCPS/bulletins/39061fb",
      "description": "\n        \n\n\n  \n\n\n\n\n\n\n\n\n<a href=\"https://mountvernonhs.fcps.edu/aggregator/sources/2?utm_campaign+=&amp;utm_medium=email&amp;utm_source=govdelivery\" target=\"_blank\">https://mountvernonhs.fcps.edu/aggregator/sources/2</a>\nHaga clic aquí para traducir este mensaje.\n\n\n\n\n\n\n\n\n\n\n\n<a href=\"https://mountvern...",
      "pubDate": "Fri, 15 Mar 2024 16:00:34 -0500",
      "timestamp": 1710536434000,
      "feedName": "Mount Vernon High School",
      "category": "Mount Vernon High School",
      "feedSource": "http://www.fcps.edu/index.shtml",
      "feedInfo": {
        "title": "Mount Vernon High School News and announcements - Recent Updates",
        "description": "Mount Vernon High School News and announcements",
        "link": "http://www.fcps.edu/index.shtml"
      }
    }
  ],
  "hasNext": true,
  "hasPrev": true
}