{
  "page": 69,
  "totalPages": 268,
  "totalItems": 5354,
  "itemsPerPage": 20,
  "items": [
    {
      "id": "NjUxMjQ4MDg=",
      "title": "Floris Family Message 5/29/25",
      "link": "https://content.govdelivery.com/accounts/VAEDUFCPS/bulletins/3e1b9c8",
      "description": "\n        \n\n\n  \n\n\n\n\n\n\n\n<p><a></a>Having trouble viewing this email? <a href=\"https://content.govdelivery.com/accounts/VAEDUFCPS/bulletins/3e1b9c8\">View it as a Web page</a>.</p>\n\n\n\n\n\n\n\n\n\n\n\n<a href=\"https://florises.fcps.edu/?utm_content=&amp;utm_medium=email&amp;utm_name=&amp;utm_source=govdelivery&a...",
      "pubDate": "Thu, 29 May 2025 14:44:07 -0500",
      "timestamp": 1748547847000,
      "feedName": "Floris Elementary School",
      "category": "Floris Elementary School",
      "feedSource": "http://www.fcps.edu/index.shtml",
      "feedInfo": {
        "title": "Floris Friday Message",
        "description": "Floris Elementary School News and announcements",
        "link": "http://www.fcps.edu/index.shtml"
      }
    },
    {
      "id": "NjUxODYzNjU=",
      "title": "Field Day Cancelled",
      "link": "https://content.govdelivery.com/accounts/VAEDUFCPS/bulletins/3e2aa3d",
      "description": "\n        \n\n\n  \n\n\n\n\n\n\n\n<p><a></a>Having trouble viewing this email? <a href=\"https://content.govdelivery.com/accounts/VAEDUFCPS/bulletins/3e2aa3d\">View it as a Web page</a>.</p>\n\n\n\n\n\n\n\n\n\n\n\n<a href=\"https://clermontes.fcps.edu/?utm_campaign+=&amp;utm_medium=email&amp;utm_source=govdelivery\" target=\"_b...",
      "pubDate": "Thu, 29 May 2025 14:22:34 -0500",
      "timestamp": 1748546554000,
      "feedName": "Clermont Elementary School",
      "category": "Clermont Elementary School",
      "feedSource": "http://www.fcps.edu/index.shtml",
      "feedInfo": {
        "title": "Clermont, VA Elementary School News and announcements - Recent Updates",
        "description": "Clermont Elementary School News and announcements",
        "link": "http://www.fcps.edu/index.shtml"
      }
    },
    {
      "id": "NjUxODc5NTI=",
      "title": "Academy Film Festival: Thursday, June 5",
      "link": "https://content.govdelivery.com/accounts/VAEDUFCPS/bulletins/3e2b070",
      "description": "\n        \n\n\n  \n\n\n\n\n\n\n\n<p><a></a>Having trouble viewing this email? <a href=\"https://content.govdelivery.com/accounts/VAEDUFCPS/bulletins/3e2b070\">View it as a Web\npage</a>.</p>\n\n\n\n\n\n\n\n\n\n\n\n<a href=\"http://www2.fcps.edu/FairfaxAcademy?utm_campaign+=&amp;utm_medium=email&amp;utm_source=govdelivery\" tar...",
      "pubDate": "Thu, 29 May 2025 14:18:02 -0500",
      "timestamp": 1748546282000,
      "feedName": "Fairfax Academy",
      "category": "Fairfax Academy",
      "feedSource": "http://www.fcps.edu/index.shtml",
      "feedInfo": {
        "title": "Fairfax Academy News and Announcements - Recent Updates",
        "description": "Fairfax Academy News and Announcements - Recent Updates",
        "link": "http://www.fcps.edu/index.shtml"
      }
    },
    {
      "id": "NjUxNzEzMjg=",
      "title": "Kilmer Center School Tiger Tales",
      "link": "https://content.govdelivery.com/accounts/VAEDUFCPS/bulletins/3e26f80",
      "description": "\n        \n\n\n  \n\n\n\n\n\n\n\n<p><a></a>Having trouble viewing this email? <a href=\"https://content.govdelivery.com/accounts/VAEDUFCPS/bulletins/3e26f80\">View it as a Web page</a>.</p>\n\n\n\n\n\n\n\n\n\n\n\n<a href=\"https://kilmercenter.fcps.edu/?utm_campaign+=&amp;utm_medium=email&amp;utm_source=govdelivery\" target=\"...",
      "pubDate": "Thu, 29 May 2025 14:00:13 -0500",
      "timestamp": 1748545213000,
      "feedName": "Kilmer Center",
      "category": "Kilmer Center",
      "feedSource": "http://www.fcps.edu/index.shtml",
      "feedInfo": {
        "title": "Kilmer Center News and announcements - Recent Updates",
        "description": "Kilmer Special Education Center News and announcements",
        "link": "http://www.fcps.edu/index.shtml"
      }
    },
    {
      "id": "NjUxNTk0NDY=",
      "title": "Wolftrap Connection - May 29, 2025",
      "link": "https://content.govdelivery.com/accounts/VAEDUFCPS/bulletins/3e24116",
      "description": "\n        \n\n\n  \n\n\n\n\n\n\n\n<p><a></a>Having trouble viewing this email? <a href=\"https://content.govdelivery.com/accounts/VAEDUFCPS/bulletins/3e24116\">View it as a Web page</a>.</p>\n\n\n\n\n\n\n\n\n\n\n\n\n\n\n\n\n\n\n\n\n\n\n\n\n\n\n\n\n\n<p>Inside this week's Connection:</p>\n<ul>\n<li>2025-26 PTA Board elected!</li>\n<li>Highlights ...",
      "pubDate": "Thu, 29 May 2025 13:57:51 -0500",
      "timestamp": 1748545071000,
      "feedName": "Wolftrap Elementary School",
      "category": "Wolftrap Elementary School",
      "feedSource": "http://www.fcps.edu/index.shtml",
      "feedInfo": {
        "title": "Wolftrap Elementary School News and Announcements - Recent Updates",
        "description": "Wolftrap Elementary School News and announcements",
        "link": "http://www.fcps.edu/index.shtml"
      }
    },
    {
      "id": "NjUxODc1NTI=",
      "title": "Crestwood ES Fundraiser TONIGHT",
      "link": "https://content.govdelivery.com/accounts/VAEDUFCPS/bulletins/3e2aee0",
      "description": "\n        \n\n\n  \n\n\n\n\n\n\n\n<p><a></a>Having trouble viewing this email? <a href=\"https://content.govdelivery.com/accounts/VAEDUFCPS/bulletins/3e2aee0\">View it as a Web page</a>.</p>\n\n\n\n\n\n\n\n\n\n\n\n<a href=\"https://crestwoodes.fcps.edu/?utm_campaign+=&amp;utm_medium=email&amp;utm_source=govdelivery\" target=\"_...",
      "pubDate": "Thu, 29 May 2025 13:46:18 -0500",
      "timestamp": 1748544378000,
      "feedName": "Crestwood Elementary School",
      "category": "Crestwood Elementary School",
      "feedSource": "http://www.fcps.edu/index.shtml",
      "feedInfo": {
        "title": "Crestwood Elementary School News and announcements - Recent Updates",
        "description": "Crestwood Elementary School News and announcements",
        "link": "http://www.fcps.edu/index.shtml"
      }
    },
    {
      "id": "NjUxODYwNjI=",
      "title": "LRES Principals Coffee",
      "link": "https://content.govdelivery.com/accounts/VAEDUFCPS/bulletins/3e2a90e",
      "description": "\n        \n\n\n  \n\n\n\n\n\n\n\n<p><a></a>Having trouble viewing this email? <a href=\"https://content.govdelivery.com/accounts/VAEDUFCPS/bulletins/3e2a90e\">View it as a Web page</a>.</p>\n\n\n\n\n\n\n\n\n\n\n\n<a href=\"https://lemonroades.fcps.edu/?utm_campaign+=&amp;utm_medium=email&amp;utm_source=govdelivery\" target=\"_...",
      "pubDate": "Thu, 29 May 2025 12:02:51 -0500",
      "timestamp": 1748538171000,
      "feedName": "Lemon Road Elementary School",
      "category": "Lemon Road Elementary School",
      "feedSource": "http://www.fcps.edu/index.shtml",
      "feedInfo": {
        "title": "Lemon Road Elementary School News and announcements - Recent Updates",
        "description": "Lemon Road Elementary School News and announcements",
        "link": "http://www.fcps.edu/index.shtml"
      }
    },
    {
      "id": "NjUwODYyNDk=",
      "title": "Beavergram",
      "link": "https://content.govdelivery.com/accounts/VAEDUFCPS/bulletins/3e12329",
      "description": "\n        \n\n\n  \n\n\n\n\n\n\n\n<p><a></a>Having trouble viewing this email? <a href=\"https://content.govdelivery.com/accounts/VAEDUFCPS/bulletins/3e12329\">View it as a Web page</a>.</p>\n\n\n\n\n\n\n\n\n\n\n\n\n\n\n\n\n\n\n\n\n\n\n\n\n\n\n\n<p><a href=\"https://urldefense.com/v3/__https:/links-1.govdelivery.com/CL0/https:*2F*2Fwoodleyhi...",
      "pubDate": "Thu, 29 May 2025 12:00:27 -0500",
      "timestamp": 1748538027000,
      "feedName": "Woodley Hills Elementary School",
      "category": "Woodley Hills Elementary School",
      "feedSource": "http://www.fcps.edu/index.shtml",
      "feedInfo": {
        "title": "Woodley Hills Elementary School News and announcements - Recent Updates",
        "description": "Woodley Hills Elementary School News and announcements",
        "link": "http://www.fcps.edu/index.shtml"
      }
    },
    {
      "id": "NjUxODQ4NjM=",
      "title": "Join Us for Volunteer Breakfast - Tomorrow/Friday starting at 8:00 AM",
      "link": "https://content.govdelivery.com/accounts/VAEDUFCPS/bulletins/3e2a45f",
      "description": "\n        \n\n\n  \n\n\n\n\n\n\n\n<p><a></a>Having trouble viewing this email? <a href=\"https://content.govdelivery.com/accounts/VAEDUFCPS/bulletins/3e2a45f\">View it as a Web page</a>.</p>\n\n\n\n\n\n\n\n\n\n\n\n<a href=\"https://wakefieldforestes.fcps.edu/?utm_campaign+=&amp;utm_medium=email&amp;utm_source=govdelivery\" tar...",
      "pubDate": "Thu, 29 May 2025 11:57:46 -0500",
      "timestamp": 1748537866000,
      "feedName": "Wakefield Forest Elementary School",
      "category": "Wakefield Forest Elementary School",
      "feedSource": "http://www.fcps.edu/index.shtml",
      "feedInfo": {
        "title": "Wakefield Forest Elementary School News and announcements - Recent Updates",
        "description": "Wakefield Forest Elementary School News and announcements",
        "link": "http://www.fcps.edu/index.shtml"
      }
    },
    {
      "id": "NjUxODYwNjM=",
      "title": "Lancer Activities Weekly Newsletter",
      "link": "https://content.govdelivery.com/accounts/VAEDUFCPS/bulletins/3e2a90f",
      "description": "\n        \n\n\n  \n\n\n\n\n\n\n\n<p><a></a>Having trouble viewing this email? <a href=\"https://content.govdelivery.com/accounts/VAEDUFCPS/bulletins/3e2a90f\">View it as a Web page</a>.</p>\n\n\n\n\n\n\n\n\n\n\n\n<a href=\"https://leehs.fcps.edu/?utm_content=&amp;utm_medium=email&amp;utm_name=&amp;utm_source=govdelivery&amp;...",
      "pubDate": "Thu, 29 May 2025 11:54:47 -0500",
      "timestamp": 1748537687000,
      "feedName": "John R. Lewis High School",
      "category": "John R. Lewis High School",
      "feedSource": "http://www.fcps.edu/index.shtml",
      "feedInfo": {
        "title": "Lewis High School News and announcements - Recent Updates",
        "description": "Lewis High School News and announcements",
        "link": "http://www.fcps.edu/index.shtml"
      }
    },
    {
      "id": "NjUxODU2NTc=",
      "title": "Correction: Ticket Purchase Link",
      "link": "https://content.govdelivery.com/accounts/VAEDUFCPS/bulletins/3e2a779",
      "description": "\n        \n\n\n  \n\n\n\n\n\n\n\n<p><a></a>Having trouble viewing this email? <a href=\"https://content.govdelivery.com/accounts/VAEDUFCPS/bulletins/3e2a779\">View it as a Web page</a>.</p>\n\n\n\n\n\n\n\n\n\n\n\n<a href=\"http://www2.fcps.edu/SilverbrookES/?utm_campaign+=&amp;utm_medium=email&amp;utm_source=govdelivery\" tar...",
      "pubDate": "Thu, 29 May 2025 11:22:03 -0500",
      "timestamp": 1748535723000,
      "feedName": "Silverbrook Elementary School",
      "category": "Silverbrook Elementary School",
      "feedSource": "http://www.fcps.edu/index.shtml",
      "feedInfo": {
        "title": "Silverbrook Elementary School News and announcements - Recent Updates",
        "description": "Silverbrook Elementary School News and announcements",
        "link": "http://www.fcps.edu/index.shtml"
      }
    },
    {
      "id": "NjUxODI1Mjg=",
      "title": "Reminder Tomorrow:  5/30 Silverbrook Summer Sail-Off",
      "link": "https://content.govdelivery.com/accounts/VAEDUFCPS/bulletins/3e29b40",
      "description": "\n        \n\n\n  \n\n\n\n\n\n\n\n<p><a></a>Having trouble viewing this email? <a href=\"https://content.govdelivery.com/accounts/VAEDUFCPS/bulletins/3e29b40\">View it as a Web page</a>.</p>\n\n\n\n\n\n\n\n\n\n\n\n<a href=\"http://www2.fcps.edu/SilverbrookES/?utm_campaign+=&amp;utm_medium=email&amp;utm_source=govdelivery\" tar...",
      "pubDate": "Thu, 29 May 2025 11:00:39 -0500",
      "timestamp": 1748534439000,
      "feedName": "Silverbrook Elementary School",
      "category": "Silverbrook Elementary School",
      "feedSource": "http://www.fcps.edu/index.shtml",
      "feedInfo": {
        "title": "Silverbrook Elementary School News and announcements - Recent Updates",
        "description": "Silverbrook Elementary School News and announcements",
        "link": "http://www.fcps.edu/index.shtml"
      }
    },
    {
      "id": "NjUxODUxNzY=",
      "title": "Tonight! NFES PTA Virtual Final Meeting",
      "link": "https://content.govdelivery.com/accounts/VAEDUFCPS/bulletins/3e2a598",
      "description": "\n        \n\n\n  \n\n\n\n\n\n\n\n<p><a></a>Having trouble viewing this email? <a href=\"https://content.govdelivery.com/accounts/VAEDUFCPS/bulletins/3e2a598\">View it as a Web page</a>.</p>\n\n\n\n\n\n\n\n\n\n\n\n<a href=\"http://www2.fcps.edu/NewingtonForestES/?utm_campaign+=&amp;utm_medium=email&amp;utm_source=govdelivery\"...",
      "pubDate": "Thu, 29 May 2025 10:56:11 -0500",
      "timestamp": 1748534171000,
      "feedName": "Newington Forest Elementary School",
      "category": "Newington Forest Elementary School",
      "feedSource": "http://www.fcps.edu/index.shtml",
      "feedInfo": {
        "title": "Newington Forest Elementary School News and announcements - Recent Updates",
        "description": "Newington Forest Elementary School News and announcements",
        "link": "http://www.fcps.edu/index.shtml"
      }
    },
    {
      "id": "NjUxNzQ2Mzk=",
      "title": "Westlawn Feather Report: Volume 1, Issue 37",
      "link": "https://content.govdelivery.com/accounts/VAEDUFCPS/bulletins/3e27c6f",
      "description": "\n        \n\n\n  \n\n\n\n\n\n\n\n<p><a></a>Having trouble viewing this email? <a href=\"https://content.govdelivery.com/accounts/VAEDUFCPS/bulletins/3e27c6f\">View it as a Web page</a>.</p>\n\n\n\n\n\n\n\n\n\n\n\n<a href=\"https://westlawnes.fcps.edu/?utm_campaign+=&amp;utm_medium=email&amp;utm_source=govdelivery\" target=\"_b...",
      "pubDate": "Thu, 29 May 2025 08:00:22 -0500",
      "timestamp": 1748523622000,
      "feedName": "Westlawn Elementary School",
      "category": "Westlawn Elementary School",
      "feedSource": "http://www.fcps.edu/index.shtml",
      "feedInfo": {
        "title": "Westlawn Elementary School News and Announcements - Recent Updates",
        "description": "Westlawn Elementary School News and Announcements",
        "link": "http://www.fcps.edu/index.shtml"
      }
    },
    {
      "id": "NjUxODIzOTU=",
      "title": "Weekly Updates",
      "link": "https://content.govdelivery.com/accounts/VAEDUFCPS/bulletins/3e29abb",
      "description": "\n        \n\n\n  \n\n\n\n\n\n\n\n<p><a></a>Having trouble viewing this email? <a href=\"https://content.govdelivery.com/accounts/VAEDUFCPS/bulletins/3e29abb\">View it as a Web page</a>.</p>\n\n\n\n\n\n\n\n\n\n\n\n<a href=\"http://www2.fcps.edu/SleepyHollowES/?utm_content=&amp;utm_medium=email&amp;utm_name=&amp;utm_source=gov...",
      "pubDate": "Thu, 29 May 2025 07:29:31 -0500",
      "timestamp": 1748521771000,
      "feedName": "Sleepy Hollow Elementary School",
      "category": "Sleepy Hollow Elementary School",
      "feedSource": "http://www.fcps.edu/index.shtml",
      "feedInfo": {
        "title": "Sleepy Hollow Elementary School News and announcements - Recent Updates",
        "description": "Sleepy Hollow Elementary School News and announcements",
        "link": "http://www.fcps.edu/index.shtml"
      }
    },
    {
      "id": "NjUxNzMzODA=",
      "title": "Cub Run Elementary Family Newsletter",
      "link": "https://content.govdelivery.com/accounts/VAEDUFCPS/bulletins/3e27784",
      "description": "\n        \n\n\n  \n\n\n\n\n\n\n\n<p><a></a>Having trouble viewing this email? <a href=\"https://content.govdelivery.com/accounts/VAEDUFCPS/bulletins/3e27784\">View it as a Web page</a>.</p>\n\n\n\n\n\n\n\n\n\n\n\n<a href=\"https://cubrunes.fcps.edu/?utm_campaign+=&amp;utm_medium=email&amp;utm_source=govdelivery\" target=\"_bla...",
      "pubDate": "Wed, 28 May 2025 19:11:02 -0500",
      "timestamp": 1748477462000,
      "feedName": "Cub Run Elementary School",
      "category": "Cub Run Elementary School",
      "feedSource": "http://www.fcps.edu/index.shtml",
      "feedInfo": {
        "title": "Cub Run Elementary School News and Announcements - Use this one - Recent Updates",
        "description": "Cub Run Elementary School News and announcements",
        "link": "http://www.fcps.edu/index.shtml"
      }
    },
    {
      "id": "NjUxNzg1Mjc=",
      "title": "World Wonders: Celebrating our Global Community is TOMORROW!",
      "link": "https://content.govdelivery.com/accounts/VAEDUFCPS/bulletins/3e28b9f",
      "description": "\n        \n\n\n  \n\n\n\n\n\n\n\n<p><a></a>Having trouble viewing this email? <a href=\"https://content.govdelivery.com/accounts/VAEDUFCPS/bulletins/3e28b9f\">View it as a Web page</a>.</p>\n\n\n\n\n\n\n\n\n\n\n\n<a href=\"http://www2.fcps.edu/HalleyES/?utm_campaign+=&amp;utm_medium=email&amp;utm_source=govdelivery\" target=\"...",
      "pubDate": "Wed, 28 May 2025 18:20:39 -0500",
      "timestamp": 1748474439000,
      "feedName": "Halley Elementary School",
      "category": "Halley Elementary School",
      "feedSource": "http://www.fcps.edu/index.shtml",
      "feedInfo": {
        "title": "Halley Elementary School News and announcements - Recent Updates",
        "description": "Halley Elementary School News and announcements",
        "link": "http://www.fcps.edu/index.shtml"
      }
    },
    {
      "id": "NjUxMTMwMTE=",
      "title": "May 28 Family Newsletter",
      "link": "https://content.govdelivery.com/accounts/VAEDUFCPS/bulletins/3e18bb3",
      "description": "\n        \n\n\n  \n\n\n\n\n\n\n\n<p><a></a>Having trouble viewing this email? <a href=\"https://content.govdelivery.com/accounts/VAEDUFCPS/bulletins/3e18bb3\">View it as a Web page</a>.</p>\n\n\n\n\n\n\n\n\n\n\n\n<a href=\"http://www2.fcps.edu/UnionMillES/?utm_campaign+=&amp;utm_medium=email&amp;utm_source=govdelivery\" targe...",
      "pubDate": "Wed, 28 May 2025 17:15:47 -0500",
      "timestamp": 1748470547000,
      "feedName": "Union Mill Elementary School",
      "category": "Union Mill Elementary School",
      "feedSource": "http://www.fcps.edu/index.shtml",
      "feedInfo": {
        "title": "Union Mill Elementary School News and announcements - Recent Updates",
        "description": "Union Mill Elementary School News and announcements",
        "link": "http://www.fcps.edu/index.shtml"
      }
    },
    {
      "id": "NjUxNzgwMDU=",
      "title": "Crestwood ES Fundraiser TOMORROW",
      "link": "https://content.govdelivery.com/accounts/VAEDUFCPS/bulletins/3e28995",
      "description": "\n        \n\n\n  \n\n\n\n\n\n\n\n<p><a></a>Having trouble viewing this email? <a href=\"https://content.govdelivery.com/accounts/VAEDUFCPS/bulletins/3e28995\">View it as a Web page</a>.</p>\n\n\n\n\n\n\n\n\n\n\n\n<a href=\"https://crestwoodes.fcps.edu/?utm_campaign+=&amp;utm_medium=email&amp;utm_source=govdelivery\" target=\"_...",
      "pubDate": "Wed, 28 May 2025 17:04:09 -0500",
      "timestamp": 1748469849000,
      "feedName": "Crestwood Elementary School",
      "category": "Crestwood Elementary School",
      "feedSource": "http://www.fcps.edu/index.shtml",
      "feedInfo": {
        "title": "Crestwood Elementary School News and announcements - Recent Updates",
        "description": "Crestwood Elementary School News and announcements",
        "link": "http://www.fcps.edu/index.shtml"
      }
    },
    {
      "id": "NjUxNzc4ODA=",
      "title": "Key MS PTA Meeting TOMORROW",
      "link": "https://content.govdelivery.com/accounts/VAEDUFCPS/bulletins/3e28918",
      "description": "\n        \n\n\n  \n\n\n\n\n\n\n\n<p><a></a>Having trouble viewing this email? <a href=\"https://content.govdelivery.com/accounts/VAEDUFCPS/bulletins/3e28918\">View it as a Web page</a>.</p>\n\n\n\n\n\n\n\n\n\n\n\n<a href=\"https://crestwoodes.fcps.edu/?utm_campaign+=&amp;utm_medium=email&amp;utm_source=govdelivery\" target=\"_...",
      "pubDate": "Wed, 28 May 2025 16:58:44 -0500",
      "timestamp": 1748469524000,
      "feedName": "Crestwood Elementary School",
      "category": "Crestwood Elementary School",
      "feedSource": "http://www.fcps.edu/index.shtml",
      "feedInfo": {
        "title": "Crestwood Elementary School News and announcements - Recent Updates",
        "description": "Crestwood Elementary School News and announcements",
        "link": "http://www.fcps.edu/index.shtml"
      }
    }
  ],
  "hasNext": true,
  "hasPrev": true
}