{
  "page": 5,
  "totalPages": 268,
  "totalItems": 5354,
  "itemsPerPage": 20,
  "items": [
    {
      "id": "NjU5MjkwNzk=",
      "title": "A warm WELCOME to our Sandburg MS community!",
      "link": "https://content.govdelivery.com/accounts/VAEDUFCPS/bulletins/3edff77",
      "description": "\n        \n\n\n  \n\n\n\n\n\n\n\n<p><a></a>Having trouble viewing this email? <a href=\"https://content.govdelivery.com/accounts/VAEDUFCPS/bulletins/3edff77\">View it as a Web page</a>.</p>\n\n\n\n\n\n\n\n\n\n\n\n<a href=\"http://www2.fcps.edu/SandburgMS/?utm_campaign+=&amp;utm_medium=email&amp;utm_source=govdelivery\" target...",
      "pubDate": "Fri, 15 Aug 2025 07:05:12 -0500",
      "timestamp": 1755259512000,
      "feedName": "Sandburg Middle School",
      "category": "Sandburg Middle School",
      "feedSource": "http://www.fcps.edu/index.shtml",
      "feedInfo": {
        "title": "Sandburg Middle School News and Announcements - Recent Updates",
        "description": "Sandburg Middle School News and announcements",
        "link": "http://www.fcps.edu/index.shtml"
      }
    },
    {
      "id": "NjU5MjY0OTk=",
      "title": "Eagle View Open House is Friday, August 15th!",
      "link": "https://content.govdelivery.com/accounts/VAEDUFCPS/bulletins/3edf563",
      "description": "\n        \n\n\n  \n\n\n\n\n\n\n\n<p><a></a>Having trouble viewing this email? <a href=\"https://content.govdelivery.com/accounts/VAEDUFCPS/bulletins/3edf563\">View it as a Web page</a>.</p>\n\n\n\n\n\n\n\n\n\n\n\n<a href=\"https://eagleviewes.fcps.edu/?utm_campaign+=&amp;utm_medium=email&amp;utm_source=govdelivery\" target=\"_...",
      "pubDate": "Thu, 14 Aug 2025 19:21:10 -0500",
      "timestamp": 1755217270000,
      "feedName": "Eagle View Elementary School",
      "category": "Eagle View Elementary School",
      "feedSource": "http://www.fcps.edu/index.shtml",
      "feedInfo": {
        "title": "Eagle View Elementary School News and announcements - Recent Updates",
        "description": "Eagle View Elementary School News and announcements",
        "link": "http://www.fcps.edu/index.shtml"
      }
    },
    {
      "id": "NjU5MDgxMjQ=",
      "title": "Sangster ES News from the Nest 8-14-2025",
      "link": "https://content.govdelivery.com/accounts/VAEDUFCPS/bulletins/3edad9c",
      "description": "\n        \n\n\n  \n\n\n\n\n\n\n\n<p><a></a>Having trouble viewing this email? <a href=\"https://content.govdelivery.com/accounts/VAEDUFCPS/bulletins/3edad9c\">View it as a Web page</a>.</p>\n\n\n\n\n\n\n\n\n\n\n\n<a href=\"https://sangsteres.fcps.edu/?utm_campaign+=&amp;utm_medium=email&amp;utm_source=govdelivery\" target=\"_b...",
      "pubDate": "Thu, 14 Aug 2025 19:00:18 -0500",
      "timestamp": 1755216018000,
      "feedName": "Sangster Elementary School",
      "category": "Sangster Elementary School",
      "feedSource": "http://www.fcps.edu/index.shtml",
      "feedInfo": {
        "title": "Sangster Elementary School News and announcements - Recent Updates",
        "description": "Sangster Elementary School News and announcements",
        "link": "http://www.fcps.edu/index.shtml"
      }
    },
    {
      "id": "NjU4OTMwMTU=",
      "title": "Springfield Estates ES News You Choose - August 14, 2025",
      "link": "https://content.govdelivery.com/accounts/VAEDUFCPS/bulletins/3ed7297",
      "description": "\n        \n\n\n  \n\n\n\n\n\n\n\n<p><a></a>Having trouble viewing this email? <a href=\"https://content.govdelivery.com/accounts/VAEDUFCPS/bulletins/3ed7297\">View it as a Web page</a>.</p>\n\n\n\n\n\n\n\n\n\n\n\n<a href=\"https://springfieldestateses.fcps.edu?utm_campaign+=&amp;utm_medium=email&amp;utm_source=govdelivery\" t...",
      "pubDate": "Thu, 14 Aug 2025 17:30:13 -0500",
      "timestamp": 1755210613000,
      "feedName": "Springfield Estates Elementary School",
      "category": "Springfield Estates Elementary School",
      "feedSource": "http://www.fcps.edu/index.shtml",
      "feedInfo": {
        "title": "Springfield Estates Elementary School News and announcements - Recent Updates",
        "description": "Springfield Estates Elementary School News and announcements",
        "link": "http://www.fcps.edu/index.shtml"
      }
    },
    {
      "id": "NjU4ODM5NjM=",
      "title": "Annandale Community Insider - 1st Day of School Logistics",
      "link": "https://content.govdelivery.com/accounts/VAEDUFCPS/bulletins/3ed4f3b",
      "description": "\n        \n\n\n  \n\n\n\n\n\n\n\n<p><a></a>Having trouble viewing this email? <a href=\"https://content.govdelivery.com/accounts/VAEDUFCPS/bulletins/3ed4f3b\">View it as a Web page</a>.</p>\n\n\n\n\n\n\n\n\n\n\n\n<a href=\"https://annandalehs.fcps.edu/?utm_campaign+=&amp;utm_medium=email&amp;utm_source=govdelivery\" target=\"_...",
      "pubDate": "Thu, 14 Aug 2025 16:27:04 -0500",
      "timestamp": 1755206824000,
      "feedName": "Annandale High School",
      "category": "Annandale High School",
      "feedSource": "http://www.fcps.edu/index.shtml",
      "feedInfo": {
        "title": "Annandale High School News and announcements - Recent Updates",
        "description": "Annandale High School News and Announcements",
        "link": "http://www.fcps.edu/index.shtml"
      }
    },
    {
      "id": "NjU4MTkwNjc=",
      "title": "The BULLS Bulletin (Week of 08/18)",
      "link": "https://content.govdelivery.com/accounts/VAEDUFCPS/bulletins/3ec51bb",
      "description": "\n        \n\n\n  \n\n\n\n\n\n\n\n<p><a></a>Having trouble viewing this email? <a href=\"https://content.govdelivery.com/accounts/VAEDUFCPS/bulletins/3ec51bb\">View it as a Web page</a>.</p>\n\n\n\n\n\n\n\n\n\n\n\n<a href=\"https://bullrunes.fcps.edu/?utm_content=&amp;utm_medium=email&amp;utm_name=&amp;utm_source=govdelivery&...",
      "pubDate": "Thu, 14 Aug 2025 16:00:15 -0500",
      "timestamp": 1755205215000,
      "feedName": "Bull Run Elementary School",
      "category": "Bull Run Elementary School",
      "feedSource": "http://www.fcps.edu/index.shtml",
      "feedInfo": {
        "title": "Bull Run Elementary School News and announcements - Recent Updates",
        "description": "Bull Run Elementary School News and announcements",
        "link": "http://www.fcps.edu/index.shtml"
      }
    },
    {
      "id": "NjU5MjAzMTM=",
      "title": "Saratoga Connection",
      "link": "https://content.govdelivery.com/accounts/VAEDUFCPS/bulletins/3eddd39",
      "description": "\n        \n\n\n  \n\n\n\n\n\n\n\n<p><a></a>Having trouble viewing this email? <a href=\"https://content.govdelivery.com/accounts/VAEDUFCPS/bulletins/3eddd39\">View it as a Web page</a>.</p>\n\n\n\n\n\n\n\n\n\n\n\n<a href=\"http://www2.fcps.edu/SaratogaES/?utm_campaign+=&amp;utm_medium=email&amp;utm_source=govdelivery\" target...",
      "pubDate": "Thu, 14 Aug 2025 16:00:12 -0500",
      "timestamp": 1755205212000,
      "feedName": "Saratoga Elementary School",
      "category": "Saratoga Elementary School",
      "feedSource": "http://www.fcps.edu/index.shtml",
      "feedInfo": {
        "title": "Saratoga Elementary School News and announcements - Recent Updates",
        "description": "Saratoga Elementary School News and announcements",
        "link": "http://www.fcps.edu/index.shtml"
      }
    },
    {
      "id": "NjU5MTk5NzM=",
      "title": "August 14, 2025",
      "link": "https://content.govdelivery.com/accounts/VAEDUFCPS/bulletins/3eddbe5",
      "description": "\n        \n\n\n  \n\n\n\n\n\n\n\n\n\n\n\n\n\n\n\n\n\n\n\n\n\n\n\n\n\n\n\n\n\n\n\n\n\n\n\n<p><a href=\"https://laurelhilles.fcps.edu/aggregator/sources/1?utm_content=&amp;utm_medium=email&amp;utm_name=&amp;utm_source=govdelivery&amp;utm_term=#modal-language-switcher\" target=\"_blank\">English</a> | <a href=\"https://laurelhilles.fcps.edu/aggr...",
      "pubDate": "Thu, 14 Aug 2025 15:37:58 -0500",
      "timestamp": 1755203878000,
      "feedName": "Laurel Hill Elementary School",
      "category": "Laurel Hill Elementary School",
      "feedSource": "http://www.fcps.edu/index.shtml",
      "feedInfo": {
        "title": "Laurel Hill Elementary School News and announcements - Recent Updates",
        "description": "Laurel Hill Elementary School News and announcements",
        "link": "http://www.fcps.edu/index.shtml"
      }
    },
    {
      "id": "NjU4OTY5NTY=",
      "title": "Deer Park Elementary Summer News  August 14, 2025",
      "link": "https://content.govdelivery.com/accounts/VAEDUFCPS/bulletins/3ed81fc",
      "description": "\n        \n\n\n  \n\n\n\n\n\n\n\n<p><a></a>Having trouble viewing this email? <a href=\"https://content.govdelivery.com/accounts/VAEDUFCPS/bulletins/3ed81fc\">View it as a Web page</a>.</p>\n\n\n\n\n\n\n\n\n\n\n\n<a href=\"https://deerparkes.fcps.edu/?utm_campaign+=&amp;utm_medium=email&amp;utm_source=govdelivery\" target=\"_b...",
      "pubDate": "Thu, 14 Aug 2025 15:30:16 -0500",
      "timestamp": 1755203416000,
      "feedName": "Deer Park Elementary School",
      "category": "Deer Park Elementary School",
      "feedSource": "http://www.fcps.edu/index.shtml",
      "feedInfo": {
        "title": "Deer Park Elementary School News and Announcements - Recent Updates",
        "description": "Deer Park Elementary School News and announcements",
        "link": "http://www.fcps.edu/index.shtml"
      }
    },
    {
      "id": "NjU5MjQ3Mzg=",
      "title": "Register for Kiss &amp; Ride for the 2025-2026 School Year",
      "link": "https://content.govdelivery.com/accounts/VAEDUFCPS/bulletins/3edee82",
      "description": "\n        \n\n\n  \n\n\n\n\n\n\n\n<p><a></a>Having trouble viewing this email? <a href=\"https://content.govdelivery.com/accounts/VAEDUFCPS/bulletins/3edee82\">View it as a Web page</a>.</p>\n\n\n\n\n\n\n\n\n\n\n\n<a href=\"http://www2.fcps.edu/HalleyES/?utm_campaign+=&amp;utm_medium=email&amp;utm_source=govdelivery\" target=\"...",
      "pubDate": "Thu, 14 Aug 2025 15:13:16 -0500",
      "timestamp": 1755202396000,
      "feedName": "Halley Elementary School",
      "category": "Halley Elementary School",
      "feedSource": "http://www.fcps.edu/index.shtml",
      "feedInfo": {
        "title": "Halley Elementary School News and announcements - Recent Updates",
        "description": "Halley Elementary School News and announcements",
        "link": "http://www.fcps.edu/index.shtml"
      }
    },
    {
      "id": "NjU5MDk2NTI=",
      "title": "Shrevewood Wise Words - August 14, 2025",
      "link": "https://content.govdelivery.com/accounts/VAEDUFCPS/bulletins/3edb394",
      "description": "\n        \n\n\n  \n\n\n\n\n\n\n\n<p><a></a>Having trouble viewing this email? <a href=\"https://content.govdelivery.com/accounts/VAEDUFCPS/bulletins/3edb394\">View it as a Web page</a>.</p>\n\n\n\n\n\n\n\n\n\n\n\n<a href=\"https://shrevewoodes.fcps.edu/?utm_campaign+=&amp;utm_medium=email&amp;utm_source=govdelivery\" target=\"...",
      "pubDate": "Thu, 14 Aug 2025 11:56:40 -0500",
      "timestamp": 1755190600000,
      "feedName": "Shrevewood Elementary School",
      "category": "Shrevewood Elementary School",
      "feedSource": "http://www.fcps.edu/index.shtml",
      "feedInfo": {
        "title": "Shrevewood Elementary School News and announcements - Recent Updates",
        "description": "Shrevewood Elementary School News and announcements",
        "link": "http://www.fcps.edu/index.shtml"
      }
    },
    {
      "id": "NjU5MjE5NDU=",
      "title": "Reminder: FHES Open House Tomorrow!",
      "link": "https://content.govdelivery.com/accounts/VAEDUFCPS/bulletins/3ede399",
      "description": "\n        \n\n\n  \n\n\n\n\n\n\n\n\n\n\n\n\n\n\n\n\n\n\n\n<a href=\"http://www2.fcps.edu/FreedomHillES/?utm_content=&amp;utm_medium=email&amp;utm_name=&amp;utm_source=govdelivery&amp;utm_term=\" target=\"_blank\"></a>\n\n\n\n\n\n\n\n\n\n\n\n\n\n\n\n\n\nOpen House - August 16!\n<p>Each year we welcome our families into the building the Friday bef...",
      "pubDate": "Thu, 14 Aug 2025 11:27:28 -0500",
      "timestamp": 1755188848000,
      "feedName": "Freedom Hill Elementary School",
      "category": "Freedom Hill Elementary School",
      "feedSource": "http://www.fcps.edu/index.shtml",
      "feedInfo": {
        "title": "Freedom Hill Elementary School News and announcements - Recent Updates",
        "description": "Freedom Hill Elementary School News and announcements",
        "link": "http://www.fcps.edu/index.shtml"
      }
    },
    {
      "id": "NjU5MjEwOTc=",
      "title": "Floris Back to School Message 8/14/25",
      "link": "https://content.govdelivery.com/accounts/VAEDUFCPS/bulletins/3ede049",
      "description": "\n        \n\n\n  \n\n\n\n\n\n\n\n<p><a></a>Having trouble viewing this email? <a href=\"https://content.govdelivery.com/accounts/VAEDUFCPS/bulletins/3ede049\">View it as a Web page</a>.</p>\n\n\n\n\n\n\n\n\n\n\n\n<a href=\"https://florises.fcps.edu/?utm_content=&amp;utm_medium=email&amp;utm_name=&amp;utm_source=govdelivery&a...",
      "pubDate": "Thu, 14 Aug 2025 10:49:26 -0500",
      "timestamp": 1755186566000,
      "feedName": "Floris Elementary School",
      "category": "Floris Elementary School",
      "feedSource": "http://www.fcps.edu/index.shtml",
      "feedInfo": {
        "title": "Floris Friday Message",
        "description": "Floris Elementary School News and announcements",
        "link": "http://www.fcps.edu/index.shtml"
      }
    },
    {
      "id": "NjU5MTk2OTc=",
      "title": "August 14, 2025",
      "link": "https://content.govdelivery.com/accounts/VAEDUFCPS/bulletins/3eddad1",
      "description": "\n        \n\n\n  \n\n\n\n\n\n\n\n<p><a></a>Having trouble viewing this email? <a href=\"https://content.govdelivery.com/accounts/VAEDUFCPS/bulletins/3eddad1\">View it as a Web page</a>.</p>\n\n\n\n\n\n\n\n\n\n\n\n<a href=\"https://whitmanms.fcps.edu/?utm_campaign+=&amp;utm_medium=email&amp;utm_source=govdelivery\" target=\"_bl...",
      "pubDate": "Thu, 14 Aug 2025 10:45:00 -0500",
      "timestamp": 1755186300000,
      "feedName": "Whitman Middle School",
      "category": "Whitman Middle School",
      "feedSource": "http://www.fcps.edu/index.shtml",
      "feedInfo": {
        "title": "Whitman Middle School News and announcements - Recent Updates",
        "description": "Whitman Middle School News and announcements",
        "link": "http://www.fcps.edu/index.shtml"
      }
    },
    {
      "id": "NjU4OTIwMzI=",
      "title": "Bonnie Brae ES: Open House and BBQ Friday, August 15",
      "link": "https://content.govdelivery.com/accounts/VAEDUFCPS/bulletins/3ed6ec0",
      "description": "\n        \n\n\n  \n\n\n\n\n\n\n\n<p><a></a>Having trouble viewing this email? <a href=\"https://content.govdelivery.com/accounts/VAEDUFCPS/bulletins/3ed6ec0\">View it as a Web page</a>.</p>\n\n\n\n\n\n\n\n\n\n\n\n<a href=\"https://bonniebraees.fcps.edu/?utm_campaign+=&amp;utm_medium=email&amp;utm_source=govdelivery\" target=\"...",
      "pubDate": "Thu, 14 Aug 2025 10:41:26 -0500",
      "timestamp": 1755186086000,
      "feedName": "Bonnie Brae Elementary School",
      "category": "Bonnie Brae Elementary School",
      "feedSource": "http://www.fcps.edu/index.shtml",
      "feedInfo": {
        "title": "Bonnie Brae News and Announcements",
        "description": "Bonnie Brae Elementary School News and announcements",
        "link": "http://www.fcps.edu/index.shtml"
      }
    },
    {
      "id": "NjU5MjEwMjU=",
      "title": "Today is Open House! Sign Up for Kiss and Ride",
      "link": "https://content.govdelivery.com/accounts/VAEDUFCPS/bulletins/3ede001",
      "description": "\n        \n\n\n  \n\n\n\n\n\n\n\n<p><a></a>Having trouble viewing this email? <a href=\"https://content.govdelivery.com/accounts/VAEDUFCPS/bulletins/3ede001\">View it as a Web page</a>.</p>\n\n\n\n\n\n\n\n\n\n\n\n<a href=\"http://www2.fcps.edu/GarfieldES/?utm_campaign+=&amp;utm_medium=email&amp;utm_source=govdelivery\" target...",
      "pubDate": "Thu, 14 Aug 2025 10:25:53 -0500",
      "timestamp": 1755185153000,
      "feedName": "Garfield Elementary School",
      "category": "Garfield Elementary School",
      "feedSource": "http://www.fcps.edu/index.shtml",
      "feedInfo": {
        "title": "Garfield Elementary School - Recent Updates",
        "description": "Garfield Elementary School - Recent Updates",
        "link": "http://www.fcps.edu/index.shtml"
      }
    },
    {
      "id": "NjU5MDkwODA=",
      "title": "September Webinars",
      "link": "https://content.govdelivery.com/accounts/VAEDUFCPS/bulletins/3edb158",
      "description": "\n        \n\n\n  \n\n\n\n\n\n\n\n<p><a></a>Having trouble viewing this email? <a href=\"https://content.govdelivery.com/accounts/VAEDUFCPS/bulletins/3edb158\">View it as a Web page</a>.</p>\n\n\n\n\n\n\n\n\n\n\n\n<a href=\"https://www.fcps.edu/resources/family-engagement/parent-resource-center?utm_campaign+=&amp;utm_medium=e...",
      "pubDate": "Thu, 14 Aug 2025 10:10:47 -0500",
      "timestamp": 1755184247000,
      "feedName": "FCPS Family Resource Newsletters",
      "category": "FCPS Family Resource Newsletters",
      "feedSource": "https://www.fcps.edu/node/46704",
      "feedInfo": {
        "title": "PRC",
        "description": "PRC",
        "link": "https://www.fcps.edu/node/46704"
      }
    },
    {
      "id": "NjU5MDU2MDg=",
      "title": "Louise Archer Sunshine Scoop - 8/14",
      "link": "https://content.govdelivery.com/accounts/VAEDUFCPS/bulletins/3eda3c8",
      "description": "\n        \n\n\n  \n\n\n\n\n\n\n\n<p><a></a>Having trouble viewing this email? <a href=\"https://content.govdelivery.com/accounts/VAEDUFCPS/bulletins/3eda3c8\">View it as a Web page</a>.</p>\n\n\n\n\n\n\n\n\n\n\n\n<a href=\"http://www2.fcps.edu/LouiseArcherES/?utm_content=&amp;utm_medium=email&amp;utm_name=&amp;utm_source=gov...",
      "pubDate": "Thu, 14 Aug 2025 08:48:48 -0500",
      "timestamp": 1755179328000,
      "feedName": "Louise Archer Elementary School",
      "category": "Louise Archer Elementary School",
      "feedSource": "http://www.fcps.edu/index.shtml",
      "feedInfo": {
        "title": "Louise Archer Elementary School News and announcements - Recent Updates",
        "description": "Louise Archer Elementary School News and announcements",
        "link": "http://www.fcps.edu/index.shtml"
      }
    },
    {
      "id": "NjU5MTk0NTQ=",
      "title": "Open House TOMORROW @ Halley ES: Welcome back to School",
      "link": "https://content.govdelivery.com/accounts/VAEDUFCPS/bulletins/3edd9de",
      "description": "\n        \n\n\n  \n\n\n\n\n\n\n\n<p><a></a>Having trouble viewing this email? <a href=\"https://content.govdelivery.com/accounts/VAEDUFCPS/bulletins/3edd9de\">View it as a Web page</a>.</p>\n\n\n\n\n\n\n\n\n\n\n\n<a href=\"http://www2.fcps.edu/HalleyES/?utm_campaign+=&amp;utm_medium=email&amp;utm_source=govdelivery\" target=\"...",
      "pubDate": "Thu, 14 Aug 2025 08:46:01 -0500",
      "timestamp": 1755179161000,
      "feedName": "Halley Elementary School",
      "category": "Halley Elementary School",
      "feedSource": "http://www.fcps.edu/index.shtml",
      "feedInfo": {
        "title": "Halley Elementary School News and announcements - Recent Updates",
        "description": "Halley Elementary School News and announcements",
        "link": "http://www.fcps.edu/index.shtml"
      }
    },
    {
      "id": "NjU5MTQwNzY=",
      "title": "Fort Belvoir Primary School Weeks at a Glance (8/14/25)",
      "link": "https://content.govdelivery.com/accounts/VAEDUFCPS/bulletins/3edc4dc",
      "description": "\n        \n\n\n  \n\n\n\n\n\n\n\n<p><a></a>Having trouble viewing this email? <a href=\"https://content.govdelivery.com/accounts/VAEDUFCPS/bulletins/3edc4dc\">View it as a Web page</a>.</p>\n\n\n\n\n\n\n\n\n\n\n\n<a href=\"http://www2.fcps.edu/FtBelvoirES/?utm_campaign+=&amp;utm_medium=email&amp;utm_source=govdelivery\" targe...",
      "pubDate": "Thu, 14 Aug 2025 08:36:22 -0500",
      "timestamp": 1755178582000,
      "feedName": "Fort Belvoir Elementary School",
      "category": "Fort Belvoir Elementary School",
      "feedSource": "http://www.fcps.edu/index.shtml",
      "feedInfo": {
        "title": "Fort Belvoir Primary (PreK-2) News and Announcements - Recent Updates",
        "description": "Fort Belvoir Primary (PreK-2) News and Announcements - Recent Updates",
        "link": "http://www.fcps.edu/index.shtml"
      }
    }
  ],
  "hasNext": true,
  "hasPrev": true
}