{
  "page": 264,
  "totalPages": 268,
  "totalItems": 5354,
  "itemsPerPage": 20,
  "items": [
    {
      "id": "NDE5Nzk1NDg=",
      "title": "Family Fun Night",
      "link": "https://content.govdelivery.com/accounts/VAEDUFCPS/bulletins/2808e9c",
      "description": "\n        \n\n\n  \n\n\n\n\n\n\n\n<p><a></a>Having trouble viewing this email? <a href=\"https://content.govdelivery.com/accounts/VAEDUFCPS/bulletins/2808e9c\">View it as a Web page</a>.</p>\n\n\n\n\n\n\n\n\n\n\n\n<a href=\"https://armstronges.fcps.edu/?utm_content=&amp;utm_medium=email&amp;utm_name=&amp;utm_source=govdeliver...",
      "pubDate": "Wed, 11 Mar 2020 10:51:31 -0500",
      "timestamp": 1583941891000,
      "feedName": "Armstrong Elementary School",
      "category": "Armstrong Elementary School",
      "feedSource": "http://www.fcps.edu/index.shtml",
      "feedInfo": {
        "title": "Armstrong Elementary School News and announcements - Recent Updates",
        "description": "Armstrong Elementary School News and announcements",
        "link": "http://www.fcps.edu/index.shtml"
      }
    },
    {
      "id": "NDE4OTMxODU=",
      "title": "Up Coming Activites",
      "link": "https://content.govdelivery.com/accounts/VAEDUFCPS/bulletins/27f3d41",
      "description": "\n        \n\n\n  \n\n\n\n\n\n\n\n<p><a></a>Having trouble viewing this email? <a href=\"https://content.govdelivery.com/accounts/VAEDUFCPS/bulletins/27f3d41\">View it as a Web page</a>.</p>\n\n\n\n\n\n\n\n\n\n\n\n<a href=\"https://www.fcps.edu/resources/safety-and-transportation/transportation-services/safe-routes-school-srt...",
      "pubDate": "Mon, 09 Mar 2020 12:10:00 -0500",
      "timestamp": 1583773800000,
      "feedName": "FCPS Safe Routes to School",
      "category": "FCPS Safe Routes to School",
      "feedSource": "http://www.fcps.edu/",
      "feedInfo": {
        "title": "Safe Routes to School - Recent Updates",
        "description": "Safe Routes to School - Recent Updates",
        "link": "http://www.fcps.edu/"
      }
    },
    {
      "id": "NDE5MTQ2NTU=",
      "title": "Camelot Weekly News You Choose-3-5-20",
      "link": "https://content.govdelivery.com/accounts/VAEDUFCPS/bulletins/27f911f",
      "description": "\n        \n\n\n  \n\n\n\n\n\n\n\n<p><a></a>Having trouble viewing this email? <a href=\"https://content.govdelivery.com/accounts/VAEDUFCPS/bulletins/27f911f\">View it as a Web page</a>.</p>\n\n\n\n\n\n\n\n\n\n\n\n<a href=\"http://www2.fcps.edu/CamelotES/?utm_content=&amp;utm_medium=email&amp;utm_name=&amp;utm_source=govdeliv...",
      "pubDate": "Thu, 05 Mar 2020 18:43:22 -0600",
      "timestamp": 1583455402000,
      "feedName": "Camelot Elementary School",
      "category": "Camelot Elementary School",
      "feedSource": "http://www.fcps.edu/index.shtml",
      "feedInfo": {
        "title": "Camelot Elementary School News and announcements - Recent Updates",
        "description": "Camelot Elementary School News and announcements",
        "link": "http://www.fcps.edu/index.shtml"
      }
    },
    {
      "id": "NDE4NjgzNDY=",
      "title": "No School Tomorrow-Primary Election Day",
      "link": "https://content.govdelivery.com/accounts/VAEDUFCPS/bulletins/27edc3a",
      "description": "\n        \n\n\n  \n\n\n\n\n\n\n\n<a href=\"http://www2.fcps.edu/CamelotES/?utm_content=&amp;utm_medium=email&amp;utm_name=&amp;utm_source=govdelivery&amp;utm_term=\" target=\"_blank\"></a><p><a></a>Having trouble viewing this email? <a href=\"https://content.govdelivery.com/accounts/VAEDUFCPS/bulletins/27edc3a\">Vie...",
      "pubDate": "Mon, 02 Mar 2020 17:02:40 -0600",
      "timestamp": 1583190160000,
      "feedName": "Camelot Elementary School",
      "category": "Camelot Elementary School",
      "feedSource": "http://www.fcps.edu/index.shtml",
      "feedInfo": {
        "title": "Camelot Elementary School News and announcements - Recent Updates",
        "description": "Camelot Elementary School News and announcements",
        "link": "http://www.fcps.edu/index.shtml"
      }
    },
    {
      "id": "NDE3OTcwOTU=",
      "title": "FCPS Wellness Newsletter Spring 2020",
      "link": "https://content.govdelivery.com/accounts/VAEDUFCPS/bulletins/27dc5e7",
      "description": "\n        \n\n\n  \n\n\n\n\n\n\n\n\n\n\n\n\n\n\n\n\n\n\n\n\n\n\n\n\n\n\n\n\n\n\n\n\n\n\n\n<p><strong>Spring 2020</strong></p>\n<p> </p>\nFCPS Wellness Newsletter\nWellness Teams\n<p><strong>2019-2020 Wellness Reporting</strong></p>\n<p>FCPS will be completing annual wellness reporting on the implementation of our Local Wellness <a href=\"http:/...",
      "pubDate": "Mon, 02 Mar 2020 10:28:13 -0600",
      "timestamp": 1583166493000,
      "feedName": "FCPS Wellness Newsletter",
      "category": "FCPS Wellness Newsletter",
      "feedSource": "http://www.fcps.edu/",
      "feedInfo": {
        "title": "FCPS Wellness - Recent Updates",
        "description": "FCPS Wellness - Recent Updates",
        "link": "http://www.fcps.edu/"
      }
    },
    {
      "id": "NDE4MzI5NDA=",
      "title": "Special Education Update - March 2020",
      "link": "https://content.govdelivery.com/accounts/VAEDUFCPS/bulletins/27e51ec",
      "description": "\n        \n\n\n  \n\n\n\n\n\n\n\n<p><a></a>Having trouble viewing this email? <a href=\"https://content.govdelivery.com/accounts/VAEDUFCPS/bulletins/27e51ec\">View it as a Web page</a>.</p>\n\n\n\n\n\n\n\n\n\n\n\n<a href=\"https://www.fcps.edu/academics/academic-overview/special-education-instruction?utm_content=&amp;utm_med...",
      "pubDate": "Mon, 02 Mar 2020 07:00:24 -0600",
      "timestamp": 1583154024000,
      "feedName": "FCPS Special Education Update",
      "category": "FCPS Special Education Update",
      "feedSource": "https://www.fcps.edu/",
      "feedInfo": {
        "title": "Special Education and 504 Newsletter - Recent Updates",
        "description": "Special Education and 504 Newsletter - Recent Updates",
        "link": "https://www.fcps.edu/"
      }
    },
    {
      "id": "NDE3NDQ4NjU=",
      "title": "Camelot Weekly News You Choose-2-20-20",
      "link": "https://content.govdelivery.com/accounts/VAEDUFCPS/bulletins/27cf9e1",
      "description": "\n        \n\n\n  \n\n\n\n\n\n\n\n<p><a></a>Having trouble viewing this email? <a href=\"https://content.govdelivery.com/accounts/VAEDUFCPS/bulletins/27cf9e1\">View it as a Web page</a>.</p>\n\n\n\n\n\n\n\n\n\n\n\n<a href=\"http://www2.fcps.edu/CamelotES/?utm_content=&amp;utm_medium=email&amp;utm_name=&amp;utm_source=govdeliv...",
      "pubDate": "Thu, 20 Feb 2020 18:07:22 -0600",
      "timestamp": 1582243642000,
      "feedName": "Camelot Elementary School",
      "category": "Camelot Elementary School",
      "feedSource": "http://www.fcps.edu/index.shtml",
      "feedInfo": {
        "title": "Camelot Elementary School News and announcements - Recent Updates",
        "description": "Camelot Elementary School News and announcements",
        "link": "http://www.fcps.edu/index.shtml"
      }
    },
    {
      "id": "NDE3MTE5NzE=",
      "title": "Announcements",
      "link": "https://content.govdelivery.com/accounts/VAEDUFCPS/bulletins/27c7963",
      "description": "\n        \n\n\n  \n\n\n\n\n\n\n\n<p><a></a>Having trouble viewing this email? <a href=\"https://content.govdelivery.com/accounts/VAEDUFCPS/bulletins/27c7963\">View it as a Web page</a>.</p>\n\n\n\n\n\n\n\n\n\n\n\n<a href=\"https://marshallhs.fcps.edu/?utm_content=&amp;utm_medium=email&amp;utm_name=&amp;utm_source=govdelivery...",
      "pubDate": "Tue, 18 Feb 2020 15:10:29 -0600",
      "timestamp": 1582060229000,
      "feedName": "Marshall High School",
      "category": "Marshall High School",
      "feedSource": "http://www.fcps.edu/index.shtml",
      "feedInfo": {
        "title": "Marshall High School News and announcements - Recent Updates",
        "description": "Marshall High School News and announcements",
        "link": "http://www.fcps.edu/index.shtml"
      }
    },
    {
      "id": "NDE2NjExNTU=",
      "title": "Camelot Weekly News You Choose-2-13-20",
      "link": "https://content.govdelivery.com/accounts/VAEDUFCPS/bulletins/27bb2e3",
      "description": "\n        \n\n\n  \n\n\n\n\n\n\n\n<p><a></a>Having trouble viewing this email? <a href=\"https://content.govdelivery.com/accounts/VAEDUFCPS/bulletins/27bb2e3\">View it as a Web page</a>.</p>\n\n\n\n\n\n\n\n\n\n\n\n<a href=\"http://www2.fcps.edu/CamelotES/?utm_content=&amp;utm_medium=email&amp;utm_name=&amp;utm_source=govdeliv...",
      "pubDate": "Thu, 13 Feb 2020 18:02:12 -0600",
      "timestamp": 1581638532000,
      "feedName": "Camelot Elementary School",
      "category": "Camelot Elementary School",
      "feedSource": "http://www.fcps.edu/index.shtml",
      "feedInfo": {
        "title": "Camelot Elementary School News and announcements - Recent Updates",
        "description": "Camelot Elementary School News and announcements",
        "link": "http://www.fcps.edu/index.shtml"
      }
    },
    {
      "id": "NDE1NzU3MDg=",
      "title": "Camelot Weekly News You Choose-2-6-20",
      "link": "https://content.govdelivery.com/accounts/VAEDUFCPS/bulletins/27a651c",
      "description": "\n        \n\n\n  \n\n\n\n\n\n\n\n<p><a></a>Having trouble viewing this email? <a href=\"https://content.govdelivery.com/accounts/VAEDUFCPS/bulletins/27a651c\">View it as a Web page</a>.</p>\n\n\n\n\n\n\n\n\n\n\n\n<a href=\"http://www2.fcps.edu/CamelotES/?utm_content=&amp;utm_medium=email&amp;utm_name=&amp;utm_source=govdeliv...",
      "pubDate": "Thu, 06 Feb 2020 17:57:34 -0600",
      "timestamp": 1581033454000,
      "feedName": "Camelot Elementary School",
      "category": "Camelot Elementary School",
      "feedSource": "http://www.fcps.edu/index.shtml",
      "feedInfo": {
        "title": "Camelot Elementary School News and announcements - Recent Updates",
        "description": "Camelot Elementary School News and announcements",
        "link": "http://www.fcps.edu/index.shtml"
      }
    },
    {
      "id": "NDE0OTY0ODE=",
      "title": "Special Education Update - February 2020",
      "link": "https://content.govdelivery.com/accounts/VAEDUFCPS/bulletins/2792fa1",
      "description": "\n        \n\n\n  \n\n\n\n\n\n\n\n<p><a></a>Having trouble viewing this email? <a href=\"https://content.govdelivery.com/accounts/VAEDUFCPS/bulletins/2792fa1\">View it as a Web page</a>.</p>\n\n\n\n\n\n\n\n\n\n\n\n<a href=\"https://www.fcps.edu/academics/academic-overview/special-education-instruction?utm_content=&amp;utm_med...",
      "pubDate": "Mon, 03 Feb 2020 08:00:21 -0600",
      "timestamp": 1580738421000,
      "feedName": "FCPS Special Education Update",
      "category": "FCPS Special Education Update",
      "feedSource": "https://www.fcps.edu/",
      "feedInfo": {
        "title": "Special Education and 504 Newsletter - Recent Updates",
        "description": "Special Education and 504 Newsletter - Recent Updates",
        "link": "https://www.fcps.edu/"
      }
    },
    {
      "id": "NDE0OTEzMzE=",
      "title": "Camelot Weekly News You Choose-1-30-20",
      "link": "https://content.govdelivery.com/accounts/VAEDUFCPS/bulletins/2791b83",
      "description": "\n        \n\n\n  \n\n\n\n\n\n\n\n<p><a></a>Having trouble viewing this email? <a href=\"https://content.govdelivery.com/accounts/VAEDUFCPS/bulletins/2791b83\">View it as a Web page</a>.</p>\n\n\n\n\n\n\n\n\n\n\n\n<a href=\"http://www2.fcps.edu/CamelotES/?utm_content=&amp;utm_medium=email&amp;utm_name=&amp;utm_source=govdeliv...",
      "pubDate": "Thu, 30 Jan 2020 17:47:48 -0600",
      "timestamp": 1580428068000,
      "feedName": "Camelot Elementary School",
      "category": "Camelot Elementary School",
      "feedSource": "http://www.fcps.edu/index.shtml",
      "feedInfo": {
        "title": "Camelot Elementary School News and announcements - Recent Updates",
        "description": "Camelot Elementary School News and announcements",
        "link": "http://www.fcps.edu/index.shtml"
      }
    },
    {
      "id": "NDE0MTQ3MTc=",
      "title": "Camelot Weekly News You Choose-1-24-20",
      "link": "https://content.govdelivery.com/accounts/VAEDUFCPS/bulletins/277f03d",
      "description": "\n        \n\n\n  \n\n\n\n\n\n\n\n<p><a></a>Having trouble viewing this email? <a href=\"https://content.govdelivery.com/accounts/VAEDUFCPS/bulletins/277f03d\">View it as a Web page</a>.</p>\n\n\n\n\n\n\n\n\n\n\n\n<a href=\"http://www2.fcps.edu/CamelotES/?utm_content=&amp;utm_medium=email&amp;utm_name=&amp;utm_source=govdeliv...",
      "pubDate": "Fri, 24 Jan 2020 08:10:15 -0600",
      "timestamp": 1579875015000,
      "feedName": "Camelot Elementary School",
      "category": "Camelot Elementary School",
      "feedSource": "http://www.fcps.edu/index.shtml",
      "feedInfo": {
        "title": "Camelot Elementary School News and announcements - Recent Updates",
        "description": "Camelot Elementary School News and announcements",
        "link": "http://www.fcps.edu/index.shtml"
      }
    },
    {
      "id": "NDEzNDQyMDI=",
      "title": "Family Life Education",
      "link": "https://content.govdelivery.com/accounts/VAEDUFCPS/bulletins/276dcca",
      "description": "\n        \n\n\n  \n\n\n\n\n\n\n\n<p><a></a>Having trouble viewing this email? <a href=\"https://content.govdelivery.com/accounts/VAEDUFCPS/bulletins/276dcca\">View it as a Web page</a>.</p>\n\n\n\n\n\n\n\n\n\n\n\n<a href=\"https://marshallhs.fcps.edu/?utm_content=&amp;utm_medium=email&amp;utm_name=&amp;utm_source=govdelivery...",
      "pubDate": "Fri, 17 Jan 2020 16:04:52 -0600",
      "timestamp": 1579298692000,
      "feedName": "Marshall High School",
      "category": "Marshall High School",
      "feedSource": "http://www.fcps.edu/index.shtml",
      "feedInfo": {
        "title": "Marshall High School News and announcements - Recent Updates",
        "description": "Marshall High School News and announcements",
        "link": "http://www.fcps.edu/index.shtml"
      }
    },
    {
      "id": "NDEzNDE0NzU=",
      "title": "Camelot Weekly News You Choose-1-17-20",
      "link": "https://content.govdelivery.com/accounts/VAEDUFCPS/bulletins/276d223",
      "description": "\n        \n\n\n  \n\n\n\n\n\n\n\n<p><a></a>Having trouble viewing this email? <a href=\"https://content.govdelivery.com/accounts/VAEDUFCPS/bulletins/276d223\">View it as a Web page</a>.</p>\n\n\n\n\n\n\n\n\n\n\n\n<a href=\"http://www2.fcps.edu/CamelotES/?utm_content=&amp;utm_medium=email&amp;utm_name=&amp;utm_source=govdeliv...",
      "pubDate": "Fri, 17 Jan 2020 12:37:45 -0600",
      "timestamp": 1579286265000,
      "feedName": "Camelot Elementary School",
      "category": "Camelot Elementary School",
      "feedSource": "http://www.fcps.edu/index.shtml",
      "feedInfo": {
        "title": "Camelot Elementary School News and announcements - Recent Updates",
        "description": "Camelot Elementary School News and announcements",
        "link": "http://www.fcps.edu/index.shtml"
      }
    },
    {
      "id": "NDEyMTM4MTg=",
      "title": "Parent Safe Routes to School Survey",
      "link": "https://content.govdelivery.com/accounts/VAEDUFCPS/bulletins/274df7a",
      "description": "\n        \n\n\n  \n\n\n\n\n\n\n\n<p><a></a>Having trouble viewing this email? <a href=\"https://content.govdelivery.com/accounts/VAEDUFCPS/bulletins/274df7a\">View it as a Web page</a>.</p>\n\n\n\n\n\n\n\n\n\n\n\n<a href=\"https://www.fcps.edu/resources/safety-and-transportation/transportation-services/safe-routes-school-srt...",
      "pubDate": "Mon, 13 Jan 2020 10:29:43 -0600",
      "timestamp": 1578932983000,
      "feedName": "FCPS Safe Routes to School",
      "category": "FCPS Safe Routes to School",
      "feedSource": "http://www.fcps.edu/",
      "feedInfo": {
        "title": "Safe Routes to School - Recent Updates",
        "description": "Safe Routes to School - Recent Updates",
        "link": "http://www.fcps.edu/"
      }
    },
    {
      "id": "NDEyNjAyMDc=",
      "title": "Camelot Weekly News You Choose-1-10-20",
      "link": "https://content.govdelivery.com/accounts/VAEDUFCPS/bulletins/27594af",
      "description": "\n        \n\n\n  \n\n\n\n\n\n\n\n<p><a></a>Having trouble viewing this email? <a href=\"https://content.govdelivery.com/accounts/VAEDUFCPS/bulletins/27594af\">View it as a Web page</a>.</p>\n\n\n\n\n\n\n\n\n\n\n\n<a href=\"http://www2.fcps.edu/CamelotES/?utm_content=&amp;utm_medium=email&amp;utm_name=&amp;utm_source=govdeliv...",
      "pubDate": "Fri, 10 Jan 2020 17:14:46 -0600",
      "timestamp": 1578698086000,
      "feedName": "Camelot Elementary School",
      "category": "Camelot Elementary School",
      "feedSource": "http://www.fcps.edu/index.shtml",
      "feedInfo": {
        "title": "Camelot Elementary School News and announcements - Recent Updates",
        "description": "Camelot Elementary School News and announcements",
        "link": "http://www.fcps.edu/index.shtml"
      }
    },
    {
      "id": "NDEyNDcxNzY=",
      "title": "3rd-6th Donuts with Grownups-Tomorrow",
      "link": "https://content.govdelivery.com/accounts/VAEDUFCPS/bulletins/27561c8",
      "description": "\n        \n\n\n  \n\n\n\n\n\n\n\n<a href=\"http://www2.fcps.edu/CamelotES/?utm_content=&amp;utm_medium=email&amp;utm_name=&amp;utm_source=govdelivery&amp;utm_term=\" target=\"_blank\"></a><p><a></a>Having trouble viewing this email? <a href=\"https://content.govdelivery.com/accounts/VAEDUFCPS/bulletins/27561c8\">Vie...",
      "pubDate": "Thu, 09 Jan 2020 18:20:57 -0600",
      "timestamp": 1578615657000,
      "feedName": "Camelot Elementary School",
      "category": "Camelot Elementary School",
      "feedSource": "http://www.fcps.edu/index.shtml",
      "feedInfo": {
        "title": "Camelot Elementary School News and announcements - Recent Updates",
        "description": "Camelot Elementary School News and announcements",
        "link": "http://www.fcps.edu/index.shtml"
      }
    },
    {
      "id": "NDEyMzAxMDI=",
      "title": "GraceART Training",
      "link": "https://content.govdelivery.com/accounts/VAEDUFCPS/bulletins/2751f16",
      "description": "\n        \n\n\n  \n\n\n\n\n\n\n\n<p><a></a>Having trouble viewing this email? <a href=\"https://content.govdelivery.com/accounts/VAEDUFCPS/bulletins/2751f16\">View it as a Web page</a>.</p>\n\n\n\n\n\n\n\n\n\n\n\n<a href=\"https://armstronges.fcps.edu/?utm_content=&amp;utm_medium=email&amp;utm_name=&amp;utm_source=govdeliver...",
      "pubDate": "Wed, 08 Jan 2020 13:12:17 -0600",
      "timestamp": 1578510737000,
      "feedName": "Armstrong Elementary School",
      "category": "Armstrong Elementary School",
      "feedSource": "http://www.fcps.edu/index.shtml",
      "feedInfo": {
        "title": "Armstrong Elementary School News and announcements - Recent Updates",
        "description": "Armstrong Elementary School News and announcements",
        "link": "http://www.fcps.edu/index.shtml"
      }
    },
    {
      "id": "NDEwMTk4ODg=",
      "title": "FCPS Wellness Newsletter Winter 2019/2020",
      "link": "https://content.govdelivery.com/accounts/VAEDUFCPS/bulletins/271e9f0",
      "description": "\n        \n\n\n  \n\n\n\n\n\n\n\n\n\n\n\n\n\n\n\n\n\n\n\n\n\n\n\n\n\n\n\n\n\n\n\n\n\n\n\n<p><strong>Winter 2019/2020</strong></p>\n<p> </p>\nFCPS Wellness Newsletter\n<strong>Wellness Teams</strong>\n<p>By now, each school should have formed a wellness team and begun to assess their school’s strengths and weaknesses with relation to staff an...",
      "pubDate": "Tue, 07 Jan 2020 10:46:36 -0600",
      "timestamp": 1578415596000,
      "feedName": "FCPS Wellness Newsletter",
      "category": "FCPS Wellness Newsletter",
      "feedSource": "http://www.fcps.edu/",
      "feedInfo": {
        "title": "FCPS Wellness - Recent Updates",
        "description": "FCPS Wellness - Recent Updates",
        "link": "http://www.fcps.edu/"
      }
    }
  ],
  "hasNext": true,
  "hasPrev": true
}