{
  "page": 197,
  "totalPages": 268,
  "totalItems": 5354,
  "itemsPerPage": 20,
  "items": [
    {
      "id": "NjQwNzc5NTk=",
      "title": "Sunrise Valley News",
      "link": "https://content.govdelivery.com/accounts/VAEDUFCPS/bulletins/3d1c087",
      "description": "\n        \n\n\n  \n\n\n\n\n\n\n\n<p><a></a>Having trouble viewing this email? <a href=\"https://content.govdelivery.com/accounts/VAEDUFCPS/bulletins/3d1c087\">View it as a Web page</a>.</p>\n\n\n\n\n\n\n\n\n\n\n\n<a href=\"https://sunrisevalleyes.fcps.edu/?utm_campaign+=&amp;utm_medium=email&amp;utm_source=govdelivery\" targe...",
      "pubDate": "Sun, 16 Feb 2025 07:00:14 -0600",
      "timestamp": 1739710814000,
      "feedName": "Sunrise Valley Elementary School",
      "category": "Sunrise Valley Elementary School",
      "feedSource": "http://www.fcps.edu/index.shtml",
      "feedInfo": {
        "title": "Sunrise Valley Elementary School News and Announcements - Recent Updates",
        "description": "Sunrise Valley Elementary School News and announcements",
        "link": "http://www.fcps.edu/index.shtml"
      }
    },
    {
      "id": "NjQxMjg1MTY=",
      "title": "RHES Community Newsletter | 02/17/25",
      "link": "https://content.govdelivery.com/accounts/VAEDUFCPS/bulletins/3d28604",
      "description": "\n        \n\n\n  \n\n\n\n\n\n\n\n<p><a></a>Having trouble viewing this email? <a href=\"https://content.govdelivery.com/accounts/VAEDUFCPS/bulletins/3d28604\">View it as a Web page</a>.</p>\n\n\n\n\n\n\n\n\n\n\n\n<a href=\"http://www2.fcps.edu/RoseHillES/?utm_campaign+=&amp;utm_medium=email&amp;utm_source=govdelivery\" target...",
      "pubDate": "Sun, 16 Feb 2025 03:45:14 -0600",
      "timestamp": 1739699114000,
      "feedName": "Rose Hill Elementary School",
      "category": "Rose Hill Elementary School",
      "feedSource": "http://www.fcps.edu/index.shtml",
      "feedInfo": {
        "title": "Rose Hill Elementary School News and announcements - Recent Updates",
        "description": "Rose Hill Elementary School News and announcements",
        "link": "http://www.fcps.edu/index.shtml"
      }
    },
    {
      "id": "NjQxMjE3NDY=",
      "title": "Get Involved at VES: Upcoming Events &amp; Activities.",
      "link": "https://content.govdelivery.com/accounts/VAEDUFCPS/bulletins/3d26b92",
      "description": "\n        \n\n\n  \n\n\n\n\n\n\n\n<p><a></a>Having trouble viewing this email? <a href=\"https://content.govdelivery.com/accounts/VAEDUFCPS/bulletins/3d26b92\">View it as a Web page</a>.</p>\n\n\n\n\n\n\n\n\n\n\n\n<a href=\"https://viennaes.fcps.edu/aggregator/sources/1?utm_campaign+=&amp;utm_medium=email&amp;utm_source=govde...",
      "pubDate": "Sat, 15 Feb 2025 16:06:31 -0600",
      "timestamp": 1739657191000,
      "feedName": "Vienna Elementary School",
      "category": "Vienna Elementary School",
      "feedSource": "http://www.fcps.edu/index.shtml",
      "feedInfo": {
        "title": "Vienna Elementary School News and announcements - Recent Updates",
        "description": "Vienna Elementary School News and announcements",
        "link": "http://www.fcps.edu/index.shtml"
      }
    },
    {
      "id": "NjQxMjg5MjM=",
      "title": "Fort Hunt Fox Den News | February 14, 2025",
      "link": "https://content.govdelivery.com/accounts/VAEDUFCPS/bulletins/3d2879b",
      "description": "\n        \n\n\n  \n\n\n\n\n\n\n\n<p><a></a>Having trouble viewing this email? <a href=\"https://content.govdelivery.com/accounts/VAEDUFCPS/bulletins/3d2879b\">View it as a Web page</a>.</p>\n\n\n\n\n\n\n\n\n\n\n\n<a href=\"https://forthuntes.fcps.edu/?utm_campaign+=&amp;utm_medium=email&amp;utm_source=govdelivery\" target=\"_b...",
      "pubDate": "Sat, 15 Feb 2025 10:37:10 -0600",
      "timestamp": 1739637430000,
      "feedName": "Fort Hunt Elementary School",
      "category": "Fort Hunt Elementary School",
      "feedSource": "http://www.fcps.edu/index.shtml",
      "feedInfo": {
        "title": "Fort Hunt Elementary School News and Announcements - Recent Updates",
        "description": "Fort Hunt Elementary School News and announcements",
        "link": "http://www.fcps.edu/index.shtml"
      }
    },
    {
      "id": "NjQxMjQ2Mjg=",
      "title": "A Weekly Message from Irving MS",
      "link": "https://content.govdelivery.com/accounts/VAEDUFCPS/bulletins/3d276d4",
      "description": "\n        \n\n\n  \n\n\n\n\n\n\n\n<p><a></a>Having trouble viewing this email? <a href=\"https://content.govdelivery.com/accounts/VAEDUFCPS/bulletins/3d276d4\">View it as a Web page</a>.</p>\n\n\n\n\n\n\n\n\n\n\n\n<a href=\"https://irvingms.fcps.edu/?utm_campaign+=&amp;utm_medium=email&amp;utm_source=govdelivery\" target=\"_bla...",
      "pubDate": "Fri, 14 Feb 2025 19:32:27 -0600",
      "timestamp": 1739583147000,
      "feedName": "Irving Middle School",
      "category": "Irving Middle School",
      "feedSource": "http://www.fcps.edu/index.shtml",
      "feedInfo": {
        "title": "Irving Middle School News and announcements - Recent Updates",
        "description": "Irving Middle School News and announcements",
        "link": "http://www.fcps.edu/index.shtml"
      }
    },
    {
      "id": "NjQxMDgzNzY=",
      "title": "Coates Family Newsletter for 2/14/25",
      "link": "https://content.govdelivery.com/accounts/VAEDUFCPS/bulletins/3d23758",
      "description": "\n        \n\n\n  \n\n\n\n\n\n\n\n<p><a></a>Having trouble viewing this email? <a href=\"https://content.govdelivery.com/accounts/VAEDUFCPS/bulletins/3d23758\">View it as a Web\npage</a>.</p>\n\n\n\n\n\n\n\n\n\n\n\n<a href=\"https://coateses.fcps.edu/?utm_campaign+=&amp;utm_medium=email&amp;utm_source=govdelivery\" target=\"_bla...",
      "pubDate": "Fri, 14 Feb 2025 19:24:29 -0600",
      "timestamp": 1739582669000,
      "feedName": "Coates Elementary School",
      "category": "Coates Elementary School",
      "feedSource": "http://www.fcps.edu/index.shtml",
      "feedInfo": {
        "title": "Coates  Elementary School News and Announcements - Recent Updates",
        "description": "Coates  Elementary School News and announcements",
        "link": "http://www.fcps.edu/index.shtml"
      }
    },
    {
      "id": "NjQxMjQyMzI=",
      "title": "Bailey's ES News-February 14th, 2025",
      "link": "https://content.govdelivery.com/accounts/VAEDUFCPS/bulletins/3d27548",
      "description": "\n        \n\n\n  \n\n\n\n\n\n\n\n<p><a></a>Having trouble viewing this email? <a href=\"https://content.govdelivery.com/accounts/VAEDUFCPS/bulletins/3d27548\">View it as a Web page</a>.</p>\n\n\n\n\n\n\n\n\n\n\n\n<a href=\"https://baileyses.fcps.edu/?utm_campaign+=&amp;utm_medium=email&amp;utm_source=govdelivery\" target=\"_bl...",
      "pubDate": "Fri, 14 Feb 2025 19:15:12 -0600",
      "timestamp": 1739582112000,
      "feedName": "Bailey's Lower",
      "category": "Bailey's Lower",
      "feedSource": "http://www.fcps.edu/index.shtml",
      "feedInfo": {
        "title": "Bailey's Elementary (PreK-2) News and Announcements - Recent Updates",
        "description": "Bailey's Elementary (PreK-2) News and Announcements - Recent Updates",
        "link": "http://www.fcps.edu/index.shtml"
      }
    },
    {
      "id": "NjQxMjMxNjU=",
      "title": "The Clearview Community Connect February 14, 2025",
      "link": "https://content.govdelivery.com/accounts/VAEDUFCPS/bulletins/3d2711d",
      "description": "\n        \n\n\n  \n\n\n\n\n\n\n\n<p><a></a>Having trouble viewing this email? <a href=\"https://content.govdelivery.com/accounts/VAEDUFCPS/bulletins/3d2711d\">View it as a Web page</a>.</p>\n\n\n\n\n\n\n\n\n\n\n\n<a href=\"https://clearviewes.fcps.edu/?utm_campaign+=&amp;utm_medium=email&amp;utm_source=govdelivery\" target=\"_...",
      "pubDate": "Fri, 14 Feb 2025 17:30:15 -0600",
      "timestamp": 1739575815000,
      "feedName": "Clearview Elementary School",
      "category": "Clearview Elementary School",
      "feedSource": "http://www.fcps.edu/index.shtml",
      "feedInfo": {
        "title": "Clearview Elementary School News and Announcements - Recent Updates",
        "description": "Clearview Elementary School News and announcements",
        "link": "http://www.fcps.edu/index.shtml"
      }
    },
    {
      "id": "NjQwNTkwNDc=",
      "title": "Bailey's Upper ES News You Choose",
      "link": "https://content.govdelivery.com/accounts/VAEDUFCPS/bulletins/3d176a7",
      "description": "\n        \n\n\n  \n\n\n\n\n\n\n\n<p><a></a>Having trouble viewing this email? <a href=\"https://content.govdelivery.com/accounts/VAEDUFCPS/bulletins/3d176a7\">View it as a Web page</a>.</p>\n\n\n\n\n\n\n\n\n\n\n\n<a href=\"https://baileysupperes.fcps.edu/?utm_campaign+=&amp;utm_medium=email&amp;utm_source=govdelivery\" target...",
      "pubDate": "Fri, 14 Feb 2025 17:15:11 -0600",
      "timestamp": 1739574911000,
      "feedName": "Bailey's Upper",
      "category": "Bailey's Upper",
      "feedSource": "http://www.fcps.edu/index.shtml",
      "feedInfo": {
        "title": "Bailey's Upper (Grades 3-5) News and Announcements - Recent Updates",
        "description": "Bailey's Upper (Grades 3-5) News and Announcements - Recent Updates",
        "link": "http://www.fcps.edu/index.shtml"
      }
    },
    {
      "id": "NjQwOTExMzc=",
      "title": "Roadrunner Express!!!",
      "link": "https://content.govdelivery.com/accounts/VAEDUFCPS/bulletins/3d1f401",
      "description": "\n        \n\n\n  \n\n\n\n\n\n\n\n<p><a></a>[VIEW_THIS]]</p>\n\n\n\n\n\n\n\n\n\n\n\n<a href=\"http://www2.fcps.edu/lortonstationes/?utm_campaign+=&amp;utm_medium=email&amp;utm_source=govdelivery\" target=\"_blank\"></a>\n\n\n\n\n\n\n\n\n\n\n\n\n\n\n\n\n\n<p><strong>Feb 1 - 28:</strong> Black History Month</p>\n<p><strong>Feb. 17:</strong> Presid...",
      "pubDate": "Fri, 14 Feb 2025 17:07:41 -0600",
      "timestamp": 1739574461000,
      "feedName": "Lorton Station Elementary School",
      "category": "Lorton Station Elementary School",
      "feedSource": "http://www.fcps.edu/index.shtml",
      "feedInfo": {
        "title": "Lorton Station Elementary School News and announcements - Recent Updates",
        "description": "Lorton Station Elementary School News and announcements",
        "link": "http://www.fcps.edu/index.shtml"
      }
    },
    {
      "id": "NjQwNTkwNDg=",
      "title": "Bailey's Upper ES News You Choose",
      "link": "https://content.govdelivery.com/accounts/VAEDUFCPS/bulletins/3d176a8",
      "description": "\n        \n\n\n  \n\n\n\n\n\n\n\n<p><a></a>Having trouble viewing this email? <a href=\"https://content.govdelivery.com/accounts/VAEDUFCPS/bulletins/3d176a8\">View it as a Web page</a>.</p>\n\n\n\n\n\n\n\n\n\n\n\n<a href=\"https://baileysupperes.fcps.edu/?utm_campaign+=&amp;utm_medium=email&amp;utm_source=govdelivery\" target...",
      "pubDate": "Fri, 14 Feb 2025 17:00:15 -0600",
      "timestamp": 1739574015000,
      "feedName": "Bailey's Upper",
      "category": "Bailey's Upper",
      "feedSource": "http://www.fcps.edu/index.shtml",
      "feedInfo": {
        "title": "Bailey's Upper (Grades 3-5) News and Announcements - Recent Updates",
        "description": "Bailey's Upper (Grades 3-5) News and Announcements - Recent Updates",
        "link": "http://www.fcps.edu/index.shtml"
      }
    },
    {
      "id": "NjQxMjM0ODM=",
      "title": "Fairfax Villa News You Choose February 14, 2025",
      "link": "https://content.govdelivery.com/accounts/VAEDUFCPS/bulletins/3d2725b",
      "description": "\n        \n\n\n  \n\n\n\n\n\n\n\n<p><a></a>Having trouble viewing this email? <a href=\"https://content.govdelivery.com/accounts/VAEDUFCPS/bulletins/3d2725b\">View it as a Web page</a>.</p>\n\n\n\n\n\n\n\n\n\n\n\n<a href=\"https://fairfaxvillaes.fcps.edu?utm_campaign+=&amp;utm_medium=email&amp;utm_source=govdelivery\" target=...",
      "pubDate": "Fri, 14 Feb 2025 16:42:29 -0600",
      "timestamp": 1739572949000,
      "feedName": "Fairfax Villa Elementary School",
      "category": "Fairfax Villa Elementary School",
      "feedSource": "https://fairfaxvillaes.fcps.edu",
      "feedInfo": {
        "title": "Fairfax Villa Elementary School News and announcements",
        "description": "Fairfax Villa Elementary School News and announcements",
        "link": "https://fairfaxvillaes.fcps.edu"
      }
    },
    {
      "id": "NjQwOTI0ODk=",
      "title": "Woodburn Newsletter - February 14, 2025",
      "link": "https://content.govdelivery.com/accounts/VAEDUFCPS/bulletins/3d1f949",
      "description": "\n        \n\n\n  \n\n\n\n\n\n\n\n<p><a></a>Having trouble viewing this email? <a href=\"https://content.govdelivery.com/accounts/VAEDUFCPS/bulletins/3d1f949\">View it as a Web page</a>.</p>\n\n\n\n\n\n\n\n\n\n\n\n<a href=\"https://woodburnes.fcps.edu/?utm_content=&amp;utm_medium=email&amp;utm_name=&amp;utm_source=govdelivery...",
      "pubDate": "Fri, 14 Feb 2025 16:30:19 -0600",
      "timestamp": 1739572219000,
      "feedName": "Woodburn Elementary School",
      "category": "Woodburn Elementary School",
      "feedSource": "https://public.govdelivery.com/topics/Woodburn_Elementary_school_News_and_Announcements/feed.rss",
      "feedInfo": {
        "title": "Woodburn Elementary School News and announcements - Recent Updates",
        "description": "Woodburn Elementary School News and announcements",
        "link": "https://public.govdelivery.com/topics/Woodburn_Elementary_school_News_and_Announcements/feed.rss"
      }
    },
    {
      "id": "NjQwNTY5ODg=",
      "title": "Daniels Run ES- February 14, 2025",
      "link": "https://content.govdelivery.com/accounts/VAEDUFCPS/bulletins/3d16e9c",
      "description": "\n        \n\n\n  \n\n\n\n\n\n\n\n<p><a></a>Having trouble viewing this email? <a href=\"https://content.govdelivery.com/accounts/VAEDUFCPS/bulletins/3d16e9c\">View it as a Web page</a>.</p>\n\n\n\n\n\n\n\n\n\n\n\n<a href=\"https://danielsrunes.fcps.edu/?utm_campaign+=&amp;utm_medium=email&amp;utm_source=govdelivery\" target=\"...",
      "pubDate": "Fri, 14 Feb 2025 16:27:24 -0600",
      "timestamp": 1739572044000,
      "feedName": "Daniels Run Elementary School",
      "category": "Daniels Run Elementary School",
      "feedSource": "http://www.fcps.edu/index.shtml",
      "feedInfo": {
        "title": "Daniels Run Elementary School News and announcements - Recent Updates",
        "description": "Daniels Run Elementary School News and announcements",
        "link": "http://www.fcps.edu/index.shtml"
      }
    },
    {
      "id": "NjQxMTc2MDg=",
      "title": "Timber Lane Times 2/14/25",
      "link": "https://content.govdelivery.com/accounts/VAEDUFCPS/bulletins/3d25b68",
      "description": "\n        \n\n\n  \n\n\n\n\n\n\n\n<p><a></a>Having trouble viewing this email? <a href=\"https://content.govdelivery.com/accounts/VAEDUFCPS/bulletins/3d25b68\">View it as a Web page</a>.</p>\n\n\n\n\n\n\n\n\n\n\n\n\n<a href=\"https://timberlanees.fcps.edu/?utm_campaign+=&amp;utm_medium=email&amp;utm_source=govdelivery\" target=...",
      "pubDate": "Fri, 14 Feb 2025 16:20:45 -0600",
      "timestamp": 1739571645000,
      "feedName": "Timber Lane Elementary School",
      "category": "Timber Lane Elementary School",
      "feedSource": "http://www.fcps.edu/index.shtml",
      "feedInfo": {
        "title": "Timber Lane Elementary School News and announcements - Recent Updates",
        "description": "Timber Lane Elementary School News and announcements",
        "link": "http://www.fcps.edu/index.shtml"
      }
    },
    {
      "id": "NjQxMTI5Mjk=",
      "title": "Weekly Wave: February 14, 2025",
      "link": "https://content.govdelivery.com/accounts/VAEDUFCPS/bulletins/3d24921",
      "description": "\n        \n\n\n  \n\n\n\n\n\n\n\n<p><a></a>Having trouble viewing this email? <a href=\"https://content.govdelivery.com/accounts/VAEDUFCPS/bulletins/3d24921\">View it as a Web page</a>.</p>\n\n\n\n\n\n\n\n\n\n\n\n<a href=\"https://lakeannees.fcps.edu/?utm_campaign+=&amp;utm_medium=email&amp;utm_source=govdelivery\" target=\"_b...",
      "pubDate": "Fri, 14 Feb 2025 16:13:21 -0600",
      "timestamp": 1739571201000,
      "feedName": "Lake Anne Elementary School",
      "category": "Lake Anne Elementary School",
      "feedSource": "http://www.fcps.edu/index.shtml",
      "feedInfo": {
        "title": "Lake Anne Elementary School News and Announcements - Recent Updates",
        "description": "Lake Anne Elementary School News and announcements",
        "link": "http://www.fcps.edu/index.shtml"
      }
    },
    {
      "id": "NjQxMTc4NTk=",
      "title": "ðŸBee Hive, February 14, 2025",
      "link": "https://content.govdelivery.com/accounts/VAEDUFCPS/bulletins/3d25c63",
      "description": "\n        \n\n\n  \n\n\n\n\n\n\n\n<p><a></a>Having trouble viewing this email? <a href=\"https://content.govdelivery.com/accounts/VAEDUFCPS/bulletins/3d25c63\">View it as a Web page</a>.</p>\n\n\n\n\n\n\n\n\n\n\n\n<a href=\"https://herndones.fcps.edu/?utm_campaign+=&amp;utm_medium=email&amp;utm_source=govdelivery\" target=\"_bl...",
      "pubDate": "Fri, 14 Feb 2025 16:05:12 -0600",
      "timestamp": 1739570712000,
      "feedName": "Herndon Elementary School",
      "category": "Herndon Elementary School",
      "feedSource": "http://www.fcps.edu/index.shtml",
      "feedInfo": {
        "title": "Herndon Elementary School News and announcements - Recent Updates",
        "description": "Herndon Elementary School News and announcements",
        "link": "http://www.fcps.edu/index.shtml"
      }
    },
    {
      "id": "NjQxMjEwOTQ=",
      "title": "Fox Mill Focus February 14 2025",
      "link": "https://content.govdelivery.com/accounts/VAEDUFCPS/bulletins/3d26906",
      "description": "\n        \n\n\n  \n\n\n\n\n\n\n\n<p><a></a>Having trouble viewing this email? <a href=\"https://content.govdelivery.com/accounts/VAEDUFCPS/bulletins/3d26906\">View it as a Web page</a>.</p>\n\n\n\n\n\n\n\n\n\n\n\n<a href=\"http://www2.fcps.edu/FoxMillES/?utm_campaign+=&amp;utm_medium=email&amp;utm_source=govdelivery\" target=...",
      "pubDate": "Fri, 14 Feb 2025 16:00:19 -0600",
      "timestamp": 1739570419000,
      "feedName": "Fox Mill Elementary School",
      "category": "Fox Mill Elementary School",
      "feedSource": "http://www.fcps.edu/index.shtml",
      "feedInfo": {
        "title": "Fox Mill Elementary School News and announcements - Recent Updates",
        "description": "Fox Mill Elementary School News and announcements",
        "link": "http://www.fcps.edu/index.shtml"
      }
    },
    {
      "id": "NjQxMDQ5MDU=",
      "title": "Beech Tree ES Family Message-February 14, 2025",
      "link": "https://content.govdelivery.com/accounts/VAEDUFCPS/bulletins/3d229c9",
      "description": "\n        \n\n\n  \n\n\n\n\n\n\n\n<p><a></a>Having trouble viewing this email? <a href=\"https://content.govdelivery.com/accounts/VAEDUFCPS/bulletins/3d229c9\">View it as a Web page</a>.</p>\n\n\n\n\n\n\n\n\n\n\n\n<a href=\"http://www2.fcps.edu/BeechTreeES/?utm_campaign+=&amp;utm_medium=email&amp;utm_source=govdelivery\" targe...",
      "pubDate": "Fri, 14 Feb 2025 16:00:13 -0600",
      "timestamp": 1739570413000,
      "feedName": "Beech Tree Elementary School",
      "category": "Beech Tree Elementary School",
      "feedSource": "http://www.fcps.edu/index.shtml",
      "feedInfo": {
        "title": "Beech Tree Elementary School News and announcements - Recent Updates",
        "description": "Beech Tree Elementary School News and announcements",
        "link": "http://www.fcps.edu/index.shtml"
      }
    },
    {
      "id": "NjQxMDQyMTU=",
      "title": "Weyanoke Update for February 14, 2025",
      "link": "https://content.govdelivery.com/accounts/VAEDUFCPS/bulletins/3d22717",
      "description": "\n        \n\n\n  \n\n\n\n\n\n\n\n<p><a></a>Having trouble viewing this email? <a href=\"https://content.govdelivery.com/accounts/VAEDUFCPS/bulletins/3d22717\">View it as a Web page</a>.</p>\n\n\n\n\n\n\n\n\n\n\n\n<a href=\"https://weyanokees.fcps.edu/?utm_campaign+=&amp;utm_medium=email&amp;utm_source=govdelivery\" target=\"_b...",
      "pubDate": "Fri, 14 Feb 2025 16:00:12 -0600",
      "timestamp": 1739570412000,
      "feedName": "Weyanoke Elementary School",
      "category": "Weyanoke Elementary School",
      "feedSource": "http://www.fcps.edu/index.shtml",
      "feedInfo": {
        "title": "Weyanoke Elementary School News and announcements - Recent Updates",
        "description": "Weyanoke Elementary School News and announcements",
        "link": "http://www.fcps.edu/index.shtml"
      }
    }
  ],
  "hasNext": true,
  "hasPrev": true
}