{
  "page": 209,
  "totalPages": 268,
  "totalItems": 5354,
  "itemsPerPage": 20,
  "items": [
    {
      "id": "NjM5NTIwMDA=",
      "title": "Weyanoke Update for January 31, 2025",
      "link": "https://content.govdelivery.com/accounts/VAEDUFCPS/bulletins/3cfd480",
      "description": "\n        \n\n\n  \n\n\n\n\n\n\n\n<p><a></a>Having trouble viewing this email? <a href=\"https://content.govdelivery.com/accounts/VAEDUFCPS/bulletins/3cfd480\">View it as a Web page</a>.</p>\n\n\n\n\n\n\n\n\n\n\n\n<a href=\"https://weyanokees.fcps.edu/?utm_campaign+=&amp;utm_medium=email&amp;utm_source=govdelivery\" target=\"_b...",
      "pubDate": "Fri, 31 Jan 2025 15:00:18 -0600",
      "timestamp": 1738357218000,
      "feedName": "Weyanoke Elementary School",
      "category": "Weyanoke Elementary School",
      "feedSource": "http://www.fcps.edu/index.shtml",
      "feedInfo": {
        "title": "Weyanoke Elementary School News and announcements - Recent Updates",
        "description": "Weyanoke Elementary School News and announcements",
        "link": "http://www.fcps.edu/index.shtml"
      }
    },
    {
      "id": "NjM5NTEwNjk=",
      "title": "💙Support in Grief",
      "link": "https://content.govdelivery.com/accounts/VAEDUFCPS/bulletins/3cfd0dd",
      "description": "\n        \n\n\n  \n\n\n\n\n\n\n\n<p><a></a>Having trouble viewing this email? <a href=\"https://content.govdelivery.com/accounts/VAEDUFCPS/bulletins/3cfd0dd\">View it as a Web page</a>.</p>\n\n\n\n\n\n\n\n\n\n\n\n<a href=\"https://www.fcps.edu/staff/marcia-st-john-cunning?utm_campaign+=&amp;utm_medium=email&amp;utm_source=go...",
      "pubDate": "Fri, 31 Jan 2025 14:52:31 -0600",
      "timestamp": 1738356751000,
      "feedName": "FCPS School Board Franconia District",
      "category": "FCPS School Board Franconia District",
      "feedSource": "http://www.fcps.edu/index.shtml",
      "feedInfo": {
        "title": "Franconia District Member - Marcia St. John-Cunning - Recent Updates",
        "description": "Franconia District Member - Marcia St. John-Cunning - Recent Updates",
        "link": "http://www.fcps.edu/index.shtml"
      }
    },
    {
      "id": "NjM5NDUzNzA=",
      "title": "Westgate Weekly News",
      "link": "https://content.govdelivery.com/accounts/VAEDUFCPS/bulletins/3cfba9a",
      "description": "\n        \n\n\n  \n\n\n\n\n\n\n\n<p><a></a>Having trouble viewing this email? <a href=\"https://content.govdelivery.com/accounts/VAEDUFCPS/bulletins/3cfba9a\">View it as a Web page</a>.</p>\n\n\n\n\n\n\n\n\n\n\n\n<a href=\"http://www2.fcps.edu/WestgateES/?utm_content=&amp;utm_medium=email&amp;utm_name=&amp;utm_source=govdeli...",
      "pubDate": "Fri, 31 Jan 2025 14:46:01 -0600",
      "timestamp": 1738356361000,
      "feedName": "Westgate Elementary School",
      "category": "Westgate Elementary School",
      "feedSource": "http://www.fcps.edu/index.shtml",
      "feedInfo": {
        "title": "Westgate ES News",
        "description": "Westgate Elementary School News and announcements",
        "link": "http://www.fcps.edu/index.shtml"
      }
    },
    {
      "id": "NjM4OTgxMTM=",
      "title": "Stenwood Hive Happenings",
      "link": "https://content.govdelivery.com/accounts/VAEDUFCPS/bulletins/3cf0201",
      "description": "\n        \n\n\n  \n\n\n\n\n\n\n\n<p><a></a>Having trouble viewing this email? <a href=\"https://content.govdelivery.com/accounts/VAEDUFCPS/bulletins/3cf0201\">View it as a Web page</a>.</p>\n\n\n\n\n\n\n\n\n\n\n\n<a href=\"https://stenwoodes.fcps.edu/?utm_content=&amp;utm_medium=email&amp;utm_name=&amp;utm_source=govdelivery...",
      "pubDate": "Fri, 31 Jan 2025 14:43:27 -0600",
      "timestamp": 1738356207000,
      "feedName": "Stenwood Elementary School",
      "category": "Stenwood Elementary School",
      "feedSource": "http://www.fcps.edu/index.shtml",
      "feedInfo": {
        "title": "Stenwood Elementary School News and announcements - Recent Updates",
        "description": "Stenwood Elementary School News and announcements",
        "link": "http://www.fcps.edu/index.shtml"
      }
    },
    {
      "id": "NjM5NDU2MDQ=",
      "title": "Principal's Message",
      "link": "https://content.govdelivery.com/accounts/VAEDUFCPS/bulletins/3cfbb84",
      "description": "\n        \n\n\n  \n\n\n\n\n\n\n\n<p><a></a>Having trouble viewing this email? <a href=\"https://content.govdelivery.com/accounts/VAEDUFCPS/bulletins/3cfbb84\">View it as a Web page</a>.</p>\n\n\n\n\n\n\n\n\n\n\n\n<a href=\"https://hughesms.fcps.edu/?utm_campaign+=&amp;utm_medium=email&amp;utm_source=govdelivery\" target=\"_bla...",
      "pubDate": "Fri, 31 Jan 2025 14:34:12 -0600",
      "timestamp": 1738355652000,
      "feedName": "Hughes Middle School",
      "category": "Hughes Middle School",
      "feedSource": "http://www.fcps.edu/index.shtml",
      "feedInfo": {
        "title": "Hughes Middle School News and announcements - Recent Updates",
        "description": "Hughes Middle School News and announcements",
        "link": "http://www.fcps.edu/index.shtml"
      }
    },
    {
      "id": "NjM5MTYzNDg=",
      "title": "Franklin MS Update- 01/31/2025",
      "link": "https://content.govdelivery.com/accounts/VAEDUFCPS/bulletins/3cf493c",
      "description": "\n        \n\n\n  \n\n\n\n\n\n\n\n<p><a></a>Having trouble viewing this email? <a href=\"https://content.govdelivery.com/accounts/VAEDUFCPS/bulletins/3cf493c\">View it as a Web page</a>.</p>\n\n\n\n\n\n\n\n\n\n\n\n<a href=\"https://franklinms.fcps.edu/?utm_campaign+=&amp;utm_medium=email&amp;utm_source=govdelivery\" target=\"_b...",
      "pubDate": "Fri, 31 Jan 2025 14:30:13 -0600",
      "timestamp": 1738355413000,
      "feedName": "Franklin Middle School",
      "category": "Franklin Middle School",
      "feedSource": "http://www.fcps.edu/index.shtml",
      "feedInfo": {
        "title": "Franklin Middle School News and announcements - Recent Updates",
        "description": "Franklin Middle School News and announcements",
        "link": "http://www.fcps.edu/index.shtml"
      }
    },
    {
      "id": "NjM5MTYzNDg=",
      "title": "Franklin MS Update- 01/31/2025",
      "link": "https://content.govdelivery.com/accounts/VAEDUFCPS/bulletins/3cf493c",
      "description": "\n        \n\n\n  \n\n\n\n\n\n\n\n<p><a></a>Having trouble viewing this email? <a href=\"https://content.govdelivery.com/accounts/VAEDUFCPS/bulletins/3cf493c\">View it as a Web page</a>.</p>\n\n\n\n\n\n\n\n\n\n\n\n<a href=\"https://franklinms.fcps.edu/?utm_campaign+=&amp;utm_medium=email&amp;utm_source=govdelivery\" target=\"_b...",
      "pubDate": "Fri, 31 Jan 2025 14:30:13 -0600",
      "timestamp": 1738355413000,
      "feedName": "Franklin Sherman Elementary School",
      "category": "Franklin Sherman Elementary School",
      "feedSource": "http://www.fcps.edu/index.shtml",
      "feedInfo": {
        "title": "Franklin Middle School News and announcements - Recent Updates",
        "description": "Franklin Middle School News and announcements",
        "link": "http://www.fcps.edu/index.shtml"
      }
    },
    {
      "id": "NjM5MDMxMTk=",
      "title": "Message from Holmes MS  - 1/31/2025",
      "link": "https://content.govdelivery.com/accounts/VAEDUFCPS/bulletins/3cf158f",
      "description": "\n        \n\n\n  \n\n\n\n\n\n\n\n<p><a></a>Having trouble viewing this email? <a href=\"https://content.govdelivery.com/accounts/VAEDUFCPS/bulletins/3cf158f\">View it as a Web page</a>.</p>\n\n\n\n\n\n\n\n\n\n\n\n<a href=\"https://holmesms.fcps.edu/?utm_campaign+=&amp;utm_medium=email&amp;utm_source=govdelivery\" target=\"_bla...",
      "pubDate": "Fri, 31 Jan 2025 14:23:18 -0600",
      "timestamp": 1738354998000,
      "feedName": "Holmes Middle School",
      "category": "Holmes Middle School",
      "feedSource": "http://www.fcps.edu/index.shtml",
      "feedInfo": {
        "title": "Holmes Middle School News and announcements - Recent Updates",
        "description": "Holmes Middle School News and announcements",
        "link": "http://www.fcps.edu/index.shtml"
      }
    },
    {
      "id": "NjM5NDY5NDE=",
      "title": "Chantilly Academy Program Highlights",
      "link": "https://content.govdelivery.com/accounts/VAEDUFCPS/bulletins/3cfc0bd",
      "description": "\n        \n\n\n  \n\n\n\n\n\n\n\n<p><a></a>Having trouble viewing this email? <a href=\"https://content.govdelivery.com/accounts/VAEDUFCPS/bulletins/3cfc0bd\">View it as a Web page</a>.</p>\n\n\n\n\n\n\n\n\n\n\n\n<a href=\"https://chantillyacademy.fcps.edu/?utm_campaign+=&amp;utm_medium=email&amp;utm_source=govdelivery\" targ...",
      "pubDate": "Fri, 31 Jan 2025 14:15:15 -0600",
      "timestamp": 1738354515000,
      "feedName": "Chantilly Academy",
      "category": "Chantilly Academy",
      "feedSource": "http://www.fcps.edu/index.shtml",
      "feedInfo": {
        "title": "Chantilly Academy News and Announcements - Recent Updates",
        "description": "Chantilly Academy News and Announcements - Recent Updates",
        "link": "http://www.fcps.edu/index.shtml"
      }
    },
    {
      "id": "NjM5NjExNjI=",
      "title": "Kilmer MS Newsletter - January 31, 2025",
      "link": "https://content.govdelivery.com/accounts/VAEDUFCPS/bulletins/3cff84a",
      "description": "\n        \n\n\n  \n\n\n\n\n\n\n\n<p><a></a>Having trouble viewing this email? <a href=\"https://content.govdelivery.com/accounts/VAEDUFCPS/bulletins/3cff84a\">View it as a Web page</a>.</p>\n\n\n\n\n\n\n\n\n\n\n\n<a href=\"https://kilmerms.fcps.edu/?utm_campaign+=&amp;utm_medium=email&amp;utm_source=govdelivery\" target=\"_bla...",
      "pubDate": "Fri, 31 Jan 2025 14:15:15 -0600",
      "timestamp": 1738354515000,
      "feedName": "Kilmer Middle School",
      "category": "Kilmer Middle School",
      "feedSource": "http://www.fcps.edu/index.shtml",
      "feedInfo": {
        "title": "Kilmer Middle School News and announcements - Recent Updates",
        "description": "Kilmer Middle School News and announcements",
        "link": "http://www.fcps.edu/index.shtml"
      }
    },
    {
      "id": "NjM5NjA4MDc=",
      "title": "Panther Press- January 31, 2025",
      "link": "https://content.govdelivery.com/accounts/VAEDUFCPS/bulletins/3cff6e7",
      "description": "\n        \n\n\n  \n\n\n\n\n\n\n\n<p><a></a>Having trouble viewing this email? <a href=\"https://content.govdelivery.com/accounts/VAEDUFCPS/bulletins/3cff6e7\">View it as a Web page</a>.</p>\n\n\n\n\n\n\n\n\n\n\n\n<a href=\"https://mountvernonwoodses.fcps.edu/?utm_campaign+=&amp;utm_medium=email&amp;utm_source=govdelivery\" ta...",
      "pubDate": "Fri, 31 Jan 2025 14:12:55 -0600",
      "timestamp": 1738354375000,
      "feedName": "Mount Vernon Woods Elementary School",
      "category": "Mount Vernon Woods Elementary School",
      "feedSource": "http://www.fcps.edu/index.shtml",
      "feedInfo": {
        "title": "Mount Vernon Woods Elementary School News and announcements - Recent Updates",
        "description": "Mount Vernon Woods Elementary School News and announcements",
        "link": "http://www.fcps.edu/index.shtml"
      }
    },
    {
      "id": "NjM5NTgzMzE=",
      "title": "Thoreau Matters Friday, January 31,2025",
      "link": "https://content.govdelivery.com/accounts/VAEDUFCPS/bulletins/3cfed3b",
      "description": "\n        \n\n\n  \n\n\n\n\n\n\n\n<p><a></a>Having trouble viewing this email? <a href=\"https://content.govdelivery.com/accounts/VAEDUFCPS/bulletins/3cfed3b\">View it as a Web page</a>.</p>\n\n\n\n\n\n\n\n\n\n\n\n<a href=\"https://thoreaums.fcps.edu/?utm_campaign+=&amp;utm_medium=email&amp;utm_source=govdelivery\" target=\"_bl...",
      "pubDate": "Fri, 31 Jan 2025 14:08:03 -0600",
      "timestamp": 1738354083000,
      "feedName": "Thoreau Middle School",
      "category": "Thoreau Middle School",
      "feedSource": "http://www.fcps.edu/index.shtml",
      "feedInfo": {
        "title": "Thoreau Middle School News and Announcements - Recent Updates",
        "description": "Thoreau Middle School News and Announcements",
        "link": "http://www.fcps.edu/index.shtml"
      }
    },
    {
      "id": "NjM5MTE1MDc=",
      "title": "Mountain View newsletter 1/31/25",
      "link": "https://content.govdelivery.com/accounts/VAEDUFCPS/bulletins/3cf3653",
      "description": "\n        \n\n\n  \n\n\n\n\n\n\n\n<p><a></a>Having trouble viewing this email? <a href=\"https://content.govdelivery.com/accounts/VAEDUFCPS/bulletins/3cf3653\">View it as a Web page</a>.</p>\n\n\n\n\n\n\n\n\n\n\n\n<a href=\"https://mountainviewhs.fcps.edu/?utm_campaign+=&amp;utm_medium=email&amp;utm_source=govdelivery\" target...",
      "pubDate": "Fri, 31 Jan 2025 13:52:26 -0600",
      "timestamp": 1738353146000,
      "feedName": "Mountain View High School",
      "category": "Mountain View High School",
      "feedSource": "http://www.fcps.edu/index.shtml",
      "feedInfo": {
        "title": "Mountain View High School News and Announcements - Recent Updates",
        "description": "Mountain View High School News and announcements",
        "link": "http://www.fcps.edu/index.shtml"
      }
    },
    {
      "id": "NjM4OTg2Nzk=",
      "title": "Luther Jackson January 31, 2025",
      "link": "https://content.govdelivery.com/accounts/VAEDUFCPS/bulletins/3cf0437",
      "description": "\n        \n\n\n  \n\n\n\n\n\n\n\n\n\n\n\n\n\n\n\n\n\n\n\n<p><a href=\"https://translate.google.com/translate?hl=en&amp;sl=en&amp;tl=es&amp;u=https%3A%2F%2Fcontent.govdelivery.com%2Faccounts%2FVAEDUFCPS%2Fbulletins%2F3cf0437&amp;utm_campaign+=&amp;utm_medium=email&amp;utm_source=govdelivery\" target=\"_blank\">Espanol</a></p>\n...",
      "pubDate": "Fri, 31 Jan 2025 13:41:01 -0600",
      "timestamp": 1738352461000,
      "feedName": "Jackson Middle School",
      "category": "Jackson Middle School",
      "feedSource": "http://www.fcps.edu/index.shtml",
      "feedInfo": {
        "title": "Jackson Middle School News and Announcements - Recent Updates",
        "description": "Jackson Middle School News and announcements",
        "link": "http://www.fcps.edu/index.shtml"
      }
    },
    {
      "id": "NjM5NTc0MDI=",
      "title": "Family Newsletter January 31, 2025",
      "link": "https://content.govdelivery.com/accounts/VAEDUFCPS/bulletins/3cfe99a",
      "description": "\n        \n\n\n  \n\n\n\n\n\n\n\n<p><a></a>Having trouble viewing this email? <a href=\"https://content.govdelivery.com/accounts/VAEDUFCPS/bulletins/3cfe99a\">View it as a Web page</a>.</p>\n\n\n\n\n\n\n\n\n\n\n\n<a href=\"https://camerones.fcps.edu/?utm_campaign+=&amp;utm_medium=email&amp;utm_source=govdelivery\" target=\"_bl...",
      "pubDate": "Fri, 31 Jan 2025 11:12:43 -0600",
      "timestamp": 1738343563000,
      "feedName": "Cameron Elementary School",
      "category": "Cameron Elementary School",
      "feedSource": "http://www.fcps.edu/index.shtml",
      "feedInfo": {
        "title": "Cameron Elementary School News and announcements - Recent Updates",
        "description": "Cameron Elementary School News and announcements",
        "link": "http://www.fcps.edu/index.shtml"
      }
    },
    {
      "id": "NjM5NDQ2NjM=",
      "title": "Broadway Night",
      "link": "https://content.govdelivery.com/accounts/VAEDUFCPS/bulletins/3cfb7d7",
      "description": "\n        \n\n\n  \n\n\n\n\n\n\n\n<p><a></a>Having trouble viewing this email? <a href=\"https://content.govdelivery.com/accounts/VAEDUFCPS/bulletins/3cfb7d7\">View it as a Web page</a>.</p>\n\n\n\n\n\n\n\n\n\n\n\n<a href=\"https://sunrisevalleyes.fcps.edu/?utm_campaign+=&amp;utm_medium=email&amp;utm_source=govdelivery\" targe...",
      "pubDate": "Fri, 31 Jan 2025 10:50:40 -0600",
      "timestamp": 1738342240000,
      "feedName": "Sunrise Valley Elementary School",
      "category": "Sunrise Valley Elementary School",
      "feedSource": "http://www.fcps.edu/index.shtml",
      "feedInfo": {
        "title": "Sunrise Valley Elementary School News and Announcements - Recent Updates",
        "description": "Sunrise Valley Elementary School News and announcements",
        "link": "http://www.fcps.edu/index.shtml"
      }
    },
    {
      "id": "NjM5MTU5OTU=",
      "title": "LBSS Weekly News - January 31, 2025",
      "link": "https://content.govdelivery.com/accounts/VAEDUFCPS/bulletins/3cf47db",
      "description": "\n        \n\n\n  \n\n\n\n\n\n\n\n<p><a></a>Having trouble viewing this email? <a href=\"https://content.govdelivery.com/accounts/VAEDUFCPS/bulletins/3cf47db\">View it as a Web page</a>.</p>\n\n\n\n\n\n\n\n\n\n\n\n<a href=\"https://lakebraddockss.fcps.edu/?utm_campaign+=&amp;utm_medium=email&amp;utm_source=govdelivery\" target...",
      "pubDate": "Fri, 31 Jan 2025 10:32:35 -0600",
      "timestamp": 1738341155000,
      "feedName": "Lake Braddock Secondary School",
      "category": "Lake Braddock Secondary School",
      "feedSource": "http://www.fcps.edu/index.shtml",
      "feedInfo": {
        "title": "Lake Braddock Secondary School News and announcements - Recent Updates",
        "description": "Lake Braddock Secondary School News and announcements",
        "link": "http://www.fcps.edu/index.shtml"
      }
    },
    {
      "id": "NjM5MTUwNjU=",
      "title": "Shrevewood Wise Words 1/31/25",
      "link": "https://content.govdelivery.com/accounts/VAEDUFCPS/bulletins/3cf4439",
      "description": "\n        \n\n\n  \n\n\n\n\n\n\n\n<p><a></a>Having trouble viewing this email? <a href=\"https://content.govdelivery.com/accounts/VAEDUFCPS/bulletins/3cf4439\">View it as a Web page</a>.</p>\n\n\n\n\n\n\n\n\n\n\n\n<a href=\"https://shrevewoodes.fcps.edu/?utm_campaign+=&amp;utm_medium=email&amp;utm_source=govdelivery\" target=\"...",
      "pubDate": "Fri, 31 Jan 2025 09:29:04 -0600",
      "timestamp": 1738337344000,
      "feedName": "Shrevewood Elementary School",
      "category": "Shrevewood Elementary School",
      "feedSource": "http://www.fcps.edu/index.shtml",
      "feedInfo": {
        "title": "Shrevewood Elementary School News and announcements - Recent Updates",
        "description": "Shrevewood Elementary School News and announcements",
        "link": "http://www.fcps.edu/index.shtml"
      }
    },
    {
      "id": "NjM5NTczOTQ=",
      "title": "Lancer Activities Weekly Newsletter",
      "link": "https://content.govdelivery.com/accounts/VAEDUFCPS/bulletins/3cfe992",
      "description": "\n        \n\n\n  \n\n\n\n\n\n\n\n<p><a></a>Having trouble viewing this email? <a href=\"https://content.govdelivery.com/accounts/VAEDUFCPS/bulletins/3cfe992\">View it as a Web page</a>.</p>\n\n\n\n\n\n\n\n\n\n\n\n<a href=\"https://leehs.fcps.edu/?utm_content=&amp;utm_medium=email&amp;utm_name=&amp;utm_source=govdelivery&amp;...",
      "pubDate": "Fri, 31 Jan 2025 07:59:47 -0600",
      "timestamp": 1738331987000,
      "feedName": "John R. Lewis High School",
      "category": "John R. Lewis High School",
      "feedSource": "http://www.fcps.edu/index.shtml",
      "feedInfo": {
        "title": "Lewis High School News and announcements - Recent Updates",
        "description": "Lewis High School News and announcements",
        "link": "http://www.fcps.edu/index.shtml"
      }
    },
    {
      "id": "NjM5MzcyODc=",
      "title": "Sangster News From The Nest 1-30-25",
      "link": "https://content.govdelivery.com/accounts/VAEDUFCPS/bulletins/3cf9b07",
      "description": "\n        \n\n\n  \n\n\n\n\n\n\n\n<p><a></a>Having trouble viewing this email? <a href=\"https://content.govdelivery.com/accounts/VAEDUFCPS/bulletins/3cf9b07\">View it as a Web page</a>.</p>\n\n\n\n\n\n\n\n\n\n\n\n<a href=\"http://www2.fcps.edu/SangsterES/?utm_content=&amp;utm_medium=email&amp;utm_name=&amp;utm_source=govdeli...",
      "pubDate": "Thu, 30 Jan 2025 19:00:12 -0600",
      "timestamp": 1738285212000,
      "feedName": "Sangster Elementary School",
      "category": "Sangster Elementary School",
      "feedSource": "http://www.fcps.edu/index.shtml",
      "feedInfo": {
        "title": "Sangster Elementary School News and announcements - Recent Updates",
        "description": "Sangster Elementary School News and announcements",
        "link": "http://www.fcps.edu/index.shtml"
      }
    }
  ],
  "hasNext": true,
  "hasPrev": true
}