{
  "page": 217,
  "totalPages": 268,
  "totalItems": 5354,
  "itemsPerPage": 20,
  "items": [
    {
      "id": "NjM3NjE3OTQ=",
      "title": "FH Weekly Update - 1/20/25",
      "link": "https://content.govdelivery.com/accounts/VAEDUFCPS/bulletins/3cced82",
      "description": "\n        \n\n\n  \n\n\n\n\n\n\n\n<p><a></a>Having trouble viewing this email? <a href=\"https://content.govdelivery.com/accounts/VAEDUFCPS/bulletins/3cced82\">View it as a Web page</a>.</p>\n\n\n\n\n\n\n\n\n\n\n\n<a href=\"http://www2.fcps.edu/FreedomHillES/?utm_campaign+=&amp;utm_medium=email&amp;utm_source=govdelivery\" tar...",
      "pubDate": "Mon, 20 Jan 2025 12:59:16 -0600",
      "timestamp": 1737399556000,
      "feedName": "Freedom Hill Elementary School",
      "category": "Freedom Hill Elementary School",
      "feedSource": "http://www.fcps.edu/index.shtml",
      "feedInfo": {
        "title": "Freedom Hill Elementary School News and announcements - Recent Updates",
        "description": "Freedom Hill Elementary School News and announcements",
        "link": "http://www.fcps.edu/index.shtml"
      }
    },
    {
      "id": "NjM4MTU2OTk=",
      "title": "Mantua ES Weekly Newsletter",
      "link": "https://content.govdelivery.com/accounts/VAEDUFCPS/bulletins/3cdc013",
      "description": "\n        \n\n\n  \n\n\n\n\n\n\n\n<p><a></a>Having trouble viewing this email? <a href=\"https://content.govdelivery.com/accounts/VAEDUFCPS/bulletins/3cdc013\">View it as a Web page</a>.</p>\n\n\n\n\n\n\n\n\n\n\n\n<a href=\"https://mantuaes.fcps.edu/?utm_campaign+=&amp;utm_medium=email&amp;utm_source=govdelivery\" target=\"_bla...",
      "pubDate": "Mon, 20 Jan 2025 12:10:12 -0600",
      "timestamp": 1737396612000,
      "feedName": "Mantua Elementary School",
      "category": "Mantua Elementary School",
      "feedSource": "http://www.fcps.edu/index.shtml",
      "feedInfo": {
        "title": "Mantua Elementary School News and announcements - Recent Updates",
        "description": "Mantua Elementary School News and announcements",
        "link": "http://www.fcps.edu/index.shtml"
      }
    },
    {
      "id": "NjM3MTE0MDk=",
      "title": "Belle View Beat-January 20, 2025",
      "link": "https://content.govdelivery.com/accounts/VAEDUFCPS/bulletins/3cc28b1",
      "description": "\n        \n\n\n  \n\n\n\n\n\n\n\n<p><a></a>Having trouble viewing this email? <a href=\"https://content.govdelivery.com/accounts/VAEDUFCPS/bulletins/3cc28b1\">View it as a Web page</a>.</p>\n\n\n\n\n\n\n\n\n\n\n\n\n\n\n\n\n\n\n\n\n\n\n\n\n\n\n\n<a href=\"https://belleviewes.fcps.edu/?utm_campaign+=&amp;utm_medium=email&amp;utm_source=govdel...",
      "pubDate": "Mon, 20 Jan 2025 08:14:52 -0600",
      "timestamp": 1737382492000,
      "feedName": "Belle View Elementary School",
      "category": "Belle View Elementary School",
      "feedSource": "http://www.fcps.edu/index.shtml",
      "feedInfo": {
        "title": "Belle View Elementary School News and announcements - Recent Updates",
        "description": "Belle View Elementary School News and announcements",
        "link": "http://www.fcps.edu/index.shtml"
      }
    },
    {
      "id": "NjM4MTExNjg=",
      "title": "The Ram Gram! Hot Off the Press!",
      "link": "https://content.govdelivery.com/accounts/VAEDUFCPS/bulletins/3cdae60",
      "description": "\n        \n\n\n  \n\n\n\n\n\n\n\n<p><a></a>Having trouble viewing this email? <a href=\"https://content.govdelivery.com/accounts/VAEDUFCPS/bulletins/3cdae60\">View it as a Web page</a>.</p>\n\n\n\n\n\n\n\n\n\n\n\n<a href=\"http://www2.fcps.edu/CentreRidgeES/?utm_campaign+=&amp;utm_medium=email&amp;utm_source=govdelivery\" tar...",
      "pubDate": "Sun, 19 Jan 2025 21:57:25 -0600",
      "timestamp": 1737345445000,
      "feedName": "Centre Ridge Elementary School",
      "category": "Centre Ridge Elementary School",
      "feedSource": "http://www.fcps.edu/index.shtml",
      "feedInfo": {
        "title": "Centre Ridge Elementary School News and Announcements - Recent Updates",
        "description": "Centre Ridge Elementary School News and Announcements",
        "link": "http://www.fcps.edu/index.shtml"
      }
    },
    {
      "id": "NjM4MTAzNzc=",
      "title": "Tomorrow is a Holiday--No School",
      "link": "https://content.govdelivery.com/accounts/VAEDUFCPS/bulletins/3cdab49",
      "description": "\n        \n\n\n  \n\n\n\n\n\n\n\n<p><a></a>Having trouble viewing this email? <a href=\"https://content.govdelivery.com/accounts/VAEDUFCPS/bulletins/3cdab49\">View it as a Web page</a>.</p>\n\n\n\n\n\n\n\n\n\n\n\n<a href=\"https://aldrines.fcps.edu/?utm_campaign+=&amp;utm_medium=email&amp;utm_source=govdelivery\" target=\"_bla...",
      "pubDate": "Sun, 19 Jan 2025 18:27:00 -0600",
      "timestamp": 1737332820000,
      "feedName": "Aldrin Elementary School",
      "category": "Aldrin Elementary School",
      "feedSource": "http://www.fcps.edu/index.shtml",
      "feedInfo": {
        "title": "Aldrin Elementary School News and announcements - Recent Updates",
        "description": "Aldrin Elementary School News and announcements",
        "link": "http://www.fcps.edu/index.shtml"
      }
    },
    {
      "id": "NjM3ODU5MDM=",
      "title": "Panther Press for January 19, 2025",
      "link": "https://content.govdelivery.com/accounts/VAEDUFCPS/bulletins/3cd4baf",
      "description": "\n        \n\n\n  \n\n\n\n\n\n\n\n<p><a></a>Having trouble viewing this email? <a href=\"https://content.govdelivery.com/accounts/VAEDUFCPS/bulletins/3cd4baf\">View it as a Web page</a>.</p>\n\n\n\n\n\n\n\n\n\n\n\n<a href=\"http://www2.fcps.edu/ParklawnES/?utm_campaign+=&amp;utm_medium=email&amp;utm_source=govdelivery\" target...",
      "pubDate": "Sun, 19 Jan 2025 13:00:20 -0600",
      "timestamp": 1737313220000,
      "feedName": "Parklawn Elementary School",
      "category": "Parklawn Elementary School",
      "feedSource": "http://www.fcps.edu/index.shtml",
      "feedInfo": {
        "title": "Panther Press - Recent Updates",
        "description": "Panther Press - Recent Updates",
        "link": "http://www.fcps.edu/index.shtml"
      }
    },
    {
      "id": "NjM3NjA3MDY=",
      "title": "ðŸ¦ ðŸ¤– Save the Date:  Family STEAM Night!",
      "link": "https://content.govdelivery.com/accounts/VAEDUFCPS/bulletins/3cce942",
      "description": "\n        \n\n\n  \n\n\n\n\n\n\n\n<p><a></a>Having trouble viewing this email? <a href=\"https://content.govdelivery.com/accounts/VAEDUFCPS/bulletins/3cce942\">View it as a Web page</a>.</p>\n\n\n\n\n\n\n\n\n\n\n\n<a href=\"http://www2.fcps.edu/LondonTowneES/?utm_campaign+=&amp;utm_medium=email&amp;utm_source=govdelivery\" tar...",
      "pubDate": "Sun, 19 Jan 2025 12:00:16 -0600",
      "timestamp": 1737309616000,
      "feedName": "London Towne Elementary School",
      "category": "London Towne Elementary School",
      "feedSource": "http://www.fcps.edu/index.shtml",
      "feedInfo": {
        "title": "London Towne Elementary School News and Announcements - Recent Updates",
        "description": "London Towne Elementary School News and announcements",
        "link": "http://www.fcps.edu/index.shtml"
      }
    },
    {
      "id": "NjM3NTMzNTE=",
      "title": "Sunrise Valley News",
      "link": "https://content.govdelivery.com/accounts/VAEDUFCPS/bulletins/3cccc87",
      "description": "\n        \n\n\n  \n\n\n\n\n\n\n\n<p><a></a>Having trouble viewing this email? <a href=\"https://content.govdelivery.com/accounts/VAEDUFCPS/bulletins/3cccc87\">View it as a Web page</a>.</p>\n\n\n\n\n\n\n\n\n\n\n\n<a href=\"https://sunrisevalleyes.fcps.edu/?utm_campaign+=&amp;utm_medium=email&amp;utm_source=govdelivery\" targe...",
      "pubDate": "Sun, 19 Jan 2025 07:00:13 -0600",
      "timestamp": 1737291613000,
      "feedName": "Sunrise Valley Elementary School",
      "category": "Sunrise Valley Elementary School",
      "feedSource": "http://www.fcps.edu/index.shtml",
      "feedInfo": {
        "title": "Sunrise Valley Elementary School News and Announcements - Recent Updates",
        "description": "Sunrise Valley Elementary School News and announcements",
        "link": "http://www.fcps.edu/index.shtml"
      }
    },
    {
      "id": "NjM4MDAyNjc=",
      "title": "RHES Community Newsletter | 01/20/25",
      "link": "https://content.govdelivery.com/accounts/VAEDUFCPS/bulletins/3cd83cb",
      "description": "\n        \n\n\n  \n\n\n\n\n\n\n\n<p><a></a>Having trouble viewing this email? <a href=\"https://content.govdelivery.com/accounts/VAEDUFCPS/bulletins/3cd83cb\">View it as a Web page</a>.</p>\n\n\n\n\n\n\n\n\n\n\n\n<a href=\"http://www2.fcps.edu/RoseHillES/?utm_campaign+=&amp;utm_medium=email&amp;utm_source=govdelivery\" target...",
      "pubDate": "Sun, 19 Jan 2025 03:15:13 -0600",
      "timestamp": 1737278113000,
      "feedName": "Rose Hill Elementary School",
      "category": "Rose Hill Elementary School",
      "feedSource": "http://www.fcps.edu/index.shtml",
      "feedInfo": {
        "title": "Rose Hill Elementary School News and announcements - Recent Updates",
        "description": "Rose Hill Elementary School News and announcements",
        "link": "http://www.fcps.edu/index.shtml"
      }
    },
    {
      "id": "NjM3Mzc5NDg=",
      "title": "Beavergram",
      "link": "https://content.govdelivery.com/accounts/VAEDUFCPS/bulletins/3cc905c",
      "description": "\n        \n\n\n  \n\n\n\n\n\n\n\n<p><a></a>Having trouble viewing this email? <a href=\"https://content.govdelivery.com/accounts/VAEDUFCPS/bulletins/3cc905c\">View it as a Web page</a>.</p>\n\n\n\n\n\n\n\n\n\n\n\n\n\n\n\n\n\n\n\n\n\n\n\n\n\n\n\n<p><a href=\"https://urldefense.com/v3/__https:/links-1.govdelivery.com/CL0/https:*2F*2Fwoodleyhi...",
      "pubDate": "Sat, 18 Jan 2025 14:55:47 -0600",
      "timestamp": 1737233747000,
      "feedName": "Woodley Hills Elementary School",
      "category": "Woodley Hills Elementary School",
      "feedSource": "http://www.fcps.edu/index.shtml",
      "feedInfo": {
        "title": "Woodley Hills Elementary School News and announcements - Recent Updates",
        "description": "Woodley Hills Elementary School News and announcements",
        "link": "http://www.fcps.edu/index.shtml"
      }
    },
    {
      "id": "NjM4MDEwMTE=",
      "title": "Fort Hunt Fox Den News | January 18, 2025",
      "link": "https://content.govdelivery.com/accounts/VAEDUFCPS/bulletins/3cd86b3",
      "description": "\n        \n\n\n  \n\n\n\n\n\n\n\n<p><a></a>Having trouble viewing this email? <a href=\"https://content.govdelivery.com/accounts/VAEDUFCPS/bulletins/3cd86b3\">View it as a Web page</a>.</p>\n\n\n\n\n\n\n\n\n\n\n\n<a href=\"https://forthuntes.fcps.edu/?utm_campaign+=&amp;utm_medium=email&amp;utm_source=govdelivery\" target=\"_b...",
      "pubDate": "Sat, 18 Jan 2025 09:25:15 -0600",
      "timestamp": 1737213915000,
      "feedName": "Fort Hunt Elementary School",
      "category": "Fort Hunt Elementary School",
      "feedSource": "http://www.fcps.edu/index.shtml",
      "feedInfo": {
        "title": "Fort Hunt Elementary School News and Announcements - Recent Updates",
        "description": "Fort Hunt Elementary School News and announcements",
        "link": "http://www.fcps.edu/index.shtml"
      }
    },
    {
      "id": "NjM3OTYzMjg=",
      "title": "The Westbriar Weekly",
      "link": "https://content.govdelivery.com/accounts/VAEDUFCPS/bulletins/3cd7468",
      "description": "\n        \n\n\n  \n\n\n\n\n\n\n\n<p><a></a>Having trouble viewing this email? <a href=\"https://content.govdelivery.com/accounts/VAEDUFCPS/bulletins/3cd7468\">View it as a Web page</a>.</p>\n\n\n\n\n\n\n\n\n\n\n\n<a href=\"https://westbriares.fcps.edu/?utm_campaign+=&amp;utm_medium=email&amp;utm_source=govdelivery\" target=\"_...",
      "pubDate": "Fri, 17 Jan 2025 17:59:23 -0600",
      "timestamp": 1737158363000,
      "feedName": "Westbriar Elementary School",
      "category": "Westbriar Elementary School",
      "feedSource": "http://www.fcps.edu/index.shtml",
      "feedInfo": {
        "title": "Westbriar Elementary School News and Announcements - Recent Updates",
        "description": "Westbriar Elementary School News and announcements",
        "link": "http://www.fcps.edu/index.shtml"
      }
    },
    {
      "id": "NjM3ODk1OTI=",
      "title": "The Clearview Community Connect January 17 2025",
      "link": "https://content.govdelivery.com/accounts/VAEDUFCPS/bulletins/3cd5a18",
      "description": "\n        \n\n\n  \n\n\n\n\n\n\n\n<p><a></a>Having trouble viewing this email? <a href=\"https://content.govdelivery.com/accounts/VAEDUFCPS/bulletins/3cd5a18\">View it as a Web page</a>.</p>\n\n\n\n\n\n\n\n\n\n\n\n<a href=\"https://clearviewes.fcps.edu/?utm_campaign+=&amp;utm_medium=email&amp;utm_source=govdelivery\" target=\"_...",
      "pubDate": "Fri, 17 Jan 2025 17:30:17 -0600",
      "timestamp": 1737156617000,
      "feedName": "Clearview Elementary School",
      "category": "Clearview Elementary School",
      "feedSource": "http://www.fcps.edu/index.shtml",
      "feedInfo": {
        "title": "Clearview Elementary School News and Announcements - Recent Updates",
        "description": "Clearview Elementary School News and announcements",
        "link": "http://www.fcps.edu/index.shtml"
      }
    },
    {
      "id": "NjM3NTc1MDQ=",
      "title": "GFES Updates--Jan 17",
      "link": "https://content.govdelivery.com/accounts/VAEDUFCPS/bulletins/3ccdcc0",
      "description": "\n        \n\n\n  \n\n\n\n\n\n\n\n<p><a></a>Having trouble viewing this email? <a href=\"https://content.govdelivery.com/accounts/VAEDUFCPS/bulletins/3ccdcc0\">View it as a Web page</a>.</p>\n\n\n\n\n\n\n\n\n\n\n\n<a href=\"http://www2.fcps.edu/GreatFallsES/?utm_campaign+=&amp;utm_medium=email&amp;utm_source=govdelivery\" targ...",
      "pubDate": "Fri, 17 Jan 2025 16:25:11 -0600",
      "timestamp": 1737152711000,
      "feedName": "Great Falls Elementary School",
      "category": "Great Falls Elementary School",
      "feedSource": "http://www.fcps.edu/index.shtml",
      "feedInfo": {
        "title": "Great Falls Elementary School News and Announcements - Recent Updates",
        "description": "Great Falls Elementary School News and announcements",
        "link": "http://www.fcps.edu/index.shtml"
      }
    },
    {
      "id": "NjM3NzQzMDk=",
      "title": "Coates Family Newsletter for 1/17/25",
      "link": "https://content.govdelivery.com/accounts/VAEDUFCPS/bulletins/3cd1e65",
      "description": "\n        \n\n\n  \n\n\n\n\n\n\n\n<p><a></a>Having trouble viewing this email? <a href=\"https://content.govdelivery.com/accounts/VAEDUFCPS/bulletins/3cd1e65\">View it as a Web\npage</a>.</p>\n\n\n\n\n\n\n\n\n\n\n\n<a href=\"https://coateses.fcps.edu/?utm_campaign+=&amp;utm_medium=email&amp;utm_source=govdelivery\" target=\"_bla...",
      "pubDate": "Fri, 17 Jan 2025 16:07:43 -0600",
      "timestamp": 1737151663000,
      "feedName": "Coates Elementary School",
      "category": "Coates Elementary School",
      "feedSource": "http://www.fcps.edu/index.shtml",
      "feedInfo": {
        "title": "Coates  Elementary School News and Announcements - Recent Updates",
        "description": "Coates  Elementary School News and announcements",
        "link": "http://www.fcps.edu/index.shtml"
      }
    },
    {
      "id": "NjM3MzYzMzI=",
      "title": "Oak View Review",
      "link": "https://content.govdelivery.com/accounts/VAEDUFCPS/bulletins/3cc8a0c",
      "description": "\n        \n\n\n  \n\n\n\n\n\n\n\n<p><a></a>Having trouble viewing this email? <a href=\"https://content.govdelivery.com/accounts/VAEDUFCPS/bulletins/3cc8a0c\">View it as a Web page</a>.</p>\n\n\n\n\n\n\n\n\n\n\n\n<a href=\"http://www2.fcps.edu/OakViewES/?utm_content=&amp;utm_medium=email&amp;utm_name=&amp;utm_source=govdeliv...",
      "pubDate": "Fri, 17 Jan 2025 16:04:49 -0600",
      "timestamp": 1737151489000,
      "feedName": "Oak View Elementary School",
      "category": "Oak View Elementary School",
      "feedSource": "http://www.fcps.edu/index.shtml",
      "feedInfo": {
        "title": "Oak View ES News and Announcements - Recent Updates",
        "description": "Oak View Elementary School News and announcements",
        "link": "http://www.fcps.edu/index.shtml"
      }
    },
    {
      "id": "NjM3NzQ1MDE=",
      "title": "ðŸBee Hive, January 17, 2025",
      "link": "https://content.govdelivery.com/accounts/VAEDUFCPS/bulletins/3cd1f25",
      "description": "\n        \n\n\n  \n\n\n\n\n\n\n\n<p><a></a>Having trouble viewing this email? <a href=\"https://content.govdelivery.com/accounts/VAEDUFCPS/bulletins/3cd1f25\">View it as a Web page</a>.</p>\n\n\n\n\n\n\n\n\n\n\n\n<a href=\"https://herndones.fcps.edu/?utm_campaign+=&amp;utm_medium=email&amp;utm_source=govdelivery\" target=\"_bl...",
      "pubDate": "Fri, 17 Jan 2025 16:00:22 -0600",
      "timestamp": 1737151222000,
      "feedName": "Herndon Elementary School",
      "category": "Herndon Elementary School",
      "feedSource": "http://www.fcps.edu/index.shtml",
      "feedInfo": {
        "title": "Herndon Elementary School News and announcements - Recent Updates",
        "description": "Herndon Elementary School News and announcements",
        "link": "http://www.fcps.edu/index.shtml"
      }
    },
    {
      "id": "NjM3ODY4MjA=",
      "title": "Fox Mill Focus January 17, 2025",
      "link": "https://content.govdelivery.com/accounts/VAEDUFCPS/bulletins/3cd4f44",
      "description": "\n        \n\n\n  \n\n\n\n\n\n\n\n<p><a></a>Having trouble viewing this email? <a href=\"https://content.govdelivery.com/accounts/VAEDUFCPS/bulletins/3cd4f44\">View it as a Web page</a>.</p>\n\n\n\n\n\n\n\n\n\n\n\n<a href=\"http://www2.fcps.edu/FoxMillES/?utm_campaign+=&amp;utm_medium=email&amp;utm_source=govdelivery\" target=...",
      "pubDate": "Fri, 17 Jan 2025 16:00:21 -0600",
      "timestamp": 1737151221000,
      "feedName": "Fox Mill Elementary School",
      "category": "Fox Mill Elementary School",
      "feedSource": "http://www.fcps.edu/index.shtml",
      "feedInfo": {
        "title": "Fox Mill Elementary School News and announcements - Recent Updates",
        "description": "Fox Mill Elementary School News and announcements",
        "link": "http://www.fcps.edu/index.shtml"
      }
    },
    {
      "id": "NjM3Mjc5OTU=",
      "title": "Hunters Woods - News You Choose January 17, 2025",
      "link": "https://content.govdelivery.com/accounts/VAEDUFCPS/bulletins/3cc697b",
      "description": "\n        \n\n\n  \n\n\n\n\n\n\n\n<p><a></a>Having trouble viewing this email? <a href=\"https://content.govdelivery.com/accounts/VAEDUFCPS/bulletins/3cc697b\">View it as a Web page</a>.</p>\n\n\n\n\n\n\n\n\n\n\n\n<a href=\"http://www2.fcps.edu/HuntersWoodsES/?utm_campaign+=&amp;utm_medium=email&amp;utm_source=govdelivery\" ta...",
      "pubDate": "Fri, 17 Jan 2025 15:39:20 -0600",
      "timestamp": 1737149960000,
      "feedName": "Hunters Woods Elementary School",
      "category": "Hunters Woods Elementary School",
      "feedSource": "http://www.fcps.edu/index.shtml",
      "feedInfo": {
        "title": "Hunters Woods Elementary School News and Announcements - Recent Updates",
        "description": "Hunters Woods Elementary School News and Announcements",
        "link": "http://www.fcps.edu/index.shtml"
      }
    },
    {
      "id": "NjM3MzkwNjU=",
      "title": "Rockets Updates Week 19  - January 17, 2025",
      "link": "https://content.govdelivery.com/accounts/VAEDUFCPS/bulletins/3cc94b9",
      "description": "\n        \n\n\n  \n\n\n\n\n\n\n\n<p><a></a>Having trouble viewing this email? <a href=\"https://content.govdelivery.com/accounts/VAEDUFCPS/bulletins/3cc94b9\">View it as a Web page</a>.</p>\n\n\n\n\n\n\n\n\n\n\n\n<a href=\"http://www2.fcps.edu/RiversideES/?utm_campaign+=&amp;utm_medium=email&amp;utm_source=govdelivery\" targe...",
      "pubDate": "Fri, 17 Jan 2025 15:39:16 -0600",
      "timestamp": 1737149956000,
      "feedName": "Riverside Elementary School",
      "category": "Riverside Elementary School",
      "feedSource": "http://www.fcps.edu/index.shtml",
      "feedInfo": {
        "title": "Riverside Elementary School News and Announcements - Recent Updates",
        "description": "Riverside Elementary School News and announcements",
        "link": "http://www.fcps.edu/index.shtml"
      }
    }
  ],
  "hasNext": true,
  "hasPrev": true
}