{
  "page": 167,
  "totalPages": 268,
  "totalItems": 5354,
  "itemsPerPage": 20,
  "items": [
    {
      "id": "NjQ0MzQ0NTk=",
      "title": "Navy News &amp; Notes 🗞️📌 3.16.25",
      "link": "https://content.govdelivery.com/accounts/VAEDUFCPS/bulletins/3d7311b",
      "description": "\n        \n\n\n  \n\n\n\n\n\n\n\n<p><a></a>Having trouble viewing this email? <a href=\"https://content.govdelivery.com/accounts/VAEDUFCPS/bulletins/3d7311b\">View it as a Web page</a>.</p>\n\n\n\n\n\n\n\n\n\n\n\n<a href=\"https://navyes.fcps.edu/?utm_campaign+=&amp;utm_medium=email&amp;utm_source=govdelivery\" target=\"_blank...",
      "pubDate": "Sun, 16 Mar 2025 17:00:15 -0500",
      "timestamp": 1742162415000,
      "feedName": "Navy Elementary School",
      "category": "Navy Elementary School",
      "feedSource": "http://www.fcps.edu/index.shtml",
      "feedInfo": {
        "title": "Navy Elementary School News and announcements - Recent Updates",
        "description": "Navy Elementary School News and announcements",
        "link": "http://www.fcps.edu/index.shtml"
      }
    },
    {
      "id": "NjQ0MzU4NjI=",
      "title": "Forest Edge ES - REMINDER:  Early Release Monday - Tomorrow 3/17",
      "link": "https://content.govdelivery.com/accounts/VAEDUFCPS/bulletins/3d73696",
      "description": "\n        \n\n\n  \n\n\n\n\n\n\n\n<p><a></a>Having trouble viewing this email? <a href=\"https://content.govdelivery.com/accounts/VAEDUFCPS/bulletins/3d73696\">View it as a Web page</a>.</p>\n\n\n\n\n\n\n\n\n\n\n\n<a href=\"http://www2.fcps.edu/ForestEdgeES/?utm_content=&amp;utm_medium=email&amp;utm_name=&amp;utm_source=govde...",
      "pubDate": "Sun, 16 Mar 2025 16:04:49 -0500",
      "timestamp": 1742159089000,
      "feedName": "Forest Edge Elementary School",
      "category": "Forest Edge Elementary School",
      "feedSource": "http://www.fcps.edu/index.shtml",
      "feedInfo": {
        "title": "Forest Edge Elementary School News and announcements - Recent Updates",
        "description": "Forest Edge Elementary School News and announcements",
        "link": "http://www.fcps.edu/index.shtml"
      }
    },
    {
      "id": "NjQ0MzU2OTg=",
      "title": "LRES Community News 3.16.25",
      "link": "https://content.govdelivery.com/accounts/VAEDUFCPS/bulletins/3d735f2",
      "description": "\n        \n\n\n  \n\n\n\n\n\n\n\n<p><a></a>Having trouble viewing this email? <a href=\"https://content.govdelivery.com/accounts/VAEDUFCPS/bulletins/3d735f2\">View it as a Web page</a>.</p>\n\n\n\n\n\n\n\n\n\n\n\n<a href=\"https://lemonroades.fcps.edu/?utm_campaign+=&amp;utm_medium=email&amp;utm_source=govdelivery\" target=\"_...",
      "pubDate": "Sun, 16 Mar 2025 16:03:08 -0500",
      "timestamp": 1742158988000,
      "feedName": "Lemon Road Elementary School",
      "category": "Lemon Road Elementary School",
      "feedSource": "http://www.fcps.edu/index.shtml",
      "feedInfo": {
        "title": "Lemon Road Elementary School News and announcements - Recent Updates",
        "description": "Lemon Road Elementary School News and announcements",
        "link": "http://www.fcps.edu/index.shtml"
      }
    },
    {
      "id": "NjQ0MzQ0ODA=",
      "title": "The Wildcat Weekly - March 16, 2025",
      "link": "https://content.govdelivery.com/accounts/VAEDUFCPS/bulletins/3d73130",
      "description": "\n        \n\n\n  \n\n\n\n\n\n\n\n<p><a></a>Having trouble viewing this email? <a href=\"https://content.govdelivery.com/accounts/VAEDUFCPS/bulletins/3d73130\">View it as a Web page</a>.</p>\n\n\n\n\n\n\n\n\n\n\n\n<a href=\"https://centrevillehs.fcps.edu?utm_campaign+=&amp;utm_medium=email&amp;utm_source=govdelivery\" target=\"...",
      "pubDate": "Sun, 16 Mar 2025 16:00:16 -0500",
      "timestamp": 1742158816000,
      "feedName": "Centreville High School",
      "category": "Centreville High School",
      "feedSource": "http://www.fcps.edu/index.shtml",
      "feedInfo": {
        "title": "Centreville High School News and announcements - Recent Updates",
        "description": "Centreville High School News and announcements",
        "link": "http://www.fcps.edu/index.shtml"
      }
    },
    {
      "id": "NjQ0MTcwODg=",
      "title": "This Week at Langley",
      "link": "https://content.govdelivery.com/accounts/VAEDUFCPS/bulletins/3d6ed40",
      "description": "\n        \n\n\n  \n\n\n\n\n\n\n\n<p><a></a>Having trouble viewing this email? <a href=\"https://content.govdelivery.com/accounts/VAEDUFCPS/bulletins/3d6ed40\">View it as a Web page</a>.</p>\n\n\n\n\n\n\n\n\n\n\n\n<a href=\"http://langleyhs.fcps.edu/?utm_content=&amp;utm_medium=email&amp;utm_name=&amp;utm_source=govdelivery&a...",
      "pubDate": "Sun, 16 Mar 2025 16:00:14 -0500",
      "timestamp": 1742158814000,
      "feedName": "Langley High School",
      "category": "Langley High School",
      "feedSource": "http://www.fcps.edu/index.shtml",
      "feedInfo": {
        "title": "Langley HS News and Announcements - Recent Updates",
        "description": "Langley HS News and Announcements",
        "link": "http://www.fcps.edu/index.shtml"
      }
    },
    {
      "id": "NjQ0MTc5NTM=",
      "title": "Woodlawn News March 16, 2025",
      "link": "https://content.govdelivery.com/accounts/VAEDUFCPS/bulletins/3d6f0a1",
      "description": "\n        \n\n\n  \n\n\n\n\n\n\n\n\n\n\n\n\n\n\n\n\n\n\n\n<a href=\"http://www2.fcps.edu/WoodlawnES/?utm_campaign+=&amp;utm_medium=email&amp;utm_source=govdelivery\" target=\"_blank\"></a>\n\n\n\n\n\n\n\n\n\n\n\n\n\n\n\n<a href=\"https://woodlawnes.fcps.edu/aggregator/sources/1?utm_campaign+=&amp;utm_medium=email&amp;utm_source=govdelivery\" ta...",
      "pubDate": "Sun, 16 Mar 2025 14:30:17 -0500",
      "timestamp": 1742153417000,
      "feedName": "Woodlawn Elementary School",
      "category": "Woodlawn Elementary School",
      "feedSource": "http://www.fcps.edu/index.shtml",
      "feedInfo": {
        "title": "Woodlawn Elementary School News and announcements - Recent Updates",
        "description": "Woodlawn Elementary School News and announcements",
        "link": "http://www.fcps.edu/index.shtml"
      }
    },
    {
      "id": "NjQ0MjE5MTE=",
      "title": "FH Weekly Update - 3/16/25",
      "link": "https://content.govdelivery.com/accounts/VAEDUFCPS/bulletins/3d70017",
      "description": "\n        \n\n\n  \n\n\n\n\n\n\n\n<p><a></a>Having trouble viewing this email? <a href=\"https://content.govdelivery.com/accounts/VAEDUFCPS/bulletins/3d70017\">View it as a Web page</a>.</p>\n\n\n\n\n\n\n\n\n\n\n\n<a href=\"http://www2.fcps.edu/FreedomHillES/?utm_campaign+=&amp;utm_medium=email&amp;utm_source=govdelivery\" tar...",
      "pubDate": "Sun, 16 Mar 2025 13:15:16 -0500",
      "timestamp": 1742148916000,
      "feedName": "Freedom Hill Elementary School",
      "category": "Freedom Hill Elementary School",
      "feedSource": "http://www.fcps.edu/index.shtml",
      "feedInfo": {
        "title": "Freedom Hill Elementary School News and announcements - Recent Updates",
        "description": "Freedom Hill Elementary School News and announcements",
        "link": "http://www.fcps.edu/index.shtml"
      }
    },
    {
      "id": "NjQzNjk1NjA=",
      "title": "🦁 ☘️ Lucky Early Release Monday Tomorrow!",
      "link": "https://content.govdelivery.com/accounts/VAEDUFCPS/bulletins/3d63398",
      "description": "\n        \n\n\n  \n\n\n\n\n\n\n\n<p><a></a>Having trouble viewing this email? <a href=\"https://content.govdelivery.com/accounts/VAEDUFCPS/bulletins/3d63398\">View it as a Web page</a>.</p>\n\n\n\n\n\n\n\n\n\n\n\n<a href=\"http://www2.fcps.edu/LondonTowneES/?utm_campaign+=&amp;utm_medium=email&amp;utm_source=govdelivery\" tar...",
      "pubDate": "Sun, 16 Mar 2025 12:00:13 -0500",
      "timestamp": 1742144413000,
      "feedName": "London Towne Elementary School",
      "category": "London Towne Elementary School",
      "feedSource": "http://www.fcps.edu/index.shtml",
      "feedInfo": {
        "title": "London Towne Elementary School News and Announcements - Recent Updates",
        "description": "London Towne Elementary School News and announcements",
        "link": "http://www.fcps.edu/index.shtml"
      }
    },
    {
      "id": "NjQzOTIzMDg=",
      "title": "Pine Spring Paw Print",
      "link": "https://content.govdelivery.com/accounts/VAEDUFCPS/bulletins/3d68c74",
      "description": "\n        \n\n\n  \n\n\n\n\n\n\n\n<p><a></a>Having trouble viewing this email? <a href=\"https://content.govdelivery.com/accounts/VAEDUFCPS/bulletins/3d68c74\">View it as a Web page</a>.</p>\n\n\n\n\n\n\n\n\n\n\n\n<a href=\"https://pinespringes.fcps.edu/?utm_campaign+=&amp;utm_medium=email&amp;utm_source=govdelivery\" target=\"...",
      "pubDate": "Sun, 16 Mar 2025 11:15:32 -0500",
      "timestamp": 1742141732000,
      "feedName": "Pine Spring Elementary School",
      "category": "Pine Spring Elementary School",
      "feedSource": "http://www.fcps.edu/index.shtml",
      "feedInfo": {
        "title": "Pine Spring Elementary School News and announcements - Recent Updates",
        "description": "Pine Spring Elementary School News and announcements",
        "link": "http://www.fcps.edu/index.shtml"
      }
    },
    {
      "id": "NjQ0MjAzODY=",
      "title": "KG News 3.16.2025",
      "link": "https://content.govdelivery.com/accounts/VAEDUFCPS/bulletins/3d6fa22",
      "description": "\n        \n\n\n  \n\n\n\n\n\n\n\n<p><a></a>Having trouble viewing this email? <a href=\"https://content.govdelivery.com/accounts/VAEDUFCPS/bulletins/3d6fa22\">View it as a Web page</a>.</p>\n\n\n\n\n\n\n\n\n\n\n\n<a href=\"http://www2.fcps.edu/KentGardensES/?utm_campaign+=&amp;utm_medium=email&amp;utm_source=govdelivery\" tar...",
      "pubDate": "Sun, 16 Mar 2025 11:00:13 -0500",
      "timestamp": 1742140813000,
      "feedName": "Kent Gardens Elementary School",
      "category": "Kent Gardens Elementary School",
      "feedSource": "http://www.fcps.edu/index.shtml",
      "feedInfo": {
        "title": "Kent Gardens Elementary School News and Announcements - Recent Updates",
        "description": "Kent Gardens Elementary School News and announcements",
        "link": "http://www.fcps.edu/index.shtml"
      }
    },
    {
      "id": "NjQ0MzQzMjU=",
      "title": "Panther Press for March 16, 2025",
      "link": "https://content.govdelivery.com/accounts/VAEDUFCPS/bulletins/3d73095",
      "description": "\n        \n\n\n  \n\n\n\n\n\n\n\n<p><a></a>Having trouble viewing this email? <a href=\"https://content.govdelivery.com/accounts/VAEDUFCPS/bulletins/3d73095\">View it as a Web page</a>.</p>\n\n\n\n\n\n\n\n\n\n\n\n<a href=\"http://www2.fcps.edu/ParklawnES/?utm_campaign+=&amp;utm_medium=email&amp;utm_source=govdelivery\" target...",
      "pubDate": "Sun, 16 Mar 2025 10:50:12 -0500",
      "timestamp": 1742140212000,
      "feedName": "Parklawn Elementary School",
      "category": "Parklawn Elementary School",
      "feedSource": "http://www.fcps.edu/index.shtml",
      "feedInfo": {
        "title": "Panther Press - Recent Updates",
        "description": "Panther Press - Recent Updates",
        "link": "http://www.fcps.edu/index.shtml"
      }
    },
    {
      "id": "NjQ0MDkwNjg=",
      "title": "News From the Nest 03.16.25",
      "link": "https://content.govdelivery.com/accounts/VAEDUFCPS/bulletins/3d6cdec",
      "description": "\n        \n\n\n  \n\n\n\n\n\n\n\n<p><a></a>Having trouble viewing this email? <a href=\"https://content.govdelivery.com/accounts/VAEDUFCPS/bulletins/3d6cdec\">View it as a Web page</a>.</p>\n\n\n\n\n\n\n\n\n\n\n\n<a href=\"https://crestwoodes.fcps.edu/?utm_campaign+=&amp;utm_medium=email&amp;utm_source=govdelivery\" target=\"_...",
      "pubDate": "Sun, 16 Mar 2025 10:12:40 -0500",
      "timestamp": 1742137960000,
      "feedName": "Crestwood Elementary School",
      "category": "Crestwood Elementary School",
      "feedSource": "http://www.fcps.edu/index.shtml",
      "feedInfo": {
        "title": "Crestwood Elementary School News and announcements - Recent Updates",
        "description": "Crestwood Elementary School News and announcements",
        "link": "http://www.fcps.edu/index.shtml"
      }
    },
    {
      "id": "NjQ0Mjc5MTE=",
      "title": "Principal's Weekly Message March 16, 2025",
      "link": "https://content.govdelivery.com/accounts/VAEDUFCPS/bulletins/3d71787",
      "description": "\n        \n\n\n  \n\n\n\n\n\n\n\n<p><a></a>Having trouble viewing this email? <a href=\"https://content.govdelivery.com/accounts/VAEDUFCPS/bulletins/3d71787\">View it as a Web page</a>.</p>\n\n\n\n\n\n\n\n\n\n\n\n<a href=\"https://stonems.fcps.edu/?utm_campaign+=&amp;utm_medium=email&amp;utm_source=govdelivery\" target=\"_blan...",
      "pubDate": "Sun, 16 Mar 2025 09:40:12 -0500",
      "timestamp": 1742136012000,
      "feedName": "Stone Middle School",
      "category": "Stone Middle School",
      "feedSource": "http://www.fcps.edu/index.shtml",
      "feedInfo": {
        "title": "Stone Middle School News and announcements - Recent Updates",
        "description": "Stone Middle School News and announcements",
        "link": "http://www.fcps.edu/index.shtml"
      }
    },
    {
      "id": "NjQ0MzM2MDI=",
      "title": "What's Happening Mount Eagle | March 16, 2025",
      "link": "https://content.govdelivery.com/accounts/VAEDUFCPS/bulletins/3d72dc2",
      "description": "\n        \n\n\n  \n\n\n\n\n\n\n\n<p><a></a>Having trouble viewing this email? <a href=\"https://content.govdelivery.com/accounts/VAEDUFCPS/bulletins/3d72dc2\">View it as a Web page</a>.</p>\n\n\n\n\n\n\n\n\n\n\n\n<a href=\"http://www2.fcps.edu/MtEagleES/?utm_campaign+=&amp;utm_medium=email&amp;utm_source=govdelivery\" target=...",
      "pubDate": "Sun, 16 Mar 2025 08:49:28 -0500",
      "timestamp": 1742132968000,
      "feedName": "Mount Eagle Elementary School",
      "category": "Mount Eagle Elementary School",
      "feedSource": "http://www.fcps.edu/index.shtml",
      "feedInfo": {
        "title": "Mount Eagle Elementary School News and announcements - Recent Updates",
        "description": "Mount Eagle Elementary School News and announcements",
        "link": "http://www.fcps.edu/index.shtml"
      }
    },
    {
      "id": "NjQ0MzMyODM=",
      "title": "RHES Community Newsletter | 03/17/25",
      "link": "https://content.govdelivery.com/accounts/VAEDUFCPS/bulletins/3d72c83",
      "description": "\n        \n\n\n  \n\n\n\n\n\n\n\n<p><a></a>Having trouble viewing this email? <a href=\"https://content.govdelivery.com/accounts/VAEDUFCPS/bulletins/3d72c83\">View it as a Web page</a>.</p>\n\n\n\n\n\n\n\n\n\n\n\n<a href=\"http://www2.fcps.edu/RoseHillES/?utm_campaign+=&amp;utm_medium=email&amp;utm_source=govdelivery\" target...",
      "pubDate": "Sun, 16 Mar 2025 08:19:16 -0500",
      "timestamp": 1742131156000,
      "feedName": "Rose Hill Elementary School",
      "category": "Rose Hill Elementary School",
      "feedSource": "http://www.fcps.edu/index.shtml",
      "feedInfo": {
        "title": "Rose Hill Elementary School News and announcements - Recent Updates",
        "description": "Rose Hill Elementary School News and announcements",
        "link": "http://www.fcps.edu/index.shtml"
      }
    },
    {
      "id": "NjQ0MjA1ODM=",
      "title": "Events You Won't Want to Miss: Happening At VES!",
      "link": "https://content.govdelivery.com/accounts/VAEDUFCPS/bulletins/3d6fae7",
      "description": "\n        \n\n\n  \n\n\n\n\n\n\n\n<p><a></a>Having trouble viewing this email? <a href=\"https://content.govdelivery.com/accounts/VAEDUFCPS/bulletins/3d6fae7\">View it as a Web page</a>.</p>\n\n\n\n\n\n\n\n\n\n\n\n<a href=\"https://viennaes.fcps.edu/aggregator/sources/1?utm_campaign+=&amp;utm_medium=email&amp;utm_source=govde...",
      "pubDate": "Sat, 15 Mar 2025 15:00:14 -0500",
      "timestamp": 1742068814000,
      "feedName": "Vienna Elementary School",
      "category": "Vienna Elementary School",
      "feedSource": "http://www.fcps.edu/index.shtml",
      "feedInfo": {
        "title": "Vienna Elementary School News and announcements - Recent Updates",
        "description": "Vienna Elementary School News and announcements",
        "link": "http://www.fcps.edu/index.shtml"
      }
    },
    {
      "id": "NjQyNjg4NDk=",
      "title": "Falcon Press March 15, 2025",
      "link": "https://content.govdelivery.com/accounts/VAEDUFCPS/bulletins/3d4aa31",
      "description": "\n        \n\n\n  \n\n\n\n\n\n\n\n<p><a></a>Having trouble viewing this email? <a href=\"https://content.govdelivery.com/accounts/VAEDUFCPS/bulletins/3d4aa31\">View it as a Web page</a>.</p>\n\n\n\n\n\n\n\n\n\n\n\n<a href=\"https://forestdalees.fcps.edu/?utm_campaign+=&amp;utm_medium=email&amp;utm_source=govdelivery\" target=\"...",
      "pubDate": "Sat, 15 Mar 2025 13:53:51 -0500",
      "timestamp": 1742064831000,
      "feedName": "Forestdale Elementary School",
      "category": "Forestdale Elementary School",
      "feedSource": "http://www.fcps.edu/index.shtml",
      "feedInfo": {
        "title": "Forestdale Elementary School News and announcements - Recent Updates",
        "description": "Forestdale Elementary School News and announcements",
        "link": "http://www.fcps.edu/index.shtml"
      }
    },
    {
      "id": "NjQ0MjgxNzc=",
      "title": "Fort Hunt Fox Den News | March 14, 2025",
      "link": "https://content.govdelivery.com/accounts/VAEDUFCPS/bulletins/3d71891",
      "description": "\n        \n\n\n  \n\n\n\n\n\n\n\n<p><a></a>Having trouble viewing this email? <a href=\"https://content.govdelivery.com/accounts/VAEDUFCPS/bulletins/3d71891\">View it as a Web page</a>.</p>\n\n\n\n\n\n\n\n\n\n\n\n<a href=\"https://forthuntes.fcps.edu/?utm_campaign+=&amp;utm_medium=email&amp;utm_source=govdelivery\" target=\"_b...",
      "pubDate": "Sat, 15 Mar 2025 10:44:44 -0500",
      "timestamp": 1742053484000,
      "feedName": "Fort Hunt Elementary School",
      "category": "Fort Hunt Elementary School",
      "feedSource": "http://www.fcps.edu/index.shtml",
      "feedInfo": {
        "title": "Fort Hunt Elementary School News and Announcements - Recent Updates",
        "description": "Fort Hunt Elementary School News and announcements",
        "link": "http://www.fcps.edu/index.shtml"
      }
    },
    {
      "id": "NjQ0Mjc1OTE=",
      "title": "Fort Belvoir Primary School Weeks at a Glance 3/14/2025",
      "link": "https://content.govdelivery.com/accounts/VAEDUFCPS/bulletins/3d71647",
      "description": "\n        \n\n\n  \n\n\n\n\n\n\n\n<p><a></a>Having trouble viewing this email? <a href=\"https://content.govdelivery.com/accounts/VAEDUFCPS/bulletins/3d71647\">View it as a Web page</a>.</p>\n\n\n\n\n\n\n\n\n\n\n\n<a href=\"http://www2.fcps.edu/FtBelvoirES/?utm_campaign+=&amp;utm_medium=email&amp;utm_source=govdelivery\" targe...",
      "pubDate": "Sat, 15 Mar 2025 09:00:19 -0500",
      "timestamp": 1742047219000,
      "feedName": "Fort Belvoir Elementary School",
      "category": "Fort Belvoir Elementary School",
      "feedSource": "http://www.fcps.edu/index.shtml",
      "feedInfo": {
        "title": "Fort Belvoir Primary (PreK-2) News and Announcements - Recent Updates",
        "description": "Fort Belvoir Primary (PreK-2) News and Announcements - Recent Updates",
        "link": "http://www.fcps.edu/index.shtml"
      }
    },
    {
      "id": "NjQ0MjY5NDc=",
      "title": "Weekly Wave: March 15, 2025",
      "link": "https://content.govdelivery.com/accounts/VAEDUFCPS/bulletins/3d713c3",
      "description": "\n        \n\n\n  \n\n\n\n\n\n\n\n<p><a></a>Having trouble viewing this email? <a href=\"https://content.govdelivery.com/accounts/VAEDUFCPS/bulletins/3d713c3\">View it as a Web page</a>.</p>\n\n\n\n\n\n\n\n\n\n\n\n<a href=\"https://lakeannees.fcps.edu/?utm_campaign+=&amp;utm_medium=email&amp;utm_source=govdelivery\" target=\"_b...",
      "pubDate": "Sat, 15 Mar 2025 08:00:12 -0500",
      "timestamp": 1742043612000,
      "feedName": "Lake Anne Elementary School",
      "category": "Lake Anne Elementary School",
      "feedSource": "http://www.fcps.edu/index.shtml",
      "feedInfo": {
        "title": "Lake Anne Elementary School News and Announcements - Recent Updates",
        "description": "Lake Anne Elementary School News and announcements",
        "link": "http://www.fcps.edu/index.shtml"
      }
    }
  ],
  "hasNext": true,
  "hasPrev": true
}