{
  "page": 220,
  "totalPages": 268,
  "totalItems": 5354,
  "itemsPerPage": 20,
  "items": [
    {
      "id": "NjM3MzY3OTA=",
      "title": "Superintendent to Present FY 2026 Proposed Budget, Ratified Collective Bargaining Agreements, Proposed CIP",
      "link": "https://content.govdelivery.com/accounts/VAEDUFCPS/bulletins/3cc8bd6",
      "description": "\n        \n\n\n  \n\n\n\n\n\n\n\n<p>Having trouble viewing this email? <a href=\"https://content.govdelivery.com/accounts/VAEDUFCPS/bulletins/3cc8bd6\">View it as a Web page</a>.</p>\n\n\n\n\n\n\n\n\n\n\n\n<a href=\"https://www.fcps.edu/?utm_campaign+=&amp;utm_medium=email&amp;utm_source=govdelivery\" target=\"_blank\"></a>\n\n\n\n...",
      "pubDate": "Tue, 14 Jan 2025 18:00:15 -0600",
      "timestamp": 1736899215000,
      "feedName": "FCPS Employee News",
      "category": "FCPS Employee News",
      "feedSource": "http://www.fcps.edu/index.shtml",
      "feedInfo": {
        "title": "FCPS Employees - Recent Updates",
        "description": "FCPS Employees - Recent Updates",
        "link": "http://www.fcps.edu/index.shtml"
      }
    },
    {
      "id": "NjM2ODcwMjk=",
      "title": "Crossfield News 1/14/25",
      "link": "https://content.govdelivery.com/accounts/VAEDUFCPS/bulletins/3cbc975",
      "description": "\n        \n\n\n  \n\n\n\n\n\n\n\n<p><a></a>Having trouble viewing this email? <a href=\"https://content.govdelivery.com/accounts/VAEDUFCPS/bulletins/3cbc975\">View it as a Web page</a>.</p>\n\n\n\n\n\n\n\n\n\n\n\n<a href=\"https://crossfieldes.fcps.edu/?utm_campaign+=&amp;utm_medium=email&amp;utm_source=govdelivery\" target=\"...",
      "pubDate": "Tue, 14 Jan 2025 13:58:52 -0600",
      "timestamp": 1736884732000,
      "feedName": "Crossfield Elementary School",
      "category": "Crossfield Elementary School",
      "feedSource": "http://www.fcps.edu/index.shtml",
      "feedInfo": {
        "title": "Crossfield Elementary School News and announcements - Recent Updates",
        "description": "Crossfield Elementary School News and announcements",
        "link": "http://www.fcps.edu/index.shtml"
      }
    },
    {
      "id": "NjM3MDk0Mjk=",
      "title": "Bush Hill Updates - Tuesday, January 14, 2025",
      "link": "https://content.govdelivery.com/accounts/VAEDUFCPS/bulletins/3cc20f5",
      "description": "\n        \n\n\n  \n\n\n\n\n\n\n\n<p><a></a>Having trouble viewing this email? <a href=\"https://content.govdelivery.com/accounts/VAEDUFCPS/bulletins/3cc20f5\">View it as a Web page</a>.</p>\n\n\n\n\n\n\n\n\n\n\n\n<a href=\"https://bushhilles.fcps.edu/?utm_campaign+=&amp;utm_medium=email&amp;utm_source=govdelivery\" target=\"_b...",
      "pubDate": "Tue, 14 Jan 2025 13:28:40 -0600",
      "timestamp": 1736882920000,
      "feedName": "Bush Hill Elementary School",
      "category": "Bush Hill Elementary School",
      "feedSource": "http://www.fcps.edu/index.shtml",
      "feedInfo": {
        "title": "Bush Hill Elementary School News and announcements - Recent Updates",
        "description": "Bush Hill Elementary School News and announcements",
        "link": "http://www.fcps.edu/index.shtml"
      }
    },
    {
      "id": "NjM2ODgyNDY=",
      "title": "Looking Ahead",
      "link": "https://content.govdelivery.com/accounts/VAEDUFCPS/bulletins/3cbce36",
      "description": "\n        \n\n\n  \n\n\n\n\n\n\n\n\n\n\n\n\n\n\n\n\n\n\n\n\n\n\n\n\n\n\n\n\n\n\n\n\n\n\n\n\n<p><a href=\"https://fairhilles.fcps.edu/aggregator/sources/1?utm_campaign+=&amp;utm_medium=email&amp;utm_source=govdelivery#modal-language-switcher\" target=\"_blank\">English | Español | አማርኛ | 中文 | 한국어 | Tiếng Việt | العربية | فارسی | اردو</a></p>\n\n\n...",
      "pubDate": "Tue, 14 Jan 2025 12:32:18 -0600",
      "timestamp": 1736879538000,
      "feedName": "Fairhill Elementary School",
      "category": "Fairhill Elementary School",
      "feedSource": "http://www.fcps.edu/index.shtml",
      "feedInfo": {
        "title": "Fairhill Elementary School News and Announcements - Recent Updates",
        "description": "Fairhill Elementary School News and Announcements",
        "link": "http://www.fcps.edu/index.shtml"
      }
    },
    {
      "id": "NjM2MTAxNzk=",
      "title": "News from THE LAKES - January 13 Edition",
      "link": "https://content.govdelivery.com/accounts/VAEDUFCPS/bulletins/3ca9d43",
      "description": "\n        \n\n\n  \n\n\n\n\n\n\n\n<p><a></a>Having trouble viewing this email? <a href=\"https://content.govdelivery.com/accounts/VAEDUFCPS/bulletins/3ca9d43\">View it as a Web page</a>.</p>\n\n\n\n\n\n\n\n\n\n\n\n<a href=\"https://southlakeshs.fcps.edu/?utm_campaign+=&amp;utm_medium=email&amp;utm_source=govdelivery\" target=\"...",
      "pubDate": "Mon, 13 Jan 2025 18:30:13 -0600",
      "timestamp": 1736814613000,
      "feedName": "South Lakes High School",
      "category": "South Lakes High School",
      "feedSource": "http://www.fcps.edu/index.shtml",
      "feedInfo": {
        "title": "South Lakes High School General News & Announcements - Recent Updates",
        "description": "South Lakes High School News and announcements",
        "link": "http://www.fcps.edu/index.shtml"
      }
    },
    {
      "id": "NjM2NjcxOTY=",
      "title": "Robinson Student Ram Page | January 13th, 2025",
      "link": "https://content.govdelivery.com/accounts/VAEDUFCPS/bulletins/3cb7bfc",
      "description": "\n        \n\n\n  \n\n\n\n\n\n\n\n<p><a></a>Having trouble viewing this email? <a href=\"https://content.govdelivery.com/accounts/VAEDUFCPS/bulletins/3cb7bfc\">View it as a Web page</a>.</p>\n\n\n\n\n\n\n\n\n\n\n\n<a href=\"http://www2.fcps.edu/RobinsonSS/?utm_campaign+=&amp;utm_medium=email&amp;utm_source=govdelivery\" target...",
      "pubDate": "Mon, 13 Jan 2025 16:30:12 -0600",
      "timestamp": 1736807412000,
      "feedName": "Robinson Secondary School",
      "category": "Robinson Secondary School",
      "feedSource": "http://www.fcps.edu/index.shtml",
      "feedInfo": {
        "title": "Robinson RamPage - Recent Updates",
        "description": "Robinson Secondary School News and Announcements",
        "link": "http://www.fcps.edu/index.shtml"
      }
    },
    {
      "id": "NjM3MTE4NzQ=",
      "title": "Forestville Updates 1/13/2025",
      "link": "https://content.govdelivery.com/accounts/VAEDUFCPS/bulletins/3cc2a82",
      "description": "\n        \n\n\n  \n\n\n\n\n\n\n\n<p><a></a>Having trouble viewing this email? <a href=\"https://content.govdelivery.com/accounts/VAEDUFCPS/bulletins/3cc2a82\">View it as a Web page</a>.</p>\n\n\n\n\n\n\n\n\n\n\n\n<a href=\"https://forestvillees.fcps.edu/?utm_campaign+=&amp;utm_medium=email&amp;utm_source=govdelivery\" target=...",
      "pubDate": "Mon, 13 Jan 2025 16:07:04 -0600",
      "timestamp": 1736806024000,
      "feedName": "Forestville Elementary School",
      "category": "Forestville Elementary School",
      "feedSource": "http://www.fcps.edu/index.shtml",
      "feedInfo": {
        "title": "Forestville Elementary School News and Announcements - Recent Updates",
        "description": "Forestville Elementary School News and announcements",
        "link": "http://www.fcps.edu/index.shtml"
      }
    },
    {
      "id": "NjM3MTY4MjA=",
      "title": "Roadrunner Rundown - 1/13/25",
      "link": "https://content.govdelivery.com/accounts/VAEDUFCPS/bulletins/3cc3dd4",
      "description": "\n        \n\n\n  \n\n\n\n\n\n\n\n<p><a></a>Having trouble viewing this email? <a href=\"https://content.govdelivery.com/accounts/VAEDUFCPS/bulletins/3cc3dd4\">View it as a Web page</a>.</p>\n\n\n\n\n\n\n\n\n\n\n\n<a href=\"https://marshallroades.fcps.edu/?utm_campaign+=&amp;utm_medium=email&amp;utm_source=govdelivery\" target...",
      "pubDate": "Mon, 13 Jan 2025 15:43:25 -0600",
      "timestamp": 1736804605000,
      "feedName": "Marshall Road Elementary School",
      "category": "Marshall Road Elementary School",
      "feedSource": "http://www.fcps.edu/index.shtml",
      "feedInfo": {
        "title": "Marshall Road ES News and Announcements - Recent Updates",
        "description": "Marshall Road Elementary School News and announcements",
        "link": "http://www.fcps.edu/index.shtml"
      }
    },
    {
      "id": "NjI2OTczMzg=",
      "title": "Bright Beginnings for 2025 - FCPS Focus on Franconia!",
      "link": "https://content.govdelivery.com/accounts/VAEDUFCPS/bulletins/3bcaf7a",
      "description": "\n        \n\n\n  \n\n\n\n\n\n\n\n<p><a></a>Having trouble viewing this email? <a href=\"https://content.govdelivery.com/accounts/VAEDUFCPS/bulletins/3bcaf7a\">View it as a Web page</a>.</p>\n\n\n\n\n\n\n\n\n\n\n\n<a href=\"https://www.fcps.edu/staff/marcia-st-john-cunning?utm_campaign+=&amp;utm_medium=email&amp;utm_source=go...",
      "pubDate": "Mon, 13 Jan 2025 15:40:12 -0600",
      "timestamp": 1736804412000,
      "feedName": "FCPS School Board Franconia District",
      "category": "FCPS School Board Franconia District",
      "feedSource": "http://www.fcps.edu/index.shtml",
      "feedInfo": {
        "title": "Franconia District Member - Marcia St. John-Cunning - Recent Updates",
        "description": "Franconia District Member - Marcia St. John-Cunning - Recent Updates",
        "link": "http://www.fcps.edu/index.shtml"
      }
    },
    {
      "id": "NjM3MjYyODY=",
      "title": "Author visit &amp; Pre-order Book",
      "link": "https://content.govdelivery.com/accounts/VAEDUFCPS/bulletins/3cc62ce",
      "description": "\n        \n\n\n  \n\n\n\n\n\n\n\n<p><a></a>Having trouble viewing this email? <a href=\"https://content.govdelivery.com/accounts/VAEDUFCPS/bulletins/3cc62ce\">View it as a Web page</a>.</p>\n\n\n\n\n\n\n\n\n\n\n\n<a href=\"http://www2.fcps.edu/colvinrunes/?utm_campaign+=&amp;utm_medium=email&amp;utm_source=govdelivery\" targe...",
      "pubDate": "Mon, 13 Jan 2025 15:30:12 -0600",
      "timestamp": 1736803812000,
      "feedName": "Colvin Run Elementary School",
      "category": "Colvin Run Elementary School",
      "feedSource": "http://www.fcps.edu/index.shtml",
      "feedInfo": {
        "title": "Colvin Run Elementary School News and announcements - Recent Updates",
        "description": "Colvin Run Elementary School News and announcements",
        "link": "http://www.fcps.edu/index.shtml"
      }
    },
    {
      "id": "NjM3Mjg0OTI=",
      "title": "Eagle Express - Jan 13, 2025",
      "link": "https://content.govdelivery.com/accounts/VAEDUFCPS/bulletins/3cc6b6c",
      "description": "\n        \n\n\n  \n\n\n\n\n\n\n\n<p><a></a>Having trouble viewing this email? <a href=\"https://content.govdelivery.com/accounts/VAEDUFCPS/bulletins/3cc6b6c\">View it as a Web page</a>.</p>\n\n\n\n\n\n\n\n\n\n\n\n<a href=\"http://www2.fcps.edu/BraddockES/?utm_campaign+=&amp;utm_medium=email&amp;utm_source=govdelivery\" target...",
      "pubDate": "Mon, 13 Jan 2025 14:19:26 -0600",
      "timestamp": 1736799566000,
      "feedName": "Braddock Elementary School",
      "category": "Braddock Elementary School",
      "feedSource": "http://www.fcps.edu/index.shtml",
      "feedInfo": {
        "title": "Braddock ES - The Eagle Express - Recent Updates",
        "description": "Braddock Elementary School News and announcements",
        "link": "http://www.fcps.edu/index.shtml"
      }
    },
    {
      "id": "NjM3MjY2MDg=",
      "title": "Tomorrow: CIP Work Session and Public Hearing",
      "link": "https://content.govdelivery.com/accounts/VAEDUFCPS/bulletins/3cc6410",
      "description": "\n        \n\n\n  \n\n\n\n\n\n\n\n<p><a></a>Having trouble viewing this email? <a href=\"https://content.govdelivery.com/accounts/VAEDUFCPS/bulletins/3cc6410\">View it as a Web page</a>.</p>\n\n\n\n\n\n\n\n\n\n\n\n<a href=\"https://www.fcps.edu/staff/ricardy-anderson?utm_campaign+=&amp;utm_medium=email&amp;utm_source=govdeliv...",
      "pubDate": "Mon, 13 Jan 2025 12:50:27 -0600",
      "timestamp": 1736794227000,
      "feedName": "School Board Mason District",
      "category": "School Board Mason District",
      "feedSource": "http://www.fcps.edu/index.shtml",
      "feedInfo": {
        "title": "Mason District Member - Ricardy Anderson - Recent Updates",
        "description": "Mason District Member - Ricardy Anderson - Recent Updates",
        "link": "http://www.fcps.edu/index.shtml"
      }
    },
    {
      "id": "NjM3MDYzNTk=",
      "title": "Mantua ES Weekly Newsletter",
      "link": "https://content.govdelivery.com/accounts/VAEDUFCPS/bulletins/3cc14f7",
      "description": "\n        \n\n\n  \n\n\n\n\n\n\n\n<p><a></a>Having trouble viewing this email? <a href=\"https://content.govdelivery.com/accounts/VAEDUFCPS/bulletins/3cc14f7\">View it as a Web page</a>.</p>\n\n\n\n\n\n\n\n\n\n\n\n<a href=\"https://mantuaes.fcps.edu/?utm_campaign+=&amp;utm_medium=email&amp;utm_source=govdelivery\" target=\"_bla...",
      "pubDate": "Mon, 13 Jan 2025 05:29:40 -0600",
      "timestamp": 1736767780000,
      "feedName": "Mantua Elementary School",
      "category": "Mantua Elementary School",
      "feedSource": "http://www.fcps.edu/index.shtml",
      "feedInfo": {
        "title": "Mantua Elementary School News and announcements - Recent Updates",
        "description": "Mantua Elementary School News and announcements",
        "link": "http://www.fcps.edu/index.shtml"
      }
    },
    {
      "id": "NjM3MDM1NDQ=",
      "title": "The Ram Gram! Hot Off the Press!",
      "link": "https://content.govdelivery.com/accounts/VAEDUFCPS/bulletins/3cc09f8",
      "description": "\n        \n\n\n  \n\n\n\n\n\n\n\n<p><a></a>Having trouble viewing this email? <a href=\"https://content.govdelivery.com/accounts/VAEDUFCPS/bulletins/3cc09f8\">View it as a Web page</a>.</p>\n\n\n\n\n\n\n\n\n\n\n\n<a href=\"http://www2.fcps.edu/CentreRidgeES/?utm_campaign+=&amp;utm_medium=email&amp;utm_source=govdelivery\" tar...",
      "pubDate": "Sun, 12 Jan 2025 19:49:58 -0600",
      "timestamp": 1736732998000,
      "feedName": "Centre Ridge Elementary School",
      "category": "Centre Ridge Elementary School",
      "feedSource": "http://www.fcps.edu/index.shtml",
      "feedInfo": {
        "title": "Centre Ridge Elementary School News and Announcements - Recent Updates",
        "description": "Centre Ridge Elementary School News and Announcements",
        "link": "http://www.fcps.edu/index.shtml"
      }
    },
    {
      "id": "NjM3MDU3MDI=",
      "title": "Weekly Updates",
      "link": "https://content.govdelivery.com/accounts/VAEDUFCPS/bulletins/3cc1266",
      "description": "\n        \n\n\n  \n\n\n\n\n\n\n\n<p><a></a>Having trouble viewing this email? <a href=\"https://content.govdelivery.com/accounts/VAEDUFCPS/bulletins/3cc1266\">View it as a Web page</a>.</p>\n\n\n\n\n\n\n\n\n\n\n\n<a href=\"http://www2.fcps.edu/SleepyHollowES/?utm_content=&amp;utm_medium=email&amp;utm_name=&amp;utm_source=gov...",
      "pubDate": "Sun, 12 Jan 2025 19:33:32 -0600",
      "timestamp": 1736732012000,
      "feedName": "Sleepy Hollow Elementary School",
      "category": "Sleepy Hollow Elementary School",
      "feedSource": "http://www.fcps.edu/index.shtml",
      "feedInfo": {
        "title": "Sleepy Hollow Elementary School News and announcements - Recent Updates",
        "description": "Sleepy Hollow Elementary School News and announcements",
        "link": "http://www.fcps.edu/index.shtml"
      }
    },
    {
      "id": "NjM3MDUzNTg=",
      "title": "A Message From Principal Yacubovich",
      "link": "https://content.govdelivery.com/accounts/VAEDUFCPS/bulletins/3cc110e",
      "description": "\n        \n\n\n  \n\n\n\n\n\n\n\n<p><a></a>Having trouble viewing this email? <a href=\"https://content.govdelivery.com/accounts/VAEDUFCPS/bulletins/3cc110e\">View it as a Web page</a>.</p>\n\n\n\n\n\n\n\n\n\n\n\n<a href=\"https://pinespringes.fcps.edu/?utm_campaign+=&amp;utm_medium=email&amp;utm_source=govdelivery\" target=\"...",
      "pubDate": "Sun, 12 Jan 2025 17:59:53 -0600",
      "timestamp": 1736726393000,
      "feedName": "Pine Spring Elementary School",
      "category": "Pine Spring Elementary School",
      "feedSource": "http://www.fcps.edu/index.shtml",
      "feedInfo": {
        "title": "Pine Spring Elementary School News and announcements - Recent Updates",
        "description": "Pine Spring Elementary School News and announcements",
        "link": "http://www.fcps.edu/index.shtml"
      }
    },
    {
      "id": "NjM3MDM4MjU=",
      "title": "\"On The Run\" Newsletter 1-12-25",
      "link": "https://content.govdelivery.com/accounts/VAEDUFCPS/bulletins/3cc0b11",
      "description": "\n        \n\n\n  \n\n\n\n\n\n\n\n<p><a></a>Having trouble viewing this email? <a href=\"https://content.govdelivery.com/accounts/VAEDUFCPS/bulletins/3cc0b11\">View it as a Web page</a>.</p>\n\n\n\n\n\n\n\n\n\n\n\n<a href=\"http://www2.fcps.edu/colvinrunes/?utm_campaign+=&amp;utm_medium=email&amp;utm_source=govdelivery\" targe...",
      "pubDate": "Sun, 12 Jan 2025 13:00:16 -0600",
      "timestamp": 1736708416000,
      "feedName": "Colvin Run Elementary School",
      "category": "Colvin Run Elementary School",
      "feedSource": "http://www.fcps.edu/index.shtml",
      "feedInfo": {
        "title": "Colvin Run Elementary School News and announcements - Recent Updates",
        "description": "Colvin Run Elementary School News and announcements",
        "link": "http://www.fcps.edu/index.shtml"
      }
    },
    {
      "id": "NjM2ODgyMTQ=",
      "title": "FH Weekly Update - 1/12/25",
      "link": "https://content.govdelivery.com/accounts/VAEDUFCPS/bulletins/3cbce16",
      "description": "\n        \n\n\n  \n\n\n\n\n\n\n\n<p><a></a>Having trouble viewing this email? <a href=\"https://content.govdelivery.com/accounts/VAEDUFCPS/bulletins/3cbce16\">View it as a Web page</a>.</p>\n\n\n\n\n\n\n\n\n\n\n\n<a href=\"http://www2.fcps.edu/FreedomHillES/?utm_campaign+=&amp;utm_medium=email&amp;utm_source=govdelivery\" tar...",
      "pubDate": "Sun, 12 Jan 2025 11:20:16 -0600",
      "timestamp": 1736702416000,
      "feedName": "Freedom Hill Elementary School",
      "category": "Freedom Hill Elementary School",
      "feedSource": "http://www.fcps.edu/index.shtml",
      "feedInfo": {
        "title": "Freedom Hill Elementary School News and announcements - Recent Updates",
        "description": "Freedom Hill Elementary School News and announcements",
        "link": "http://www.fcps.edu/index.shtml"
      }
    },
    {
      "id": "NjM2OTk1NjE=",
      "title": "Sunrise Valley News",
      "link": "https://content.govdelivery.com/accounts/VAEDUFCPS/bulletins/3cbfa69",
      "description": "\n        \n\n\n  \n\n\n\n\n\n\n\n\n\n\n\n\n\n\n\n\n\n\n\n<a href=\"https://sunrisevalleyes.fcps.edu/?utm_campaign+=&amp;utm_medium=email&amp;utm_source=govdelivery\" target=\"_blank\"></a>\n\n\n\n\n\n\n\n\n\n\n\n\n\n\n\n\n<p>HAPPY NEW YEAR 2025!</p>\n<p><br />While our extended break may have been welcomed by students and snow lovers alike, I ...",
      "pubDate": "Sun, 12 Jan 2025 07:00:14 -0600",
      "timestamp": 1736686814000,
      "feedName": "Sunrise Valley Elementary School",
      "category": "Sunrise Valley Elementary School",
      "feedSource": "http://www.fcps.edu/index.shtml",
      "feedInfo": {
        "title": "Sunrise Valley Elementary School News and Announcements - Recent Updates",
        "description": "Sunrise Valley Elementary School News and announcements",
        "link": "http://www.fcps.edu/index.shtml"
      }
    },
    {
      "id": "NjM2OTY5Njk=",
      "title": "Fort Hunt Fox Den News | January 10, 2025",
      "link": "https://content.govdelivery.com/accounts/VAEDUFCPS/bulletins/3cbf049",
      "description": "\n        \n\n\n  \n\n\n\n\n\n\n\n<p><a></a>Having trouble viewing this email? <a href=\"https://content.govdelivery.com/accounts/VAEDUFCPS/bulletins/3cbf049\">View it as a Web page</a>.</p>\n\n\n\n\n\n\n\n\n\n\n\n<a href=\"https://forthuntes.fcps.edu/?utm_campaign+=&amp;utm_medium=email&amp;utm_source=govdelivery\" target=\"_b...",
      "pubDate": "Sat, 11 Jan 2025 10:48:33 -0600",
      "timestamp": 1736614113000,
      "feedName": "Fort Hunt Elementary School",
      "category": "Fort Hunt Elementary School",
      "feedSource": "http://www.fcps.edu/index.shtml",
      "feedInfo": {
        "title": "Fort Hunt Elementary School News and Announcements - Recent Updates",
        "description": "Fort Hunt Elementary School News and announcements",
        "link": "http://www.fcps.edu/index.shtml"
      }
    }
  ],
  "hasNext": true,
  "hasPrev": true
}