{
  "page": 23,
  "totalPages": 268,
  "totalItems": 5354,
  "itemsPerPage": 20,
  "items": [
    {
      "id": "NjU3ODQ5NzQ=",
      "title": "Greenbriar West PTA  Weekly",
      "link": "https://content.govdelivery.com/accounts/VAEDUFCPS/bulletins/3ebcc8e",
      "description": "\n        \n\n\n  \n\n\n\n\n\n\n\n<p><a></a>Having trouble viewing this email? <a href=\"https://content.govdelivery.com/accounts/VAEDUFCPS/bulletins/3ebcc8e\">View it as a Web page</a>.</p>\n\n\n\n\n\n\n\n\n\n\n\n<a href=\"https://greenbriarwestes.fcps.edu/?utm_campaign+=&amp;utm_medium=email&amp;utm_source=govdelivery\" targ...",
      "pubDate": "Wed, 30 Jul 2025 17:15:12 -0500",
      "timestamp": 1753913712000,
      "feedName": "Greenbriar West Elementary School",
      "category": "Greenbriar West Elementary School",
      "feedSource": "http://www.fcps.edu/index.shtml",
      "feedInfo": {
        "title": "Greenbriar West Elementary School News and Announcements - Recent Updates",
        "description": "Greenbriar West Elementary School News and Announcements",
        "link": "http://www.fcps.edu/index.shtml"
      }
    },
    {
      "id": "NjU3ODQ5NTM=",
      "title": "Cardinal Forest ES - 7-30-2025",
      "link": "https://content.govdelivery.com/accounts/VAEDUFCPS/bulletins/3ebcc79",
      "description": "\n        \n\n\n  \n\n\n\n\n\n\n\n<p><a></a>Having trouble viewing this email? <a href=\"https://content.govdelivery.com/accounts/VAEDUFCPS/bulletins/3ebcc79\">View it as a Web page</a>.</p>\n\n\n\n\n\n\n\n\n\n\n\n<a href=\"https://cardinalforestes.fcps.edu/?utm_campaign+=&amp;utm_medium=email&amp;utm_source=govdelivery\" targ...",
      "pubDate": "Wed, 30 Jul 2025 16:03:27 -0500",
      "timestamp": 1753909407000,
      "feedName": "Cardinal Forest Elementary School",
      "category": "Cardinal Forest Elementary School",
      "feedSource": "http://www.fcps.edu/index.shtml",
      "feedInfo": {
        "title": "Cardinal Forest Elementary School News and announcements - Recent Updates",
        "description": "Cardinal Forest Elementary School News and announcements",
        "link": "http://www.fcps.edu/index.shtml"
      }
    },
    {
      "id": "NjU3ODM1MzA=",
      "title": "Glasgow Middle School - July 30, 2025",
      "link": "https://content.govdelivery.com/accounts/VAEDUFCPS/bulletins/3ebc6ea",
      "description": "\n        \n\n\n  \n\n\n\n\n\n\n\n<p><a></a>Having trouble viewing this email? <a href=\"https://content.govdelivery.com/accounts/VAEDUFCPS/bulletins/3ebc6ea\">View it as a Web page</a>.</p>\n\n\n\n\n\n\n\n\n\n\n\n<a href=\"https://glasgowms.fcps.edu/?utm_campaign+=&amp;utm_medium=email&amp;utm_source=govdelivery\" target=\"_bl...",
      "pubDate": "Wed, 30 Jul 2025 16:00:15 -0500",
      "timestamp": 1753909215000,
      "feedName": "Glasgow Middle School",
      "category": "Glasgow Middle School",
      "feedSource": "http://www.fcps.edu/index.shtml",
      "feedInfo": {
        "title": "Glasgow Middle School News and Announcements - Recent Updates",
        "description": "Glasgow Middle School News and Announcements",
        "link": "http://www.fcps.edu/index.shtml"
      }
    },
    {
      "id": "NjU3NjQxOTA=",
      "title": "Fort Hunt Fox Den News | July 31, 2025",
      "link": "https://content.govdelivery.com/accounts/VAEDUFCPS/bulletins/3eb7b5e",
      "description": "\n        \n\n\n  \n\n\n\n\n\n\n\n<p><a></a>Having trouble viewing this email? <a href=\"https://content.govdelivery.com/accounts/VAEDUFCPS/bulletins/3eb7b5e\">View it as a Web page</a>.</p>\n\n\n\n\n\n\n\n\n\n\n\n<a href=\"https://forthuntes.fcps.edu/?utm_campaign+=&amp;utm_medium=email&amp;utm_source=govdelivery\" target=\"_b...",
      "pubDate": "Wed, 30 Jul 2025 15:11:10 -0500",
      "timestamp": 1753906270000,
      "feedName": "Fort Hunt Elementary School",
      "category": "Fort Hunt Elementary School",
      "feedSource": "http://www.fcps.edu/index.shtml",
      "feedInfo": {
        "title": "Fort Hunt Elementary School News and Announcements - Recent Updates",
        "description": "Fort Hunt Elementary School News and announcements",
        "link": "http://www.fcps.edu/index.shtml"
      }
    },
    {
      "id": "NjU3ODQwNjM=",
      "title": "From Athletics",
      "link": "https://content.govdelivery.com/accounts/VAEDUFCPS/bulletins/3ebc8ff",
      "description": "\n        \n\n\n  \n\n\n\n\n\n\n\n<p><a></a>Having trouble viewing this email? <a href=\"https://content.govdelivery.com/accounts/VAEDUFCPS/bulletins/3ebc8ff\">View it as a Web page</a>.</p>\n\n\n\n\n\n\n\n\n\n\n\n<a href=\"https://herndonhs.fcps.edu/?utm_campaign+=&amp;utm_medium=email&amp;utm_source=govdelivery\" target=\"_bl...",
      "pubDate": "Wed, 30 Jul 2025 14:30:03 -0500",
      "timestamp": 1753903803000,
      "feedName": "Herndon High School",
      "category": "Herndon High School",
      "feedSource": "http://www.fcps.edu/index.shtml",
      "feedInfo": {
        "title": "Herndon High School News and Announcements - Recent Updates",
        "description": "Herndon High School News and Announcements",
        "link": "http://www.fcps.edu/index.shtml"
      }
    },
    {
      "id": "NjU3ODI0ODE=",
      "title": "From Athletics",
      "link": "https://content.govdelivery.com/accounts/VAEDUFCPS/bulletins/3ebc2d1",
      "description": "\n        \n\n\n  \n\n\n\n\n\n\n\n<p><a></a>Having trouble viewing this email? <a href=\"https://content.govdelivery.com/accounts/VAEDUFCPS/bulletins/3ebc2d1\">View it as a Web page</a>.</p>\n\n\n\n\n\n\n\n\n\n\n\n<a href=\"https://herndonhs.fcps.edu/?utm_campaign+=&amp;utm_medium=email&amp;utm_source=govdelivery\" target=\"_bl...",
      "pubDate": "Wed, 30 Jul 2025 14:00:19 -0500",
      "timestamp": 1753902019000,
      "feedName": "Herndon High School",
      "category": "Herndon High School",
      "feedSource": "http://www.fcps.edu/index.shtml",
      "feedInfo": {
        "title": "Herndon High School News and Announcements - Recent Updates",
        "description": "Herndon High School News and Announcements",
        "link": "http://www.fcps.edu/index.shtml"
      }
    },
    {
      "id": "NjU3ODE0NTY=",
      "title": "Rocky Run Middle School Updates",
      "link": "https://content.govdelivery.com/accounts/VAEDUFCPS/bulletins/3ebbed0",
      "description": "\n        \n\n\n  \n\n\n\n\n\n\n\n<p><a></a>Having trouble viewing this email? <a href=\"https://content.govdelivery.com/accounts/VAEDUFCPS/bulletins/3ebbed0\">View it as a Web page</a>.</p>\n\n\n\n\n\n\n\n\n\n\n\n<a href=\"https://rockyrunms.fcps.edu/?utm_campaign+=&amp;utm_medium=email&amp;utm_source=govdelivery\" target=\"_b...",
      "pubDate": "Wed, 30 Jul 2025 13:52:15 -0500",
      "timestamp": 1753901535000,
      "feedName": "Rocky Run Middle School",
      "category": "Rocky Run Middle School",
      "feedSource": "https://public.govdelivery.com/topics/Rocky_Run_MS_News/feed.rss",
      "feedInfo": {
        "title": "Rocky Run Middle School News and Announcements",
        "description": "Rocky Run Middle School News and Announcements",
        "link": "https://public.govdelivery.com/topics/Rocky_Run_MS_News/feed.rss"
      }
    },
    {
      "id": "NjU3ODI3ODk=",
      "title": "Fairview Popsicles with Principals",
      "link": "https://content.govdelivery.com/accounts/VAEDUFCPS/bulletins/3ebc405",
      "description": "\n        \n\n\n  \n\n\n\n\n\n\n\n\n\n\n\n\n\n\n\n\n\n\n\n<a href=\"https://fairviewes.fcps.edu/?utm_campaign+=&amp;utm_medium=email&amp;utm_source=govdelivery\" target=\"_blank\"></a>\n\n\n\n\n\n\n\n\n\n\n\n\n\n\n\nA Message from Principal Goldstein\n\n\n  \n    \n\n\n<p>Dear Fairview Families,<br />Weâ€™re looking forward to seeing you this Friday, ...",
      "pubDate": "Wed, 30 Jul 2025 13:26:08 -0500",
      "timestamp": 1753899968000,
      "feedName": "Fairview Elementary School",
      "category": "Fairview Elementary School",
      "feedSource": "http://www.fcps.edu/index.shtml",
      "feedInfo": {
        "title": "Fairview Elementary School News and Announcements - Recent Updates",
        "description": "Fairview Elementary School News and announcements",
        "link": "http://www.fcps.edu/index.shtml"
      }
    },
    {
      "id": "NjU3Njg3Mjg=",
      "title": "Laurel Ridge Mid-Summer Update",
      "link": "https://content.govdelivery.com/accounts/VAEDUFCPS/bulletins/3eb8d18",
      "description": "\n        \n\n\n  \n\n\n\n\n\n\n\n<p><a></a>Having trouble viewing this email? <a href=\"https://content.govdelivery.com/accounts/VAEDUFCPS/bulletins/3eb8d18\">View it as a Web page</a>.</p>\n\n\n\n\n\n\n\n\n\n\n\n<a href=\"http://www2.fcps.edu/LaurelRidgeES/?utm_campaign+=&amp;utm_medium=email&amp;utm_source=govdelivery\" tar...",
      "pubDate": "Wed, 30 Jul 2025 13:00:16 -0500",
      "timestamp": 1753898416000,
      "feedName": "Laurel Ridge Elementary School",
      "category": "Laurel Ridge Elementary School",
      "feedSource": "http://www.fcps.edu/index.shtml",
      "feedInfo": {
        "title": "Laurel Ridge Elementary School News and announcements - Recent Updates",
        "description": "Laurel Ridge Elementary School News and announcements",
        "link": "http://www.fcps.edu/index.shtml"
      }
    },
    {
      "id": "NjU3MjY4OTk=",
      "title": "Westgate Weekly News",
      "link": "https://content.govdelivery.com/accounts/VAEDUFCPS/bulletins/3eae9b3",
      "description": "\n        \n\n\n  \n\n\n\n\n\n\n\n<p><a></a>Having trouble viewing this email? <a href=\"https://content.govdelivery.com/accounts/VAEDUFCPS/bulletins/3eae9b3\">View it as a Web page</a>.</p>\n\n\n\n\n\n\n\n\n\n\n\n<a href=\"http://www2.fcps.edu/WestgateES/?utm_content=&amp;utm_medium=email&amp;utm_name=&amp;utm_source=govdeli...",
      "pubDate": "Wed, 30 Jul 2025 10:55:29 -0500",
      "timestamp": 1753890929000,
      "feedName": "Westgate Elementary School",
      "category": "Westgate Elementary School",
      "feedSource": "http://www.fcps.edu/index.shtml",
      "feedInfo": {
        "title": "Westgate ES News",
        "description": "Westgate Elementary School News and announcements",
        "link": "http://www.fcps.edu/index.shtml"
      }
    },
    {
      "id": "NjU3ODAyMDk=",
      "title": "Willow Springs School News: 7/30/2025",
      "link": "https://content.govdelivery.com/accounts/VAEDUFCPS/bulletins/3ebb9f1",
      "description": "\n        \n\n\n  \n\n\n\n\n\n\n\n<p><a href=\"https://content.govdelivery.com/accounts/VAEDUFCPS/bulletins/3ebb9f1\">Having trouble viewing this email? <a href=\"https://content.govdelivery.com/accounts/VAEDUFCPS/bulletins/3ebb9f1\">View it as a Web page</a>.</a></p>\n\n\n\n\n\n\n\n\n\n\n\n<a href=\"https://willowspringses.fcp...",
      "pubDate": "Wed, 30 Jul 2025 09:59:04 -0500",
      "timestamp": 1753887544000,
      "feedName": "Willow Springs Elementary School",
      "category": "Willow Springs Elementary School",
      "feedSource": "https://willowspringses.fcps.edu",
      "feedInfo": {
        "title": "Willow Springs Elementary School",
        "description": "Willow Springs Elementary School News and announcements",
        "link": "https://willowspringses.fcps.edu"
      }
    },
    {
      "id": "NjU3NzkxODA=",
      "title": "Key MS - News You Choose - 07/30/25",
      "link": "https://content.govdelivery.com/accounts/VAEDUFCPS/bulletins/3ebb5ec",
      "description": "\n        \n\n\n  \n\n\n\n\n\n\n\n<p><a></a>Having trouble viewing this email? <a href=\"https://content.govdelivery.com/accounts/VAEDUFCPS/bulletins/3ebb5ec\">View it as a Web page</a>.</p>\n\n\n\n\n\n\n\n\n\n\n\n<a href=\"http://www2.fcps.edu/KeyMS/?utm_campaign+=&amp;utm_medium=email&amp;utm_source=govdelivery\" target=\"_bl...",
      "pubDate": "Wed, 30 Jul 2025 09:20:20 -0500",
      "timestamp": 1753885220000,
      "feedName": "Key Middle School",
      "category": "Key Middle School",
      "feedSource": "http://www.fcps.edu/index.shtml",
      "feedInfo": {
        "title": "Key Middle School News and Announcements - Recent Updates",
        "description": "Key Middle School News and Announcements",
        "link": "http://www.fcps.edu/index.shtml"
      }
    },
    {
      "id": "NjU3NzQ4NDk=",
      "title": "PES Summer Updates",
      "link": "https://content.govdelivery.com/accounts/VAEDUFCPS/bulletins/3eba501",
      "description": "\n        \n\n\n  \n\n\n\n\n\n\n\n<p><a></a>Having trouble viewing this email? <a href=\"https://content.govdelivery.com/accounts/VAEDUFCPS/bulletins/3eba501\">View it as a Web page</a>.</p>\n\n\n\n\n\n\n\n\n\n\n\n<a href=\"http://www2.fcps.edu/ProvidenceES/?utm_campaign+=&amp;utm_medium=email&amp;utm_source=govdelivery\" targ...",
      "pubDate": "Wed, 30 Jul 2025 09:07:26 -0500",
      "timestamp": 1753884446000,
      "feedName": "Providence Elementary School",
      "category": "Providence Elementary School",
      "feedSource": "http://www.fcps.edu/index.shtml",
      "feedInfo": {
        "title": "Providence Elementary School News and Announcements - Recent Updates",
        "description": "Providence Elementary School News and announcements",
        "link": "http://www.fcps.edu/index.shtml"
      }
    },
    {
      "id": "NjU3MjQzNjE=",
      "title": "McNair Upper Elementary School, Welcome Back to School Edition!",
      "link": "https://content.govdelivery.com/accounts/VAEDUFCPS/bulletins/3eadfc9",
      "description": "\n        \n\n\n  \n\n\n\n\n\n\n\n<p><a></a>Having trouble viewing this email? <a href=\"https://content.govdelivery.com/accounts/VAEDUFCPS/bulletins/3eadfc9\">View it as a Web page</a>.</p>\n\n\n\n\n\n\n\n\n\n\n\n<a href=\"http://www2.fcps.edu/McNairES/?utm_content=&amp;utm_medium=email&amp;utm_name=&amp;utm_source=govdelive...",
      "pubDate": "Wed, 30 Jul 2025 08:00:16 -0500",
      "timestamp": 1753880416000,
      "feedName": "McNair Upper Elementary School",
      "category": "McNair Upper Elementary School",
      "feedSource": "http://www.fcps.edu/index.shtml",
      "feedInfo": {
        "title": "McNair Upper (Grades 3-6) News and Announcements - Recent Updates",
        "description": "McNair Upper (Grades 3-6) News and Announcements - Recent Updates",
        "link": "http://www.fcps.edu/index.shtml"
      }
    },
    {
      "id": "NjU3NTc4ODY=",
      "title": "Bonnie Brae ES: Popsicles on the Playground (July 31)",
      "link": "https://content.govdelivery.com/accounts/VAEDUFCPS/bulletins/3eb62be",
      "description": "\n        \n\n\n  \n\n\n\n\n\n\n\n<p><a></a>Having trouble viewing this email? <a href=\"https://content.govdelivery.com/accounts/VAEDUFCPS/bulletins/3eb62be\">View it as a Web page</a>.</p>\n\n\n\n\n\n\n\n\n\n\n\n<a href=\"https://bonniebraees.fcps.edu/?utm_campaign+=&amp;utm_medium=email&amp;utm_source=govdelivery\" target=\"...",
      "pubDate": "Wed, 30 Jul 2025 05:30:12 -0500",
      "timestamp": 1753871412000,
      "feedName": "Bonnie Brae Elementary School",
      "category": "Bonnie Brae Elementary School",
      "feedSource": "http://www.fcps.edu/index.shtml",
      "feedInfo": {
        "title": "Bonnie Brae News and Announcements",
        "description": "Bonnie Brae Elementary School News and announcements",
        "link": "http://www.fcps.edu/index.shtml"
      }
    },
    {
      "id": "NjU3NjA4Mjk=",
      "title": "Navy News &amp; Notes ðŸ—žï¸ðŸ“Œ 7.28.25",
      "link": "https://content.govdelivery.com/accounts/VAEDUFCPS/bulletins/3eb6e3d",
      "description": "\n        \n\n\n  \n\n\n\n\n\n\n\n<p><a></a>Having trouble viewing this email? <a href=\"https://content.govdelivery.com/accounts/VAEDUFCPS/bulletins/3eb6e3d\">View it as a Web page</a>.</p>\n\n\n\n\n\n\n\n\n\n\n\n<a href=\"https://navyes.fcps.edu/?utm_campaign+=&amp;utm_medium=email&amp;utm_source=govdelivery\" target=\"_blank...",
      "pubDate": "Tue, 29 Jul 2025 16:03:20 -0500",
      "timestamp": 1753823000000,
      "feedName": "Navy Elementary School",
      "category": "Navy Elementary School",
      "feedSource": "http://www.fcps.edu/index.shtml",
      "feedInfo": {
        "title": "Navy Elementary School News and announcements - Recent Updates",
        "description": "Navy Elementary School News and announcements",
        "link": "http://www.fcps.edu/index.shtml"
      }
    },
    {
      "id": "NjU3NDg1NTg=",
      "title": "Summer Update #2   7.29.2025",
      "link": "https://content.govdelivery.com/accounts/VAEDUFCPS/bulletins/3eb3e4e",
      "description": "\n        \n\n\n  \n\n\n\n\n\n\n\n<p><a></a>Having trouble viewing this email? <a href=\"https://content.govdelivery.com/accounts/VAEDUFCPS/bulletins/3eb3e4e\">View it as a Web page</a>.</p>\n\n\n\n\n\n\n\n\n\n\n\n<a href=\"http://www2.fcps.edu/KentGardensES/?utm_campaign+=&amp;utm_medium=email&amp;utm_source=govdelivery\" tar...",
      "pubDate": "Tue, 29 Jul 2025 16:00:13 -0500",
      "timestamp": 1753822813000,
      "feedName": "Kent Gardens Elementary School",
      "category": "Kent Gardens Elementary School",
      "feedSource": "http://www.fcps.edu/index.shtml",
      "feedInfo": {
        "title": "Kent Gardens Elementary School News and Announcements - Recent Updates",
        "description": "Kent Gardens Elementary School News and announcements",
        "link": "http://www.fcps.edu/index.shtml"
      }
    },
    {
      "id": "NjU3NzAzNjE=",
      "title": "Mustang Message - SPECIAL EDITION - July 29, 2025",
      "link": "https://content.govdelivery.com/accounts/VAEDUFCPS/bulletins/3eb9379",
      "description": "\n        \n\n\n  \n\n\n\n\n\n\n\n<p><a></a>Having trouble viewing this email? <a href=\"https://content.govdelivery.com/accounts/VAEDUFCPS/bulletins/3eb9379\">View it as a Web page</a>.</p>\n\n\n\n\n\n\n\n\n\n\n\n<a href=\"https://brenmarparkes.fcps.edu/?utm_campaign+=&amp;utm_medium=email&amp;utm_source=govdelivery\" target=...",
      "pubDate": "Tue, 29 Jul 2025 15:30:16 -0500",
      "timestamp": 1753821016000,
      "feedName": "Bren Mar Park Elementary School",
      "category": "Bren Mar Park Elementary School",
      "feedSource": "http://www.fcps.edu/index.shtml",
      "feedInfo": {
        "title": "Bren Mar Park Elementary School News and announcements - Recent Updates",
        "description": "Bren Mar Park Elementary School News and announcements",
        "link": "http://www.fcps.edu/index.shtml"
      }
    },
    {
      "id": "NjU3Mzk0MTM=",
      "title": "Kings Park News Tuesday, July 29th",
      "link": "https://content.govdelivery.com/accounts/VAEDUFCPS/bulletins/3eb1a95",
      "description": "\n        \n\n\n  \n\n\n\n\n\n\n\n<p><a></a>Having trouble viewing this email? <a href=\"https://content.govdelivery.com/accounts/VAEDUFCPS/bulletins/3eb1a95\">View it as a Web page</a>.</p>\n\n\n\n\n\n\n\n\n\n\n\n<a href=\"http://www2.fcps.edu/KingsParkES/?utm_campaign+=&amp;utm_medium=email&amp;utm_source=govdelivery\" targe...",
      "pubDate": "Tue, 29 Jul 2025 14:33:21 -0500",
      "timestamp": 1753817601000,
      "feedName": "Kings Park Elementary School",
      "category": "Kings Park Elementary School",
      "feedSource": "http://www.fcps.edu/index.shtml",
      "feedInfo": {
        "title": "Kings Park Elementary School News and announcements - Recent Updates",
        "description": "Kings Park Elementary School News and announcements",
        "link": "http://www.fcps.edu/index.shtml"
      }
    },
    {
      "id": "NjU2NjQxNDg=",
      "title": "Carson MS Weekly Updates -Updates - Week of July 28",
      "link": "https://content.govdelivery.com/accounts/VAEDUFCPS/bulletins/3e9f494",
      "description": "\n        \n\n\n  \n\n\n\n\n\n\n\n<p><a></a>Having trouble viewing this email? <a href=\"https://content.govdelivery.com/accounts/VAEDUFCPS/bulletins/3e9f494\">View it as a Web page</a>.</p>\n\n\n\n\n\n\n\n\n\n\n\n<a href=\"https://carsonms.fcps.edu/?utm_campaign+=&amp;utm_medium=email&amp;utm_source=govdelivery\" target=\"_bla...",
      "pubDate": "Tue, 29 Jul 2025 13:28:22 -0500",
      "timestamp": 1753813702000,
      "feedName": "Carson Middle School",
      "category": "Carson Middle School",
      "feedSource": "http://www.fcps.edu/index.shtml",
      "feedInfo": {
        "title": "Carson Middle School News and announcements - Recent Updates",
        "description": "Carson Middle School News and announcements",
        "link": "http://www.fcps.edu/index.shtml"
      }
    }
  ],
  "hasNext": true,
  "hasPrev": true
}