{
  "page": 266,
  "totalPages": 268,
  "totalItems": 5354,
  "itemsPerPage": 20,
  "items": [
    {
      "id": "Mzk1Mzc3NTY=",
      "title": "Announcements",
      "link": "https://content.govdelivery.com/accounts/VAEDUFCPS/bulletins/25b4c5c",
      "description": "\n        \n\n\n  \n\n\n\n\n\n\n\n<p><a></a>Having trouble viewing this email? <a href=\"https://content.govdelivery.com/accounts/VAEDUFCPS/bulletins/25b4c5c\">View it as a Web page</a>.</p>\n\n\n\n\n\n\n\n\n\n\n\n<a href=\"https://marshallhs.fcps.edu/?utm_content=&amp;utm_medium=email&amp;utm_name=&amp;utm_source=govdelivery...",
      "pubDate": "Tue, 27 Aug 2019 14:35:48 -0500",
      "timestamp": 1566934548000,
      "feedName": "Marshall High School",
      "category": "Marshall High School",
      "feedSource": "http://www.fcps.edu/index.shtml",
      "feedInfo": {
        "title": "Marshall High School News and announcements - Recent Updates",
        "description": "Marshall High School News and announcements",
        "link": "http://www.fcps.edu/index.shtml"
      }
    },
    {
      "id": "Mzk0NTY2MDY=",
      "title": "Marshall Academy Welcome and Information",
      "link": "https://content.govdelivery.com/accounts/VAEDUFCPS/bulletins/25a0f5e",
      "description": "\n        \n\n\n  \n\n\n\n\n\n\n\n<p><a></a>Having trouble viewing this email? <a href=\"https://content.govdelivery.com/accounts/VAEDUFCPS/bulletins/25a0f5e\">View it as a Web page</a>.</p>\n\n\n\n\n\n\n\n\n\n\n\n<a href=\"https://marshallacademy.fcps.edu/?utm_content=&amp;utm_medium=email&amp;utm_name=&amp;utm_source=govdel...",
      "pubDate": "Wed, 21 Aug 2019 14:33:32 -0500",
      "timestamp": 1566416012000,
      "feedName": "Marshall Academy",
      "category": "Marshall Academy",
      "feedSource": "http://www.fcps.edu/index.shtml",
      "feedInfo": {
        "title": "Marshall Academy News and Announcements - Recent Updates",
        "description": "Marshall Academy News and Announcements - Recent Updates",
        "link": "http://www.fcps.edu/index.shtml"
      }
    },
    {
      "id": "MzkyNzYzODE=",
      "title": "Back 2 School Movie Night",
      "link": "https://content.govdelivery.com/accounts/VAEDUFCPS/bulletins/2574f5d",
      "description": "\n        \n    \n        \n            \n                \n                    \n                        \n                            \n\n                                \n                                    \n                                        \n                                            \n              ...",
      "pubDate": "Thu, 08 Aug 2019 09:35:12 -0500",
      "timestamp": 1565274912000,
      "feedName": "Hutchison Elementary School",
      "category": "Hutchison Elementary School",
      "feedSource": "http://www.fcps.edu/index.shtml",
      "feedInfo": {
        "title": "Hutchison Elementary School News and announcements - Recent Updates",
        "description": "Hutchison Elementary School News and announcements",
        "link": "http://www.fcps.edu/index.shtml"
      }
    },
    {
      "id": "Mzg0MzE5MTM=",
      "title": "Special Education Update - June 2019",
      "link": "https://content.govdelivery.com/accounts/VAEDUFCPS/bulletins/24a6ca9",
      "description": "\n        \n\n\n  \n\n\n\n\n\n\n\n<p><a></a>Having trouble viewing this email? <a href=\"https://content.govdelivery.com/accounts/VAEDUFCPS/bulletins/24a6ca9\">View it as a Web page</a>.</p>\n\n\n\n\n\n\n\n\n\n\n\n<a href=\"https://www.fcps.edu/academics/academic-overview/special-education-instruction?utm_content=&amp;utm_med...",
      "pubDate": "Tue, 11 Jun 2019 08:21:28 -0500",
      "timestamp": 1560259288000,
      "feedName": "FCPS Special Education Update",
      "category": "FCPS Special Education Update",
      "feedSource": "https://www.fcps.edu/",
      "feedInfo": {
        "title": "Special Education and 504 Newsletter - Recent Updates",
        "description": "Special Education and 504 Newsletter - Recent Updates",
        "link": "https://www.fcps.edu/"
      }
    },
    {
      "id": "MzgzMzc5NjU=",
      "title": "FCPS Wellness Newsletter--Summer 2019 Edition",
      "link": "https://content.govdelivery.com/accounts/VAEDUFCPS/bulletins/248fdad",
      "description": "\n        \n\n\n  \n\n\n\n\n\n\n\n\n\n\n\n\n\n\n\n\n\n\n\n\n\n\n\n\n\n\n\n\n\n\n\n\n\n\n\n<p>Summer 2019</p>\nFCPS WELLNESS NEWSLETTER\nSchool's Out!\n<p>It’s hard to believe that the school year is almost over. Before you take a break for summer, be sure to take time to evaluate the effectiveness of your wellness program and set wellness go...",
      "pubDate": "Fri, 07 Jun 2019 07:00:18 -0500",
      "timestamp": 1559908818000,
      "feedName": "FCPS Wellness Newsletter",
      "category": "FCPS Wellness Newsletter",
      "feedSource": "http://www.fcps.edu/",
      "feedInfo": {
        "title": "FCPS Wellness - Recent Updates",
        "description": "FCPS Wellness - Recent Updates",
        "link": "http://www.fcps.edu/"
      }
    },
    {
      "id": "MzgyMTMxMjU=",
      "title": "Kickball game",
      "link": "https://content.govdelivery.com/accounts/VAEDUFCPS/bulletins/2471605",
      "description": "\n        \n\n\n  \n\n\n\n\n\n\n\n<p><a></a>Having trouble viewing this email? <a href=\"https://content.govdelivery.com/accounts/VAEDUFCPS/bulletins/2471605\">View it as a Web page</a>.</p>\n\n\n\n\n\n\n\n\n\n\n\n<a href=\"https://armstronges.fcps.edu/?utm_content=&amp;utm_medium=email&amp;utm_name=&amp;utm_source=govdeliver...",
      "pubDate": "Fri, 24 May 2019 14:20:18 -0500",
      "timestamp": 1558725618000,
      "feedName": "Armstrong Elementary School",
      "category": "Armstrong Elementary School",
      "feedSource": "http://www.fcps.edu/index.shtml",
      "feedInfo": {
        "title": "Armstrong Elementary School News and announcements - Recent Updates",
        "description": "Armstrong Elementary School News and announcements",
        "link": "http://www.fcps.edu/index.shtml"
      }
    },
    {
      "id": "Mzc5MDY5MjA=",
      "title": "Book Fair volunteers needed",
      "link": "https://content.govdelivery.com/accounts/VAEDUFCPS/bulletins/24269e8",
      "description": "\n        \n\n\n  \n\n\n\n\n\n\n\n<p><a></a>Having trouble viewing this email? <a href=\"https://content.govdelivery.com/accounts/VAEDUFCPS/bulletins/24269e8\">View it as a Web page</a>.</p>\n\n\n\n\n\n\n\n\n\n\n\n<a href=\"https://armstronges.fcps.edu/?utm_content=&amp;utm_medium=email&amp;utm_name=&amp;utm_source=govdeliver...",
      "pubDate": "Thu, 02 May 2019 08:46:49 -0500",
      "timestamp": 1556804809000,
      "feedName": "Armstrong Elementary School",
      "category": "Armstrong Elementary School",
      "feedSource": "http://www.fcps.edu/index.shtml",
      "feedInfo": {
        "title": "Armstrong Elementary School News and announcements - Recent Updates",
        "description": "Armstrong Elementary School News and announcements",
        "link": "http://www.fcps.edu/index.shtml"
      }
    },
    {
      "id": "Mzc4Nzc3ODk=",
      "title": "Book Fair open late",
      "link": "https://content.govdelivery.com/accounts/VAEDUFCPS/bulletins/241f81d",
      "description": "\n        \n\n\n  \n\n\n\n\n\n\n\n<p><a></a>Having trouble viewing this email? <a href=\"https://content.govdelivery.com/accounts/VAEDUFCPS/bulletins/241f81d\">View it as a Web page</a>.</p>\n\n\n\n\n\n\n\n\n\n\n\n<a href=\"https://armstronges.fcps.edu/?utm_content=&amp;utm_medium=email&amp;utm_name=&amp;utm_source=govdeliver...",
      "pubDate": "Tue, 30 Apr 2019 12:31:19 -0500",
      "timestamp": 1556645479000,
      "feedName": "Armstrong Elementary School",
      "category": "Armstrong Elementary School",
      "feedSource": "http://www.fcps.edu/index.shtml",
      "feedInfo": {
        "title": "Armstrong Elementary School News and announcements - Recent Updates",
        "description": "Armstrong Elementary School News and announcements",
        "link": "http://www.fcps.edu/index.shtml"
      }
    },
    {
      "id": "Mzc4NTc3MzA=",
      "title": "Special Education Update - May 2019",
      "link": "https://content.govdelivery.com/accounts/VAEDUFCPS/bulletins/241a9c2",
      "description": "\n        \n\n\n  \n\n\n\n\n\n\n\n<p><a></a>Having trouble viewing this email? <a href=\"https://content.govdelivery.com/accounts/VAEDUFCPS/bulletins/241a9c2\">View it as a Web page</a>.</p>\n\n\n\n\n\n\n\n\n\n\n\n<a href=\"https://www.fcps.edu/academics/academic-overview/special-education-instruction?utm_content=&amp;utm_med...",
      "pubDate": "Mon, 29 Apr 2019 13:15:11 -0500",
      "timestamp": 1556561711000,
      "feedName": "FCPS Special Education Update",
      "category": "FCPS Special Education Update",
      "feedSource": "https://www.fcps.edu/",
      "feedInfo": {
        "title": "Special Education and 504 Newsletter - Recent Updates",
        "description": "Special Education and 504 Newsletter - Recent Updates",
        "link": "https://www.fcps.edu/"
      }
    },
    {
      "id": "MzczODUzNDk=",
      "title": "Special Education Update",
      "link": "https://content.govdelivery.com/accounts/VAEDUFCPS/bulletins/23a7485",
      "description": "\n        \n\n\n  \n\n\n\n\n\n\n\n<p><a></a>Having trouble viewing this email? <a href=\"https://content.govdelivery.com/accounts/VAEDUFCPS/bulletins/23a7485\">View it as a Web page</a>.</p>\n\n\n\n\n\n\n\n\n\n\n\n<a href=\"https://www.fcps.edu/academics/academic-overview/special-education-instruction?utm_content=&amp;utm_med...",
      "pubDate": "Mon, 01 Apr 2019 08:00:18 -0500",
      "timestamp": 1554123618000,
      "feedName": "FCPS Special Education Update",
      "category": "FCPS Special Education Update",
      "feedSource": "https://www.fcps.edu/",
      "feedInfo": {
        "title": "Special Education and 504 Newsletter - Recent Updates",
        "description": "Special Education and 504 Newsletter - Recent Updates",
        "link": "https://www.fcps.edu/"
      }
    },
    {
      "id": "MzcxMzM0MDM=",
      "title": "Pulley Newsletter",
      "link": "https://content.govdelivery.com/accounts/VAEDUFCPS/bulletins/2369c5b",
      "description": "\n        \n\n\n  \n\n\n\n\n\n\n\n<p><a></a>Having trouble viewing this email? <a href=\"https://content.govdelivery.com/accounts/VAEDUFCPS/bulletins/2369c5b\">View it as a Web page</a>.</p>\n\n\n\n\n\n\n\n\n\n\n\n<a href=\"https://pulleycenter.fcps.edu?utm_content=&amp;utm_medium=email&amp;utm_name=&amp;utm_source=govdeliver...",
      "pubDate": "Fri, 22 Mar 2019 09:17:07 -0500",
      "timestamp": 1553264227000,
      "feedName": "Pulley Career Center",
      "category": "Pulley Career Center",
      "feedSource": "http://www.fcps.edu/index.shtml",
      "feedInfo": {
        "title": "Pulley Career Center News and announcements - Recent Updates",
        "description": "Pulley Career Center News and announcements",
        "link": "http://www.fcps.edu/index.shtml"
      }
    },
    {
      "id": "MzcxMDI2MTY=",
      "title": "WMATA Comes to The Arc of Northern Virginia: March 21st",
      "link": "https://content.govdelivery.com/accounts/VAEDUFCPS/bulletins/2362418",
      "description": "\n        \n\n\n  \n\n\n\n\n\n\n\n<p><a></a>Having trouble viewing this email? <a href=\"https://content.govdelivery.com/accounts/VAEDUFCPS/bulletins/2362418\">View it as a Web page</a>.</p>\n\n\n\n\n\n\n\n\n\n\n\n<a href=\"https://pulleycenter.fcps.edu?utm_content=&amp;utm_medium=email&amp;utm_name=&amp;utm_source=govdeliver...",
      "pubDate": "Tue, 12 Mar 2019 15:50:39 -0500",
      "timestamp": 1552423839000,
      "feedName": "Pulley Career Center",
      "category": "Pulley Career Center",
      "feedSource": "http://www.fcps.edu/index.shtml",
      "feedInfo": {
        "title": "Pulley Career Center News and announcements - Recent Updates",
        "description": "Pulley Career Center News and announcements",
        "link": "http://www.fcps.edu/index.shtml"
      }
    },
    {
      "id": "MzY4MTAxNTk=",
      "title": "FCPS Wellness Newsletter--Spring 2019 Edition",
      "link": "https://content.govdelivery.com/accounts/VAEDUFCPS/bulletins/231adaf",
      "description": "\n        \n\n\n  \n\n\n\n\n\n\n\n\n\n\n\n\n\n\n\n\n\n\n\n\n\n\n\n\n\n\n\n\n\n\n\n\n\n\n\n<p><strong>Spring 2019</strong> </p>\nFCPS Wellness Newsletter\n2019 Wellness Reporting Window Opens March 15\n<p>FCPS will be completing annual wellness reporting on the implementation of our Local Wellness <a href=\"http://www.boarddocs.com/vsba/fairfa...",
      "pubDate": "Tue, 12 Mar 2019 10:00:12 -0500",
      "timestamp": 1552402812000,
      "feedName": "FCPS Wellness Newsletter",
      "category": "FCPS Wellness Newsletter",
      "feedSource": "http://www.fcps.edu/",
      "feedInfo": {
        "title": "FCPS Wellness - Recent Updates",
        "description": "FCPS Wellness - Recent Updates",
        "link": "http://www.fcps.edu/"
      }
    },
    {
      "id": "MzcwMzU5MDI=",
      "title": "New Principal Appointed to Quander Road School",
      "link": "https://content.govdelivery.com/accounts/VAEDUFCPS/bulletins/2351f7e",
      "description": "\n        \n\n\n  \n\n\n\n\n\n\n\n<p><a></a>Having trouble viewing this email? <a href=\"https://content.govdelivery.com/accounts/VAEDUFCPS/bulletins/2351f7e\">View it as a Web page</a>.</p>\n\n\n\n\n\n\n\n\n\n\n\n<a href=\"http://www2.fcps.edu/QuanderRoadSchool/?utm_content=&amp;utm_medium=email&amp;utm_name=&amp;utm_source=...",
      "pubDate": "Fri, 08 Mar 2019 08:12:41 -0600",
      "timestamp": 1552054361000,
      "feedName": "Quander Road School",
      "category": "Quander Road School",
      "feedSource": "http://www.fcps.edu/index.shtml",
      "feedInfo": {
        "title": "Quander Road School News and announcements - Recent Updates",
        "description": "Quander Road Special Education Center News and announcements",
        "link": "http://www.fcps.edu/index.shtml"
      }
    },
    {
      "id": "MzY5Njg4MjI=",
      "title": "Special Education Update",
      "link": "https://content.govdelivery.com/accounts/VAEDUFCPS/bulletins/2341976",
      "description": "\n        \n\n\n  \n\n\n\n\n\n\n\n<p><a></a>Having trouble viewing this email? <a href=\"https://content.govdelivery.com/accounts/VAEDUFCPS/bulletins/2341976\">View it as a Web page</a>.</p>\n\n\n\n\n\n\n\n\n\n\n\n<a href=\"https://www.fcps.edu/academics/academic-overview/special-education-instruction?utm_content=&amp;utm_med...",
      "pubDate": "Mon, 04 Mar 2019 14:04:26 -0600",
      "timestamp": 1551729866000,
      "feedName": "FCPS Special Education Update",
      "category": "FCPS Special Education Update",
      "feedSource": "https://www.fcps.edu/",
      "feedInfo": {
        "title": "Special Education and 504 Newsletter - Recent Updates",
        "description": "Special Education and 504 Newsletter - Recent Updates",
        "link": "https://www.fcps.edu/"
      }
    },
    {
      "id": "MzY1Mzk3NzA=",
      "title": "GMU's Engineering Youth Conference - Sunday, Feb. 17th 9am-2pm",
      "link": "https://content.govdelivery.com/accounts/VAEDUFCPS/bulletins/22d8d7a",
      "description": "\n        \n\n\n  \n\n\n\n\n\n\n\n<p><a></a>Having trouble viewing this email? <a href=\"https://content.govdelivery.com/accounts/VAEDUFCPS/bulletins/22d8d7a\">View it as a Web page</a>.</p>\n\n\n\n\n\n\n\n\n\n\n\n<a href=\"https://marshallacademy.fcps.edu/?utm_content=&amp;utm_medium=email&amp;utm_name=&amp;utm_source=govdel...",
      "pubDate": "Wed, 06 Feb 2019 13:00:28 -0600",
      "timestamp": 1549479628000,
      "feedName": "Marshall Academy",
      "category": "Marshall Academy",
      "feedSource": "http://www.fcps.edu/index.shtml",
      "feedInfo": {
        "title": "Marshall Academy News and Announcements - Recent Updates",
        "description": "Marshall Academy News and Announcements - Recent Updates",
        "link": "http://www.fcps.edu/index.shtml"
      }
    },
    {
      "id": "MzY0NTk0NjQ=",
      "title": "Special Education Update",
      "link": "https://content.govdelivery.com/accounts/VAEDUFCPS/bulletins/22c53c8",
      "description": "\n        \n\n\n  \n\n\n\n\n\n\n\n<p><a></a>Having trouble viewing this email? <a href=\"https://content.govdelivery.com/accounts/VAEDUFCPS/bulletins/22c53c8\">View it as a Web page</a>.</p>\n\n\n\n\n\n\n\n\n\n\n\n<a href=\"https://www.fcps.edu/academics/academic-overview/special-education-instruction?utm_content=&amp;utm_med...",
      "pubDate": "Fri, 01 Feb 2019 10:00:24 -0600",
      "timestamp": 1549036824000,
      "feedName": "FCPS Special Education Update",
      "category": "FCPS Special Education Update",
      "feedSource": "https://www.fcps.edu/",
      "feedInfo": {
        "title": "Special Education and 504 Newsletter - Recent Updates",
        "description": "Special Education and 504 Newsletter - Recent Updates",
        "link": "https://www.fcps.edu/"
      }
    },
    {
      "id": "MzYzOTQzMDY=",
      "title": "Marshall Academy Open House - Thurs., Jan. 31st 6-7:30pm",
      "link": "https://content.govdelivery.com/accounts/VAEDUFCPS/bulletins/22b5542",
      "description": "\n        \n\n\n  \n\n\n\n\n\n\n\n<p><a></a>Having trouble viewing this email? <a href=\"https://content.govdelivery.com/accounts/VAEDUFCPS/bulletins/22b5542\">View it as a Web page</a>.</p>\n\n\n\n\n\n\n\n\n\n\n\n<a href=\"https://marshallacademy.fcps.edu/?utm_content=&amp;utm_medium=email&amp;utm_name=&amp;utm_source=govdel...",
      "pubDate": "Mon, 28 Jan 2019 13:45:11 -0600",
      "timestamp": 1548704711000,
      "feedName": "Marshall Academy",
      "category": "Marshall Academy",
      "feedSource": "http://www.fcps.edu/index.shtml",
      "feedInfo": {
        "title": "Marshall Academy News and Announcements - Recent Updates",
        "description": "Marshall Academy News and Announcements - Recent Updates",
        "link": "http://www.fcps.edu/index.shtml"
      }
    },
    {
      "id": "MzYzMDA5MTk=",
      "title": "Thank you!",
      "link": "https://content.govdelivery.com/accounts/VAEDUFCPS/bulletins/229e877",
      "description": "\n        \n\n\n  \n\n\n\n\n\n\n\n<p><a></a>Having trouble viewing this email? <a href=\"https://content.govdelivery.com/accounts/VAEDUFCPS/bulletins/229e877\">View it as a Web page</a>.</p>\n\n\n\n\n\n\n\n\n\n\n\n<a href=\"https://pulleycenter.fcps.edu?utm_content=&amp;utm_medium=email&amp;utm_name=&amp;utm_source=govdeliver...",
      "pubDate": "Tue, 22 Jan 2019 12:50:06 -0600",
      "timestamp": 1548183006000,
      "feedName": "Pulley Career Center",
      "category": "Pulley Career Center",
      "feedSource": "http://www.fcps.edu/index.shtml",
      "feedInfo": {
        "title": "Pulley Career Center News and announcements - Recent Updates",
        "description": "Pulley Career Center News and announcements",
        "link": "http://www.fcps.edu/index.shtml"
      }
    },
    {
      "id": "MzYyMzc3MTQ=",
      "title": "Mr. Bickel is Taking the Plunge!",
      "link": "https://content.govdelivery.com/accounts/VAEDUFCPS/bulletins/228f192",
      "description": "\n        \n\n\n  \n\n\n\n\n\n\n\n<p><a></a>Having trouble viewing this email? <a href=\"https://content.govdelivery.com/accounts/VAEDUFCPS/bulletins/228f192\">View it as a Web page</a>.</p>\n\n\n\n\n\n\n\n\n\n\n\n<a href=\"https://pulleycenter.fcps.edu?utm_content=&amp;utm_medium=email&amp;utm_name=&amp;utm_source=govdeliver...",
      "pubDate": "Thu, 17 Jan 2019 15:24:17 -0600",
      "timestamp": 1547760257000,
      "feedName": "Pulley Career Center",
      "category": "Pulley Career Center",
      "feedSource": "http://www.fcps.edu/index.shtml",
      "feedInfo": {
        "title": "Pulley Career Center News and announcements - Recent Updates",
        "description": "Pulley Career Center News and announcements",
        "link": "http://www.fcps.edu/index.shtml"
      }
    }
  ],
  "hasNext": true,
  "hasPrev": true
}