{
  "page": 195,
  "totalPages": 268,
  "totalItems": 5354,
  "itemsPerPage": 20,
  "items": [
    {
      "id": "NjQxMDYxMzg=",
      "title": "Kings Park News Tuesday, Feb 18th",
      "link": "https://content.govdelivery.com/accounts/VAEDUFCPS/bulletins/3d22e9a",
      "description": "\n        \n\n\n  \n\n\n\n\n\n\n\n<p><a></a>Having trouble viewing this email? <a href=\"https://content.govdelivery.com/accounts/VAEDUFCPS/bulletins/3d22e9a\">View it as a Web page</a>.</p>\n\n\n\n\n\n\n\n\n\n\n\n<a href=\"http://www2.fcps.edu/KingsParkES/?utm_campaign+=&amp;utm_medium=email&amp;utm_source=govdelivery\" targe...",
      "pubDate": "Tue, 18 Feb 2025 15:42:18 -0600",
      "timestamp": 1739914938000,
      "feedName": "Kings Park Elementary School",
      "category": "Kings Park Elementary School",
      "feedSource": "http://www.fcps.edu/index.shtml",
      "feedInfo": {
        "title": "Kings Park Elementary School News and announcements - Recent Updates",
        "description": "Kings Park Elementary School News and announcements",
        "link": "http://www.fcps.edu/index.shtml"
      }
    },
    {
      "id": "NjQxMDM5MzA=",
      "title": "Upcoming Dates",
      "link": "https://content.govdelivery.com/accounts/VAEDUFCPS/bulletins/3d225fa",
      "description": "\n        \n\n\n  \n\n\n\n\n\n\n\n\n\n\n\n\n\n\n\n\n\n\n\n\n\n\n\n\n\n\n\n\n\n\n\n\n\n\n\n\n<p><a href=\"https://fairhilles.fcps.edu/aggregator/sources/1?utm_campaign+=&amp;utm_medium=email&amp;utm_source=govdelivery#modal-language-switcher\" target=\"_blank\">English | Español | አማርኛ | 中文 | 한국어 | Tiếng Việt | العربية | فارسی | اردو</a></p>\n\n\n...",
      "pubDate": "Tue, 18 Feb 2025 15:04:21 -0600",
      "timestamp": 1739912661000,
      "feedName": "Fairhill Elementary School",
      "category": "Fairhill Elementary School",
      "feedSource": "http://www.fcps.edu/index.shtml",
      "feedInfo": {
        "title": "Fairhill Elementary School News and Announcements - Recent Updates",
        "description": "Fairhill Elementary School News and Announcements",
        "link": "http://www.fcps.edu/index.shtml"
      }
    },
    {
      "id": "NjQxNTU1NDI=",
      "title": "Dogwood Digest 02/18/2025",
      "link": "https://content.govdelivery.com/accounts/VAEDUFCPS/bulletins/3d2ef96",
      "description": "\n        \n\n\n  \n\n\n\n\n\n\n\n<p><a></a>Having trouble viewing this email? <a href=\"https://content.govdelivery.com/accounts/VAEDUFCPS/bulletins/3d2ef96\">View it as a Web page</a>.</p>\n\n\n\n\n\n\n\n\n\n\n\n<a href=\"https://dogwoodes.fcps.edu/?utm_campaign+=&amp;utm_medium=email&amp;utm_source=govdelivery\" target=\"_bl...",
      "pubDate": "Tue, 18 Feb 2025 15:00:27 -0600",
      "timestamp": 1739912427000,
      "feedName": "Dogwood Elementary School",
      "category": "Dogwood Elementary School",
      "feedSource": "http://www.fcps.edu/index.shtml",
      "feedInfo": {
        "title": "Dogwood Elementary School News and announcements - Recent Updates",
        "description": "Dogwood Elementary School News and announcements",
        "link": "http://www.fcps.edu/index.shtml"
      }
    },
    {
      "id": "NjQxNTYyMjg=",
      "title": "Tuesday, February 18, 2025 Lancer Times",
      "link": "https://content.govdelivery.com/accounts/VAEDUFCPS/bulletins/3d2f244",
      "description": "\n        \n\n\n  \n\n\n\n\n\n\n\n<p><a></a>Having trouble viewing this email? <a href=\"https://content.govdelivery.com/accounts/VAEDUFCPS/bulletins/3d2f244\">View it as a Web page</a>.</p>\n\n\n\n\n\n\n\n\n\n\n\n<a href=\"https://longfellowms.fcps.edu/?utm_campaign+=&amp;utm_medium=email&amp;utm_source=govdelivery\" target=\"...",
      "pubDate": "Tue, 18 Feb 2025 15:00:27 -0600",
      "timestamp": 1739912427000,
      "feedName": "Longfellow Middle School",
      "category": "Longfellow Middle School",
      "feedSource": "http://www.fcps.edu/index.shtml",
      "feedInfo": {
        "title": "Longfellow Middle School News and announcements - Recent Updates",
        "description": "Longfellow Middle School News and announcements",
        "link": "http://www.fcps.edu/index.shtml"
      }
    },
    {
      "id": "NjQxNTM4NDE=",
      "title": "Groveton ES: New Primary Playground",
      "link": "https://content.govdelivery.com/accounts/VAEDUFCPS/bulletins/3d2e8f1",
      "description": "\n        \n\n\n  \n\n\n\n\n\n\n\n<p><a></a>Having trouble viewing this email? <a href=\"https://content.govdelivery.com/accounts/VAEDUFCPS/bulletins/3d2e8f1\">View it as a Web page</a>.</p>\n\n\n\n\n\n\n\n\n\n\n\n<a href=\"http://www2.fcps.edu/GrovetonES/?utm_campaign+=&amp;utm_medium=email&amp;utm_source=govdelivery\" target...",
      "pubDate": "Tue, 18 Feb 2025 15:00:26 -0600",
      "timestamp": 1739912426000,
      "feedName": "Groveton Elementary School",
      "category": "Groveton Elementary School",
      "feedSource": "http://www.fcps.edu/index.shtml",
      "feedInfo": {
        "title": "Groveton Elementary School News and announcements - Recent Updates",
        "description": "Groveton Elementary School News and announcements",
        "link": "http://www.fcps.edu/index.shtml"
      }
    },
    {
      "id": "NjQxNTEzNzE=",
      "title": "Applications for Staff Assistant Now Being Accepted!",
      "link": "https://content.govdelivery.com/accounts/VAEDUFCPS/bulletins/3d2df4b",
      "description": "\n        \n\n\n  \n\n\n\n\n\n\n\n<p><a></a>Having trouble viewing this email? <a href=\"https://content.govdelivery.com/accounts/VAEDUFCPS/bulletins/3d2df4b\">View it as a Web page</a>.</p>\n\n\n\n\n\n\n\n\n\n\n\n<a href=\"https://www.fcps.edu/staff/rachna-sizemore-heizer?utm_campaign+=&amp;utm_medium=email&amp;utm_source=go...",
      "pubDate": "Tue, 18 Feb 2025 14:26:18 -0600",
      "timestamp": 1739910378000,
      "feedName": "FCPS School Board Braddock District",
      "category": "FCPS School Board Braddock District",
      "feedSource": "http://www.fcps.edu/index.shtml",
      "feedInfo": {
        "title": "Braddock District Member - Rachna Sizemore Heizer - Recent Updates",
        "description": "Braddock District Member - Rachna Sizemore Heizer - Recent Updates",
        "link": "http://www.fcps.edu/index.shtml"
      }
    },
    {
      "id": "NjQxNTU3NDk=",
      "title": "Churchill Road Update - Tuesday, February 18",
      "link": "https://content.govdelivery.com/accounts/VAEDUFCPS/bulletins/3d2f065",
      "description": "\n        \n\n\n  \n\n\n\n\n\n\n\n<p><a></a>Having trouble viewing this email? <a href=\"https://content.govdelivery.com/accounts/VAEDUFCPS/bulletins/3d2f065\">View it as a Web page</a>.</p>\n\n\n\n\n\n\n\n\n\n\n\n<a href=\"https://churchillroades.fcps.edu/?utm_campaign+=&amp;utm_medium=email&amp;utm_source=govdelivery\" targe...",
      "pubDate": "Tue, 18 Feb 2025 14:15:13 -0600",
      "timestamp": 1739909713000,
      "feedName": "Churchill Road Elementary School",
      "category": "Churchill Road Elementary School",
      "feedSource": "http://www.fcps.edu/index.shtml",
      "feedInfo": {
        "title": "Churchill Road Elementary School News and announcements - Recent Updates",
        "description": "Churchill Road Elementary School News and announcements",
        "link": "http://www.fcps.edu/index.shtml"
      }
    },
    {
      "id": "NjQxMDI4MjE=",
      "title": "Crossfield News 2/18/25",
      "link": "https://content.govdelivery.com/accounts/VAEDUFCPS/bulletins/3d221a5",
      "description": "\n        \n\n\n  \n\n\n\n\n\n\n\n<p><a></a>Having trouble viewing this email? <a href=\"https://content.govdelivery.com/accounts/VAEDUFCPS/bulletins/3d221a5\">View it as a Web page</a>.</p>\n\n\n\n\n\n\n\n\n\n\n\n<a href=\"https://crossfieldes.fcps.edu/?utm_campaign+=&amp;utm_medium=email&amp;utm_source=govdelivery\" target=\"...",
      "pubDate": "Tue, 18 Feb 2025 14:02:14 -0600",
      "timestamp": 1739908934000,
      "feedName": "Crossfield Elementary School",
      "category": "Crossfield Elementary School",
      "feedSource": "http://www.fcps.edu/index.shtml",
      "feedInfo": {
        "title": "Crossfield Elementary School News and announcements - Recent Updates",
        "description": "Crossfield Elementary School News and announcements",
        "link": "http://www.fcps.edu/index.shtml"
      }
    },
    {
      "id": "NjQxNTMyOTU=",
      "title": "Roadrunner Rundown - 2/18/25",
      "link": "https://content.govdelivery.com/accounts/VAEDUFCPS/bulletins/3d2e6cf",
      "description": "\n        \n\n\n  \n\n\n\n\n\n\n\n<p><a></a>Having trouble viewing this email? <a href=\"https://content.govdelivery.com/accounts/VAEDUFCPS/bulletins/3d2e6cf\">View it as a Web page</a>.</p>\n\n\n\n\n\n\n\n\n\n\n\n<a href=\"https://marshallroades.fcps.edu/?utm_campaign+=&amp;utm_medium=email&amp;utm_source=govdelivery\" target...",
      "pubDate": "Tue, 18 Feb 2025 13:43:33 -0600",
      "timestamp": 1739907813000,
      "feedName": "Marshall Road Elementary School",
      "category": "Marshall Road Elementary School",
      "feedSource": "http://www.fcps.edu/index.shtml",
      "feedInfo": {
        "title": "Marshall Road ES News and Announcements - Recent Updates",
        "description": "Marshall Road Elementary School News and announcements",
        "link": "http://www.fcps.edu/index.shtml"
      }
    },
    {
      "id": "NjQxNTE3NzE=",
      "title": "Tuesday Terragram February 18",
      "link": "https://content.govdelivery.com/accounts/VAEDUFCPS/bulletins/3d2e0db",
      "description": "\n        \n\n\n  \n\n\n\n\n\n\n\n<p><a></a>Having trouble viewing this email? <a href=\"https://content.govdelivery.com/accounts/VAEDUFCPS/bulletins/3d2e0db\">View it as a Web page</a>.</p>\n\n\n\n\n\n\n\n\n\n\n\n<a href=\"https://terrasetes.fcps.edu?utm_campaign+=&amp;utm_medium=email&amp;utm_source=govdelivery\" target=\"_bl...",
      "pubDate": "Tue, 18 Feb 2025 13:34:16 -0600",
      "timestamp": 1739907256000,
      "feedName": "Terraset Elementary School",
      "category": "Terraset Elementary School",
      "feedSource": "http://www.fcps.edu/index.shtml",
      "feedInfo": {
        "title": "Tuesday Terragram - Recent Updates",
        "description": "Terraset Elementary School weekly news and announcements",
        "link": "http://www.fcps.edu/index.shtml"
      }
    },
    {
      "id": "NjQxMDE5OTQ=",
      "title": "Carson MS Weekly Updates -Updates - Week of February 17",
      "link": "https://content.govdelivery.com/accounts/VAEDUFCPS/bulletins/3d21e6a",
      "description": "\n        \n\n\n  \n\n\n\n\n\n\n\n<p><a></a>Having trouble viewing this email? <a href=\"https://content.govdelivery.com/accounts/VAEDUFCPS/bulletins/3d21e6a\">View it as a Web page</a>.</p>\n\n\n\n\n\n\n\n\n\n\n\n<a href=\"https://carsonms.fcps.edu/?utm_campaign+=&amp;utm_medium=email&amp;utm_source=govdelivery\" target=\"_bla...",
      "pubDate": "Tue, 18 Feb 2025 13:33:59 -0600",
      "timestamp": 1739907239000,
      "feedName": "Carson Middle School",
      "category": "Carson Middle School",
      "feedSource": "http://www.fcps.edu/index.shtml",
      "feedInfo": {
        "title": "Carson Middle School News and announcements - Recent Updates",
        "description": "Carson Middle School News and announcements",
        "link": "http://www.fcps.edu/index.shtml"
      }
    },
    {
      "id": "NjQxNTQyOTU=",
      "title": "Franklin MS PTA Update - February 18",
      "link": "https://content.govdelivery.com/accounts/VAEDUFCPS/bulletins/3d2eab7",
      "description": "\n        \n\n\n  \n\n\n\n\n\n\n\n<p><a></a>Having trouble viewing this email? <a href=\"https://content.govdelivery.com/accounts/VAEDUFCPS/bulletins/3d2eab7\">View it as a Web page</a>.</p>\n\n\n\n\n\n\n\n\n\n\n\n<a href=\"https://franklinms.fcps.edu/?utm_campaign+=&amp;utm_medium=email&amp;utm_source=govdelivery\" target=\"_b...",
      "pubDate": "Tue, 18 Feb 2025 13:15:13 -0600",
      "timestamp": 1739906113000,
      "feedName": "Franklin Middle School",
      "category": "Franklin Middle School",
      "feedSource": "http://www.fcps.edu/index.shtml",
      "feedInfo": {
        "title": "Franklin Middle School News and announcements - Recent Updates",
        "description": "Franklin Middle School News and announcements",
        "link": "http://www.fcps.edu/index.shtml"
      }
    },
    {
      "id": "NjQxNTQyOTU=",
      "title": "Franklin MS PTA Update - February 18",
      "link": "https://content.govdelivery.com/accounts/VAEDUFCPS/bulletins/3d2eab7",
      "description": "\n        \n\n\n  \n\n\n\n\n\n\n\n<p><a></a>Having trouble viewing this email? <a href=\"https://content.govdelivery.com/accounts/VAEDUFCPS/bulletins/3d2eab7\">View it as a Web page</a>.</p>\n\n\n\n\n\n\n\n\n\n\n\n<a href=\"https://franklinms.fcps.edu/?utm_campaign+=&amp;utm_medium=email&amp;utm_source=govdelivery\" target=\"_b...",
      "pubDate": "Tue, 18 Feb 2025 13:15:13 -0600",
      "timestamp": 1739906113000,
      "feedName": "Franklin Sherman Elementary School",
      "category": "Franklin Sherman Elementary School",
      "feedSource": "http://www.fcps.edu/index.shtml",
      "feedInfo": {
        "title": "Franklin Middle School News and announcements - Recent Updates",
        "description": "Franklin Middle School News and announcements",
        "link": "http://www.fcps.edu/index.shtml"
      }
    },
    {
      "id": "NjQxMDI5MTY=",
      "title": "Bush Hill Updates - Tuesday, February 18, 2025",
      "link": "https://content.govdelivery.com/accounts/VAEDUFCPS/bulletins/3d22204",
      "description": "\n        \n\n\n  \n\n\n\n\n\n\n\n<p><a></a>Having trouble viewing this email? <a href=\"https://content.govdelivery.com/accounts/VAEDUFCPS/bulletins/3d22204\">View it as a Web page</a>.</p>\n\n\n\n\n\n\n\n\n\n\n\n<a href=\"https://bushhilles.fcps.edu/?utm_campaign+=&amp;utm_medium=email&amp;utm_source=govdelivery\" target=\"_b...",
      "pubDate": "Tue, 18 Feb 2025 12:21:32 -0600",
      "timestamp": 1739902892000,
      "feedName": "Bush Hill Elementary School",
      "category": "Bush Hill Elementary School",
      "feedSource": "http://www.fcps.edu/index.shtml",
      "feedInfo": {
        "title": "Bush Hill Elementary School News and announcements - Recent Updates",
        "description": "Bush Hill Elementary School News and announcements",
        "link": "http://www.fcps.edu/index.shtml"
      }
    },
    {
      "id": "NjQxMTYxNTQ=",
      "title": "Purple-Up! Day T-Shirts Available for Purchase",
      "link": "https://content.govdelivery.com/accounts/VAEDUFCPS/bulletins/3d255ba",
      "description": "\n        \n\n\n  \n\n\n\n\n\n\n\n<p><a></a>Having trouble viewing this email? <a href=\"https://content.govdelivery.com/accounts/VAEDUFCPS/bulletins/3d255ba\">View it as a Web page</a>.</p>\n\n\n\n\n\n\n\n\n\n\n\n<a href=\"https://www.fcps.edu/resources/family-engagement/family-engagement-resources?utm_campaign+=&amp;utm_med...",
      "pubDate": "Tue, 18 Feb 2025 11:30:14 -0600",
      "timestamp": 1739899814000,
      "feedName": "FCPS Military Families",
      "category": "FCPS Military Families",
      "feedSource": "https://www.fcps.edu/",
      "feedInfo": {
        "title": "Military Families - Recent Updates",
        "description": "Military Families - Recent Updates",
        "link": "https://www.fcps.edu/"
      }
    },
    {
      "id": "NjQxMTYxNTQ=",
      "title": "Purple-Up! Day T-Shirts Available for Purchase",
      "link": "https://content.govdelivery.com/accounts/VAEDUFCPS/bulletins/3d255ba",
      "description": "\n        \n\n\n  \n\n\n\n\n\n\n\n<p><a></a>Having trouble viewing this email? <a href=\"https://content.govdelivery.com/accounts/VAEDUFCPS/bulletins/3d255ba\">View it as a Web page</a>.</p>\n\n\n\n\n\n\n\n\n\n\n\n<a href=\"https://www.fcps.edu/resources/family-engagement/family-engagement-resources?utm_campaign+=&amp;utm_med...",
      "pubDate": "Tue, 18 Feb 2025 11:30:14 -0600",
      "timestamp": 1739899814000,
      "feedName": "FCPS Tuesday Tips",
      "category": "FCPS Tuesday Tips",
      "feedSource": "http://www.fcps.edu/index.shtml",
      "feedInfo": {
        "title": "Family and School Partnerships - Recent Updates",
        "description": "Family and School Partnerships - Recent Updates",
        "link": "http://www.fcps.edu/index.shtml"
      }
    },
    {
      "id": "NjQxNTM0MTg=",
      "title": "GFES:  Two Quick and Important Announcements",
      "link": "https://content.govdelivery.com/accounts/VAEDUFCPS/bulletins/3d2e74a",
      "description": "\n        \n\n\n  \n\n\n\n\n\n\n\n<p><a></a>Having trouble viewing this email? <a href=\"https://content.govdelivery.com/accounts/VAEDUFCPS/bulletins/3d2e74a\">View it as a Web page</a>.</p>\n\n\n\n\n\n\n\n\n\n\n\n<a href=\"http://www2.fcps.edu/GreatFallsES/?utm_campaign+=&amp;utm_medium=email&amp;utm_source=govdelivery\" targ...",
      "pubDate": "Tue, 18 Feb 2025 10:34:04 -0600",
      "timestamp": 1739896444000,
      "feedName": "Great Falls Elementary School",
      "category": "Great Falls Elementary School",
      "feedSource": "http://www.fcps.edu/index.shtml",
      "feedInfo": {
        "title": "Great Falls Elementary School News and Announcements - Recent Updates",
        "description": "Great Falls Elementary School News and announcements",
        "link": "http://www.fcps.edu/index.shtml"
      }
    },
    {
      "id": "NjQxNTIzNzg=",
      "title": "Eagle News - Bulletin for the Week February 18th",
      "link": "https://content.govdelivery.com/accounts/VAEDUFCPS/bulletins/3d2e33a",
      "description": "\n        \n\n\n  \n\n\n\n\n\n\n\n<p><a></a>Having trouble viewing this email? <a href=\"https://content.govdelivery.com/accounts/VAEDUFCPS/bulletins/3d2e33a\">View it as a Web page</a>.</p>\n\n\n\n\n\n\n\n\n\n\n\n<a href=\"https://whiteoakses.fcps.edu?utm_campaign+=&amp;utm_medium=email&amp;utm_source=govdelivery\" target=\"_b...",
      "pubDate": "Tue, 18 Feb 2025 09:46:54 -0600",
      "timestamp": 1739893614000,
      "feedName": "White Oaks Elementary School",
      "category": "White Oaks Elementary School",
      "feedSource": "http://www.fcps.edu/index.shtml",
      "feedInfo": {
        "title": "White Oaks Elementary School News and Announcements - Recent Updates",
        "description": "White Oaks Elementary School News and Announcements",
        "link": "http://www.fcps.edu/index.shtml"
      }
    },
    {
      "id": "NjQxNTIzODI=",
      "title": "Westgate Weekly News",
      "link": "https://content.govdelivery.com/accounts/VAEDUFCPS/bulletins/3d2e33e",
      "description": "\n        \n\n\n  \n\n\n\n\n\n\n\n<p><a></a>Having trouble viewing this email? <a href=\"https://content.govdelivery.com/accounts/VAEDUFCPS/bulletins/3d2e33e\">View it as a Web page</a>.</p>\n\n\n\n\n\n\n\n\n\n\n\n<a href=\"http://www2.fcps.edu/WestgateES/?utm_content=&amp;utm_medium=email&amp;utm_name=&amp;utm_source=govdeli...",
      "pubDate": "Tue, 18 Feb 2025 09:44:20 -0600",
      "timestamp": 1739893460000,
      "feedName": "Westgate Elementary School",
      "category": "Westgate Elementary School",
      "feedSource": "http://www.fcps.edu/index.shtml",
      "feedInfo": {
        "title": "Westgate ES News",
        "description": "Westgate Elementary School News and announcements",
        "link": "http://www.fcps.edu/index.shtml"
      }
    },
    {
      "id": "NjQwNDMzNDY=",
      "title": "Beavergram",
      "link": "https://content.govdelivery.com/accounts/VAEDUFCPS/bulletins/3d13952",
      "description": "\n        \n\n\n  \n\n\n\n\n\n\n\n<p><a></a>Having trouble viewing this email? <a href=\"https://content.govdelivery.com/accounts/VAEDUFCPS/bulletins/3d13952\">View it as a Web page</a>.</p>\n\n\n\n\n\n\n\n\n\n\n\n\n\n\n\n\n\n\n\n\n\n\n\n\n\n\n\n<p><a href=\"https://urldefense.com/v3/__https:/links-1.govdelivery.com/CL0/https:*2F*2Fwoodleyhi...",
      "pubDate": "Tue, 18 Feb 2025 09:00:14 -0600",
      "timestamp": 1739890814000,
      "feedName": "Woodley Hills Elementary School",
      "category": "Woodley Hills Elementary School",
      "feedSource": "http://www.fcps.edu/index.shtml",
      "feedInfo": {
        "title": "Woodley Hills Elementary School News and announcements - Recent Updates",
        "description": "Woodley Hills Elementary School News and announcements",
        "link": "http://www.fcps.edu/index.shtml"
      }
    }
  ],
  "hasNext": true,
  "hasPrev": true
}