{
  "page": 71,
  "totalPages": 268,
  "totalItems": 5354,
  "itemsPerPage": 20,
  "items": [
    {
      "id": "NjUxNzI3OTg=",
      "title": "PTA Request for Upcoming Events",
      "link": "https://content.govdelivery.com/accounts/VAEDUFCPS/bulletins/3e2753e",
      "description": "\n        \n\n\n  \n\n\n\n\n\n\n\n<p><a></a>Having trouble viewing this email? <a href=\"https://content.govdelivery.com/accounts/VAEDUFCPS/bulletins/3e2753e\">View it as a Web page</a>.</p>\n\n\n\n\n\n\n\n\n\n\n\n<a href=\"http://www2.fcps.edu/TwainMS/?utm_campaign+=&amp;utm_medium=email&amp;utm_source=govdelivery\" target=\"_...",
      "pubDate": "Wed, 28 May 2025 10:29:11 -0500",
      "timestamp": 1748446151000,
      "feedName": "Twain Middle School",
      "category": "Twain Middle School",
      "feedSource": "http://www.fcps.edu/index.shtml",
      "feedInfo": {
        "title": "Twain Middle School News and announcements - Recent Updates",
        "description": "Twain Middle School News and announcements",
        "link": "http://www.fcps.edu/index.shtml"
      }
    },
    {
      "id": "NjUxNzE3MTE=",
      "title": "2025-2026 Student Intent to Return",
      "link": "https://content.govdelivery.com/accounts/VAEDUFCPS/bulletins/3e270ff",
      "description": "\n        \n\n\n  \n\n\n\n\n\n\n\n<p><a></a>Having trouble viewing this email? <a href=\"https://content.govdelivery.com/accounts/VAEDUFCPS/bulletins/3e270ff\">View it as a Web page</a>.</p>\n\n\n\n\n\n\n\n\n\n\n\n<a href=\"http://www2.fcps.edu/FtBelvoirES/?utm_campaign+=&amp;utm_medium=email&amp;utm_source=govdelivery\" targe...",
      "pubDate": "Wed, 28 May 2025 09:13:52 -0500",
      "timestamp": 1748441632000,
      "feedName": "Fort Belvoir Elementary School",
      "category": "Fort Belvoir Elementary School",
      "feedSource": "http://www.fcps.edu/index.shtml",
      "feedInfo": {
        "title": "Fort Belvoir Primary (PreK-2) News and Announcements - Recent Updates",
        "description": "Fort Belvoir Primary (PreK-2) News and Announcements - Recent Updates",
        "link": "http://www.fcps.edu/index.shtml"
      }
    },
    {
      "id": "NjUwOTY3NDU=",
      "title": "Lees Corner Volunteer Reception",
      "link": "https://content.govdelivery.com/accounts/VAEDUFCPS/bulletins/3e14c29",
      "description": "\n        \n\n\n  \n\n\n\n\n\n\n\n<p><a></a>Having trouble viewing this email? <a href=\"https://content.govdelivery.com/accounts/VAEDUFCPS/bulletins/3e14c29\">View it as a Web page</a>.</p>\n\n\n\n\n\n\n\n\n\n\n\n<a href=\"http://www2.fcps.edu/LeesCornerES/?utm_content=&amp;utm_medium=email&amp;utm_name=&amp;utm_source=govde...",
      "pubDate": "Wed, 28 May 2025 09:00:26 -0500",
      "timestamp": 1748440826000,
      "feedName": "Lees Corner Elementary School",
      "category": "Lees Corner Elementary School",
      "feedSource": "http://www.fcps.edu/index.shtml",
      "feedInfo": {
        "title": "Lees Corner Elementary School News and announcements - Recent Updates",
        "description": "Lees Corner Elementary School News and announcements",
        "link": "http://www.fcps.edu/index.shtml"
      }
    },
    {
      "id": "NjUxNzA3Njc=",
      "title": "Region Boys Soccer Information",
      "link": "https://content.govdelivery.com/accounts/VAEDUFCPS/bulletins/3e26d4f",
      "description": "\n        \n\n\n\n\n\n\n\n\n\n<strong>REGION SOCCER STADIUM EXPECTATIONS</strong>\n<p>The Lewis Lancers Boys Soccer team will be starting region tournament play. We are looking forward to an exciting game here at Lewis, and we would like to take this time to review some of our gameday policies for this game. Pl...",
      "pubDate": "Wed, 28 May 2025 08:07:59 -0500",
      "timestamp": 1748437679000,
      "feedName": "John R. Lewis High School",
      "category": "John R. Lewis High School",
      "feedSource": "http://www.fcps.edu/index.shtml",
      "feedInfo": {
        "title": "Lewis High School News and announcements - Recent Updates",
        "description": "Lewis High School News and announcements",
        "link": "http://www.fcps.edu/index.shtml"
      }
    },
    {
      "id": "NjUxMDYwMTQ=",
      "title": "Carson MS Weekly Updates -Updates - Week of May 26",
      "link": "https://content.govdelivery.com/accounts/VAEDUFCPS/bulletins/3e1705e",
      "description": "\n        \n\n\n  \n\n\n\n\n\n\n\n<p><a></a>Having trouble viewing this email? <a href=\"https://content.govdelivery.com/accounts/VAEDUFCPS/bulletins/3e1705e\">View it as a Web page</a>.</p>\n\n\n\n\n\n\n\n\n\n\n\n<a href=\"https://carsonms.fcps.edu/?utm_campaign+=&amp;utm_medium=email&amp;utm_source=govdelivery\" target=\"_bla...",
      "pubDate": "Wed, 28 May 2025 07:59:24 -0500",
      "timestamp": 1748437164000,
      "feedName": "Carson Middle School",
      "category": "Carson Middle School",
      "feedSource": "http://www.fcps.edu/index.shtml",
      "feedInfo": {
        "title": "Carson Middle School News and announcements - Recent Updates",
        "description": "Carson Middle School News and announcements",
        "link": "http://www.fcps.edu/index.shtml"
      }
    },
    {
      "id": "NjUxNzAxMTU=",
      "title": "Plastic Film Needed!",
      "link": "https://content.govdelivery.com/accounts/VAEDUFCPS/bulletins/3e26ac3",
      "description": "\n        \n\n\n  \n\n\n\n\n\n\n\n<p><a></a>Having trouble viewing this email? <a href=\"https://content.govdelivery.com/accounts/VAEDUFCPS/bulletins/3e26ac3\">View it as a Web page</a>.</p>\n\n\n\n\n\n\n\n\n\n\n\n<a href=\"https://terracentrees.fcps.edu/?utm_campaign+=&amp;utm_medium=email&amp;utm_source=govdelivery\" target=...",
      "pubDate": "Wed, 28 May 2025 07:00:19 -0500",
      "timestamp": 1748433619000,
      "feedName": "Terra Centre Elementary School",
      "category": "Terra Centre Elementary School",
      "feedSource": "http://www.fcps.edu/index.shtml",
      "feedInfo": {
        "title": "Terra Centre Elementary School News and Announcements - Recent Updates",
        "description": "Terra Centre Elementary School News and Announcements",
        "link": "http://www.fcps.edu/index.shtml"
      }
    },
    {
      "id": "NjUxNjEyMTM=",
      "title": "The Weekly Roar - Tuesday, May 27, 2025",
      "link": "https://content.govdelivery.com/accounts/VAEDUFCPS/bulletins/3e247fd",
      "description": "\n        \n\n\n  \n\n\n\n\n\n\n\n<p><a></a>Having trouble viewing this email? <a href=\"https://content.govdelivery.com/accounts/VAEDUFCPS/bulletins/3e247fd\">View it as a Web page</a>.</p>\n\n\n\n\n\n\n\n\n\n\n\n<a href=\"https://lanees.fcps.edu/?utm_campaign+=&amp;utm_medium=email&amp;utm_source=govdelivery\" target=\"_blank...",
      "pubDate": "Tue, 27 May 2025 18:38:30 -0500",
      "timestamp": 1748389110000,
      "feedName": "Lane Elementary School",
      "category": "Lane Elementary School",
      "feedSource": "http://www.fcps.edu/index.shtml",
      "feedInfo": {
        "title": "Lane Elementary School News and announcements - Recent Updates",
        "description": "Lane Elementary School News and announcements",
        "link": "http://www.fcps.edu/index.shtml"
      }
    },
    {
      "id": "NjUxNjAzNDk=",
      "title": "School Board Unanimously Approves Budget, 2025-26 Salary Scales, Celebrating 50 Years with FCPS",
      "link": "https://content.govdelivery.com/accounts/VAEDUFCPS/bulletins/3e2449d",
      "description": "\n        \n\n\n  \n\n\n\n\n\n\n\n<p>Having trouble viewing this email? <a href=\"https://content.govdelivery.com/accounts/VAEDUFCPS/bulletins/3e2449d\">View it as a Web page</a>.</p>\n\n\n\n\n\n\n\n\n\n\n\n<a href=\"https://www.fcps.edu/?utm_campaign+=&amp;utm_medium=email&amp;utm_source=govdelivery\" target=\"_blank\"></a>\n\n\n\n...",
      "pubDate": "Tue, 27 May 2025 17:55:11 -0500",
      "timestamp": 1748386511000,
      "feedName": "FCPS Employee News",
      "category": "FCPS Employee News",
      "feedSource": "http://www.fcps.edu/index.shtml",
      "feedInfo": {
        "title": "FCPS Employees - Recent Updates",
        "description": "FCPS Employees - Recent Updates",
        "link": "http://www.fcps.edu/index.shtml"
      }
    },
    {
      "id": "NjUxNjE1NTE=",
      "title": "FCHS News &amp; Announcements - 5/27/25",
      "link": "https://content.govdelivery.com/accounts/VAEDUFCPS/bulletins/3e2494f",
      "description": "\n        \n\n\n  \n\n\n\n\n\n\n\n<p><a></a>Having trouble viewing this email? <a href=\"https://content.govdelivery.com/accounts/VAEDUFCPS/bulletins/3e2494f\">View it as a Web page</a>.</p>\n\n\n\n\n\n\n\n\n\n\n\n<a href=\"https://fallschurchhs.fcps.edu/?utm_campaign+=&amp;utm_medium=email&amp;utm_source=govdelivery\" target=...",
      "pubDate": "Tue, 27 May 2025 17:41:27 -0500",
      "timestamp": 1748385687000,
      "feedName": "Falls Church High School",
      "category": "Falls Church High School",
      "feedSource": "https://fallschurchhs.fcps.edu",
      "feedInfo": {
        "title": "Falls Church High School News and announcements",
        "description": "Falls Church High School News and announcements",
        "link": "https://fallschurchhs.fcps.edu"
      }
    },
    {
      "id": "NjUxMjEwNjI=",
      "title": "News from THE LAKES - May 27 Edition",
      "link": "https://content.govdelivery.com/accounts/VAEDUFCPS/bulletins/3e1ab26",
      "description": "\n        \n\n\n  \n\n\n\n\n\n\n\n<p><a></a>Having trouble viewing this email? <a href=\"https://content.govdelivery.com/accounts/VAEDUFCPS/bulletins/3e1ab26\">View it as a Web page</a>.</p>\n\n\n\n\n\n\n\n\n\n\n\n<a href=\"https://southlakeshs.fcps.edu/?utm_campaign+=&amp;utm_medium=email&amp;utm_source=govdelivery\" target=\"...",
      "pubDate": "Tue, 27 May 2025 17:00:13 -0500",
      "timestamp": 1748383213000,
      "feedName": "South Lakes High School",
      "category": "South Lakes High School",
      "feedSource": "http://www.fcps.edu/index.shtml",
      "feedInfo": {
        "title": "South Lakes High School General News & Announcements - Recent Updates",
        "description": "South Lakes High School News and announcements",
        "link": "http://www.fcps.edu/index.shtml"
      }
    },
    {
      "id": "NjUxNjM2MzU=",
      "title": "Springfield Estates ES News You Choose - May 27, 2025",
      "link": "https://content.govdelivery.com/accounts/VAEDUFCPS/bulletins/3e25173",
      "description": "\n        \n\n\n  \n\n\n\n\n\n\n\n<p><a></a>Having trouble viewing this email? <a href=\"https://content.govdelivery.com/accounts/VAEDUFCPS/bulletins/3e25173\">View it as a Web page</a>.</p>\n\n\n\n\n\n\n\n\n\n\n\n<a href=\"https://springfieldestateses.fcps.edu?utm_campaign+=&amp;utm_medium=email&amp;utm_source=govdelivery\" t...",
      "pubDate": "Tue, 27 May 2025 16:30:13 -0500",
      "timestamp": 1748381413000,
      "feedName": "Springfield Estates Elementary School",
      "category": "Springfield Estates Elementary School",
      "feedSource": "http://www.fcps.edu/index.shtml",
      "feedInfo": {
        "title": "Springfield Estates Elementary School News and announcements - Recent Updates",
        "description": "Springfield Estates Elementary School News and announcements",
        "link": "http://www.fcps.edu/index.shtml"
      }
    },
    {
      "id": "NjUxNjMxODU=",
      "title": "Paw Prints, May 27, 2025",
      "link": "https://content.govdelivery.com/accounts/VAEDUFCPS/bulletins/3e24fb1",
      "description": "\n        \n\n\n  \n\n\n\n\n\n\n\n<p><a></a>Having trouble viewing this email? <a href=\"https://content.govdelivery.com/accounts/VAEDUFCPS/bulletins/3e24fb1\">View it as a Web page</a>.</p>\n\n\n\n\n\n\n\n\n\n\n\n<a href=\"http://www2.fcps.edu/WolftrapES/?utm_campaign+=&amp;utm_medium=email&amp;utm_source=govdelivery\" target...",
      "pubDate": "Tue, 27 May 2025 16:23:54 -0500",
      "timestamp": 1748381034000,
      "feedName": "Wolftrap Elementary School",
      "category": "Wolftrap Elementary School",
      "feedSource": "http://www.fcps.edu/index.shtml",
      "feedInfo": {
        "title": "Wolftrap Elementary School News and Announcements - Recent Updates",
        "description": "Wolftrap Elementary School News and announcements",
        "link": "http://www.fcps.edu/index.shtml"
      }
    },
    {
      "id": "NjUxNjE5MjU=",
      "title": "Roadrunner Rundown - 5/27/25",
      "link": "https://content.govdelivery.com/accounts/VAEDUFCPS/bulletins/3e24ac5",
      "description": "\n        \n\n\n  \n\n\n\n\n\n\n\n<p><a></a>Having trouble viewing this email? <a href=\"https://content.govdelivery.com/accounts/VAEDUFCPS/bulletins/3e24ac5\">View it as a Web page</a>.</p>\n\n\n\n\n\n\n\n\n\n\n\n<a href=\"https://marshallroades.fcps.edu/?utm_campaign+=&amp;utm_medium=email&amp;utm_source=govdelivery\" target...",
      "pubDate": "Tue, 27 May 2025 15:36:15 -0500",
      "timestamp": 1748378175000,
      "feedName": "Marshall Road Elementary School",
      "category": "Marshall Road Elementary School",
      "feedSource": "http://www.fcps.edu/index.shtml",
      "feedInfo": {
        "title": "Marshall Road ES News and Announcements - Recent Updates",
        "description": "Marshall Road Elementary School News and announcements",
        "link": "http://www.fcps.edu/index.shtml"
      }
    },
    {
      "id": "NjUxMDk1NTE=",
      "title": "Kings Park News Tuesday, May 27th",
      "link": "https://content.govdelivery.com/accounts/VAEDUFCPS/bulletins/3e17e2f",
      "description": "\n        \n\n\n  \n\n\n\n\n\n\n\n<p><a></a>Having trouble viewing this email? <a href=\"https://content.govdelivery.com/accounts/VAEDUFCPS/bulletins/3e17e2f\">View it as a Web page</a>.</p>\n\n\n\n\n\n\n\n\n\n\n\n<a href=\"http://www2.fcps.edu/KingsParkES/?utm_campaign+=&amp;utm_medium=email&amp;utm_source=govdelivery\" targe...",
      "pubDate": "Tue, 27 May 2025 15:27:34 -0500",
      "timestamp": 1748377654000,
      "feedName": "Kings Park Elementary School",
      "category": "Kings Park Elementary School",
      "feedSource": "http://www.fcps.edu/index.shtml",
      "feedInfo": {
        "title": "Kings Park Elementary School News and announcements - Recent Updates",
        "description": "Kings Park Elementary School News and announcements",
        "link": "http://www.fcps.edu/index.shtml"
      }
    },
    {
      "id": "NjUxNjM4NjY=",
      "title": "Tuesday, May 27, 2025 Lancer Times",
      "link": "https://content.govdelivery.com/accounts/VAEDUFCPS/bulletins/3e2525a",
      "description": "\n        \n\n\n  \n\n\n\n\n\n\n\n<p><a></a>Having trouble viewing this email? <a href=\"https://content.govdelivery.com/accounts/VAEDUFCPS/bulletins/3e2525a\">View it as a Web page</a>.</p>\n\n\n\n\n\n\n\n\n\n\n\n<a href=\"https://longfellowms.fcps.edu/?utm_campaign+=&amp;utm_medium=email&amp;utm_source=govdelivery\" target=\"...",
      "pubDate": "Tue, 27 May 2025 15:00:26 -0500",
      "timestamp": 1748376026000,
      "feedName": "Longfellow Middle School",
      "category": "Longfellow Middle School",
      "feedSource": "http://www.fcps.edu/index.shtml",
      "feedInfo": {
        "title": "Longfellow Middle School News and announcements - Recent Updates",
        "description": "Longfellow Middle School News and announcements",
        "link": "http://www.fcps.edu/index.shtml"
      }
    },
    {
      "id": "NjUwOTczMDU=",
      "title": "Approaching the 10-Day Mark!",
      "link": "https://content.govdelivery.com/accounts/VAEDUFCPS/bulletins/3e14e59",
      "description": "\n        \n\n\n  \n\n\n\n\n\n\n\n\n\n\n\n\n\n\n\n\n\n\n\n\n\n\n\n\n\n\n\n\n\n\n\n\n\n\n\n\n<p><a href=\"https://fairhilles.fcps.edu/aggregator/sources/1?utm_campaign+=&amp;utm_medium=email&amp;utm_source=govdelivery#modal-language-switcher\" target=\"_blank\">English | Español | አማርኛ | 中文 | 한국어 | Tiếng Việt | العربية | فارسی | اردو</a></p>\n\n\n...",
      "pubDate": "Tue, 27 May 2025 14:52:59 -0500",
      "timestamp": 1748375579000,
      "feedName": "Fairhill Elementary School",
      "category": "Fairhill Elementary School",
      "feedSource": "http://www.fcps.edu/index.shtml",
      "feedInfo": {
        "title": "Fairhill Elementary School News and Announcements - Recent Updates",
        "description": "Fairhill Elementary School News and Announcements",
        "link": "http://www.fcps.edu/index.shtml"
      }
    },
    {
      "id": "NjUxNjMyNzg=",
      "title": "Week of May 27",
      "link": "https://content.govdelivery.com/accounts/VAEDUFCPS/bulletins/3e2500e",
      "description": "\n        \n\n\n  \n\n\n\n\n\n\n\n<p><a></a>Having trouble viewing this email? <a href=\"https://content.govdelivery.com/accounts/VAEDUFCPS/bulletins/3e2500e\">View it as a Web page</a>.</p>\n\n\n\n\n\n\n\n\n\n\n\n<a href=\"https://herndonms.fcps.edu/?utm_campaign+=&amp;utm_medium=email&amp;utm_source=govdelivery\" target=\"_bl...",
      "pubDate": "Tue, 27 May 2025 14:37:12 -0500",
      "timestamp": 1748374632000,
      "feedName": "Herndon Middle School",
      "category": "Herndon Middle School",
      "feedSource": "http://www.fcps.edu/index.shtml",
      "feedInfo": {
        "title": "Herndon Middle School News and announcements - Recent Updates",
        "description": "Herndon Middle School News and announcements",
        "link": "http://www.fcps.edu/index.shtml"
      }
    },
    {
      "id": "NjUxNjQ0Mjk=",
      "title": "Reminder: No Academy Classes Mon., 6/2 &amp; Last Day for Shuttles Weds., 6/4",
      "link": "https://content.govdelivery.com/accounts/VAEDUFCPS/bulletins/3e2548d",
      "description": "\n        <p><strong>NO MARSHALL ACADEMY CLASSES ON MON., JUNE 2 RED/ODD  </strong></p>\n<p><strong>WEDS., JUNE 4 IS THE LAST DAY FOR ACADEMY SHUTTLES</strong></p>\n<p><strong>REMINDER: There are no academy classes on Monday, June 2nd (Red/Odd) </strong><strong>due to Marshall High School’s graduation....",
      "pubDate": "Tue, 27 May 2025 14:27:14 -0500",
      "timestamp": 1748374034000,
      "feedName": "Marshall Academy",
      "category": "Marshall Academy",
      "feedSource": "http://www.fcps.edu/index.shtml",
      "feedInfo": {
        "title": "Marshall Academy News and Announcements - Recent Updates",
        "description": "Marshall Academy News and Announcements - Recent Updates",
        "link": "http://www.fcps.edu/index.shtml"
      }
    },
    {
      "id": "NjUxMjM4NjY=",
      "title": "Week of May 27",
      "link": "https://content.govdelivery.com/accounts/VAEDUFCPS/bulletins/3e1b61a",
      "description": "\n        \n\n\n  \n\n\n\n\n\n\n\n<p><a></a>Having trouble viewing this email? <a href=\"https://content.govdelivery.com/accounts/VAEDUFCPS/bulletins/3e1b61a\">View it as a Web page</a>.</p>\n\n\n\n\n\n\n\n\n\n\n\n<a href=\"https://herndonhs.fcps.edu/?utm_campaign+=&amp;utm_medium=email&amp;utm_source=govdelivery\" target=\"_bl...",
      "pubDate": "Tue, 27 May 2025 14:15:14 -0500",
      "timestamp": 1748373314000,
      "feedName": "Herndon High School",
      "category": "Herndon High School",
      "feedSource": "http://www.fcps.edu/index.shtml",
      "feedInfo": {
        "title": "Herndon High School News and Announcements - Recent Updates",
        "description": "Herndon High School News and Announcements",
        "link": "http://www.fcps.edu/index.shtml"
      }
    },
    {
      "id": "NjUxNjM2MjU=",
      "title": "Tuesday Terragram May 27",
      "link": "https://content.govdelivery.com/accounts/VAEDUFCPS/bulletins/3e25169",
      "description": "\n        \n\n\n  \n\n\n\n\n\n\n\n<p><a></a>Having trouble viewing this email? <a href=\"https://content.govdelivery.com/accounts/VAEDUFCPS/bulletins/3e25169\">View it as a Web page</a>.</p>\n\n\n\n\n\n\n\n\n\n\n\n<a href=\"https://terrasetes.fcps.edu?utm_campaign+=&amp;utm_medium=email&amp;utm_source=govdelivery\" target=\"_bl...",
      "pubDate": "Tue, 27 May 2025 14:07:32 -0500",
      "timestamp": 1748372852000,
      "feedName": "Terraset Elementary School",
      "category": "Terraset Elementary School",
      "feedSource": "http://www.fcps.edu/index.shtml",
      "feedInfo": {
        "title": "Tuesday Terragram - Recent Updates",
        "description": "Terraset Elementary School weekly news and announcements",
        "link": "http://www.fcps.edu/index.shtml"
      }
    }
  ],
  "hasNext": true,
  "hasPrev": true
}