{
  "page": 151,
  "totalPages": 268,
  "totalItems": 5354,
  "itemsPerPage": 20,
  "items": [
    {
      "id": "NjQ1MzE3Mjk=",
      "title": "WHAT'S GOING ON IN THE FOREST - 3/29/25",
      "link": "https://content.govdelivery.com/accounts/VAEDUFCPS/bulletins/3d8ad11",
      "description": "\n        \n\n\n  \n\n\n\n\n\n\n\n<p><a></a>Having trouble viewing this email? <a href=\"https://content.govdelivery.com/accounts/VAEDUFCPS/bulletins/3d8ad11\">View it as a Web page</a>.</p>\n\n\n\n\n\n\n\n\n\n\n\n<a href=\"http://www2.fcps.edu/NewingtonForestES/?utm_campaign+=&amp;utm_medium=email&amp;utm_source=govdelivery\"...",
      "pubDate": "Sat, 29 Mar 2025 18:02:43 -0500",
      "timestamp": 1743289363000,
      "feedName": "Newington Forest Elementary School",
      "category": "Newington Forest Elementary School",
      "feedSource": "http://www.fcps.edu/index.shtml",
      "feedInfo": {
        "title": "Newington Forest Elementary School News and announcements - Recent Updates",
        "description": "Newington Forest Elementary School News and announcements",
        "link": "http://www.fcps.edu/index.shtml"
      }
    },
    {
      "id": "NjQ1Nzg4MjY=",
      "title": "Fort Hunt Fox Den News | March 28, 2025",
      "link": "https://content.govdelivery.com/accounts/VAEDUFCPS/bulletins/3d9650a",
      "description": "\n        \n\n\n  \n\n\n\n\n\n\n\n<p><a></a>Having trouble viewing this email? <a href=\"https://content.govdelivery.com/accounts/VAEDUFCPS/bulletins/3d9650a\">View it as a Web page</a>.</p>\n\n\n\n\n\n\n\n\n\n\n\n<a href=\"https://forthuntes.fcps.edu/?utm_campaign+=&amp;utm_medium=email&amp;utm_source=govdelivery\" target=\"_b...",
      "pubDate": "Sat, 29 Mar 2025 11:50:38 -0500",
      "timestamp": 1743267038000,
      "feedName": "Fort Hunt Elementary School",
      "category": "Fort Hunt Elementary School",
      "feedSource": "http://www.fcps.edu/index.shtml",
      "feedInfo": {
        "title": "Fort Hunt Elementary School News and Announcements - Recent Updates",
        "description": "Fort Hunt Elementary School News and announcements",
        "link": "http://www.fcps.edu/index.shtml"
      }
    },
    {
      "id": "NjQ0NjcwNjk=",
      "title": "Falcon Press March 27, 2025",
      "link": "https://content.govdelivery.com/accounts/VAEDUFCPS/bulletins/3d7b07d",
      "description": "\n        \n\n\n  \n\n\n\n\n\n\n\n<p><a></a>Having trouble viewing this email? <a href=\"https://content.govdelivery.com/accounts/VAEDUFCPS/bulletins/3d7b07d\">View it as a Web page</a>.</p>\n\n\n\n\n\n\n\n\n\n\n\n<a href=\"https://forestdalees.fcps.edu/?utm_campaign+=&amp;utm_medium=email&amp;utm_source=govdelivery\" target=\"...",
      "pubDate": "Sat, 29 Mar 2025 09:11:44 -0500",
      "timestamp": 1743257504000,
      "feedName": "Forestdale Elementary School",
      "category": "Forestdale Elementary School",
      "feedSource": "http://www.fcps.edu/index.shtml",
      "feedInfo": {
        "title": "Forestdale Elementary School News and announcements - Recent Updates",
        "description": "Forestdale Elementary School News and announcements",
        "link": "http://www.fcps.edu/index.shtml"
      }
    },
    {
      "id": "NjQ1NzI3OTM=",
      "title": "Coates Family Newsletter for 3/28/25",
      "link": "https://content.govdelivery.com/accounts/VAEDUFCPS/bulletins/3d94d79",
      "description": "\n        \n\n\n  \n\n\n\n\n\n\n\n<p><a></a>Having trouble viewing this email? <a href=\"https://content.govdelivery.com/accounts/VAEDUFCPS/bulletins/3d94d79\">View it as a Web\npage</a>.</p>\n\n\n\n\n\n\n\n\n\n\n\n<a href=\"https://coateses.fcps.edu/?utm_campaign+=&amp;utm_medium=email&amp;utm_source=govdelivery\" target=\"_bla...",
      "pubDate": "Fri, 28 Mar 2025 18:14:14 -0500",
      "timestamp": 1743203654000,
      "feedName": "Coates Elementary School",
      "category": "Coates Elementary School",
      "feedSource": "http://www.fcps.edu/index.shtml",
      "feedInfo": {
        "title": "Coates  Elementary School News and Announcements - Recent Updates",
        "description": "Coates  Elementary School News and announcements",
        "link": "http://www.fcps.edu/index.shtml"
      }
    },
    {
      "id": "NjQ1MzEyMzQ=",
      "title": "Roadrunner Express!!!",
      "link": "https://content.govdelivery.com/accounts/VAEDUFCPS/bulletins/3d8ab22",
      "description": "\n        \n\n\n  \n\n\n\n\n\n\n\n<p><a></a>[VIEW_THIS]]</p>\n\n\n\n\n\n\n\n\n\n\n\n<a href=\"http://www2.fcps.edu/lortonstationes/?utm_campaign+=&amp;utm_medium=email&amp;utm_source=govdelivery\" target=\"_blank\"></a>\n\n\n\n\n\n\n\n\n\n\n\n\n\n\n\n\n\n\n<p><strong>March 31:</strong> Eid al-Fitr (NO SCHOOL)</p>\n<p><strong>April:</strong> Month...",
      "pubDate": "Fri, 28 Mar 2025 17:46:53 -0500",
      "timestamp": 1743202013000,
      "feedName": "Lorton Station Elementary School",
      "category": "Lorton Station Elementary School",
      "feedSource": "http://www.fcps.edu/index.shtml",
      "feedInfo": {
        "title": "Lorton Station Elementary School News and announcements - Recent Updates",
        "description": "Lorton Station Elementary School News and announcements",
        "link": "http://www.fcps.edu/index.shtml"
      }
    },
    {
      "id": "NjQ1NzA2ODA=",
      "title": "The Clearview Community Connect March 28, 2025",
      "link": "https://content.govdelivery.com/accounts/VAEDUFCPS/bulletins/3d94538",
      "description": "\n        \n\n\n  \n\n\n\n\n\n\n\n<p><a></a>Having trouble viewing this email? <a href=\"https://content.govdelivery.com/accounts/VAEDUFCPS/bulletins/3d94538\">View it as a Web page</a>.</p>\n\n\n\n\n\n\n\n\n\n\n\n<a href=\"https://clearviewes.fcps.edu/?utm_campaign+=&amp;utm_medium=email&amp;utm_source=govdelivery\" target=\"_...",
      "pubDate": "Fri, 28 Mar 2025 17:45:14 -0500",
      "timestamp": 1743201914000,
      "feedName": "Clearview Elementary School",
      "category": "Clearview Elementary School",
      "feedSource": "http://www.fcps.edu/index.shtml",
      "feedInfo": {
        "title": "Clearview Elementary School News and Announcements - Recent Updates",
        "description": "Clearview Elementary School News and announcements",
        "link": "http://www.fcps.edu/index.shtml"
      }
    },
    {
      "id": "NjQ1NzM4Mjk=",
      "title": "Weekend Challenge: Help us Reach our Fundraising Goal!",
      "link": "https://content.govdelivery.com/accounts/VAEDUFCPS/bulletins/3d95185",
      "description": "\n        \n\n\n  \n\n\n\n\n\n\n\n<p><a></a>Having trouble viewing this email? <a href=\"https://content.govdelivery.com/accounts/VAEDUFCPS/bulletins/3d95185\">View it as a Web page</a>.</p>\n\n\n\n\n\n\n\n\n\n\n\n<a href=\"http://www2.fcps.edu/HalleyES/?utm_campaign+=&amp;utm_medium=email&amp;utm_source=govdelivery\" target=\"...",
      "pubDate": "Fri, 28 Mar 2025 17:34:10 -0500",
      "timestamp": 1743201250000,
      "feedName": "Halley Elementary School",
      "category": "Halley Elementary School",
      "feedSource": "http://www.fcps.edu/index.shtml",
      "feedInfo": {
        "title": "Halley Elementary School News and announcements - Recent Updates",
        "description": "Halley Elementary School News and announcements",
        "link": "http://www.fcps.edu/index.shtml"
      }
    },
    {
      "id": "NjQ1MzA4NTE=",
      "title": "Bailey's ES News- March 28, 2025",
      "link": "https://content.govdelivery.com/accounts/VAEDUFCPS/bulletins/3d8a9a3",
      "description": "\n        \n\n\n  \n\n\n\n\n\n\n\n<p><a></a>Having trouble viewing this email? <a href=\"https://content.govdelivery.com/accounts/VAEDUFCPS/bulletins/3d8a9a3\">View it as a Web page</a>.</p>\n\n\n\n\n\n\n\n\n\n\n\n<a href=\"https://baileyses.fcps.edu/?utm_campaign+=&amp;utm_medium=email&amp;utm_source=govdelivery\" target=\"_bl...",
      "pubDate": "Fri, 28 Mar 2025 17:30:12 -0500",
      "timestamp": 1743201012000,
      "feedName": "Bailey's Lower",
      "category": "Bailey's Lower",
      "feedSource": "http://www.fcps.edu/index.shtml",
      "feedInfo": {
        "title": "Bailey's Elementary (PreK-2) News and Announcements - Recent Updates",
        "description": "Bailey's Elementary (PreK-2) News and Announcements - Recent Updates",
        "link": "http://www.fcps.edu/index.shtml"
      }
    },
    {
      "id": "NjQ1NTYxNzA=",
      "title": "Bailey's Upper ES News You Choose",
      "link": "https://content.govdelivery.com/accounts/VAEDUFCPS/bulletins/3d90c8a",
      "description": "\n        \n\n\n  \n\n\n\n\n\n\n\n<p><a></a>Having trouble viewing this email? <a href=\"https://content.govdelivery.com/accounts/VAEDUFCPS/bulletins/3d90c8a\">View it as a Web page</a>.</p>\n\n\n\n\n\n\n\n\n\n\n\n<a href=\"https://baileysupperes.fcps.edu/?utm_campaign+=&amp;utm_medium=email&amp;utm_source=govdelivery\" target...",
      "pubDate": "Fri, 28 Mar 2025 17:15:11 -0500",
      "timestamp": 1743200111000,
      "feedName": "Bailey's Upper",
      "category": "Bailey's Upper",
      "feedSource": "http://www.fcps.edu/index.shtml",
      "feedInfo": {
        "title": "Bailey's Upper (Grades 3-5) News and Announcements - Recent Updates",
        "description": "Bailey's Upper (Grades 3-5) News and Announcements - Recent Updates",
        "link": "http://www.fcps.edu/index.shtml"
      }
    },
    {
      "id": "NjQ1MTU2OTA=",
      "title": "Timber Lane Times 3/28/25",
      "link": "https://content.govdelivery.com/accounts/VAEDUFCPS/bulletins/3d86e6a",
      "description": "\n        \n\n\n  \n\n\n\n\n\n\n\n<p><a></a>Having trouble viewing this email? <a href=\"https://content.govdelivery.com/accounts/VAEDUFCPS/bulletins/3d86e6a\">View it as a Web page</a>.</p>\n\n\n\n\n\n\n\n\n\n\n\n\n<a href=\"https://timberlanees.fcps.edu/?utm_campaign+=&amp;utm_medium=email&amp;utm_source=govdelivery\" target=...",
      "pubDate": "Fri, 28 Mar 2025 17:00:17 -0500",
      "timestamp": 1743199217000,
      "feedName": "Timber Lane Elementary School",
      "category": "Timber Lane Elementary School",
      "feedSource": "http://www.fcps.edu/index.shtml",
      "feedInfo": {
        "title": "Timber Lane Elementary School News and announcements - Recent Updates",
        "description": "Timber Lane Elementary School News and announcements",
        "link": "http://www.fcps.edu/index.shtml"
      }
    },
    {
      "id": "NjQ1NzA0OTA=",
      "title": "A Weekly Message from Irving MS",
      "link": "https://content.govdelivery.com/accounts/VAEDUFCPS/bulletins/3d9447a",
      "description": "\n        \n\n\n  \n\n\n\n\n\n\n\n<p><a></a>Having trouble viewing this email? <a href=\"https://content.govdelivery.com/accounts/VAEDUFCPS/bulletins/3d9447a\">View it as a Web page</a>.</p>\n\n\n\n\n\n\n\n\n\n\n\n<a href=\"https://irvingms.fcps.edu/?utm_campaign+=&amp;utm_medium=email&amp;utm_source=govdelivery\" target=\"_bla...",
      "pubDate": "Fri, 28 Mar 2025 17:00:15 -0500",
      "timestamp": 1743199215000,
      "feedName": "Irving Middle School",
      "category": "Irving Middle School",
      "feedSource": "http://www.fcps.edu/index.shtml",
      "feedInfo": {
        "title": "Irving Middle School News and announcements - Recent Updates",
        "description": "Irving Middle School News and announcements",
        "link": "http://www.fcps.edu/index.shtml"
      }
    },
    {
      "id": "NjQ1NTM1MDc=",
      "title": "Eaglegram",
      "link": "https://content.govdelivery.com/accounts/VAEDUFCPS/bulletins/3d90223",
      "description": "\n        \n\n\n  \n\n\n\n\n\n\n\n<p><a></a>Having trouble viewing this email? <a href=\"https://content.govdelivery.com/accounts/VAEDUFCPS/bulletins/3d90223\">View it as a Web page</a>.</p>\n\n\n\n\n\n\n\n\n\n\n\n<a href=\"https://clermontes.fcps.edu/?utm_campaign+=&amp;utm_medium=email&amp;utm_source=govdelivery\" target=\"_b...",
      "pubDate": "Fri, 28 Mar 2025 16:45:12 -0500",
      "timestamp": 1743198312000,
      "feedName": "Clermont Elementary School",
      "category": "Clermont Elementary School",
      "feedSource": "http://www.fcps.edu/index.shtml",
      "feedInfo": {
        "title": "Clermont, VA Elementary School News and announcements - Recent Updates",
        "description": "Clermont Elementary School News and announcements",
        "link": "http://www.fcps.edu/index.shtml"
      }
    },
    {
      "id": "NjQ1NDIxNzk=",
      "title": "3-28-25-Panther Press",
      "link": "https://content.govdelivery.com/accounts/VAEDUFCPS/bulletins/3d8d5e3",
      "description": "\n        \n\n\n  \n\n\n\n\n\n\n\n<p><a></a>Having trouble viewing this email? <a href=\"https://content.govdelivery.com/accounts/VAEDUFCPS/bulletins/3d8d5e3\">View it as a Web page</a>.</p>\n\n\n\n\n\n\n\n\n\n\n\n<a href=\"http://www2.fcps.edu/SpringHillES/?utm_campaign+=&amp;utm_medium=email&amp;utm_source=govdelivery\" targ...",
      "pubDate": "Fri, 28 Mar 2025 16:30:30 -0500",
      "timestamp": 1743197430000,
      "feedName": "Spring Hill Elementary School",
      "category": "Spring Hill Elementary School",
      "feedSource": "http://www.fcps.edu/index.shtml",
      "feedInfo": {
        "title": "Spring Hill Elementary School News and Announcements - Recent Updates",
        "description": "Spring Hill Elementary School News and announcements",
        "link": "http://www.fcps.edu/index.shtml"
      }
    },
    {
      "id": "NjQ1MjY0ODY=",
      "title": "Laurel Ridge Newsletter 3/28/25",
      "link": "https://content.govdelivery.com/accounts/VAEDUFCPS/bulletins/3d89896",
      "description": "\n        \n\n\n  \n\n\n\n\n\n\n\n<p><a></a>Having trouble viewing this email? <a href=\"https://content.govdelivery.com/accounts/VAEDUFCPS/bulletins/3d89896\">View it as a Web page</a>.</p>\n\n\n\n\n\n\n\n\n\n\n\n<a href=\"http://www2.fcps.edu/LaurelRidgeES/?utm_campaign+=&amp;utm_medium=email&amp;utm_source=govdelivery\" tar...",
      "pubDate": "Fri, 28 Mar 2025 16:30:19 -0500",
      "timestamp": 1743197419000,
      "feedName": "Laurel Ridge Elementary School",
      "category": "Laurel Ridge Elementary School",
      "feedSource": "http://www.fcps.edu/index.shtml",
      "feedInfo": {
        "title": "Laurel Ridge Elementary School News and announcements - Recent Updates",
        "description": "Laurel Ridge Elementary School News and announcements",
        "link": "http://www.fcps.edu/index.shtml"
      }
    },
    {
      "id": "NjQ1NjIxNjg=",
      "title": "Woodburn Newsletter - March 28, 2025",
      "link": "https://content.govdelivery.com/accounts/VAEDUFCPS/bulletins/3d923f8",
      "description": "\n        \n\n\n  \n\n\n\n\n\n\n\n<p><a></a>Having trouble viewing this email? <a href=\"https://content.govdelivery.com/accounts/VAEDUFCPS/bulletins/3d923f8\">View it as a Web page</a>.</p>\n\n\n\n\n\n\n\n\n\n\n\n<a href=\"https://woodburnes.fcps.edu/?utm_content=&amp;utm_medium=email&amp;utm_name=&amp;utm_source=govdelivery...",
      "pubDate": "Fri, 28 Mar 2025 16:30:14 -0500",
      "timestamp": 1743197414000,
      "feedName": "Woodburn Elementary School",
      "category": "Woodburn Elementary School",
      "feedSource": "https://public.govdelivery.com/topics/Woodburn_Elementary_school_News_and_Announcements/feed.rss",
      "feedInfo": {
        "title": "Woodburn Elementary School News and announcements - Recent Updates",
        "description": "Woodburn Elementary School News and announcements",
        "link": "https://public.govdelivery.com/topics/Woodburn_Elementary_school_News_and_Announcements/feed.rss"
      }
    },
    {
      "id": "NjQ1MTU1NzQ=",
      "title": "Springfield Estates ES News You Choose - March 28, 2025",
      "link": "https://content.govdelivery.com/accounts/VAEDUFCPS/bulletins/3d86df6",
      "description": "\n        \n\n\n  \n\n\n\n\n\n\n\n<p><a></a>Having trouble viewing this email? <a href=\"https://content.govdelivery.com/accounts/VAEDUFCPS/bulletins/3d86df6\">View it as a Web page</a>.</p>\n\n\n\n\n\n\n\n\n\n\n\n<a href=\"https://springfieldestateses.fcps.edu?utm_campaign+=&amp;utm_medium=email&amp;utm_source=govdelivery\" t...",
      "pubDate": "Fri, 28 Mar 2025 16:30:13 -0500",
      "timestamp": 1743197413000,
      "feedName": "Springfield Estates Elementary School",
      "category": "Springfield Estates Elementary School",
      "feedSource": "http://www.fcps.edu/index.shtml",
      "feedInfo": {
        "title": "Springfield Estates Elementary School News and announcements - Recent Updates",
        "description": "Springfield Estates Elementary School News and announcements",
        "link": "http://www.fcps.edu/index.shtml"
      }
    },
    {
      "id": "NjQ1MTY3MjA=",
      "title": "RVES News and Notes - March 28",
      "link": "https://content.govdelivery.com/accounts/VAEDUFCPS/bulletins/3d87270",
      "description": "\n        \n\n\n  \n\n\n\n\n\n\n\n<p><a></a>Having trouble viewing this email? <a href=\"https://content.govdelivery.com/accounts/VAEDUFCPS/bulletins/3d87270\">View it as a Web page</a>.</p>\n\n\n\n\n\n\n\n\n\n\n\n<a href=\"http://www2.fcps.edu/RollingValleyES/?utm_campaign+=&amp;utm_medium=email&amp;utm_source=govdelivery\" t...",
      "pubDate": "Fri, 28 Mar 2025 16:27:24 -0500",
      "timestamp": 1743197244000,
      "feedName": "Rolling Valley Elementary School",
      "category": "Rolling Valley Elementary School",
      "feedSource": "http://www.fcps.edu/index.shtml",
      "feedInfo": {
        "title": "Rolling Valley Elementary School News and announcements - Recent Updates",
        "description": "Rolling Valley Elementary School News and announcements",
        "link": "http://www.fcps.edu/index.shtml"
      }
    },
    {
      "id": "NjQ1MzE4NzA=",
      "title": "Cougar Connections",
      "link": "https://content.govdelivery.com/accounts/VAEDUFCPS/bulletins/3d8ad9e",
      "description": "\n        \n\n\n  \n\n\n\n\n\n\n\n<p><a></a>Having trouble viewing this email? <a href=\"https://content.govdelivery.com/accounts/VAEDUFCPS/bulletins/3d8ad9e\">View it as a Web page</a>.</p>\n\n\n\n\n\n\n\n\n\n\n\n<a href=\"http://www2.fcps.edu/CanterburyWoodsES/?utm_campaign+=&amp;utm_medium=email&amp;utm_source=govdelivery\"...",
      "pubDate": "Fri, 28 Mar 2025 16:05:55 -0500",
      "timestamp": 1743195955000,
      "feedName": "Canterbury Woods Elementary School",
      "category": "Canterbury Woods Elementary School",
      "feedSource": "http://www.fcps.edu/index.shtml",
      "feedInfo": {
        "title": "Canterbury Woods Elementary School News and announcements - Recent Updates",
        "description": "Canterbury Woods Elementary School News and announcements",
        "link": "http://www.fcps.edu/index.shtml"
      }
    },
    {
      "id": "NjQ1NzExMTI=",
      "title": "Fox Mill Focus March 28, 2025",
      "link": "https://content.govdelivery.com/accounts/VAEDUFCPS/bulletins/3d946e8",
      "description": "\n        \n\n\n  \n\n\n\n\n\n\n\n<p><a></a>Having trouble viewing this email? <a href=\"https://content.govdelivery.com/accounts/VAEDUFCPS/bulletins/3d946e8\">View it as a Web page</a>.</p>\n\n\n\n\n\n\n\n\n\n\n\n<a href=\"http://www2.fcps.edu/FoxMillES/?utm_campaign+=&amp;utm_medium=email&amp;utm_source=govdelivery\" target=...",
      "pubDate": "Fri, 28 Mar 2025 16:00:20 -0500",
      "timestamp": 1743195620000,
      "feedName": "Fox Mill Elementary School",
      "category": "Fox Mill Elementary School",
      "feedSource": "http://www.fcps.edu/index.shtml",
      "feedInfo": {
        "title": "Fox Mill Elementary School News and announcements - Recent Updates",
        "description": "Fox Mill Elementary School News and announcements",
        "link": "http://www.fcps.edu/index.shtml"
      }
    },
    {
      "id": "NjQ1MTk3MTM=",
      "title": "CES Family Connection 3-28-25",
      "link": "https://content.govdelivery.com/accounts/VAEDUFCPS/bulletins/3d87e21",
      "description": "\n        \n\n\n  \n\n\n\n\n\n\n\n<p><a></a>Having trouble viewing this email? <a href=\"https://content.govdelivery.com/accounts/VAEDUFCPS/bulletins/3d87e21\">View it as a Web page</a>.</p>\n\n\n\n\n\n\n\n\n\n\n\n<a href=\"https://centrevillees.fcps.edu/?utm_campaign+=&amp;utm_medium=email&amp;utm_source=govdelivery\" target=...",
      "pubDate": "Fri, 28 Mar 2025 16:00:19 -0500",
      "timestamp": 1743195619000,
      "feedName": "Centreville Elementary School",
      "category": "Centreville Elementary School",
      "feedSource": "http://www.fcps.edu/index.shtml",
      "feedInfo": {
        "title": "Centreville Elementary School News and announcements - Recent Updates",
        "description": "Centreville Elementary School News and announcements",
        "link": "http://www.fcps.edu/index.shtml"
      }
    }
  ],
  "hasNext": true,
  "hasPrev": true
}