{
  "page": 165,
  "totalPages": 268,
  "totalItems": 5354,
  "itemsPerPage": 20,
  "items": [
    {
      "id": "NjQzMjE2MTU=",
      "title": "Springfield District Budget Town Hall",
      "link": "https://content.govdelivery.com/accounts/VAEDUFCPS/bulletins/3d5784f",
      "description": "\n        \n\n\n  \n\n\n\n\n\n\n\n<p><a></a>Having trouble viewing this email? <a href=\"https://content.govdelivery.com/accounts/VAEDUFCPS/bulletins/3d5784f\">View it as a Web page</a>.</p>\n\n\n\n\n\n\n\n\n\n\n\n<a href=\"https://www.fcps.edu/staff/kyle-mcdaniel?utm_campaign+=&amp;utm_medium=email&amp;utm_source=govdelivery...",
      "pubDate": "Wed, 19 Mar 2025 13:33:48 -0500",
      "timestamp": 1742409228000,
      "feedName": "FCPS School Board Member at Large (Kyle McDaniel)",
      "category": "FCPS School Board Member at Large (Kyle McDaniel)",
      "feedSource": "http://www.fcps.edu/",
      "feedInfo": {
        "title": "At-Large Member - Kyle McDaniel - Recent Updates",
        "description": "At-Large Member - Kyle McDaniel - Recent Updates",
        "link": "http://www.fcps.edu/"
      }
    },
    {
      "id": "NjQzOTAwMDU=",
      "title": "Kings Glen Gator Bytes March 19, 2025",
      "link": "https://content.govdelivery.com/accounts/VAEDUFCPS/bulletins/3d68375",
      "description": "\n        \n\n\n  \n\n\n\n\n\n\n\n<p><a></a>Having trouble viewing this email? <a href=\"https://content.govdelivery.com/accounts/VAEDUFCPS/bulletins/3d68375\">View it as a Web page</a>.</p>\n\n\n\n\n\n\n\n\n\n\n\n<a href=\"https://kingsglenes.fcps.edu/?utm_content=&amp;utm_medium=email&amp;utm_name=&amp;utm_source=govdeliver...",
      "pubDate": "Wed, 19 Mar 2025 12:00:16 -0500",
      "timestamp": 1742403616000,
      "feedName": "Kings Glen Elementary School",
      "category": "Kings Glen Elementary School",
      "feedSource": "http://www.fcps.edu/index.shtml",
      "feedInfo": {
        "title": "Kings Glen Elementary School News and announcements - Recent Updates",
        "description": "Kings Glen Elementary School News and announcements",
        "link": "http://www.fcps.edu/index.shtml"
      }
    },
    {
      "id": "NjQ0NTcyMzU=",
      "title": "March Newsletter: Town Halls, Community Conversations, and Abundant Student Opportunities",
      "link": "https://content.govdelivery.com/accounts/VAEDUFCPS/bulletins/3d78a13",
      "description": "\n        \n\n\n  \n\n\n\n\n\n\n\n<p><a></a>Having trouble viewing this email? <a href=\"https://content.govdelivery.com/accounts/VAEDUFCPS/bulletins/3d78a13\">View it as a Web page</a>.</p>\n\n\n\n\n\n\n\n\n\n\n\n<a href=\"https://www.fcps.edu/staff/sandy-anderson?utm_campaign+=&amp;utm_medium=email&amp;utm_source=govdeliver...",
      "pubDate": "Wed, 19 Mar 2025 08:21:36 -0500",
      "timestamp": 1742390496000,
      "feedName": "FCPS School Board Springfield District",
      "category": "FCPS School Board Springfield District",
      "feedSource": "http://www.fcps.edu/index.shtml",
      "feedInfo": {
        "title": "Springfield District Member - Sandy Anderson - Recent Updates",
        "description": "Springfield District Member - Sandy Anderson - Recent Updates",
        "link": "http://www.fcps.edu/index.shtml"
      }
    },
    {
      "id": "NjQ0MjE5NTI=",
      "title": "Family Liaison Newsletter",
      "link": "https://content.govdelivery.com/accounts/VAEDUFCPS/bulletins/3d70040",
      "description": "\n        \n\n\n  \n\n\n\n\n\n\n\n<p><a></a>Having trouble viewing this email? <a href=\"https://content.govdelivery.com/accounts/VAEDUFCPS/bulletins/3d70040\">View it as a Web page</a>.</p>\n\n\n\n\n\n\n\n\n\n\n\n<a href=\"https://haycockes.fcps.edu/?utm_campaign+=&amp;utm_medium=email&amp;utm_source=govdelivery\" target=\"_bl...",
      "pubDate": "Wed, 19 Mar 2025 04:05:12 -0500",
      "timestamp": 1742375112000,
      "feedName": "Haycock Elementary School",
      "category": "Haycock Elementary School",
      "feedSource": "http://www.fcps.edu/index.shtml",
      "feedInfo": {
        "title": "Haycock Elementary School News and announcements - Recent Updates",
        "description": "Haycock Elementary School News and announcements",
        "link": "http://www.fcps.edu/index.shtml"
      }
    },
    {
      "id": "NjQ0NjIwMjQ=",
      "title": "Principal Updates 3/19/2025",
      "link": "https://content.govdelivery.com/accounts/VAEDUFCPS/bulletins/3d79cc8",
      "description": "\n        \n\n\n  \n\n\n\n\n\n\n\n<p><a></a>March 19, 2025</p>\n\n\n\n\n\n\n\n\n\n\n\n<a href=\"http://www2.fcps.edu/masoncrestes?utm_campaign+=&amp;utm_medium=email&amp;utm_source=govdelivery\" target=\"_blank\"></a>\n\n\n\n\n\n\n\n\n\n\n\n\n\n\n\n<p><strong><a href=\"https://masoncrestes.fcps.edu/aggregator/sources/1?utm_campaign+=&amp;utm_m...",
      "pubDate": "Tue, 18 Mar 2025 22:38:45 -0500",
      "timestamp": 1742355525000,
      "feedName": "Mason Crest Elementary School",
      "category": "Mason Crest Elementary School",
      "feedSource": "http://www.fcps.edu/index.shtml",
      "feedInfo": {
        "title": "Mason Crest Elementary School News and announcements - Recent Updates",
        "description": "Mason Crest Elementary School News and announcements",
        "link": "http://www.fcps.edu/index.shtml"
      }
    },
    {
      "id": "NjQ0NTQ4MzM=",
      "title": "Upcoming Employee Conversations, Next Steps in Budget Process, Equipping Students to Succeed",
      "link": "https://content.govdelivery.com/accounts/VAEDUFCPS/bulletins/3d780b1",
      "description": "\n        \n\n\n  \n\n\n\n\n\n\n\n<p>Having trouble viewing this email? <a href=\"https://content.govdelivery.com/accounts/VAEDUFCPS/bulletins/3d780b1\">View it as a Web page</a>.</p>\n\n\n\n\n\n\n\n\n\n\n\n<a href=\"https://www.fcps.edu/?utm_campaign+=&amp;utm_medium=email&amp;utm_source=govdelivery\" target=\"_blank\"></a>\n\n\n\n...",
      "pubDate": "Tue, 18 Mar 2025 18:00:13 -0500",
      "timestamp": 1742338813000,
      "feedName": "FCPS Employee News",
      "category": "FCPS Employee News",
      "feedSource": "http://www.fcps.edu/index.shtml",
      "feedInfo": {
        "title": "FCPS Employees - Recent Updates",
        "description": "FCPS Employees - Recent Updates",
        "link": "http://www.fcps.edu/index.shtml"
      }
    },
    {
      "id": "NjQ0NTg0NzA=",
      "title": "Parent Newsletter",
      "link": "https://content.govdelivery.com/accounts/VAEDUFCPS/bulletins/3d78ee6",
      "description": "\n        \n\n\n  \n\n\n\n\n\n\n\n<p><a></a>Having trouble viewing this email? <a href=\"https://content.govdelivery.com/accounts/VAEDUFCPS/bulletins/3d78ee6\">View it as a Web page</a>.</p>\n\n\n\n\n\n\n\n\n\n\n\n<a href=\"http://www2.fcps.edu/FtBelvoirES/?utm_campaign+=&amp;utm_medium=email&amp;utm_source=govdelivery\" targe...",
      "pubDate": "Tue, 18 Mar 2025 15:30:16 -0500",
      "timestamp": 1742329816000,
      "feedName": "Fort Belvoir Elementary School",
      "category": "Fort Belvoir Elementary School",
      "feedSource": "http://www.fcps.edu/index.shtml",
      "feedInfo": {
        "title": "Fort Belvoir Primary (PreK-2) News and Announcements - Recent Updates",
        "description": "Fort Belvoir Primary (PreK-2) News and Announcements - Recent Updates",
        "link": "http://www.fcps.edu/index.shtml"
      }
    },
    {
      "id": "NjQ0MTk2NzU=",
      "title": "Kings Park News Tuesday, Mar 18th",
      "link": "https://content.govdelivery.com/accounts/VAEDUFCPS/bulletins/3d6f75b",
      "description": "\n        \n\n\n  \n\n\n\n\n\n\n\n<p><a></a>Having trouble viewing this email? <a href=\"https://content.govdelivery.com/accounts/VAEDUFCPS/bulletins/3d6f75b\">View it as a Web page</a>.</p>\n\n\n\n\n\n\n\n\n\n\n\n<a href=\"http://www2.fcps.edu/KingsParkES/?utm_campaign+=&amp;utm_medium=email&amp;utm_source=govdelivery\" targe...",
      "pubDate": "Tue, 18 Mar 2025 15:28:12 -0500",
      "timestamp": 1742329692000,
      "feedName": "Kings Park Elementary School",
      "category": "Kings Park Elementary School",
      "feedSource": "http://www.fcps.edu/index.shtml",
      "feedInfo": {
        "title": "Kings Park Elementary School News and announcements - Recent Updates",
        "description": "Kings Park Elementary School News and announcements",
        "link": "http://www.fcps.edu/index.shtml"
      }
    },
    {
      "id": "NjQ0NTcyMTA=",
      "title": "Neurodiversity Week",
      "link": "https://content.govdelivery.com/accounts/VAEDUFCPS/bulletins/3d789fa",
      "description": "\n        \n\n\n  \n\n\n\n\n\n\n\n<p><a></a>Having trouble viewing this email? <a href=\"https://content.govdelivery.com/accounts/VAEDUFCPS/bulletins/3d789fa\">View it as a Web page</a>.</p>\n\n\n\n\n\n\n\n\n\n\n\n<a href=\"https://westspringfieldes.fcps.edu/?utm_campaign+=&amp;utm_medium=email&amp;utm_source=govdelivery\" tar...",
      "pubDate": "Tue, 18 Mar 2025 14:27:59 -0500",
      "timestamp": 1742326079000,
      "feedName": "West Springfield Elementary School",
      "category": "West Springfield Elementary School",
      "feedSource": "http://www.fcps.edu/index.shtml",
      "feedInfo": {
        "title": "West Springfield Elementary School News and announcements - Recent Updates",
        "description": "West Springfield Elementary School News and announcements",
        "link": "http://www.fcps.edu/index.shtml"
      }
    },
    {
      "id": "NjQzODE0NjE=",
      "title": "Spring Has Sprung",
      "link": "https://content.govdelivery.com/accounts/VAEDUFCPS/bulletins/3d66215",
      "description": "\n        \n\n\n  \n\n\n\n\n\n\n\n\n\n\n\n\n\n\n\n\n\n\n\n\n\n\n\n\n\n\n\n\n\n\n\n\n\n\n\n\n<p><a href=\"https://fairhilles.fcps.edu/aggregator/sources/1?utm_campaign+=&amp;utm_medium=email&amp;utm_source=govdelivery#modal-language-switcher\" target=\"_blank\">English | Español | አማርኛ | 中文 | 한국어 | Tiếng Việt | العربية | فارسی | اردو</a></p>\n\n\n...",
      "pubDate": "Tue, 18 Mar 2025 13:59:03 -0500",
      "timestamp": 1742324343000,
      "feedName": "Fairhill Elementary School",
      "category": "Fairhill Elementary School",
      "feedSource": "http://www.fcps.edu/index.shtml",
      "feedInfo": {
        "title": "Fairhill Elementary School News and Announcements - Recent Updates",
        "description": "Fairhill Elementary School News and Announcements",
        "link": "http://www.fcps.edu/index.shtml"
      }
    },
    {
      "id": "NjQzODc5OTk=",
      "title": "Carson MS Weekly Updates -Updates - Week of March 17",
      "link": "https://content.govdelivery.com/accounts/VAEDUFCPS/bulletins/3d67b9f",
      "description": "\n        \n\n\n  \n\n\n\n\n\n\n\n<p><a></a>Having trouble viewing this email? <a href=\"https://content.govdelivery.com/accounts/VAEDUFCPS/bulletins/3d67b9f\">View it as a Web page</a>.</p>\n\n\n\n\n\n\n\n\n\n\n\n<a href=\"https://carsonms.fcps.edu/?utm_campaign+=&amp;utm_medium=email&amp;utm_source=govdelivery\" target=\"_bla...",
      "pubDate": "Tue, 18 Mar 2025 13:47:36 -0500",
      "timestamp": 1742323656000,
      "feedName": "Carson Middle School",
      "category": "Carson Middle School",
      "feedSource": "http://www.fcps.edu/index.shtml",
      "feedInfo": {
        "title": "Carson Middle School News and announcements - Recent Updates",
        "description": "Carson Middle School News and announcements",
        "link": "http://www.fcps.edu/index.shtml"
      }
    },
    {
      "id": "NjQzODkzMzI=",
      "title": "Crossfield News 3/18/25",
      "link": "https://content.govdelivery.com/accounts/VAEDUFCPS/bulletins/3d680d4",
      "description": "\n        \n\n\n  \n\n\n\n\n\n\n\n<p><a></a>Having trouble viewing this email? <a href=\"https://content.govdelivery.com/accounts/VAEDUFCPS/bulletins/3d680d4\">View it as a Web page</a>.</p>\n\n\n\n\n\n\n\n\n\n\n\n<a href=\"https://crossfieldes.fcps.edu/?utm_campaign+=&amp;utm_medium=email&amp;utm_source=govdelivery\" target=\"...",
      "pubDate": "Tue, 18 Mar 2025 13:33:49 -0500",
      "timestamp": 1742322829000,
      "feedName": "Crossfield Elementary School",
      "category": "Crossfield Elementary School",
      "feedSource": "http://www.fcps.edu/index.shtml",
      "feedInfo": {
        "title": "Crossfield Elementary School News and announcements - Recent Updates",
        "description": "Crossfield Elementary School News and announcements",
        "link": "http://www.fcps.edu/index.shtml"
      }
    },
    {
      "id": "NjQ0NDA3MTg=",
      "title": "Tuesday Terragram March 18",
      "link": "https://content.govdelivery.com/accounts/VAEDUFCPS/bulletins/3d7498e",
      "description": "\n        \n\n\n  \n\n\n\n\n\n\n\n<p><a></a>Having trouble viewing this email? <a href=\"https://content.govdelivery.com/accounts/VAEDUFCPS/bulletins/3d7498e\">View it as a Web page</a>.</p>\n\n\n\n\n\n\n\n\n\n\n\n<a href=\"https://terrasetes.fcps.edu?utm_campaign+=&amp;utm_medium=email&amp;utm_source=govdelivery\" target=\"_bl...",
      "pubDate": "Tue, 18 Mar 2025 13:22:00 -0500",
      "timestamp": 1742322120000,
      "feedName": "Terraset Elementary School",
      "category": "Terraset Elementary School",
      "feedSource": "http://www.fcps.edu/index.shtml",
      "feedInfo": {
        "title": "Tuesday Terragram - Recent Updates",
        "description": "Terraset Elementary School weekly news and announcements",
        "link": "http://www.fcps.edu/index.shtml"
      }
    },
    {
      "id": "NjQ0NTQyOTE=",
      "title": "Board Meeting Recap: New Athletic Programs, Local Investments, and More!",
      "link": "https://content.govdelivery.com/accounts/VAEDUFCPS/bulletins/3d77e93",
      "description": "\n        \n\n\n  \n\n\n\n\n\n\n\n<p><a></a>Having trouble viewing this email? <a href=\"https://content.govdelivery.com/accounts/VAEDUFCPS/bulletins/3d77e93\">View it as a Web page</a>.</p>\n\n\n\n\n\n\n\n\n\n\n\n<a href=\"https://www.fcps.edu/staff/karl-frisch?utm_campaign+=&amp;utm_medium=email&amp;utm_source=govdelivery\" ...",
      "pubDate": "Tue, 18 Mar 2025 13:10:52 -0500",
      "timestamp": 1742321452000,
      "feedName": "FCPS School Board Providence District",
      "category": "FCPS School Board Providence District",
      "feedSource": "http://www.fcps.edu/index.shtml",
      "feedInfo": {
        "title": "Providence District Member - Karl Frisch - Recent Updates",
        "description": "Providence District Member - Karl Frisch - Recent Updates",
        "link": "http://www.fcps.edu/index.shtml"
      }
    },
    {
      "id": "NjQ0NTUwNzM=",
      "title": "CES Weekly Update 3.18.2025",
      "link": "https://content.govdelivery.com/accounts/VAEDUFCPS/bulletins/3d781a1",
      "description": "\n        \n\n\n  \n\n\n\n\n\n\n\n<p><a></a>Having trouble viewing this email? <a href=\"https://content.govdelivery.com/accounts/VAEDUFCPS/bulletins/3d781a1\">View it as a Web page</a>.</p>\n\n\n\n\n\n\n\n\n\n\n\n<a href=\"https://chesterbrookes.fcps.edu/?utm_campaign+=&amp;utm_medium=email&amp;utm_source=govdelivery\" target...",
      "pubDate": "Tue, 18 Mar 2025 11:06:21 -0500",
      "timestamp": 1742313981000,
      "feedName": "Chesterbrook Elementary School",
      "category": "Chesterbrook Elementary School",
      "feedSource": "https://chesterbrookes.fcps.edu/aggregator/sources/1",
      "feedInfo": {
        "title": "Chesterbrook Elementary School News and Announcements",
        "description": "Chesterbrook Elementary School News and Announcements",
        "link": "https://chesterbrookes.fcps.edu/aggregator/sources/1"
      }
    },
    {
      "id": "NjQzNjA1NDE=",
      "title": "McNair Elementary School Weekly Newsletter March 18, 2025",
      "link": "https://content.govdelivery.com/accounts/VAEDUFCPS/bulletins/3d6105d",
      "description": "\n        \n\n\n  \n\n\n\n\n\n\n\n<p><a></a>Having trouble viewing this email? <a href=\"https://content.govdelivery.com/accounts/VAEDUFCPS/bulletins/3d6105d\">View it as a Web page</a>.</p>\n\n\n\n\n\n\n\n\n\n\n\n<a href=\"http://www2.fcps.edu/McNairES/?utm_campaign+=&amp;utm_medium=email&amp;utm_source=govdelivery\" target=\"...",
      "pubDate": "Tue, 18 Mar 2025 11:02:10 -0500",
      "timestamp": 1742313730000,
      "feedName": "McNair Lower Elementary School",
      "category": "McNair Lower Elementary School",
      "feedSource": "http://www.fcps.edu/index.shtml",
      "feedInfo": {
        "title": "McNair Elementary (Grades Prek-2) News and Announcements - Recent Updates",
        "description": "McNair Elementary (Grades Prek-2) News and Announcements - Recent Updates",
        "link": "http://www.fcps.edu/index.shtml"
      }
    },
    {
      "id": "NjQzNzkwMDE=",
      "title": "Bush Hill Updates - Tuesday, March 18, 2025",
      "link": "https://content.govdelivery.com/accounts/VAEDUFCPS/bulletins/3d65879",
      "description": "\n        \n\n\n  \n\n\n\n\n\n\n\n<p><a></a>Having trouble viewing this email? <a href=\"https://content.govdelivery.com/accounts/VAEDUFCPS/bulletins/3d65879\">View it as a Web page</a>.</p>\n\n\n\n\n\n\n\n\n\n\n\n<a href=\"https://bushhilles.fcps.edu/?utm_campaign+=&amp;utm_medium=email&amp;utm_source=govdelivery\" target=\"_b...",
      "pubDate": "Tue, 18 Mar 2025 10:01:44 -0500",
      "timestamp": 1742310104000,
      "feedName": "Bush Hill Elementary School",
      "category": "Bush Hill Elementary School",
      "feedSource": "http://www.fcps.edu/index.shtml",
      "feedInfo": {
        "title": "Bush Hill Elementary School News and announcements - Recent Updates",
        "description": "Bush Hill Elementary School News and announcements",
        "link": "http://www.fcps.edu/index.shtml"
      }
    },
    {
      "id": "NjQ0MjE3ODE=",
      "title": "CES Weekly Update 3.18.2025",
      "link": "https://content.govdelivery.com/accounts/VAEDUFCPS/bulletins/3d6ff95",
      "description": "\n        \n\n\n  \n\n\n\n\n\n\n\n<p><a></a>Having trouble viewing this email? <a href=\"https://content.govdelivery.com/accounts/VAEDUFCPS/bulletins/3d6ff95\">View it as a Web page</a>.</p>\n\n\n\n\n\n\n\n\n\n\n\n<a href=\"https://chesterbrookes.fcps.edu/?utm_campaign+=&amp;utm_medium=email&amp;utm_source=govdelivery\" target...",
      "pubDate": "Tue, 18 Mar 2025 05:30:13 -0500",
      "timestamp": 1742293813000,
      "feedName": "Chesterbrook Elementary School",
      "category": "Chesterbrook Elementary School",
      "feedSource": "https://chesterbrookes.fcps.edu/aggregator/sources/1",
      "feedInfo": {
        "title": "Chesterbrook Elementary School News and Announcements",
        "description": "Chesterbrook Elementary School News and Announcements",
        "link": "https://chesterbrookes.fcps.edu/aggregator/sources/1"
      }
    },
    {
      "id": "NjQ0MDM0NjI=",
      "title": "Principal Updates - March 17",
      "link": "https://content.govdelivery.com/accounts/VAEDUFCPS/bulletins/3d6b806",
      "description": "\n        \n\n\n  \n\n\n\n\n\n\n\n<p><a></a>Having trouble viewing this email? <a href=\"https://content.govdelivery.com/accounts/VAEDUFCPS/bulletins/3d6b806\">View it as a Web page</a>.</p>\n\n\n\n\n\n\n\n\n\n\n\n<a href=\"https://oaktonhs.fcps.edu/?utm_campaign+=&amp;utm_medium=email&amp;utm_source=govdelivery\" target=\"_bla...",
      "pubDate": "Mon, 17 Mar 2025 19:00:56 -0500",
      "timestamp": 1742256056000,
      "feedName": "Oakton High School",
      "category": "Oakton High School",
      "feedSource": "http://live-fcps-oakton-hs.pantheonsite.io/newsfeed",
      "feedInfo": {
        "title": "Oakton High School News and announcements",
        "description": "Oakton High School News and announcements",
        "link": "http://live-fcps-oakton-hs.pantheonsite.io/newsfeed"
      }
    },
    {
      "id": "NjQ0MTU2MjM=",
      "title": "Haycock Hello 3.17.25",
      "link": "https://content.govdelivery.com/accounts/VAEDUFCPS/bulletins/3d6e787",
      "description": "\n        \n\n\n  \n\n\n\n\n\n\n\n<p><a></a>Having trouble viewing this email? <a href=\"https://content.govdelivery.com/accounts/VAEDUFCPS/bulletins/3d6e787\">View it as a Web page</a>.</p>\n\n\n\n\n\n\n\n\n\n\n\n<a href=\"https://haycockes.fcps.edu/?utm_campaign+=&amp;utm_medium=email&amp;utm_source=govdelivery\" target=\"_bl...",
      "pubDate": "Mon, 17 Mar 2025 18:59:40 -0500",
      "timestamp": 1742255980000,
      "feedName": "Haycock Elementary School",
      "category": "Haycock Elementary School",
      "feedSource": "http://www.fcps.edu/index.shtml",
      "feedInfo": {
        "title": "Haycock Elementary School News and announcements - Recent Updates",
        "description": "Haycock Elementary School News and announcements",
        "link": "http://www.fcps.edu/index.shtml"
      }
    }
  ],
  "hasNext": true,
  "hasPrev": true
}