{
  "page": 32,
  "totalPages": 268,
  "totalItems": 5354,
  "itemsPerPage": 20,
  "items": [
    {
      "id": "NjU1ODI3NjM=",
      "title": "July 2025: Summer Updates and New School Board Leadership",
      "link": "https://content.govdelivery.com/accounts/VAEDUFCPS/bulletins/3e8b6ab",
      "description": "\n        \n\n\n  \n\n\n\n\n\n\n\n<p><a></a>Having trouble viewing this email? <a href=\"https://content.govdelivery.com/accounts/VAEDUFCPS/bulletins/3e8b6ab\">View it as a Web page</a>.</p>\n\n\n\n\n\n\n\n\n\n\n\n<a href=\"https://www.fcps.edu/staff/robyn-lady?utm_campaign+=&amp;utm_medium=email&amp;utm_source=govdelivery\" t...",
      "pubDate": "Thu, 17 Jul 2025 15:31:27 -0500",
      "timestamp": 1752784287000,
      "feedName": "FCPS School Board Dranesville District",
      "category": "FCPS School Board Dranesville District",
      "feedSource": "http://www.fcps.edu/index.shtml",
      "feedInfo": {
        "title": "Dranesville District Member - Robyn Lady - Recent Updates",
        "description": "Dranesville District Member - Robyn Lady - Recent Updates",
        "link": "http://www.fcps.edu/index.shtml"
      }
    },
    {
      "id": "NjU1MzA4NjA=",
      "title": "July 17 Family Newsletter",
      "link": "https://content.govdelivery.com/accounts/VAEDUFCPS/bulletins/3e7ebec",
      "description": "\n        \n\n\n  \n\n\n\n\n\n\n\n<p><a></a>Having trouble viewing this email? <a href=\"https://content.govdelivery.com/accounts/VAEDUFCPS/bulletins/3e7ebec\">View it as a Web page</a>.</p>\n\n\n\n\n\n\n\n\n\n\n\n<a href=\"http://www2.fcps.edu/UnionMillES/?utm_campaign+=&amp;utm_medium=email&amp;utm_source=govdelivery\" targe...",
      "pubDate": "Thu, 17 Jul 2025 14:16:59 -0500",
      "timestamp": 1752779819000,
      "feedName": "Union Mill Elementary School",
      "category": "Union Mill Elementary School",
      "feedSource": "http://www.fcps.edu/index.shtml",
      "feedInfo": {
        "title": "Union Mill Elementary School News and announcements - Recent Updates",
        "description": "Union Mill Elementary School News and announcements",
        "link": "http://www.fcps.edu/index.shtml"
      }
    },
    {
      "id": "NjU2NjQ2MTk=",
      "title": "Clermont ES School Supplies Deadline July 31, 2025",
      "link": "https://content.govdelivery.com/accounts/VAEDUFCPS/bulletins/3e9f66b",
      "description": "\n        \n\n\n  \n\n\n\n\n\n\n\n<p><a></a>Having trouble viewing this email? <a href=\"https://content.govdelivery.com/accounts/VAEDUFCPS/bulletins/3e9f66b\">View it as a Web page</a>.</p>\n\n\n\n\n\n\n\n\n\n\n\n<a href=\"https://clermontes.fcps.edu/?utm_campaign+=&amp;utm_medium=email&amp;utm_source=govdelivery\" target=\"_b...",
      "pubDate": "Thu, 17 Jul 2025 13:41:01 -0500",
      "timestamp": 1752777661000,
      "feedName": "Clermont Elementary School",
      "category": "Clermont Elementary School",
      "feedSource": "http://www.fcps.edu/index.shtml",
      "feedInfo": {
        "title": "Clermont, VA Elementary School News and announcements - Recent Updates",
        "description": "Clermont Elementary School News and announcements",
        "link": "http://www.fcps.edu/index.shtml"
      }
    },
    {
      "id": "NjU2NjMwNjE=",
      "title": "GUNSTON GAZETTE",
      "link": "https://content.govdelivery.com/accounts/VAEDUFCPS/bulletins/3e9f055",
      "description": "\n        \n\n\n  \n\n\n\n\n\n\n\n\n\n\n\n\n\n\n\n\n\n\n\n<a href=\"https://gunstones.fcps.edu?utm_content=&amp;utm_medium=email&amp;utm_name=&amp;utm_source=govdelivery&amp;utm_term=\" target=\"_blank\"></a>\n\n\n\n\n\n\n\n\n\n\n\n\n\n\n\n\n\n<p>Kristen Rucinski - Principal        Ashley Nelson - Assistant Principal     </p>\n\nGunston Gazette\n\n...",
      "pubDate": "Thu, 17 Jul 2025 11:47:31 -0500",
      "timestamp": 1752770851000,
      "feedName": "Gunston Elementary School",
      "category": "Gunston Elementary School",
      "feedSource": "http://www.fcps.edu/index.shtml",
      "feedInfo": {
        "title": "Gunston Elementary School News and announcements - Recent Updates",
        "description": "Gunston Elementary School News and announcements",
        "link": "http://www.fcps.edu/index.shtml"
      }
    },
    {
      "id": "NjU2NjEyOTc=",
      "title": "White Oaks' 2nd Summer Cookout! - Canceled",
      "link": "https://content.govdelivery.com/accounts/VAEDUFCPS/bulletins/3e9e971",
      "description": "\n        \n\n\n  \n\n\n\n\n\n\n\n<p><a></a>Having trouble viewing this email? <a href=\"https://content.govdelivery.com/accounts/VAEDUFCPS/bulletins/3e9e971\">View it as a Web page</a>.</p>\n\n\n\n\n\n\n\n\n\n\n\n<a href=\"https://whiteoakses.fcps.edu?utm_campaign+=&amp;utm_medium=email&amp;utm_source=govdelivery\" target=\"_b...",
      "pubDate": "Thu, 17 Jul 2025 09:31:53 -0500",
      "timestamp": 1752762713000,
      "feedName": "White Oaks Elementary School",
      "category": "White Oaks Elementary School",
      "feedSource": "http://www.fcps.edu/index.shtml",
      "feedInfo": {
        "title": "White Oaks Elementary School News and Announcements - Recent Updates",
        "description": "White Oaks Elementary School News and Announcements",
        "link": "http://www.fcps.edu/index.shtml"
      }
    },
    {
      "id": "NjU2NjAzMDU=",
      "title": "CANCELED TODAY: Garfield Book Mobile",
      "link": "https://content.govdelivery.com/accounts/VAEDUFCPS/bulletins/3e9e591",
      "description": "\n        \n\n\n  \n\n\n\n\n\n\n\n<p><a></a>Having trouble viewing this email? <a href=\"https://content.govdelivery.com/accounts/VAEDUFCPS/bulletins/3e9e591\">View it as a Web page</a>.</p>\n\n\n\n\n\n\n\n\n\n\n\n<a href=\"http://www2.fcps.edu/GarfieldES/?utm_campaign+=&amp;utm_medium=email&amp;utm_source=govdelivery\" target...",
      "pubDate": "Thu, 17 Jul 2025 08:03:26 -0500",
      "timestamp": 1752757406000,
      "feedName": "Garfield Elementary School",
      "category": "Garfield Elementary School",
      "feedSource": "http://www.fcps.edu/index.shtml",
      "feedInfo": {
        "title": "Garfield Elementary School - Recent Updates",
        "description": "Garfield Elementary School - Recent Updates",
        "link": "http://www.fcps.edu/index.shtml"
      }
    },
    {
      "id": "NjU2NTk5MDk=",
      "title": "Bush Hill ES Updates -- Coming Soon!",
      "link": "https://content.govdelivery.com/accounts/VAEDUFCPS/bulletins/3e9e405",
      "description": "\n        \n\n\n  \n\n\n\n\n\n\n\n<p><a></a>Having trouble viewing this email? <a href=\"https://content.govdelivery.com/accounts/VAEDUFCPS/bulletins/3e9e405\">View it as a Web page</a>.</p>\n\n\n\n\n\n\n\n\n\n\n\n<a href=\"https://bushhilles.fcps.edu/?utm_campaign+=&amp;utm_medium=email&amp;utm_source=govdelivery\" target=\"_b...",
      "pubDate": "Thu, 17 Jul 2025 07:05:52 -0500",
      "timestamp": 1752753952000,
      "feedName": "Bush Hill Elementary School",
      "category": "Bush Hill Elementary School",
      "feedSource": "http://www.fcps.edu/index.shtml",
      "feedInfo": {
        "title": "Bush Hill Elementary School News and announcements - Recent Updates",
        "description": "Bush Hill Elementary School News and announcements",
        "link": "http://www.fcps.edu/index.shtml"
      }
    },
    {
      "id": "NjU2NTY2NDg=",
      "title": "Popsicles on the Playground and Laptops",
      "link": "https://content.govdelivery.com/accounts/VAEDUFCPS/bulletins/3e9d748",
      "description": "\n        \n\n\n  \n\n\n\n\n\n\n\n<p><a></a>Having trouble viewing this email? <a href=\"https://content.govdelivery.com/accounts/VAEDUFCPS/bulletins/3e9d748\">View it as a Web page</a>.</p>\n\n\n\n\n\n\n\n\n\n\n\n<a href=\"https://aldrines.fcps.edu/?utm_campaign+=&amp;utm_medium=email&amp;utm_source=govdelivery\" target=\"_bla...",
      "pubDate": "Wed, 16 Jul 2025 19:47:51 -0500",
      "timestamp": 1752713271000,
      "feedName": "Aldrin Elementary School",
      "category": "Aldrin Elementary School",
      "feedSource": "http://www.fcps.edu/index.shtml",
      "feedInfo": {
        "title": "Aldrin Elementary School News and announcements - Recent Updates",
        "description": "Aldrin Elementary School News and announcements",
        "link": "http://www.fcps.edu/index.shtml"
      }
    },
    {
      "id": "NjU2Mzg0MjI=",
      "title": "VES Newsletter - July 16th, 2025",
      "link": "https://content.govdelivery.com/accounts/VAEDUFCPS/bulletins/3e99016",
      "description": "\n        \n\n\n  \n\n\n\n\n\n\n\n<p><a></a>Having trouble viewing this email? <a href=\"https://content.govdelivery.com/accounts/VAEDUFCPS/bulletins/3e99016\">View it as a Web page</a>.</p>\n\n\n\n\n\n\n\n\n\n\n\n<a href=\"https://viennaes.fcps.edu/aggregator/sources/1?utm_campaign+=&amp;utm_medium=email&amp;utm_source=govde...",
      "pubDate": "Wed, 16 Jul 2025 17:00:16 -0500",
      "timestamp": 1752703216000,
      "feedName": "Vienna Elementary School",
      "category": "Vienna Elementary School",
      "feedSource": "http://www.fcps.edu/index.shtml",
      "feedInfo": {
        "title": "Vienna Elementary School News and announcements - Recent Updates",
        "description": "Vienna Elementary School News and announcements",
        "link": "http://www.fcps.edu/index.shtml"
      }
    },
    {
      "id": "NjU2NDI5ODU=",
      "title": "Military Families Welcome BBQ Event - August 13",
      "link": "https://content.govdelivery.com/accounts/VAEDUFCPS/bulletins/3e9a1e9",
      "description": "\n        \n\n\n  \n\n\n\n\n\n\n\n<p><a></a>Having trouble viewing this email? <a href=\"https://content.govdelivery.com/accounts/VAEDUFCPS/bulletins/3e9a1e9\">View it as a Web page</a>.</p>\n\n\n\n\n\n\n\n\n\n\n\n<a href=\"http://www2.fcps.edu/SilverbrookES/?utm_campaign+=&amp;utm_medium=email&amp;utm_source=govdelivery\" tar...",
      "pubDate": "Wed, 16 Jul 2025 15:30:13 -0500",
      "timestamp": 1752697813000,
      "feedName": "Silverbrook Elementary School",
      "category": "Silverbrook Elementary School",
      "feedSource": "http://www.fcps.edu/index.shtml",
      "feedInfo": {
        "title": "Silverbrook Elementary School News and announcements - Recent Updates",
        "description": "Silverbrook Elementary School News and announcements",
        "link": "http://www.fcps.edu/index.shtml"
      }
    },
    {
      "id": "NjUzNjA5NDU=",
      "title": "Virginia Run Weekly Message 7/16/25",
      "link": "https://content.govdelivery.com/accounts/VAEDUFCPS/bulletins/3e55431",
      "description": "\n        \n\n\n  \n\n\n\n\n\n\n\n<p><a></a>Having trouble viewing this email? <a href=\"https://content.govdelivery.com/accounts/VAEDUFCPS/bulletins/3e55431\">View it as a Web page</a>.</p>\n\n\n\n\n\n\n\n\n\n\n\n<a href=\"http://www2.fcps.edu/VirginiaRunES/?utm_campaign+=&amp;utm_medium=email&amp;utm_source=govdelivery\" tar...",
      "pubDate": "Wed, 16 Jul 2025 15:00:14 -0500",
      "timestamp": 1752696014000,
      "feedName": "Virginia Run Elementary School",
      "category": "Virginia Run Elementary School",
      "feedSource": "http://www.fcps.edu/index.shtml",
      "feedInfo": {
        "title": "Virginia Run Elementary School News and announcements - Use this One - Recent Updates",
        "description": "Virginia Run Elementary School News and announcements",
        "link": "http://www.fcps.edu/index.shtml"
      }
    },
    {
      "id": "NjU2NTM4ODQ=",
      "title": "Navy Summer Updates Issue 2.0",
      "link": "https://content.govdelivery.com/accounts/VAEDUFCPS/bulletins/3e9cc7c",
      "description": "\n        \n\n\n  \n\n\n\n\n\n\n\n<p><a></a>Having trouble viewing this email? <a href=\"https://content.govdelivery.com/accounts/VAEDUFCPS/bulletins/3e9cc7c\">View it as a Web page</a>.</p>\n\n\n\n\n\n\n\n\n\n\n\n<a href=\"https://navyes.fcps.edu/?utm_campaign+=&amp;utm_medium=email&amp;utm_source=govdelivery\" target=\"_blank...",
      "pubDate": "Wed, 16 Jul 2025 14:54:31 -0500",
      "timestamp": 1752695671000,
      "feedName": "Navy Elementary School",
      "category": "Navy Elementary School",
      "feedSource": "http://www.fcps.edu/index.shtml",
      "feedInfo": {
        "title": "Navy Elementary School News and announcements - Recent Updates",
        "description": "Navy Elementary School News and announcements",
        "link": "http://www.fcps.edu/index.shtml"
      }
    },
    {
      "id": "NjU2NDI1OTk=",
      "title": "Bonnie Brae ES:  Kindergarten Registration, PreK Program Applications, &amp; Dining Room Attendant Opening",
      "link": "https://content.govdelivery.com/accounts/VAEDUFCPS/bulletins/3e9a067",
      "description": "\n        \n\n\n  \n\n\n\n\n\n\n\n<p><a></a>Having trouble viewing this email? <a href=\"https://content.govdelivery.com/accounts/VAEDUFCPS/bulletins/3e9a067\">View it as a Web page</a>.</p>\n\n\n\n\n\n\n\n\n\n\n\n<a href=\"https://bonniebraees.fcps.edu/?utm_campaign+=&amp;utm_medium=email&amp;utm_source=govdelivery\" target=\"...",
      "pubDate": "Wed, 16 Jul 2025 14:45:15 -0500",
      "timestamp": 1752695115000,
      "feedName": "Bonnie Brae Elementary School",
      "category": "Bonnie Brae Elementary School",
      "feedSource": "http://www.fcps.edu/index.shtml",
      "feedInfo": {
        "title": "Bonnie Brae News and Announcements",
        "description": "Bonnie Brae Elementary School News and announcements",
        "link": "http://www.fcps.edu/index.shtml"
      }
    },
    {
      "id": "NjU2NDAwOTY=",
      "title": "Oak Hill Back to School Information",
      "link": "https://content.govdelivery.com/accounts/VAEDUFCPS/bulletins/3e996a0",
      "description": "\n        \n\n\n  \n\n\n\n\n\n\n\n<p><a></a>Having trouble viewing this email? <a href=\"https://content.govdelivery.com/accounts/VAEDUFCPS/bulletins/3e996a0\">View it as a Web page</a>.</p>\n\n\n\n\n\n\n\n\n\n\n\n<a href=\"http://www2.fcps.edu/OakViewES/?utm_campaign+=&amp;utm_medium=email&amp;utm_source=govdelivery\" target=...",
      "pubDate": "Wed, 16 Jul 2025 14:21:25 -0500",
      "timestamp": 1752693685000,
      "feedName": "Oak Hill Elementary School",
      "category": "Oak Hill Elementary School",
      "feedSource": "http://www.fcps.edu/index.shtml",
      "feedInfo": {
        "title": "Oak Hill Elementary School News and Announcements - Recent Updates",
        "description": "Oak Hill Elementary School News and Announcements",
        "link": "http://www.fcps.edu/index.shtml"
      }
    },
    {
      "id": "NjU0MzUwMzQ=",
      "title": "Boundary Phasing Revision - Board Vote Tomorrow",
      "link": "https://content.govdelivery.com/accounts/VAEDUFCPS/bulletins/3e6759a",
      "description": "\n        \n\n\n  \n\n\n\n\n\n\n\n<p><a></a>Having trouble viewing this email? <a href=\"https://content.govdelivery.com/accounts/VAEDUFCPS/bulletins/3e6759a\">View it as a Web page</a>.</p>\n\n\n\n\n\n\n\n\n\n\n\n<a href=\"https://www.fcps.edu/staff/ricardy-anderson?utm_campaign+=&amp;utm_medium=email&amp;utm_source=govdeliv...",
      "pubDate": "Wed, 16 Jul 2025 13:15:25 -0500",
      "timestamp": 1752689725000,
      "feedName": "School Board Mason District",
      "category": "School Board Mason District",
      "feedSource": "http://www.fcps.edu/index.shtml",
      "feedInfo": {
        "title": "Mason District Member - Ricardy Anderson - Recent Updates",
        "description": "Mason District Member - Ricardy Anderson - Recent Updates",
        "link": "http://www.fcps.edu/index.shtml"
      }
    },
    {
      "id": "NjU2NDYyMjQ=",
      "title": "The Weekly Roar, Special Summer Edition - Wednesday, July 16, 2025",
      "link": "https://content.govdelivery.com/accounts/VAEDUFCPS/bulletins/3e9ae90",
      "description": "\n        \n\n\n  \n\n\n\n\n\n\n\n<p><a></a>Having trouble viewing this email? <a href=\"https://content.govdelivery.com/accounts/VAEDUFCPS/bulletins/3e9ae90\">View it as a Web page</a>.</p>\n\n\n\n\n\n\n\n\n\n\n\n<a href=\"https://lanees.fcps.edu/?utm_campaign+=&amp;utm_medium=email&amp;utm_source=govdelivery\" target=\"_blank...",
      "pubDate": "Wed, 16 Jul 2025 08:46:15 -0500",
      "timestamp": 1752673575000,
      "feedName": "Lane Elementary School",
      "category": "Lane Elementary School",
      "feedSource": "http://www.fcps.edu/index.shtml",
      "feedInfo": {
        "title": "Lane Elementary School News and announcements - Recent Updates",
        "description": "Lane Elementary School News and announcements",
        "link": "http://www.fcps.edu/index.shtml"
      }
    },
    {
      "id": "NjU2MzA3Njk=",
      "title": "Week of July 14",
      "link": "https://content.govdelivery.com/accounts/VAEDUFCPS/bulletins/3e97231",
      "description": "\n        \n\n\n  \n\n\n\n\n\n\n\n<p><a></a>Having trouble viewing this email? <a href=\"https://content.govdelivery.com/accounts/VAEDUFCPS/bulletins/3e97231\">View it as a Web page</a>.</p>\n\n\n\n\n\n\n\n\n\n\n\n<a href=\"https://herndonms.fcps.edu/?utm_campaign+=&amp;utm_medium=email&amp;utm_source=govdelivery\" target=\"_bl...",
      "pubDate": "Tue, 15 Jul 2025 14:05:05 -0500",
      "timestamp": 1752606305000,
      "feedName": "Herndon Middle School",
      "category": "Herndon Middle School",
      "feedSource": "http://www.fcps.edu/index.shtml",
      "feedInfo": {
        "title": "Herndon Middle School News and announcements - Recent Updates",
        "description": "Herndon Middle School News and announcements",
        "link": "http://www.fcps.edu/index.shtml"
      }
    },
    {
      "id": "NjU2NDEzMjE=",
      "title": "CES Family Connection - July Cookout Today!",
      "link": "https://content.govdelivery.com/accounts/VAEDUFCPS/bulletins/3e99b69",
      "description": "\n        \n\n\n  \n\n\n\n\n\n\n\n\n\n\n\n\n\n\n\n\n\n\n\n<a href=\"https://centrevillees.fcps.edu/?utm_campaign+=&amp;utm_medium=email&amp;utm_source=govdelivery\" target=\"_blank\"></a>\n\n\n\n\n\n\n\n\n\n\n\n\n\n\n\n<p><strong><a href=\"https://centrevillees.fcps.edu/aggregator/sources/1?utm_campaign+=&amp;utm_medium=email&amp;utm_source=go...",
      "pubDate": "Tue, 15 Jul 2025 12:00:08 -0500",
      "timestamp": 1752598808000,
      "feedName": "Centreville Elementary School",
      "category": "Centreville Elementary School",
      "feedSource": "http://www.fcps.edu/index.shtml",
      "feedInfo": {
        "title": "Centreville Elementary School News and announcements - Recent Updates",
        "description": "Centreville Elementary School News and announcements",
        "link": "http://www.fcps.edu/index.shtml"
      }
    },
    {
      "id": "NjUzNjAwNDU=",
      "title": "Floris Summer Message 7/15/25",
      "link": "https://content.govdelivery.com/accounts/VAEDUFCPS/bulletins/3e550ad",
      "description": "\n        \n\n\n  \n\n\n\n\n\n\n\n<p><a></a>Having trouble viewing this email? <a href=\"https://content.govdelivery.com/accounts/VAEDUFCPS/bulletins/3e550ad\">View it as a Web page</a>.</p>\n\n\n\n\n\n\n\n\n\n\n\n<a href=\"https://florises.fcps.edu/?utm_content=&amp;utm_medium=email&amp;utm_name=&amp;utm_source=govdelivery&a...",
      "pubDate": "Tue, 15 Jul 2025 10:39:37 -0500",
      "timestamp": 1752593977000,
      "feedName": "Floris Elementary School",
      "category": "Floris Elementary School",
      "feedSource": "http://www.fcps.edu/index.shtml",
      "feedInfo": {
        "title": "Floris Friday Message",
        "description": "Floris Elementary School News and announcements",
        "link": "http://www.fcps.edu/index.shtml"
      }
    },
    {
      "id": "NjU2Mzk2ODQ=",
      "title": "GFES Summer Updates",
      "link": "https://content.govdelivery.com/accounts/VAEDUFCPS/bulletins/3e99504",
      "description": "\n        \n\n\n  \n\n\n\n\n\n\n\n<p><a></a>Having trouble viewing this email? <a href=\"https://content.govdelivery.com/accounts/VAEDUFCPS/bulletins/3e99504\">View it as a Web page</a>.</p>\n\n\n\n\n\n\n\n\n\n\n\n<a href=\"http://www2.fcps.edu/GreatFallsES/?utm_campaign+=&amp;utm_medium=email&amp;utm_source=govdelivery\" targ...",
      "pubDate": "Tue, 15 Jul 2025 10:31:15 -0500",
      "timestamp": 1752593475000,
      "feedName": "Great Falls Elementary School",
      "category": "Great Falls Elementary School",
      "feedSource": "http://www.fcps.edu/index.shtml",
      "feedInfo": {
        "title": "Great Falls Elementary School News and Announcements - Recent Updates",
        "description": "Great Falls Elementary School News and announcements",
        "link": "http://www.fcps.edu/index.shtml"
      }
    }
  ],
  "hasNext": true,
  "hasPrev": true
}