{
  "page": 66,
  "totalPages": 268,
  "totalItems": 5354,
  "itemsPerPage": 20,
  "items": [
    {
      "id": "NjUxNzc3NDY=",
      "title": "Cardinal Connection: May 30, 2025",
      "link": "https://content.govdelivery.com/accounts/VAEDUFCPS/bulletins/3e28892",
      "description": "\n        \n\n\n  \n\n\n\n\n\n\n\n<p><a></a>Having trouble viewing this email? <a href=\"https://content.govdelivery.com/accounts/VAEDUFCPS/bulletins/3e28892\">View it as a Web page</a>.</p>\n\n\n\n\n\n\n\n\n\n\n\n<a href=\"https://cunninghamparkes.fcps.edu/?utm_campaign+=&amp;utm_medium=email&amp;utm_source=govdelivery\" targ...",
      "pubDate": "Fri, 30 May 2025 15:00:17 -0500",
      "timestamp": 1748635217000,
      "feedName": "Cunningham Park Elementary School",
      "category": "Cunningham Park Elementary School",
      "feedSource": "http://www.fcps.edu/index.shtml",
      "feedInfo": {
        "title": "Cunningham Park Elementary School News - Recent Updates",
        "description": "Cunningham Park Elementary School News and announcements",
        "link": "http://www.fcps.edu/index.shtml"
      }
    },
    {
      "id": "NjUxNjE4NzA=",
      "title": "LCES Updates 5/30/25 This Week's Updates",
      "link": "https://content.govdelivery.com/accounts/VAEDUFCPS/bulletins/3e24a8e",
      "description": "\n        \n\n\n  \n\n\n\n\n\n\n\n<p><a></a>Having trouble viewing this email? <a href=\"https://content.govdelivery.com/accounts/VAEDUFCPS/bulletins/3e24a8e\">View it as a Web page</a>.</p>\n\n\n\n\n\n\n\n\n\n\n\n<a href=\"http://www2.fcps.edu/LeesCornerES/?utm_content=&amp;utm_medium=email&amp;utm_name=&amp;utm_source=govde...",
      "pubDate": "Fri, 30 May 2025 15:00:16 -0500",
      "timestamp": 1748635216000,
      "feedName": "Lees Corner Elementary School",
      "category": "Lees Corner Elementary School",
      "feedSource": "http://www.fcps.edu/index.shtml",
      "feedInfo": {
        "title": "Lees Corner Elementary School News and announcements - Recent Updates",
        "description": "Lees Corner Elementary School News and announcements",
        "link": "http://www.fcps.edu/index.shtml"
      }
    },
    {
      "id": "NjUxNTgyODc=",
      "title": "McNair Upper Elementary School, Weekly News &amp; Updates",
      "link": "https://content.govdelivery.com/accounts/VAEDUFCPS/bulletins/3e23c8f",
      "description": "\n        \n\n\n  \n\n\n\n\n\n\n\n<p><a></a>Having trouble viewing this email? <a href=\"https://content.govdelivery.com/accounts/VAEDUFCPS/bulletins/3e23c8f\">View it as a Web page</a>.</p>\n\n\n\n\n\n\n\n\n\n\n\n<a href=\"http://www2.fcps.edu/McNairES/?utm_content=&amp;utm_medium=email&amp;utm_name=&amp;utm_source=govdelive...",
      "pubDate": "Fri, 30 May 2025 15:00:14 -0500",
      "timestamp": 1748635214000,
      "feedName": "McNair Upper Elementary School",
      "category": "McNair Upper Elementary School",
      "feedSource": "http://www.fcps.edu/index.shtml",
      "feedInfo": {
        "title": "McNair Upper (Grades 3-6) News and Announcements - Recent Updates",
        "description": "McNair Upper (Grades 3-6) News and Announcements - Recent Updates",
        "link": "http://www.fcps.edu/index.shtml"
      }
    },
    {
      "id": "NjUxMjI3NTA=",
      "title": "SCHOOLHOUSE NEWS - May 30",
      "link": "https://content.govdelivery.com/accounts/VAEDUFCPS/bulletins/3e1b1be",
      "description": "\n        \n\n\n  \n\n\n\n\n\n\n\n<p><a></a>Having trouble viewing this email? <a href=\"https://content.govdelivery.com/accounts/VAEDUFCPS/bulletins/3e1b1be\">View it as a Web page</a>.</p>\n\n\n\n\n\n\n\n\n\n\n\n<a href=\"http://www2.fcps.edu/HayfieldES/?utm_campaign+=&amp;utm_medium=email&amp;utm_source=govdelivery\" target...",
      "pubDate": "Fri, 30 May 2025 15:00:13 -0500",
      "timestamp": 1748635213000,
      "feedName": "Hayfield Elementary School",
      "category": "Hayfield Elementary School",
      "feedSource": "https://public.govdelivery.com/topics/Hayfield_ES_News/feed.rss",
      "feedInfo": {
        "title": "Hayfield ES News and Announcements",
        "description": "Hayfield Elementary School News and Announcements",
        "link": "https://public.govdelivery.com/topics/Hayfield_ES_News/feed.rss"
      }
    },
    {
      "id": "NjUxOTg5NDc=",
      "title": "Belvedere Noticias y anuncios en espanol - 30 de mayo de 2025",
      "link": "https://content.govdelivery.com/accounts/VAEDUFCPS/bulletins/3e2db63",
      "description": "\n        \n\n\n  \n\n\n\n\n\n\n\n\n\n\n\n\n\n\n\n\n\n\n\n<a href=\"http://www2.fcps.edu/BelvedereES/?utm_content=&amp;utm_medium=email&amp;utm_name=&amp;utm_source=govdelivery&amp;utm_term=\" target=\"_blank\"></a>\n\n\n\n\n\n\n\n\n\n\n\n\n\n\n\nDe la administración de la escuela\n<p>Estimadas familias de Belvedere,</p>\n<p>¡Nos emociona compa...",
      "pubDate": "Fri, 30 May 2025 14:58:38 -0500",
      "timestamp": 1748635118000,
      "feedName": "Belvedere Elementary School",
      "category": "Belvedere Elementary School",
      "feedSource": "https://belvederees.fcps.edu/aggregator/sources/1",
      "feedInfo": {
        "title": "Belvedere Elementary School News and Announcements",
        "description": "Belvedere Elementary School News and Announcements",
        "link": "https://belvederees.fcps.edu/aggregator/sources/1"
      }
    },
    {
      "id": "NjUxODM4OTU=",
      "title": "Stenwood Hive Happenings",
      "link": "https://content.govdelivery.com/accounts/VAEDUFCPS/bulletins/3e2a097",
      "description": "\n        \n\n\n  \n\n\n\n\n\n\n\n<p><a></a>Having trouble viewing this email? <a href=\"https://content.govdelivery.com/accounts/VAEDUFCPS/bulletins/3e2a097\">View it as a Web page</a>.</p>\n\n\n\n\n\n\n\n\n\n\n\n<a href=\"https://stenwoodes.fcps.edu/?utm_content=&amp;utm_medium=email&amp;utm_name=&amp;utm_source=govdelivery...",
      "pubDate": "Fri, 30 May 2025 14:55:25 -0500",
      "timestamp": 1748634925000,
      "feedName": "Stenwood Elementary School",
      "category": "Stenwood Elementary School",
      "feedSource": "http://www.fcps.edu/index.shtml",
      "feedInfo": {
        "title": "Stenwood Elementary School News and announcements - Recent Updates",
        "description": "Stenwood Elementary School News and announcements",
        "link": "http://www.fcps.edu/index.shtml"
      }
    },
    {
      "id": "NjUxOTg0Mjk=",
      "title": "Belvedere News and Announcements - May 30, 2025",
      "link": "https://content.govdelivery.com/accounts/VAEDUFCPS/bulletins/3e2d95d",
      "description": "\n        \n\n\n  \n\n\n\n\n\n\n\n\n\n\n\n\n\n\n\n\n\n\n\n<a href=\"http://www2.fcps.edu/BelvedereES/?utm_content=&amp;utm_medium=email&amp;utm_name=&amp;utm_source=govdelivery&amp;utm_term=\" target=\"_blank\"></a>\n\n\n\n\n\n\n\n\n\n\n\n\n\n\n\nFrom the School Administration\n<p>Dear Belvedere Family,</p>\n<p>We’re excited to share some wonde...",
      "pubDate": "Fri, 30 May 2025 14:53:13 -0500",
      "timestamp": 1748634793000,
      "feedName": "Belvedere Elementary School",
      "category": "Belvedere Elementary School",
      "feedSource": "https://belvederees.fcps.edu/aggregator/sources/1",
      "feedInfo": {
        "title": "Belvedere Elementary School News and Announcements",
        "description": "Belvedere Elementary School News and Announcements",
        "link": "https://belvederees.fcps.edu/aggregator/sources/1"
      }
    },
    {
      "id": "NjUxODU2MTM=",
      "title": "Katherine Johnson MS Weekly News - May 30, 2025 -Yearbook Info Included",
      "link": "https://content.govdelivery.com/accounts/VAEDUFCPS/bulletins/3e2a74d",
      "description": "\n        \n\n\n  \n\n\n\n\n\n\n\n<p><a></a>Having trouble viewing this email? <a href=\"https://content.govdelivery.com/accounts/VAEDUFCPS/bulletins/3e2a74d\">View it as a Web page</a>.</p>\n\n\n\n\n\n\n\n\n\n\n\n<a href=\"https://johnsonms.fcps.edu/?utm_campaign+=&amp;utm_medium=email&amp;utm_source=govdelivery\" target=\"_bl...",
      "pubDate": "Fri, 30 May 2025 14:51:18 -0500",
      "timestamp": 1748634678000,
      "feedName": "Katherine Johnson Middle School",
      "category": "Katherine Johnson Middle School",
      "feedSource": "http://www.fcps.edu/index.shtml",
      "feedInfo": {
        "title": "Katherine Johnson Middle School News and Announcements - Recent Updates",
        "description": "Katherine Johnson Middle School News and announcements",
        "link": "http://www.fcps.edu/index.shtml"
      }
    },
    {
      "id": "NjUxOTkwNTY=",
      "title": "Thoreau Matters Friday May, 30th, 2025",
      "link": "https://content.govdelivery.com/accounts/VAEDUFCPS/bulletins/3e2dbd0",
      "description": "\n        \n\n\n  \n\n\n\n\n\n\n\n<p><a></a>Having trouble viewing this email? <a href=\"https://content.govdelivery.com/accounts/VAEDUFCPS/bulletins/3e2dbd0\">View it as a Web page</a>.</p>\n\n\n\n\n\n\n\n\n\n\n\n<a href=\"https://thoreaums.fcps.edu/?utm_campaign+=&amp;utm_medium=email&amp;utm_source=govdelivery\" target=\"_bl...",
      "pubDate": "Fri, 30 May 2025 14:45:16 -0500",
      "timestamp": 1748634316000,
      "feedName": "Thoreau Middle School",
      "category": "Thoreau Middle School",
      "feedSource": "http://www.fcps.edu/index.shtml",
      "feedInfo": {
        "title": "Thoreau Middle School News and Announcements - Recent Updates",
        "description": "Thoreau Middle School News and Announcements",
        "link": "http://www.fcps.edu/index.shtml"
      }
    },
    {
      "id": "NjUxNTk5NDQ=",
      "title": "Weekly update for 5.30.25",
      "link": "https://content.govdelivery.com/accounts/VAEDUFCPS/bulletins/3e24308",
      "description": "\n        \n\n\n  \n\n\n\n\n\n\n\n<p><a></a>Having trouble viewing this email? <a href=\"https://content.govdelivery.com/accounts/VAEDUFCPS/bulletins/3e24308\">View it as a Web page</a>.</p>\n\n\n\n\n\n\n\n\n\n\n\n<a href=\"https://columbiaes.fcps.edu/?utm_campaign+=&amp;utm_medium=email&amp;utm_source=govdelivery\" target=\"_b...",
      "pubDate": "Fri, 30 May 2025 14:45:13 -0500",
      "timestamp": 1748634313000,
      "feedName": "Columbia Elementary School",
      "category": "Columbia Elementary School",
      "feedSource": "http://www.fcps.edu/index.shtml",
      "feedInfo": {
        "title": "Columbia Elementary School News and Announcements - Recent Updates",
        "description": "Columbia Elementary School News and Announcements",
        "link": "http://www.fcps.edu/index.shtml"
      }
    },
    {
      "id": "NjUxNzUwNDE=",
      "title": "Bulldog Buzz 05/30/25",
      "link": "https://content.govdelivery.com/accounts/VAEDUFCPS/bulletins/3e27e01",
      "description": "\n        \n\n\n  \n\n\n\n\n\n\n\n<p><a></a>Having trouble viewing this email? <a href=\"https://content.govdelivery.com/accounts/VAEDUFCPS/bulletins/3e27e01\">View it as a Web page</a>.</p>\n\n\n\n\n\n\n\n\n\n\n\n<a href=\"http://www2.fcps.edu/BucknellES/?utm_campaign+=&amp;utm_medium=email&amp;utm_source=govdelivery\" target...",
      "pubDate": "Fri, 30 May 2025 14:39:52 -0500",
      "timestamp": 1748633992000,
      "feedName": "Bucknell Elementary School",
      "category": "Bucknell Elementary School",
      "feedSource": "http://live-fcps-bucknell-es.pantheonsite.io/newsfeed",
      "feedInfo": {
        "title": "Bucknell Elementary School News and Announcements",
        "description": "Bucknell Elementary School News and announcements",
        "link": "http://live-fcps-bucknell-es.pantheonsite.io/newsfeed"
      }
    },
    {
      "id": "NjUxNzM1Nzg=",
      "title": "GFES Updates: May 30",
      "link": "https://content.govdelivery.com/accounts/VAEDUFCPS/bulletins/3e2784a",
      "description": "\n        \n\n\n  \n\n\n\n\n\n\n\n<p><a></a>Having trouble viewing this email? <a href=\"https://content.govdelivery.com/accounts/VAEDUFCPS/bulletins/3e2784a\">View it as a Web page</a>.</p>\n\n\n\n\n\n\n\n\n\n\n\n<a href=\"http://www2.fcps.edu/GreatFallsES/?utm_campaign+=&amp;utm_medium=email&amp;utm_source=govdelivery\" targ...",
      "pubDate": "Fri, 30 May 2025 14:30:15 -0500",
      "timestamp": 1748633415000,
      "feedName": "Great Falls Elementary School",
      "category": "Great Falls Elementary School",
      "feedSource": "http://www.fcps.edu/index.shtml",
      "feedInfo": {
        "title": "Great Falls Elementary School News and Announcements - Recent Updates",
        "description": "Great Falls Elementary School News and announcements",
        "link": "http://www.fcps.edu/index.shtml"
      }
    },
    {
      "id": "NjUxOTQzNzE=",
      "title": "5/30 Chargers Connect",
      "link": "https://content.govdelivery.com/accounts/VAEDUFCPS/bulletins/3e2c983",
      "description": "\n        \n\n\n  \n\n\n\n\n\n\n\n\n\n\n\n\n\n\n\n\n\n\n\n\n\n\n\n\n\n\n\n\n\n\n\n\n\n\n\n<p><strong><a href=\"https://chantillyhs.fcps.edu/aggregator/sources/1?utm_content=&amp;utm_medium=email&amp;utm_name=&amp;utm_source=govdelivery&amp;utm_term=#modal-language-switcher\" target=\"_blank\">English</a> | <a href=\"https://chantillyhs.fcps.ed...",
      "pubDate": "Fri, 30 May 2025 14:29:15 -0500",
      "timestamp": 1748633355000,
      "feedName": "Chantilly High School",
      "category": "Chantilly High School",
      "feedSource": "http://www.fcps.edu/index.shtml",
      "feedInfo": {
        "title": "Chantilly High School News and announcements - Recent Updates",
        "description": "Chantilly High School News and announcements",
        "link": "http://www.fcps.edu/index.shtml"
      }
    },
    {
      "id": "NjUxNzAzNDM=",
      "title": "Woodson Weekly - May 30",
      "link": "https://content.govdelivery.com/accounts/VAEDUFCPS/bulletins/3e26ba7",
      "description": "\n        \n\n\n  \n\n\n\n\n\n\n\n<p><a></a>Having trouble viewing this email? <a href=\"https://content.govdelivery.com/accounts/VAEDUFCPS/bulletins/3e26ba7\">View it as a Web page</a>.</p>\n\n\n\n\n\n\n\n\n\n\n\n<a href=\"http://www2.fcps.edu/woodsonhs/?utm_campaign+=&amp;utm_medium=email&amp;utm_source=govdelivery\" target=...",
      "pubDate": "Fri, 30 May 2025 14:22:52 -0500",
      "timestamp": 1748632972000,
      "feedName": "Woodson High School",
      "category": "Woodson High School",
      "feedSource": "https://public.govdelivery.com/topics/Woodson_HS_NEWS/feed.rss",
      "feedInfo": {
        "title": "Woodson High School News and announcements",
        "description": "Woodson High School News and announcements",
        "link": "https://public.govdelivery.com/topics/Woodson_HS_NEWS/feed.rss"
      }
    },
    {
      "id": "NjUxOTU1MDM=",
      "title": "Chantilly Academy Program Highlights",
      "link": "https://content.govdelivery.com/accounts/VAEDUFCPS/bulletins/3e2cdef",
      "description": "\n        \n\n\n  \n\n\n\n\n\n\n\n<p><a></a>Having trouble viewing this email? <a href=\"https://content.govdelivery.com/accounts/VAEDUFCPS/bulletins/3e2cdef\">View it as a Web page</a>.</p>\n\n\n\n\n\n\n\n\n\n\n\n<a href=\"https://chantillyacademy.fcps.edu/?utm_campaign+=&amp;utm_medium=email&amp;utm_source=govdelivery\" targ...",
      "pubDate": "Fri, 30 May 2025 14:15:12 -0500",
      "timestamp": 1748632512000,
      "feedName": "Chantilly Academy",
      "category": "Chantilly Academy",
      "feedSource": "http://www.fcps.edu/index.shtml",
      "feedInfo": {
        "title": "Chantilly Academy News and Announcements - Recent Updates",
        "description": "Chantilly Academy News and Announcements - Recent Updates",
        "link": "http://www.fcps.edu/index.shtml"
      }
    },
    {
      "id": "NjUxNTE3Mjk=",
      "title": "CES Family Connection 5-30-25",
      "link": "https://content.govdelivery.com/accounts/VAEDUFCPS/bulletins/3e222f1",
      "description": "\n        \n\n\n  \n\n\n\n\n\n\n\n<p><a></a>Having trouble viewing this email? <a href=\"https://content.govdelivery.com/accounts/VAEDUFCPS/bulletins/3e222f1\">View it as a Web page</a>.</p>\n\n\n\n\n\n\n\n\n\n\n\n<a href=\"https://centrevillees.fcps.edu/?utm_campaign+=&amp;utm_medium=email&amp;utm_source=govdelivery\" target=...",
      "pubDate": "Fri, 30 May 2025 14:13:34 -0500",
      "timestamp": 1748632414000,
      "feedName": "Centreville Elementary School",
      "category": "Centreville Elementary School",
      "feedSource": "http://www.fcps.edu/index.shtml",
      "feedInfo": {
        "title": "Centreville Elementary School News and announcements - Recent Updates",
        "description": "Centreville Elementary School News and announcements",
        "link": "http://www.fcps.edu/index.shtml"
      }
    },
    {
      "id": "NjUxNjEyNDE=",
      "title": "Franklin MS Update- 05/30/2025",
      "link": "https://content.govdelivery.com/accounts/VAEDUFCPS/bulletins/3e24819",
      "description": "\n        \n\n\n  \n\n\n\n\n\n\n\n<p><a></a>Having trouble viewing this email? <a href=\"https://content.govdelivery.com/accounts/VAEDUFCPS/bulletins/3e24819\">View it as a Web page</a>.</p>\n\n\n\n\n\n\n\n\n\n\n\n<a href=\"https://franklinms.fcps.edu/?utm_campaign+=&amp;utm_medium=email&amp;utm_source=govdelivery\" target=\"_b...",
      "pubDate": "Fri, 30 May 2025 14:09:37 -0500",
      "timestamp": 1748632177000,
      "feedName": "Franklin Middle School",
      "category": "Franklin Middle School",
      "feedSource": "http://www.fcps.edu/index.shtml",
      "feedInfo": {
        "title": "Franklin Middle School News and announcements - Recent Updates",
        "description": "Franklin Middle School News and announcements",
        "link": "http://www.fcps.edu/index.shtml"
      }
    },
    {
      "id": "NjUxNjEyNDE=",
      "title": "Franklin MS Update- 05/30/2025",
      "link": "https://content.govdelivery.com/accounts/VAEDUFCPS/bulletins/3e24819",
      "description": "\n        \n\n\n  \n\n\n\n\n\n\n\n<p><a></a>Having trouble viewing this email? <a href=\"https://content.govdelivery.com/accounts/VAEDUFCPS/bulletins/3e24819\">View it as a Web page</a>.</p>\n\n\n\n\n\n\n\n\n\n\n\n<a href=\"https://franklinms.fcps.edu/?utm_campaign+=&amp;utm_medium=email&amp;utm_source=govdelivery\" target=\"_b...",
      "pubDate": "Fri, 30 May 2025 14:09:37 -0500",
      "timestamp": 1748632177000,
      "feedName": "Franklin Sherman Elementary School",
      "category": "Franklin Sherman Elementary School",
      "feedSource": "http://www.fcps.edu/index.shtml",
      "feedInfo": {
        "title": "Franklin Middle School News and announcements - Recent Updates",
        "description": "Franklin Middle School News and announcements",
        "link": "http://www.fcps.edu/index.shtml"
      }
    },
    {
      "id": "NjUxNTkxNjc=",
      "title": "EHS Weekly Update - May 30, 2025",
      "link": "https://content.govdelivery.com/accounts/VAEDUFCPS/bulletins/3e23fff",
      "description": "\n        \n\n\n  \n\n\n\n\n\n\n\n<p><a></a>Having trouble viewing this email? <a href=\"https://content.govdelivery.com/accounts/VAEDUFCPS/bulletins/3e23fff\">View it as a Web page</a>.</p>\n\n\n\n\n\n\n\n\n\n\n\n<a href=\"https://edisonhs.fcps.edu?utm_campaign+=&amp;utm_medium=email&amp;utm_source=govdelivery\" target=\"_blan...",
      "pubDate": "Fri, 30 May 2025 14:07:30 -0500",
      "timestamp": 1748632050000,
      "feedName": "Edison High School",
      "category": "Edison High School",
      "feedSource": "http://www.fcps.edu/index.shtml",
      "feedInfo": {
        "title": "Edison High School News and announcements - Recent Updates",
        "description": "Edison High School News and announcements",
        "link": "http://www.fcps.edu/index.shtml"
      }
    },
    {
      "id": "NjUxMzU3MDQ=",
      "title": "From the Principal's Desk",
      "link": "https://content.govdelivery.com/accounts/VAEDUFCPS/bulletins/3e1e458",
      "description": "\n        \n\n\n  \n\n\n\n\n\n\n\n\n\n\n\n\n\n\n\n\n\n\n\n\n\n\n\n\n\n\n\n\n\n\n\n\n\n\n\n\n  \n    <a href=\"https://fairfaxhs.fcps.edu/events?utm_content=&amp;utm_medium=email&amp;utm_name=&amp;utm_source=govdelivery&amp;utm_term=\" target=\"_blank\"></a>\n\n\nUpcoming Events\n<p> </p>\n<p><strong>June 2:</strong> Senior Awards (Invite Only)</p>\n<...",
      "pubDate": "Fri, 30 May 2025 14:03:12 -0500",
      "timestamp": 1748631792000,
      "feedName": "Fairfax High School",
      "category": "Fairfax High School",
      "feedSource": "http://www.fcps.edu/index.shtml",
      "feedInfo": {
        "title": "Fairfax HS News and Announcements - Recent Updates",
        "description": "Fairfax High School News and announcements",
        "link": "http://www.fcps.edu/index.shtml"
      }
    }
  ],
  "hasNext": true,
  "hasPrev": true
}