{
  "page": 210,
  "totalPages": 268,
  "totalItems": 5354,
  "itemsPerPage": 20,
  "items": [
    {
      "id": "NjM5NTM0ODI=",
      "title": "February 4, 2025 Public Hearing on the FY 2026 Proposed Budget",
      "link": "https://content.govdelivery.com/accounts/VAEDUFCPS/bulletins/3cfda4a",
      "description": "\n        \n\n\n  \n\n\n\n\n\n\n\n<p><a></a>Having trouble viewing this email? <a href=\"https://content.govdelivery.com/accounts/VAEDUFCPS/bulletins/3cfda4a\">View it as a Web page</a>.</p>\n\n\n\n\n\n\n\n\n\n\n\n<a href=\"https://www.fcps.edu/school-board?utm_campaign+=&amp;utm_medium=email&amp;utm_source=govdelivery\" targe...",
      "pubDate": "Thu, 30 Jan 2025 18:55:03 -0600",
      "timestamp": 1738284903000,
      "feedName": "FCPS School Board Springfield District",
      "category": "FCPS School Board Springfield District",
      "feedSource": "http://www.fcps.edu/index.shtml",
      "feedInfo": {
        "title": "Springfield District Member - Sandy Anderson - Recent Updates",
        "description": "Springfield District Member - Sandy Anderson - Recent Updates",
        "link": "http://www.fcps.edu/index.shtml"
      }
    },
    {
      "id": "NjM5NTM0ODI=",
      "title": "February 4, 2025 Public Hearing on the FY 2026 Proposed Budget",
      "link": "https://content.govdelivery.com/accounts/VAEDUFCPS/bulletins/3cfda4a",
      "description": "\n        \n\n\n  \n\n\n\n\n\n\n\n<p><a></a>Having trouble viewing this email? <a href=\"https://content.govdelivery.com/accounts/VAEDUFCPS/bulletins/3cfda4a\">View it as a Web page</a>.</p>\n\n\n\n\n\n\n\n\n\n\n\n<a href=\"https://www.fcps.edu/school-board?utm_campaign+=&amp;utm_medium=email&amp;utm_source=govdelivery\" targe...",
      "pubDate": "Thu, 30 Jan 2025 18:55:03 -0600",
      "timestamp": 1738284903000,
      "feedName": "School Board Mason District",
      "category": "School Board Mason District",
      "feedSource": "http://www.fcps.edu/index.shtml",
      "feedInfo": {
        "title": "Mason District Member - Ricardy Anderson - Recent Updates",
        "description": "Mason District Member - Ricardy Anderson - Recent Updates",
        "link": "http://www.fcps.edu/index.shtml"
      }
    },
    {
      "id": "NjM5NTM0ODI=",
      "title": "February 4, 2025 Public Hearing on the FY 2026 Proposed Budget",
      "link": "https://content.govdelivery.com/accounts/VAEDUFCPS/bulletins/3cfda4a",
      "description": "\n        \n\n\n  \n\n\n\n\n\n\n\n<p><a></a>Having trouble viewing this email? <a href=\"https://content.govdelivery.com/accounts/VAEDUFCPS/bulletins/3cfda4a\">View it as a Web page</a>.</p>\n\n\n\n\n\n\n\n\n\n\n\n<a href=\"https://www.fcps.edu/school-board?utm_campaign+=&amp;utm_medium=email&amp;utm_source=govdelivery\" targe...",
      "pubDate": "Thu, 30 Jan 2025 18:55:03 -0600",
      "timestamp": 1738284903000,
      "feedName": "FCPS School Board Member at Large (Ryan McElveen)",
      "category": "FCPS School Board Member at Large (Ryan McElveen)",
      "feedSource": "http://www.fcps.edu/index.shtml",
      "feedInfo": {
        "title": "At-Large Member - Ryan McElveen - Recent Updates",
        "description": "At-Large Member - Ryan McElveen - Recent Updates",
        "link": "http://www.fcps.edu/index.shtml"
      }
    },
    {
      "id": "NjM5NTM0ODI=",
      "title": "February 4, 2025 Public Hearing on the FY 2026 Proposed Budget",
      "link": "https://content.govdelivery.com/accounts/VAEDUFCPS/bulletins/3cfda4a",
      "description": "\n        \n\n\n  \n\n\n\n\n\n\n\n<p><a></a>Having trouble viewing this email? <a href=\"https://content.govdelivery.com/accounts/VAEDUFCPS/bulletins/3cfda4a\">View it as a Web page</a>.</p>\n\n\n\n\n\n\n\n\n\n\n\n<a href=\"https://www.fcps.edu/school-board?utm_campaign+=&amp;utm_medium=email&amp;utm_source=govdelivery\" targe...",
      "pubDate": "Thu, 30 Jan 2025 18:55:03 -0600",
      "timestamp": 1738284903000,
      "feedName": "FCPS School Board Mount Vernon District",
      "category": "FCPS School Board Mount Vernon District",
      "feedSource": "http://www.fcps.edu/index.shtml",
      "feedInfo": {
        "title": "Mount Vernon District Member - Mateo Dunne - Recent Updates",
        "description": "Mount Vernon District Member - Mateo Dunne - Recent Updates",
        "link": "http://www.fcps.edu/index.shtml"
      }
    },
    {
      "id": "NjM5NTM0ODI=",
      "title": "February 4, 2025 Public Hearing on the FY 2026 Proposed Budget",
      "link": "https://content.govdelivery.com/accounts/VAEDUFCPS/bulletins/3cfda4a",
      "description": "\n        \n\n\n  \n\n\n\n\n\n\n\n<p><a></a>Having trouble viewing this email? <a href=\"https://content.govdelivery.com/accounts/VAEDUFCPS/bulletins/3cfda4a\">View it as a Web page</a>.</p>\n\n\n\n\n\n\n\n\n\n\n\n<a href=\"https://www.fcps.edu/school-board?utm_campaign+=&amp;utm_medium=email&amp;utm_source=govdelivery\" targe...",
      "pubDate": "Thu, 30 Jan 2025 18:55:03 -0600",
      "timestamp": 1738284903000,
      "feedName": "FCPS School Board Member at Large (Kyle McDaniel)",
      "category": "FCPS School Board Member at Large (Kyle McDaniel)",
      "feedSource": "http://www.fcps.edu/",
      "feedInfo": {
        "title": "At-Large Member - Kyle McDaniel - Recent Updates",
        "description": "At-Large Member - Kyle McDaniel - Recent Updates",
        "link": "http://www.fcps.edu/"
      }
    },
    {
      "id": "NjM5NTM0ODI=",
      "title": "February 4, 2025 Public Hearing on the FY 2026 Proposed Budget",
      "link": "https://content.govdelivery.com/accounts/VAEDUFCPS/bulletins/3cfda4a",
      "description": "\n        \n\n\n  \n\n\n\n\n\n\n\n<p><a></a>Having trouble viewing this email? <a href=\"https://content.govdelivery.com/accounts/VAEDUFCPS/bulletins/3cfda4a\">View it as a Web page</a>.</p>\n\n\n\n\n\n\n\n\n\n\n\n<a href=\"https://www.fcps.edu/school-board?utm_campaign+=&amp;utm_medium=email&amp;utm_source=govdelivery\" targe...",
      "pubDate": "Thu, 30 Jan 2025 18:55:03 -0600",
      "timestamp": 1738284903000,
      "feedName": "FCPS School Board Member at Large (Ilryong Moon)",
      "category": "FCPS School Board Member at Large (Ilryong Moon)",
      "feedSource": "http://www.fcps.edu/",
      "feedInfo": {
        "title": "At-Large Member - Ilryong Moon - Recent Updates",
        "description": "At-Large Member - Ilryong Moon - Recent Updates",
        "link": "http://www.fcps.edu/"
      }
    },
    {
      "id": "NjM5NTM0ODI=",
      "title": "February 4, 2025 Public Hearing on the FY 2026 Proposed Budget",
      "link": "https://content.govdelivery.com/accounts/VAEDUFCPS/bulletins/3cfda4a",
      "description": "\n        \n\n\n  \n\n\n\n\n\n\n\n<p><a></a>Having trouble viewing this email? <a href=\"https://content.govdelivery.com/accounts/VAEDUFCPS/bulletins/3cfda4a\">View it as a Web page</a>.</p>\n\n\n\n\n\n\n\n\n\n\n\n<a href=\"https://www.fcps.edu/school-board?utm_campaign+=&amp;utm_medium=email&amp;utm_source=govdelivery\" targe...",
      "pubDate": "Thu, 30 Jan 2025 18:55:03 -0600",
      "timestamp": 1738284903000,
      "feedName": "FCPS School Board Sully District",
      "category": "FCPS School Board Sully District",
      "feedSource": "http://www.fcps.edu/index.shtml",
      "feedInfo": {
        "title": "Sully District Member - Seema Dixit - Recent Updates",
        "description": "Sully District Member - Seema Dixit - Recent Updates",
        "link": "http://www.fcps.edu/index.shtml"
      }
    },
    {
      "id": "NjM5NTM0ODI=",
      "title": "February 4, 2025 Public Hearing on the FY 2026 Proposed Budget",
      "link": "https://content.govdelivery.com/accounts/VAEDUFCPS/bulletins/3cfda4a",
      "description": "\n        \n\n\n  \n\n\n\n\n\n\n\n<p><a></a>Having trouble viewing this email? <a href=\"https://content.govdelivery.com/accounts/VAEDUFCPS/bulletins/3cfda4a\">View it as a Web page</a>.</p>\n\n\n\n\n\n\n\n\n\n\n\n<a href=\"https://www.fcps.edu/school-board?utm_campaign+=&amp;utm_medium=email&amp;utm_source=govdelivery\" targe...",
      "pubDate": "Thu, 30 Jan 2025 18:55:03 -0600",
      "timestamp": 1738284903000,
      "feedName": "FCPS School Board Franconia District",
      "category": "FCPS School Board Franconia District",
      "feedSource": "http://www.fcps.edu/index.shtml",
      "feedInfo": {
        "title": "Franconia District Member - Marcia St. John-Cunning - Recent Updates",
        "description": "Franconia District Member - Marcia St. John-Cunning - Recent Updates",
        "link": "http://www.fcps.edu/index.shtml"
      }
    },
    {
      "id": "NjM5NTM0ODI=",
      "title": "February 4, 2025 Public Hearing on the FY 2026 Proposed Budget",
      "link": "https://content.govdelivery.com/accounts/VAEDUFCPS/bulletins/3cfda4a",
      "description": "\n        \n\n\n  \n\n\n\n\n\n\n\n<p><a></a>Having trouble viewing this email? <a href=\"https://content.govdelivery.com/accounts/VAEDUFCPS/bulletins/3cfda4a\">View it as a Web page</a>.</p>\n\n\n\n\n\n\n\n\n\n\n\n<a href=\"https://www.fcps.edu/school-board?utm_campaign+=&amp;utm_medium=email&amp;utm_source=govdelivery\" targe...",
      "pubDate": "Thu, 30 Jan 2025 18:55:03 -0600",
      "timestamp": 1738284903000,
      "feedName": "FCPS School Board Dranesville District",
      "category": "FCPS School Board Dranesville District",
      "feedSource": "http://www.fcps.edu/index.shtml",
      "feedInfo": {
        "title": "Dranesville District Member - Robyn Lady - Recent Updates",
        "description": "Dranesville District Member - Robyn Lady - Recent Updates",
        "link": "http://www.fcps.edu/index.shtml"
      }
    },
    {
      "id": "NjM5NTM0ODI=",
      "title": "February 4, 2025 Public Hearing on the FY 2026 Proposed Budget",
      "link": "https://content.govdelivery.com/accounts/VAEDUFCPS/bulletins/3cfda4a",
      "description": "\n        \n\n\n  \n\n\n\n\n\n\n\n<p><a></a>Having trouble viewing this email? <a href=\"https://content.govdelivery.com/accounts/VAEDUFCPS/bulletins/3cfda4a\">View it as a Web page</a>.</p>\n\n\n\n\n\n\n\n\n\n\n\n<a href=\"https://www.fcps.edu/school-board?utm_campaign+=&amp;utm_medium=email&amp;utm_source=govdelivery\" targe...",
      "pubDate": "Thu, 30 Jan 2025 18:55:03 -0600",
      "timestamp": 1738284903000,
      "feedName": "FCPS School Board Braddock District",
      "category": "FCPS School Board Braddock District",
      "feedSource": "http://www.fcps.edu/index.shtml",
      "feedInfo": {
        "title": "Braddock District Member - Rachna Sizemore Heizer - Recent Updates",
        "description": "Braddock District Member - Rachna Sizemore Heizer - Recent Updates",
        "link": "http://www.fcps.edu/index.shtml"
      }
    },
    {
      "id": "NjM5NTM0ODI=",
      "title": "February 4, 2025 Public Hearing on the FY 2026 Proposed Budget",
      "link": "https://content.govdelivery.com/accounts/VAEDUFCPS/bulletins/3cfda4a",
      "description": "\n        \n\n\n  \n\n\n\n\n\n\n\n<p><a></a>Having trouble viewing this email? <a href=\"https://content.govdelivery.com/accounts/VAEDUFCPS/bulletins/3cfda4a\">View it as a Web page</a>.</p>\n\n\n\n\n\n\n\n\n\n\n\n<a href=\"https://www.fcps.edu/school-board?utm_campaign+=&amp;utm_medium=email&amp;utm_source=govdelivery\" targe...",
      "pubDate": "Thu, 30 Jan 2025 18:55:03 -0600",
      "timestamp": 1738284903000,
      "feedName": "FCPS School Board Hunter District",
      "category": "FCPS School Board Hunter District",
      "feedSource": "http://www.fcps.edu/index.shtml",
      "feedInfo": {
        "title": "Hunter Mill District Member - Melanie Meren - Recent Updates",
        "description": "Hunter Mill District Member - Melanie Meren - Recent Updates",
        "link": "http://www.fcps.edu/index.shtml"
      }
    },
    {
      "id": "NjM5NTEwMDU=",
      "title": "Falcon Flyer: January 30th, 2025",
      "link": "https://content.govdelivery.com/accounts/VAEDUFCPS/bulletins/3cfd09d",
      "description": "\n        \n\n\n  \n\n\n\n\n\n\n\n\n\n\n\n\n\n\n\n\n\n\n\n\n\n\n\n\n\n\n\n\n\n\n\n\n\n\n\n<p>January 30th, 2025</p>\n\nFlint Hill Updates\n\n<p>Good Afternoon Flint Hill Families,</p>\n<p>Warm weather has returned and students were excited to out on our fields, track and courts this week! Progress on the new playground is really taking off. Be...",
      "pubDate": "Thu, 30 Jan 2025 15:30:15 -0600",
      "timestamp": 1738272615000,
      "feedName": "Flint Hill Elementary School",
      "category": "Flint Hill Elementary School",
      "feedSource": "http://www.fcps.edu/index.shtml",
      "feedInfo": {
        "title": "Flint Hill Elementary School News and Announcements - Recent Updates",
        "description": "Flint Hill Elementary School News and Announcements",
        "link": "http://www.fcps.edu/index.shtml"
      }
    },
    {
      "id": "NjM4NjkzODA=",
      "title": "Kilmer Center School Tiger Tales",
      "link": "https://content.govdelivery.com/accounts/VAEDUFCPS/bulletins/3ce91c4",
      "description": "\n        \n\n\n  \n\n\n\n\n\n\n\n<p><a></a>Having trouble viewing this email? <a href=\"https://content.govdelivery.com/accounts/VAEDUFCPS/bulletins/3ce91c4\">View it as a Web page</a>.</p>\n\n\n\n\n\n\n\n\n\n\n\n<a href=\"https://kilmercenter.fcps.edu/?utm_campaign+=&amp;utm_medium=email&amp;utm_source=govdelivery\" target=\"...",
      "pubDate": "Thu, 30 Jan 2025 14:00:12 -0600",
      "timestamp": 1738267212000,
      "feedName": "Kilmer Center",
      "category": "Kilmer Center",
      "feedSource": "http://www.fcps.edu/index.shtml",
      "feedInfo": {
        "title": "Kilmer Center News and announcements - Recent Updates",
        "description": "Kilmer Special Education Center News and announcements",
        "link": "http://www.fcps.edu/index.shtml"
      }
    },
    {
      "id": "NjM5MTIzMzY=",
      "title": "SLES News You Choose",
      "link": "https://content.govdelivery.com/accounts/VAEDUFCPS/bulletins/3cf3990",
      "description": "\n        \n\n\n  \n\n\n\n\n\n\n\n<p><a></a>Having trouble viewing this email? <a href=\"https://content.govdelivery.com/accounts/VAEDUFCPS/bulletins/3cf3990\">View it as a Web page</a>.</p>\n\n\n\n\n\n\n\n\n\n\n\n<a href=\"https://stratfordlandinges.fcps.edu/?utm_campaign+=&amp;utm_medium=email&amp;utm_source=govdelivery\" ta...",
      "pubDate": "Thu, 30 Jan 2025 13:52:49 -0600",
      "timestamp": 1738266769000,
      "feedName": "Stratford Landing Elementary School",
      "category": "Stratford Landing Elementary School",
      "feedSource": "http://www.fcps.edu/index.shtml",
      "feedInfo": {
        "title": "Stratford Landing Elementary School News and announcements - Recent Updates",
        "description": "Stratford Landing Elementary School News and announcements",
        "link": "http://www.fcps.edu/index.shtml"
      }
    },
    {
      "id": "NjM5MTY5NjM=",
      "title": "January 30, 2025 Newsletter",
      "link": "https://content.govdelivery.com/accounts/VAEDUFCPS/bulletins/3cf4ba3",
      "description": "\n        \n\n\n  \n\n\n\n\n\n\n\n\n\n\n\n\n\n\n\n\n\n\n\n\n\n\n\n\n\n\n\n\n\n\n\n\n\n\n\n<p><strong>Support LHES SCA's cereal drive!</strong></p>\n<p><a href=\"https://laurelhilles.fcps.edu/aggregator/sources/1?utm_content=&amp;utm_medium=email&amp;utm_name=&amp;utm_source=govdelivery&amp;utm_term=#modal-language-switcher\" target=\"_blank\">...",
      "pubDate": "Thu, 30 Jan 2025 13:21:28 -0600",
      "timestamp": 1738264888000,
      "feedName": "Laurel Hill Elementary School",
      "category": "Laurel Hill Elementary School",
      "feedSource": "http://www.fcps.edu/index.shtml",
      "feedInfo": {
        "title": "Laurel Hill Elementary School News and announcements - Recent Updates",
        "description": "Laurel Hill Elementary School News and announcements",
        "link": "http://www.fcps.edu/index.shtml"
      }
    },
    {
      "id": "NjM5NDYxNTE=",
      "title": "Important Message : ARI Letter",
      "link": "https://content.govdelivery.com/accounts/VAEDUFCPS/bulletins/3cfbda7",
      "description": "\n        \n\n\n  \n\n\n\n\n\n\n\n<p><a></a>Having trouble viewing this email? <a href=\"https://content.govdelivery.com/accounts/VAEDUFCPS/bulletins/3cfbda7\">View it as a Web page</a>.</p>\n\n\n\n\n\n\n\n\n\n\n\n\n<a href=\"https://keycenter.fcps.edu/?utm_campaign+=&amp;utm_medium=email&amp;utm_source=govdelivery\" target=\"_b...",
      "pubDate": "Thu, 30 Jan 2025 11:18:10 -0600",
      "timestamp": 1738257490000,
      "feedName": "Key Center",
      "category": "Key Center",
      "feedSource": "http://www.fcps.edu/index.shtml",
      "feedInfo": {
        "title": "Key Center News and announcements - Recent Updates",
        "description": "Key Special Education Center News and announcements",
        "link": "http://www.fcps.edu/index.shtml"
      }
    },
    {
      "id": "NjM5MzY3MzU=",
      "title": "January 30, 2025",
      "link": "https://content.govdelivery.com/accounts/VAEDUFCPS/bulletins/3cf98df",
      "description": "\n        \n\n\n  \n\n\n\n\n\n\n\n<p><a></a>Having trouble viewing this email? <a href=\"https://content.govdelivery.com/accounts/VAEDUFCPS/bulletins/3cf98df\">View it as a Web page</a>.</p>\n\n\n\n\n\n\n\n\n\n\n\n<a href=\"https://whitmanms.fcps.edu/?utm_campaign+=&amp;utm_medium=email&amp;utm_source=govdelivery\" target=\"_bl...",
      "pubDate": "Thu, 30 Jan 2025 10:43:54 -0600",
      "timestamp": 1738255434000,
      "feedName": "Whitman Middle School",
      "category": "Whitman Middle School",
      "feedSource": "http://www.fcps.edu/index.shtml",
      "feedInfo": {
        "title": "Whitman Middle School News and announcements - Recent Updates",
        "description": "Whitman Middle School News and announcements",
        "link": "http://www.fcps.edu/index.shtml"
      }
    },
    {
      "id": "NjM5NDU1NTM=",
      "title": "FY 2026 Proposed Budget, Public Hearing, and Job Fair",
      "link": "https://content.govdelivery.com/accounts/VAEDUFCPS/bulletins/3cfbb51",
      "description": "\n        \n\n\n  \n\n\n\n\n\n\n\n<p><a></a>Having trouble viewing this email? <a href=\"https://content.govdelivery.com/accounts/VAEDUFCPS/bulletins/3cfbb51\">View it as a Web page</a>.</p>\n\n\n\n\n\n\n\n\n\n\n\n<a href=\"https://www.fcps.edu/staff/sandy-anderson?utm_campaign+=&amp;utm_medium=email&amp;utm_source=govdeliver...",
      "pubDate": "Thu, 30 Jan 2025 09:48:14 -0600",
      "timestamp": 1738252094000,
      "feedName": "FCPS School Board Springfield District",
      "category": "FCPS School Board Springfield District",
      "feedSource": "http://www.fcps.edu/index.shtml",
      "feedInfo": {
        "title": "Springfield District Member - Sandy Anderson - Recent Updates",
        "description": "Springfield District Member - Sandy Anderson - Recent Updates",
        "link": "http://www.fcps.edu/index.shtml"
      }
    },
    {
      "id": "NjM4NTg0MDg=",
      "title": "Panther Press: January 30",
      "link": "https://content.govdelivery.com/accounts/VAEDUFCPS/bulletins/3ce66e8",
      "description": "\n        \n\n\n  \n\n\n\n\n\n\n\n<p><a></a>Having trouble viewing this email? <a href=\"https://content.govdelivery.com/accounts/VAEDUFCPS/bulletins/3ce66e8\">View it as a Web page</a>.</p>\n\n\n\n\n\n\n\n\n\n\n\n<a href=\"http://www2.fcps.edu/ProvidenceES/?utm_campaign+=&amp;utm_medium=email&amp;utm_source=govdelivery\" targ...",
      "pubDate": "Thu, 30 Jan 2025 08:56:21 -0600",
      "timestamp": 1738248981000,
      "feedName": "Providence Elementary School",
      "category": "Providence Elementary School",
      "feedSource": "http://www.fcps.edu/index.shtml",
      "feedInfo": {
        "title": "Providence Elementary School News and Announcements - Recent Updates",
        "description": "Providence Elementary School News and announcements",
        "link": "http://www.fcps.edu/index.shtml"
      }
    },
    {
      "id": "NjM5NDQ3Mjg=",
      "title": "Westlawn Feather Report: Volume 1, Issue 21",
      "link": "https://content.govdelivery.com/accounts/VAEDUFCPS/bulletins/3cfb818",
      "description": "\n        \n\n\n  \n\n\n\n\n\n\n\n<p><a></a>Having trouble viewing this email? <a href=\"https://content.govdelivery.com/accounts/VAEDUFCPS/bulletins/3cfb818\">View it as a Web page</a>.</p>\n\n\n\n\n\n\n\n\n\n\n\n<a href=\"https://westlawnes.fcps.edu/?utm_campaign+=&amp;utm_medium=email&amp;utm_source=govdelivery\" target=\"_b...",
      "pubDate": "Thu, 30 Jan 2025 08:00:26 -0600",
      "timestamp": 1738245626000,
      "feedName": "Westlawn Elementary School",
      "category": "Westlawn Elementary School",
      "feedSource": "http://www.fcps.edu/index.shtml",
      "feedInfo": {
        "title": "Westlawn Elementary School News and Announcements - Recent Updates",
        "description": "Westlawn Elementary School News and Announcements",
        "link": "http://www.fcps.edu/index.shtml"
      }
    }
  ],
  "hasNext": true,
  "hasPrev": true
}