{
  "page": 7,
  "totalPages": 268,
  "totalItems": 5354,
  "itemsPerPage": 20,
  "items": [
    {
      "id": "NjU5MDA2OTc=",
      "title": "PUMA PRESS – PTA News &amp; Information: August 13, 2025",
      "link": "https://content.govdelivery.com/accounts/VAEDUFCPS/bulletins/3ed9099",
      "description": "\n        \n\n\n  \n\n\n\n\n\n\n\n<p><a></a>Having trouble viewing this email? <a href=\"https://content.govdelivery.com/accounts/VAEDUFCPS/bulletins/3ed9099\">View it as a Web page</a>.</p>\n\n\n\n\n\n\n\n\n\n\n\n<a href=\"https://powelles.fcps.edu/?utm_campaign+=&amp;utm_medium=email&amp;utm_source=govdelivery\" target=\"_bla...",
      "pubDate": "Wed, 13 Aug 2025 15:30:12 -0500",
      "timestamp": 1755117012000,
      "feedName": "Powell Elementary School",
      "category": "Powell Elementary School",
      "feedSource": "http://www.fcps.edu/index.shtml",
      "feedInfo": {
        "title": "Powell Elementary School News and Announcements - Recent Updates",
        "description": "Powell Elementary School News and announcements",
        "link": "http://www.fcps.edu/index.shtml"
      }
    },
    {
      "id": "NjU5MTMzMDA=",
      "title": "Back to School Information",
      "link": "https://content.govdelivery.com/accounts/VAEDUFCPS/bulletins/3edc1d4",
      "description": "\n        \n\n\n  \n\n\n\n\n\n\n\n<p><a></a>Having trouble viewing this email? <a href=\"https://content.govdelivery.com/accounts/VAEDUFCPS/bulletins/3edc1d4\">View it as a Web page</a>.</p>\n\n\n\n\n\n\n\n\n\n\n\n<a href=\"https://cubrunes.fcps.edu/?utm_campaign+=&amp;utm_medium=email&amp;utm_source=govdelivery\" target=\"_bla...",
      "pubDate": "Wed, 13 Aug 2025 15:24:54 -0500",
      "timestamp": 1755116694000,
      "feedName": "Cub Run Elementary School",
      "category": "Cub Run Elementary School",
      "feedSource": "http://www.fcps.edu/index.shtml",
      "feedInfo": {
        "title": "Cub Run Elementary School News and Announcements - Use this one - Recent Updates",
        "description": "Cub Run Elementary School News and announcements",
        "link": "http://www.fcps.edu/index.shtml"
      }
    },
    {
      "id": "NjU5MTMzMzM=",
      "title": "Fairfax Villa Welcome Back August 13, 2025",
      "link": "https://content.govdelivery.com/accounts/VAEDUFCPS/bulletins/3edc1f5",
      "description": "\n        \n\n\n  \n\n\n\n\n\n\n\n<p><a></a>Having trouble viewing this email? <a href=\"https://content.govdelivery.com/accounts/VAEDUFCPS/bulletins/3edc1f5\">View it as a Web page</a>.</p>\n\n\n\n\n\n\n\n\n\n\n\n<a href=\"https://fairfaxvillaes.fcps.edu?utm_campaign+=&amp;utm_medium=email&amp;utm_source=govdelivery\" target=...",
      "pubDate": "Wed, 13 Aug 2025 15:06:34 -0500",
      "timestamp": 1755115594000,
      "feedName": "Fairfax Villa Elementary School",
      "category": "Fairfax Villa Elementary School",
      "feedSource": "https://fairfaxvillaes.fcps.edu",
      "feedInfo": {
        "title": "Fairfax Villa Elementary School News and announcements",
        "description": "Fairfax Villa Elementary School News and announcements",
        "link": "https://fairfaxvillaes.fcps.edu"
      }
    },
    {
      "id": "NjU5MTM5MTg=",
      "title": "Clermont Open House",
      "link": "https://content.govdelivery.com/accounts/VAEDUFCPS/bulletins/3edc43e",
      "description": "\n        \n\n\n  \n\n\n\n\n\n\n\n<p><a></a>Having trouble viewing this email? <a href=\"https://content.govdelivery.com/accounts/VAEDUFCPS/bulletins/3edc43e\">View it as a Web page</a>.</p>\n\n\n\n\n\n\n\n\n\n\n\n<a href=\"https://clermontes.fcps.edu/?utm_campaign+=&amp;utm_medium=email&amp;utm_source=govdelivery\" target=\"_b...",
      "pubDate": "Wed, 13 Aug 2025 15:03:23 -0500",
      "timestamp": 1755115403000,
      "feedName": "Clermont Elementary School",
      "category": "Clermont Elementary School",
      "feedSource": "http://www.fcps.edu/index.shtml",
      "feedInfo": {
        "title": "Clermont, VA Elementary School News and announcements - Recent Updates",
        "description": "Clermont Elementary School News and announcements",
        "link": "http://www.fcps.edu/index.shtml"
      }
    },
    {
      "id": "NjU5MTI4Njg=",
      "title": "8/13 Chantilly Opening Events Information",
      "link": "https://content.govdelivery.com/accounts/VAEDUFCPS/bulletins/3edc024",
      "description": "\n        \n\n\n  \n\n\n\n\n\n\n\n\n\n\n\n\n\n\n\n\n\n\n\n\n\n\n\n\n\n\n\n\n\n\n\n\n\n\n\n<p><strong><a href=\"https://chantillyhs.fcps.edu/aggregator/sources/1?utm_content=&amp;utm_medium=email&amp;utm_name=&amp;utm_source=govdelivery&amp;utm_term=#modal-language-switcher\" target=\"_blank\">English</a> | <a href=\"https://chantillyhs.fcps.ed...",
      "pubDate": "Wed, 13 Aug 2025 15:02:42 -0500",
      "timestamp": 1755115362000,
      "feedName": "Chantilly High School",
      "category": "Chantilly High School",
      "feedSource": "http://www.fcps.edu/index.shtml",
      "feedInfo": {
        "title": "Chantilly High School News and announcements - Recent Updates",
        "description": "Chantilly High School News and announcements",
        "link": "http://www.fcps.edu/index.shtml"
      }
    },
    {
      "id": "NjU5MDgxMzU=",
      "title": "Cardinal Forest ES - 8-13-2025",
      "link": "https://content.govdelivery.com/accounts/VAEDUFCPS/bulletins/3edada7",
      "description": "\n        \n\n\n  \n\n\n\n\n\n\n\n<p><a></a>Having trouble viewing this email? <a href=\"https://content.govdelivery.com/accounts/VAEDUFCPS/bulletins/3edada7\">View it as a Web page</a>.</p>\n\n\n\n\n\n\n\n\n\n\n\n<a href=\"https://cardinalforestes.fcps.edu/?utm_campaign+=&amp;utm_medium=email&amp;utm_source=govdelivery\" targ...",
      "pubDate": "Wed, 13 Aug 2025 15:02:39 -0500",
      "timestamp": 1755115359000,
      "feedName": "Cardinal Forest Elementary School",
      "category": "Cardinal Forest Elementary School",
      "feedSource": "http://www.fcps.edu/index.shtml",
      "feedInfo": {
        "title": "Cardinal Forest Elementary School News and announcements - Recent Updates",
        "description": "Cardinal Forest Elementary School News and announcements",
        "link": "http://www.fcps.edu/index.shtml"
      }
    },
    {
      "id": "NjU5MTM1MzI=",
      "title": "Timber Lane Times 8/13/25",
      "link": "https://content.govdelivery.com/accounts/VAEDUFCPS/bulletins/3edc2bc",
      "description": "\n        \n\n\n  \n\n\n\n\n\n\n\n<p><a></a>Having trouble viewing this email? <a href=\"https://content.govdelivery.com/accounts/VAEDUFCPS/bulletins/3edc2bc\">View it as a Web page</a>.</p>\n\n\n\n\n\n\n\n\n\n\n\n\n<a href=\"https://timberlanees.fcps.edu/?utm_campaign+=&amp;utm_medium=email&amp;utm_source=govdelivery\" target=...",
      "pubDate": "Wed, 13 Aug 2025 15:00:26 -0500",
      "timestamp": 1755115226000,
      "feedName": "Timber Lane Elementary School",
      "category": "Timber Lane Elementary School",
      "feedSource": "http://www.fcps.edu/index.shtml",
      "feedInfo": {
        "title": "Timber Lane Elementary School News and announcements - Recent Updates",
        "description": "Timber Lane Elementary School News and announcements",
        "link": "http://www.fcps.edu/index.shtml"
      }
    },
    {
      "id": "NjU5MDU0ODY=",
      "title": "Summer Update #4   8.13.2025",
      "link": "https://content.govdelivery.com/accounts/VAEDUFCPS/bulletins/3eda34e",
      "description": "\n        \n\n\n  \n\n\n\n\n\n\n\n<p><a></a>Having trouble viewing this email? <a href=\"https://content.govdelivery.com/accounts/VAEDUFCPS/bulletins/3eda34e\">View it as a Web page</a>.</p>\n\n\n\n\n\n\n\n\n\n\n\n<a href=\"http://www2.fcps.edu/KentGardensES/?utm_campaign+=&amp;utm_medium=email&amp;utm_source=govdelivery\" tar...",
      "pubDate": "Wed, 13 Aug 2025 15:00:23 -0500",
      "timestamp": 1755115223000,
      "feedName": "Kent Gardens Elementary School",
      "category": "Kent Gardens Elementary School",
      "feedSource": "http://www.fcps.edu/index.shtml",
      "feedInfo": {
        "title": "Kent Gardens Elementary School News and Announcements - Recent Updates",
        "description": "Kent Gardens Elementary School News and announcements",
        "link": "http://www.fcps.edu/index.shtml"
      }
    },
    {
      "id": "NjU5MTA3NjQ=",
      "title": "Health Room Greeting",
      "link": "https://content.govdelivery.com/accounts/VAEDUFCPS/bulletins/3edb7ec",
      "description": "\n        \n\n\n  \n\n\n\n\n\n\n\n<p><a></a>Having trouble viewing this email? <a href=\"https://content.govdelivery.com/accounts/VAEDUFCPS/bulletins/3edb7ec\">View it as a Web page</a>.</p>\n\n\n\n\n\n\n\n\n\n\n\n<a href=\"https://marshallroades.fcps.edu/?utm_campaign+=&amp;utm_medium=email&amp;utm_source=govdelivery\" target...",
      "pubDate": "Wed, 13 Aug 2025 14:53:13 -0500",
      "timestamp": 1755114793000,
      "feedName": "Marshall Road Elementary School",
      "category": "Marshall Road Elementary School",
      "feedSource": "http://www.fcps.edu/index.shtml",
      "feedInfo": {
        "title": "Marshall Road ES News and Announcements - Recent Updates",
        "description": "Marshall Road Elementary School News and announcements",
        "link": "http://www.fcps.edu/index.shtml"
      }
    },
    {
      "id": "NjU4MzUxOTM=",
      "title": "Westgate Weekly News",
      "link": "https://content.govdelivery.com/accounts/VAEDUFCPS/bulletins/3ec90b9",
      "description": "\n        \n\n\n  \n\n\n\n\n\n\n\n<p><a></a>Having trouble viewing this email? <a href=\"https://content.govdelivery.com/accounts/VAEDUFCPS/bulletins/3ec90b9\">View it as a Web page</a>.</p>\n\n\n\n\n\n\n\n\n\n\n\n<a href=\"http://www2.fcps.edu/WestgateES/?utm_content=&amp;utm_medium=email&amp;utm_name=&amp;utm_source=govdeli...",
      "pubDate": "Wed, 13 Aug 2025 14:37:15 -0500",
      "timestamp": 1755113835000,
      "feedName": "Westgate Elementary School",
      "category": "Westgate Elementary School",
      "feedSource": "http://www.fcps.edu/index.shtml",
      "feedInfo": {
        "title": "Westgate ES News",
        "description": "Westgate Elementary School News and announcements",
        "link": "http://www.fcps.edu/index.shtml"
      }
    },
    {
      "id": "NjU5MTE4MTk=",
      "title": "Stenwood Hive Happenings",
      "link": "https://content.govdelivery.com/accounts/VAEDUFCPS/bulletins/3edbc0b",
      "description": "\n        \n\n\n  \n\n\n\n\n\n\n\n<p><a></a>Having trouble viewing this email? <a href=\"https://content.govdelivery.com/accounts/VAEDUFCPS/bulletins/3edbc0b\">View it as a Web page</a>.</p>\n\n\n\n\n\n\n\n\n\n\n\n<a href=\"https://stenwoodes.fcps.edu/?utm_content=&amp;utm_medium=email&amp;utm_name=&amp;utm_source=govdelivery...",
      "pubDate": "Wed, 13 Aug 2025 14:26:28 -0500",
      "timestamp": 1755113188000,
      "feedName": "Stenwood Elementary School",
      "category": "Stenwood Elementary School",
      "feedSource": "http://www.fcps.edu/index.shtml",
      "feedInfo": {
        "title": "Stenwood Elementary School News and announcements - Recent Updates",
        "description": "Stenwood Elementary School News and announcements",
        "link": "http://www.fcps.edu/index.shtml"
      }
    },
    {
      "id": "NjU5MTMzMjY=",
      "title": "Key MS - News You Choose - 08/13/25 - Locker Night/Open House",
      "link": "https://content.govdelivery.com/accounts/VAEDUFCPS/bulletins/3edc1ee",
      "description": "\n        \n\n\n  \n\n\n\n\n\n\n\n<p><a></a>Having trouble viewing this email? <a href=\"https://content.govdelivery.com/accounts/VAEDUFCPS/bulletins/3edc1ee\">View it as a Web page</a>.</p>\n\n\n\n\n\n\n\n\n\n\n\n<a href=\"http://www2.fcps.edu/KeyMS/?utm_campaign+=&amp;utm_medium=email&amp;utm_source=govdelivery\" target=\"_bl...",
      "pubDate": "Wed, 13 Aug 2025 14:21:47 -0500",
      "timestamp": 1755112907000,
      "feedName": "Key Middle School",
      "category": "Key Middle School",
      "feedSource": "http://www.fcps.edu/index.shtml",
      "feedInfo": {
        "title": "Key Middle School News and Announcements - Recent Updates",
        "description": "Key Middle School News and Announcements",
        "link": "http://www.fcps.edu/index.shtml"
      }
    },
    {
      "id": "NjU4NjcwOTk=",
      "title": "WHES - Save-the-Dates &amp; Back To School Announcements",
      "link": "https://content.govdelivery.com/accounts/VAEDUFCPS/bulletins/3ed0d5b",
      "description": "\n        \n\n\n  \n\n\n\n\n\n\n\n<p><a></a>Having trouble viewing this email? <a href=\"https://content.govdelivery.com/accounts/VAEDUFCPS/bulletins/3ed0d5b\">View it as a Web page</a>.</p>\n\n\n\n\n\n\n\n\n\n\n\n<a href=\"https://woodleyhillses.fcps.edu/?utm_campaign+=&amp;utm_medium=email&amp;utm_source=govdelivery\" target...",
      "pubDate": "Wed, 13 Aug 2025 14:17:38 -0500",
      "timestamp": 1755112658000,
      "feedName": "Woodley Hills Elementary School",
      "category": "Woodley Hills Elementary School",
      "feedSource": "http://www.fcps.edu/index.shtml",
      "feedInfo": {
        "title": "Woodley Hills Elementary School News and announcements - Recent Updates",
        "description": "Woodley Hills Elementary School News and announcements",
        "link": "http://www.fcps.edu/index.shtml"
      }
    },
    {
      "id": "NjU5MDgwNzM=",
      "title": "Woodson Athletics- 2025-2026 Cav Sport Pass",
      "link": "https://content.govdelivery.com/accounts/VAEDUFCPS/bulletins/3edad69",
      "description": "\n        \n\n\n  \n\n\n\n\n\n\n\n<p><a></a>Having trouble viewing this email? <a href=\"https://content.govdelivery.com/accounts/VAEDUFCPS/bulletins/3edad69\">View it as a Web page</a>.</p>\n\n\n\n\n\n\n\n\n\n\n\n<a href=\"https://woodsonhs.fcps.edu/?utm_campaign+=&amp;utm_medium=email&amp;utm_source=govdelivery\" target=\"_bl...",
      "pubDate": "Wed, 13 Aug 2025 14:00:18 -0500",
      "timestamp": 1755111618000,
      "feedName": "Woodson High School",
      "category": "Woodson High School",
      "feedSource": "https://public.govdelivery.com/topics/Woodson_HS_NEWS/feed.rss",
      "feedInfo": {
        "title": "Woodson High School News and announcements",
        "description": "Woodson High School News and announcements",
        "link": "https://public.govdelivery.com/topics/Woodson_HS_NEWS/feed.rss"
      }
    },
    {
      "id": "NjU4OTc4MDc=",
      "title": "Brookfield Open House is Friday, August 15",
      "link": "https://content.govdelivery.com/accounts/VAEDUFCPS/bulletins/3ed854f",
      "description": "\n        \n\n\n  \n\n\n\n\n\n\n\n<p><a></a>Having trouble viewing this email? <a href=\"https://content.govdelivery.com/accounts/VAEDUFCPS/bulletins/3ed854f\">View it as a Web page</a>.</p>\n\n\n\n\n\n\n\n\n\n\n\n<a href=\"https://brookfieldes.fcps.edu/?utm_campaign+=&amp;utm_medium=email&amp;utm_source=govdelivery\" target=\"...",
      "pubDate": "Wed, 13 Aug 2025 14:00:17 -0500",
      "timestamp": 1755111617000,
      "feedName": "Brookfield Elementary School",
      "category": "Brookfield Elementary School",
      "feedSource": "http://www.fcps.edu/index.shtml",
      "feedInfo": {
        "title": "Brookfield Elementary School News and announcements - Recent Updates",
        "description": "Brookfield Elementary School News and announcements",
        "link": "http://www.fcps.edu/index.shtml"
      }
    },
    {
      "id": "NjU4NjU0NjQ=",
      "title": "Kilmer Center School Tiger Tales",
      "link": "https://content.govdelivery.com/accounts/VAEDUFCPS/bulletins/3ed06f8",
      "description": "\n        \n\n\n  \n\n\n\n\n\n\n\n<p><a></a>Having trouble viewing this email? <a href=\"https://content.govdelivery.com/accounts/VAEDUFCPS/bulletins/3ed06f8\">View it as a Web page</a>.</p>\n\n\n\n\n\n\n\n\n\n\n\n<a href=\"https://kilmercenter.fcps.edu/?utm_campaign+=&amp;utm_medium=email&amp;utm_source=govdelivery\" target=\"...",
      "pubDate": "Wed, 13 Aug 2025 14:00:15 -0500",
      "timestamp": 1755111615000,
      "feedName": "Kilmer Center",
      "category": "Kilmer Center",
      "feedSource": "http://www.fcps.edu/index.shtml",
      "feedInfo": {
        "title": "Kilmer Center News and announcements - Recent Updates",
        "description": "Kilmer Special Education Center News and announcements",
        "link": "http://www.fcps.edu/index.shtml"
      }
    },
    {
      "id": "NjU5MTA1ODg=",
      "title": "KJMS EagleFest Reminder",
      "link": "https://content.govdelivery.com/accounts/VAEDUFCPS/bulletins/3edb73c",
      "description": "\n        \n\n\n  \n\n\n\n\n\n\n\n<p><a></a>Having trouble viewing this email? <a href=\"https://content.govdelivery.com/accounts/VAEDUFCPS/bulletins/3edb73c\">View it as a Web page</a>.</p>\n\n\n\n\n\n\n\n\n\n\n\n<a href=\"https://johnsonms.fcps.edu/?utm_campaign+=&amp;utm_medium=email&amp;utm_source=govdelivery\" target=\"_bl...",
      "pubDate": "Wed, 13 Aug 2025 13:00:14 -0500",
      "timestamp": 1755108014000,
      "feedName": "Katherine Johnson Middle School",
      "category": "Katherine Johnson Middle School",
      "feedSource": "http://www.fcps.edu/index.shtml",
      "feedInfo": {
        "title": "Katherine Johnson Middle School News and Announcements - Recent Updates",
        "description": "Katherine Johnson Middle School News and announcements",
        "link": "http://www.fcps.edu/index.shtml"
      }
    },
    {
      "id": "NjU5MTA3NTU=",
      "title": "EHS PTSA Newsletter- August 13, 2025",
      "link": "https://content.govdelivery.com/accounts/VAEDUFCPS/bulletins/3edb7e3",
      "description": "\n        \n\n\n  \n\n\n\n\n\n\n\n<p><a></a>Having trouble viewing this email? <a href=\"https://content.govdelivery.com/accounts/VAEDUFCPS/bulletins/3edb7e3\">View it as a Web page</a>.</p>\n\n\n\n\n\n\n\n\n\n\n\n\n\n\n\n\n\n\n\n\n\n\n\n\n\n\n\n\n<p><strong><a href=\"https://edisonhs.fcps.edu/aggregator/sources/1?utm_campaign+=&amp;utm_mediu...",
      "pubDate": "Wed, 13 Aug 2025 12:33:08 -0500",
      "timestamp": 1755106388000,
      "feedName": "Edison High School",
      "category": "Edison High School",
      "feedSource": "http://www.fcps.edu/index.shtml",
      "feedInfo": {
        "title": "Edison High School News and announcements - Recent Updates",
        "description": "Edison High School News and announcements",
        "link": "http://www.fcps.edu/index.shtml"
      }
    },
    {
      "id": "NjU5MTAyMjQ=",
      "title": "WolfPack Weekly Back to School Special Edition",
      "link": "https://content.govdelivery.com/accounts/VAEDUFCPS/bulletins/3edb5d0",
      "description": "\n        \n\n\n  \n\n\n\n\n\n\n\n<p><a></a>Having trouble viewing this email? <a href=\"https://content.govdelivery.com/accounts/VAEDUFCPS/bulletins/3edb5d0\">View it as a Web page</a>.</p>\n\n\n\n\n\n\n\n\n\n\n\n<a href=\"http://www2.fcps.edu/OakViewES/?utm_campaign+=&amp;utm_medium=email&amp;utm_source=govdelivery\" target=...",
      "pubDate": "Wed, 13 Aug 2025 12:18:01 -0500",
      "timestamp": 1755105481000,
      "feedName": "Oak Hill Elementary School",
      "category": "Oak Hill Elementary School",
      "feedSource": "http://www.fcps.edu/index.shtml",
      "feedInfo": {
        "title": "Oak Hill Elementary School News and Announcements - Recent Updates",
        "description": "Oak Hill Elementary School News and Announcements",
        "link": "http://www.fcps.edu/index.shtml"
      }
    },
    {
      "id": "NjU2Mzk5Mzc=",
      "title": "Chesterbrook Opening Preparation 8.13.25",
      "link": "https://content.govdelivery.com/accounts/VAEDUFCPS/bulletins/3e99601",
      "description": "\n        \n\n\n  \n\n\n\n\n\n\n\n<p><a></a>Having trouble viewing this email? <a href=\"https://content.govdelivery.com/accounts/VAEDUFCPS/bulletins/3e99601\">View it as a Web page</a>.</p>\n\n\n\n\n\n\n\n\n\n\n\n<a href=\"https://chesterbrookes.fcps.edu/?utm_campaign+=&amp;utm_medium=email&amp;utm_source=govdelivery\" target...",
      "pubDate": "Wed, 13 Aug 2025 12:17:33 -0500",
      "timestamp": 1755105453000,
      "feedName": "Chesterbrook Elementary School",
      "category": "Chesterbrook Elementary School",
      "feedSource": "https://chesterbrookes.fcps.edu/aggregator/sources/1",
      "feedInfo": {
        "title": "Chesterbrook Elementary School News and Announcements",
        "description": "Chesterbrook Elementary School News and Announcements",
        "link": "https://chesterbrookes.fcps.edu/aggregator/sources/1"
      }
    }
  ],
  "hasNext": true,
  "hasPrev": true
}