{
  "page": 84,
  "totalPages": 268,
  "totalItems": 5354,
  "itemsPerPage": 20,
  "items": [
    {
      "id": "NjUwODEzMjE=",
      "title": "This Week in Athletics",
      "link": "https://content.govdelivery.com/accounts/VAEDUFCPS/bulletins/3e10fe9",
      "description": "\n        \n\n\n  \n\n\n\n\n\n\n\n<p><a></a>Having trouble viewing this email? <a href=\"https://content.govdelivery.com/accounts/VAEDUFCPS/bulletins/3e10fe9\">View it as a Web page</a>.</p>\n\n\n\n\n\n\n\n\n\n\n\n<a href=\"https://herndonhs.fcps.edu/?utm_campaign+=&amp;utm_medium=email&amp;utm_source=govdelivery\" target=\"_bl...",
      "pubDate": "Mon, 19 May 2025 08:10:13 -0500",
      "timestamp": 1747660213000,
      "feedName": "Herndon High School",
      "category": "Herndon High School",
      "feedSource": "http://www.fcps.edu/index.shtml",
      "feedInfo": {
        "title": "Herndon High School News and Announcements - Recent Updates",
        "description": "Herndon High School News and Announcements",
        "link": "http://www.fcps.edu/index.shtml"
      }
    },
    {
      "id": "NjUwNTk5MTE=",
      "title": "Belle View Beat-May 19, 2025",
      "link": "https://content.govdelivery.com/accounts/VAEDUFCPS/bulletins/3e0bc47",
      "description": "\n        \n\n\n  \n\n\n\n\n\n\n\n<p><a></a>Having trouble viewing this email? <a href=\"https://content.govdelivery.com/accounts/VAEDUFCPS/bulletins/3e0bc47\">View it as a Web page</a>.</p>\n\n\n\n\n\n\n\n\n\n\n\n\n\n\n\n\n\n\n\n\n\n\n\n\n\n\n\n<a href=\"https://belleviewes.fcps.edu/?utm_campaign+=&amp;utm_medium=email&amp;utm_source=govdel...",
      "pubDate": "Mon, 19 May 2025 07:12:58 -0500",
      "timestamp": 1747656778000,
      "feedName": "Belle View Elementary School",
      "category": "Belle View Elementary School",
      "feedSource": "http://www.fcps.edu/index.shtml",
      "feedInfo": {
        "title": "Belle View Elementary School News and announcements - Recent Updates",
        "description": "Belle View Elementary School News and announcements",
        "link": "http://www.fcps.edu/index.shtml"
      }
    },
    {
      "id": "NjQ5NDA3MTQ=",
      "title": "CES Weekly Updates 5/19/2025",
      "link": "https://content.govdelivery.com/accounts/VAEDUFCPS/bulletins/3deeaaa",
      "description": "\n        \n\n\n  \n\n\n\n\n\n\n\n<p><a></a>Having trouble viewing this email? <a href=\"https://content.govdelivery.com/accounts/VAEDUFCPS/bulletins/3deeaaa\">View it as a Web page</a>.</p>\n\n\n\n\n\n\n\n\n\n\n\n<a href=\"https://chesterbrookes.fcps.edu/?utm_campaign+=&amp;utm_medium=email&amp;utm_source=govdelivery\" target...",
      "pubDate": "Mon, 19 May 2025 06:00:19 -0500",
      "timestamp": 1747652419000,
      "feedName": "Chesterbrook Elementary School",
      "category": "Chesterbrook Elementary School",
      "feedSource": "https://chesterbrookes.fcps.edu/aggregator/sources/1",
      "feedInfo": {
        "title": "Chesterbrook Elementary School News and Announcements",
        "description": "Chesterbrook Elementary School News and Announcements",
        "link": "https://chesterbrookes.fcps.edu/aggregator/sources/1"
      }
    },
    {
      "id": "NjUwNzc1NTA=",
      "title": "Pine Spring Paw Print",
      "link": "https://content.govdelivery.com/accounts/VAEDUFCPS/bulletins/3e1012e",
      "description": "\n        \n\n\n  \n\n\n\n\n\n\n\n<p><a></a>Having trouble viewing this email? <a href=\"https://content.govdelivery.com/accounts/VAEDUFCPS/bulletins/3e1012e\">View it as a Web page</a>.</p>\n\n\n\n\n\n\n\n\n\n\n\n<a href=\"https://pinespringes.fcps.edu/?utm_campaign+=&amp;utm_medium=email&amp;utm_source=govdelivery\" target=\"...",
      "pubDate": "Sun, 18 May 2025 19:52:07 -0500",
      "timestamp": 1747615927000,
      "feedName": "Pine Spring Elementary School",
      "category": "Pine Spring Elementary School",
      "feedSource": "http://www.fcps.edu/index.shtml",
      "feedInfo": {
        "title": "Pine Spring Elementary School News and announcements - Recent Updates",
        "description": "Pine Spring Elementary School News and announcements",
        "link": "http://www.fcps.edu/index.shtml"
      }
    },
    {
      "id": "NjUwNjEzMTY=",
      "title": "Woodson Athletics Week of May 19th",
      "link": "https://content.govdelivery.com/accounts/VAEDUFCPS/bulletins/3e0c1c4",
      "description": "\n        \n\n\n  \n\n\n\n\n\n\n\n<p><a></a>Having trouble viewing this email? <a href=\"https://content.govdelivery.com/accounts/VAEDUFCPS/bulletins/3e0c1c4\">View it as a Web page</a>.</p>\n\n\n\n\n\n\n\n\n\n\n\n<a href=\"https://woodsonhs.fcps.edu/?utm_campaign+=&amp;utm_medium=email&amp;utm_source=govdelivery\" target=\"_bl...",
      "pubDate": "Sun, 18 May 2025 18:00:18 -0500",
      "timestamp": 1747609218000,
      "feedName": "Woodson High School",
      "category": "Woodson High School",
      "feedSource": "https://public.govdelivery.com/topics/Woodson_HS_NEWS/feed.rss",
      "feedInfo": {
        "title": "Woodson High School News and announcements",
        "description": "Woodson High School News and announcements",
        "link": "https://public.govdelivery.com/topics/Woodson_HS_NEWS/feed.rss"
      }
    },
    {
      "id": "NjUwNzc0MDE=",
      "title": "McNair ES: Friendly Reminders For This Week!",
      "link": "https://content.govdelivery.com/accounts/VAEDUFCPS/bulletins/3e10099",
      "description": "\n        \n\n\n  \n\n\n\n\n\n\n\n<p><a></a>Having trouble viewing this email? <a href=\"https://content.govdelivery.com/accounts/VAEDUFCPS/bulletins/3e10099\">View it as a Web page</a>.</p>\n\n\n\n\n\n\n\n\n\n\n\n<a href=\"http://www2.fcps.edu/McNairES/?utm_campaign+=&amp;utm_medium=email&amp;utm_source=govdelivery\" target=\"...",
      "pubDate": "Sun, 18 May 2025 17:55:30 -0500",
      "timestamp": 1747608930000,
      "feedName": "McNair Lower Elementary School",
      "category": "McNair Lower Elementary School",
      "feedSource": "http://www.fcps.edu/index.shtml",
      "feedInfo": {
        "title": "McNair Elementary (Grades Prek-2) News and Announcements - Recent Updates",
        "description": "McNair Elementary (Grades Prek-2) News and Announcements - Recent Updates",
        "link": "http://www.fcps.edu/index.shtml"
      }
    },
    {
      "id": "NjUwNzc0MDE=",
      "title": "McNair ES: Friendly Reminders For This Week!",
      "link": "https://content.govdelivery.com/accounts/VAEDUFCPS/bulletins/3e10099",
      "description": "\n        \n\n\n  \n\n\n\n\n\n\n\n<p><a></a>Having trouble viewing this email? <a href=\"https://content.govdelivery.com/accounts/VAEDUFCPS/bulletins/3e10099\">View it as a Web page</a>.</p>\n\n\n\n\n\n\n\n\n\n\n\n<a href=\"http://www2.fcps.edu/McNairES/?utm_campaign+=&amp;utm_medium=email&amp;utm_source=govdelivery\" target=\"...",
      "pubDate": "Sun, 18 May 2025 17:55:30 -0500",
      "timestamp": 1747608930000,
      "feedName": "McNair Upper Elementary School",
      "category": "McNair Upper Elementary School",
      "feedSource": "http://www.fcps.edu/index.shtml",
      "feedInfo": {
        "title": "McNair Upper (Grades 3-6) News and Announcements - Recent Updates",
        "description": "McNair Upper (Grades 3-6) News and Announcements - Recent Updates",
        "link": "http://www.fcps.edu/index.shtml"
      }
    },
    {
      "id": "NjUwNjQyODg=",
      "title": "Weekly Updates",
      "link": "https://content.govdelivery.com/accounts/VAEDUFCPS/bulletins/3e0cd60",
      "description": "\n        \n\n\n  \n\n\n\n\n\n\n\n<p><a></a>Having trouble viewing this email? <a href=\"https://content.govdelivery.com/accounts/VAEDUFCPS/bulletins/3e0cd60\">View it as a Web page</a>.</p>\n\n\n\n\n\n\n\n\n\n\n\n<a href=\"http://www2.fcps.edu/SleepyHollowES/?utm_content=&amp;utm_medium=email&amp;utm_name=&amp;utm_source=gov...",
      "pubDate": "Sun, 18 May 2025 17:27:58 -0500",
      "timestamp": 1747607278000,
      "feedName": "Sleepy Hollow Elementary School",
      "category": "Sleepy Hollow Elementary School",
      "feedSource": "http://www.fcps.edu/index.shtml",
      "feedInfo": {
        "title": "Sleepy Hollow Elementary School News and announcements - Recent Updates",
        "description": "Sleepy Hollow Elementary School News and announcements",
        "link": "http://www.fcps.edu/index.shtml"
      }
    },
    {
      "id": "NjUwNzcyODk=",
      "title": "Hornet Happenings: Week of May 19th",
      "link": "https://content.govdelivery.com/accounts/VAEDUFCPS/bulletins/3e10029",
      "description": "\n        \n\n\n  \n\n\n\n\n\n\n\n<p><a></a>Having trouble viewing this email? <a href=\"https://content.govdelivery.com/accounts/VAEDUFCPS/bulletins/3e10029\">View it as a Web page</a>.</p>\n\n\n\n\n\n\n\n\n\n\n\n<a href=\"http://www2.fcps.edu/HalleyES/?utm_campaign+=&amp;utm_medium=email&amp;utm_source=govdelivery\" target=\"...",
      "pubDate": "Sun, 18 May 2025 17:18:57 -0500",
      "timestamp": 1747606737000,
      "feedName": "Halley Elementary School",
      "category": "Halley Elementary School",
      "feedSource": "http://www.fcps.edu/index.shtml",
      "feedInfo": {
        "title": "Halley Elementary School News and announcements - Recent Updates",
        "description": "Halley Elementary School News and announcements",
        "link": "http://www.fcps.edu/index.shtml"
      }
    },
    {
      "id": "NjUwNzYyNTg=",
      "title": "Navy News &amp; Notes ðŸ—žï¸ðŸ“Œ 5.18.25",
      "link": "https://content.govdelivery.com/accounts/VAEDUFCPS/bulletins/3e0fc22",
      "description": "\n        \n\n\n  \n\n\n\n\n\n\n\n<p><a></a>Having trouble viewing this email? <a href=\"https://content.govdelivery.com/accounts/VAEDUFCPS/bulletins/3e0fc22\">View it as a Web page</a>.</p>\n\n\n\n\n\n\n\n\n\n\n\n<a href=\"https://navyes.fcps.edu/?utm_campaign+=&amp;utm_medium=email&amp;utm_source=govdelivery\" target=\"_blank...",
      "pubDate": "Sun, 18 May 2025 17:00:13 -0500",
      "timestamp": 1747605613000,
      "feedName": "Navy Elementary School",
      "category": "Navy Elementary School",
      "feedSource": "http://www.fcps.edu/index.shtml",
      "feedInfo": {
        "title": "Navy Elementary School News and announcements - Recent Updates",
        "description": "Navy Elementary School News and announcements",
        "link": "http://www.fcps.edu/index.shtml"
      }
    },
    {
      "id": "NjUwNTMxMjM=",
      "title": "Woodlawn News May 18, 2025",
      "link": "https://content.govdelivery.com/accounts/VAEDUFCPS/bulletins/3e0a1c3",
      "description": "\n        \n\n\n  \n\n\n\n\n\n\n\n\n\n\n\n\n\n\n\n\n\n\n\n<a href=\"http://www2.fcps.edu/WoodlawnES/?utm_campaign+=&amp;utm_medium=email&amp;utm_source=govdelivery\" target=\"_blank\"></a>\n\n\n\n\n\n\n\n\n\n\n\n\n\n\n\n<a href=\"https://woodlawnes.fcps.edu/aggregator/sources/1?utm_campaign+=&amp;utm_medium=email&amp;utm_source=govdelivery\" ta...",
      "pubDate": "Sun, 18 May 2025 16:30:12 -0500",
      "timestamp": 1747603812000,
      "feedName": "Woodlawn Elementary School",
      "category": "Woodlawn Elementary School",
      "feedSource": "http://www.fcps.edu/index.shtml",
      "feedInfo": {
        "title": "Woodlawn Elementary School News and announcements - Recent Updates",
        "description": "Woodlawn Elementary School News and announcements",
        "link": "http://www.fcps.edu/index.shtml"
      }
    },
    {
      "id": "NjUwNzY1OTA=",
      "title": "LRES News You Choose 5.18.25",
      "link": "https://content.govdelivery.com/accounts/VAEDUFCPS/bulletins/3e0fd6e",
      "description": "\n        \n\n\n  \n\n\n\n\n\n\n\n<p><a></a>Having trouble viewing this email? <a href=\"https://content.govdelivery.com/accounts/VAEDUFCPS/bulletins/3e0fd6e\">View it as a Web page</a>.</p>\n\n\n\n\n\n\n\n\n\n\n\n<a href=\"https://lemonroades.fcps.edu/?utm_campaign+=&amp;utm_medium=email&amp;utm_source=govdelivery\" target=\"_...",
      "pubDate": "Sun, 18 May 2025 16:26:05 -0500",
      "timestamp": 1747603565000,
      "feedName": "Lemon Road Elementary School",
      "category": "Lemon Road Elementary School",
      "feedSource": "http://www.fcps.edu/index.shtml",
      "feedInfo": {
        "title": "Lemon Road Elementary School News and announcements - Recent Updates",
        "description": "Lemon Road Elementary School News and announcements",
        "link": "http://www.fcps.edu/index.shtml"
      }
    },
    {
      "id": "NjUwNzExMDA=",
      "title": "The Wildcat Weekly - May 18, 2025",
      "link": "https://content.govdelivery.com/accounts/VAEDUFCPS/bulletins/3e0e7fc",
      "description": "\n        \n\n\n  \n\n\n\n\n\n\n\n<p><a></a>Having trouble viewing this email? <a href=\"https://content.govdelivery.com/accounts/VAEDUFCPS/bulletins/3e0e7fc\">View it as a Web page</a>.</p>\n\n\n\n\n\n\n\n\n\n\n\n<a href=\"https://centrevillehs.fcps.edu?utm_campaign+=&amp;utm_medium=email&amp;utm_source=govdelivery\" target=\"...",
      "pubDate": "Sun, 18 May 2025 16:00:16 -0500",
      "timestamp": 1747602016000,
      "feedName": "Centreville High School",
      "category": "Centreville High School",
      "feedSource": "http://www.fcps.edu/index.shtml",
      "feedInfo": {
        "title": "Centreville High School News and announcements - Recent Updates",
        "description": "Centreville High School News and announcements",
        "link": "http://www.fcps.edu/index.shtml"
      }
    },
    {
      "id": "NjUwMzQ4Njk=",
      "title": "This Week at Langley",
      "link": "https://content.govdelivery.com/accounts/VAEDUFCPS/bulletins/3e05a75",
      "description": "\n        \n\n\n  \n\n\n\n\n\n\n\n<p><a></a>Having trouble viewing this email? <a href=\"https://content.govdelivery.com/accounts/VAEDUFCPS/bulletins/3e05a75\">View it as a Web page</a>.</p>\n\n\n\n\n\n\n\n\n\n\n\n<a href=\"http://langleyhs.fcps.edu/?utm_content=&amp;utm_medium=email&amp;utm_name=&amp;utm_source=govdelivery&a...",
      "pubDate": "Sun, 18 May 2025 16:00:13 -0500",
      "timestamp": 1747602013000,
      "feedName": "Langley High School",
      "category": "Langley High School",
      "feedSource": "http://www.fcps.edu/index.shtml",
      "feedInfo": {
        "title": "Langley HS News and Announcements - Recent Updates",
        "description": "Langley HS News and Announcements",
        "link": "http://www.fcps.edu/index.shtml"
      }
    },
    {
      "id": "NjUwNzY5NTI=",
      "title": "Tomorrow, Monday May 19th--Early Release Day",
      "link": "https://content.govdelivery.com/accounts/VAEDUFCPS/bulletins/3e0fed8",
      "description": "\n        \n\n\n  \n\n\n\n\n\n\n\n<p><a></a>Having trouble viewing this email? <a href=\"https://content.govdelivery.com/accounts/VAEDUFCPS/bulletins/3e0fed8\">View it as a Web page</a>.</p>\n\n\n\n\n\n\n\n\n\n\n\n<a href=\"https://aldrines.fcps.edu/?utm_campaign+=&amp;utm_medium=email&amp;utm_source=govdelivery\" target=\"_bla...",
      "pubDate": "Sun, 18 May 2025 15:24:23 -0500",
      "timestamp": 1747599863000,
      "feedName": "Aldrin Elementary School",
      "category": "Aldrin Elementary School",
      "feedSource": "http://www.fcps.edu/index.shtml",
      "feedInfo": {
        "title": "Aldrin Elementary School News and announcements - Recent Updates",
        "description": "Aldrin Elementary School News and announcements",
        "link": "http://www.fcps.edu/index.shtml"
      }
    },
    {
      "id": "NjUwMzg5NDE=",
      "title": "Principal's Message May 18, 2025",
      "link": "https://content.govdelivery.com/accounts/VAEDUFCPS/bulletins/3e06a5d",
      "description": "\n        \n\n\n  \n\n\n\n\n\n\n\n<p><a></a>Having trouble viewing this email? <a href=\"https://content.govdelivery.com/accounts/VAEDUFCPS/bulletins/3e06a5d\">View it as a Web page</a>.</p>\n\n\n\n\n\n\n\n\n\n\n\n<a href=\"https://stonems.fcps.edu/?utm_campaign+=&amp;utm_medium=email&amp;utm_source=govdelivery\" target=\"_blan...",
      "pubDate": "Sun, 18 May 2025 14:56:06 -0500",
      "timestamp": 1747598166000,
      "feedName": "Stone Middle School",
      "category": "Stone Middle School",
      "feedSource": "http://www.fcps.edu/index.shtml",
      "feedInfo": {
        "title": "Stone Middle School News and announcements - Recent Updates",
        "description": "Stone Middle School News and announcements",
        "link": "http://www.fcps.edu/index.shtml"
      }
    },
    {
      "id": "NjUwNjQ3MDM=",
      "title": "Weekly Wave: May 18, 2025",
      "link": "https://content.govdelivery.com/accounts/VAEDUFCPS/bulletins/3e0ceff",
      "description": "\n        \n\n\n  \n\n\n\n\n\n\n\n<p><a></a>Having trouble viewing this email? <a href=\"https://content.govdelivery.com/accounts/VAEDUFCPS/bulletins/3e0ceff\">View it as a Web page</a>.</p>\n\n\n\n\n\n\n\n\n\n\n\n<a href=\"https://lakeannees.fcps.edu/?utm_campaign+=&amp;utm_medium=email&amp;utm_source=govdelivery\" target=\"_b...",
      "pubDate": "Sun, 18 May 2025 14:34:57 -0500",
      "timestamp": 1747596897000,
      "feedName": "Lake Anne Elementary School",
      "category": "Lake Anne Elementary School",
      "feedSource": "http://www.fcps.edu/index.shtml",
      "feedInfo": {
        "title": "Lake Anne Elementary School News and Announcements - Recent Updates",
        "description": "Lake Anne Elementary School News and announcements",
        "link": "http://www.fcps.edu/index.shtml"
      }
    },
    {
      "id": "NjUwNTU0ODY=",
      "title": "Panther Press for May 18, 2025",
      "link": "https://content.govdelivery.com/accounts/VAEDUFCPS/bulletins/3e0aafe",
      "description": "\n        \n\n\n  \n\n\n\n\n\n\n\n<p><a></a>Having trouble viewing this email? <a href=\"https://content.govdelivery.com/accounts/VAEDUFCPS/bulletins/3e0aafe\">View it as a Web page</a>.</p>\n\n\n\n\n\n\n\n\n\n\n\n<a href=\"http://www2.fcps.edu/ParklawnES/?utm_campaign+=&amp;utm_medium=email&amp;utm_source=govdelivery\" target...",
      "pubDate": "Sun, 18 May 2025 13:00:11 -0500",
      "timestamp": 1747591211000,
      "feedName": "Parklawn Elementary School",
      "category": "Parklawn Elementary School",
      "feedSource": "http://www.fcps.edu/index.shtml",
      "feedInfo": {
        "title": "Panther Press - Recent Updates",
        "description": "Panther Press - Recent Updates",
        "link": "http://www.fcps.edu/index.shtml"
      }
    },
    {
      "id": "NjUwMjY2MTA=",
      "title": "Weekly News From South County High School",
      "link": "https://content.govdelivery.com/accounts/VAEDUFCPS/bulletins/3e03a32",
      "description": "\n        \n\n\n  \n\n\n\n\n\n\n\n<p><a></a>Having trouble viewing this email? <a href=\"https://content.govdelivery.com/accounts/VAEDUFCPS/bulletins/3e03a32\">View it as a Web page</a>.</p>\n\n\n\n\n\n\n\n\n\n\n\n<a href=\"https://southcountyhs.fcps.edu/?utm_campaign+=&amp;utm_medium=email&amp;utm_source=govdelivery\" target=...",
      "pubDate": "Sun, 18 May 2025 12:20:14 -0500",
      "timestamp": 1747588814000,
      "feedName": "South County High School",
      "category": "South County High School",
      "feedSource": "http://www.fcps.edu/index.shtml",
      "feedInfo": {
        "title": "South County High School News and announcements - Recent Updates",
        "description": "South County High School News and announcements",
        "link": "http://www.fcps.edu/index.shtml"
      }
    },
    {
      "id": "NjUwMTg3NzE=",
      "title": "ðŸ¦ðŸŽ¶ðŸŽµBand and Chorus Performance This Week!",
      "link": "https://content.govdelivery.com/accounts/VAEDUFCPS/bulletins/3e01b93",
      "description": "\n        \n\n\n  \n\n\n\n\n\n\n\n<p><a></a>Having trouble viewing this email? <a href=\"https://content.govdelivery.com/accounts/VAEDUFCPS/bulletins/3e01b93\">View it as a Web page</a>.</p>\n\n\n\n\n\n\n\n\n\n\n\n<a href=\"http://www2.fcps.edu/LondonTowneES/?utm_campaign+=&amp;utm_medium=email&amp;utm_source=govdelivery\" tar...",
      "pubDate": "Sun, 18 May 2025 12:00:16 -0500",
      "timestamp": 1747587616000,
      "feedName": "London Towne Elementary School",
      "category": "London Towne Elementary School",
      "feedSource": "http://www.fcps.edu/index.shtml",
      "feedInfo": {
        "title": "London Towne Elementary School News and Announcements - Recent Updates",
        "description": "London Towne Elementary School News and announcements",
        "link": "http://www.fcps.edu/index.shtml"
      }
    }
  ],
  "hasNext": true,
  "hasPrev": true
}