{
  "page": 57,
  "totalPages": 268,
  "totalItems": 5354,
  "itemsPerPage": 20,
  "items": [
    {
      "id": "NjUyNTQ2OTQ=",
      "title": "Panther Press: June 6",
      "link": "https://content.govdelivery.com/accounts/VAEDUFCPS/bulletins/3e3b526",
      "description": "\n        \n\n\n  \n\n\n\n\n\n\n\n<p><a></a>Having trouble viewing this email? <a href=\"https://content.govdelivery.com/accounts/VAEDUFCPS/bulletins/3e3b526\">View it as a Web page</a>.</p>\n\n\n\n\n\n\n\n\n\n\n\n<a href=\"http://www2.fcps.edu/ProvidenceES/?utm_campaign+=&amp;utm_medium=email&amp;utm_source=govdelivery\" targ...",
      "pubDate": "Fri, 06 Jun 2025 10:32:27 -0500",
      "timestamp": 1749223947000,
      "feedName": "Providence Elementary School",
      "category": "Providence Elementary School",
      "feedSource": "http://www.fcps.edu/index.shtml",
      "feedInfo": {
        "title": "Providence Elementary School News and Announcements - Recent Updates",
        "description": "Providence Elementary School News and announcements",
        "link": "http://www.fcps.edu/index.shtml"
      }
    },
    {
      "id": "NjUxMTc0ODI=",
      "title": "Louise Archer News 6-6-25",
      "link": "https://content.govdelivery.com/accounts/VAEDUFCPS/bulletins/3e19d2a",
      "description": "\n        \n\n\n  \n\n\n\n\n\n\n\n<p><a></a>Having trouble viewing this email? <a href=\"https://content.govdelivery.com/accounts/VAEDUFCPS/bulletins/3e19d2a\">View it as a Web page</a>.</p>\n\n\n\n\n\n\n\n\n\n\n\n<a href=\"https://twitter.com/LouiseArcherES?utm_content=&amp;utm_medium=email&amp;utm_name=&amp;utm_source=govde...",
      "pubDate": "Fri, 06 Jun 2025 10:31:34 -0500",
      "timestamp": 1749223894000,
      "feedName": "Louise Archer Elementary School",
      "category": "Louise Archer Elementary School",
      "feedSource": "http://www.fcps.edu/index.shtml",
      "feedInfo": {
        "title": "Louise Archer Elementary School News and announcements - Recent Updates",
        "description": "Louise Archer Elementary School News and announcements",
        "link": "http://www.fcps.edu/index.shtml"
      }
    },
    {
      "id": "NjUyNjU5Njc=",
      "title": "Girl Scouts School Supply Drive",
      "link": "https://content.govdelivery.com/accounts/VAEDUFCPS/bulletins/3e3e12f",
      "description": "\n        \n\n\n  \n\n\n\n\n\n\n\n<p><a></a>Having trouble viewing this email? <a href=\"https://content.govdelivery.com/accounts/VAEDUFCPS/bulletins/3e3e12f\">View it as a Web page</a>.</p>\n\n\n\n\n\n\n\n\n\n\n\n<a href=\"https://greenbriareastes.fcps.edu/?utm_campaign+=&amp;utm_medium=email&amp;utm_source=govdelivery\" targ...",
      "pubDate": "Fri, 06 Jun 2025 10:23:51 -0500",
      "timestamp": 1749223431000,
      "feedName": "Greenbriar East Elementary School",
      "category": "Greenbriar East Elementary School",
      "feedSource": "https://greenbriareastes.fcps.edu/",
      "feedInfo": {
        "title": "Greenbriar East Elementary School News and announcements",
        "description": "Greenbriar East Elementary School News and announcements",
        "link": "https://greenbriareastes.fcps.edu/"
      }
    },
    {
      "id": "NjUyNjQ4OTY=",
      "title": "LBSS Weekly News - June 6, 2025",
      "link": "https://content.govdelivery.com/accounts/VAEDUFCPS/bulletins/3e3dd00",
      "description": "\n        \n\n\n  \n\n\n\n\n\n\n\n<p><a></a>Having trouble viewing this email? <a href=\"https://content.govdelivery.com/accounts/VAEDUFCPS/bulletins/3e3dd00\">View it as a Web page</a>.</p>\n\n\n\n\n\n\n\n\n\n\n\n<a href=\"https://lakebraddockss.fcps.edu/?utm_campaign+=&amp;utm_medium=email&amp;utm_source=govdelivery\" target...",
      "pubDate": "Fri, 06 Jun 2025 09:46:14 -0500",
      "timestamp": 1749221174000,
      "feedName": "Lake Braddock Secondary School",
      "category": "Lake Braddock Secondary School",
      "feedSource": "http://www.fcps.edu/index.shtml",
      "feedInfo": {
        "title": "Lake Braddock Secondary School News and announcements - Recent Updates",
        "description": "Lake Braddock Secondary School News and announcements",
        "link": "http://www.fcps.edu/index.shtml"
      }
    },
    {
      "id": "NjUyNjU3NDI=",
      "title": "Eagle Express - June 6, 2025",
      "link": "https://content.govdelivery.com/accounts/VAEDUFCPS/bulletins/3e3e04e",
      "description": "\n        \n\n\n  \n\n\n\n\n\n\n\n<p><a></a>Having trouble viewing this email? <a href=\"https://content.govdelivery.com/accounts/VAEDUFCPS/bulletins/3e3e04e\">View it as a Web page</a>.</p>\n\n\n\n\n\n\n\n\n\n\n\n<a href=\"http://www2.fcps.edu/BraddockES/?utm_campaign+=&amp;utm_medium=email&amp;utm_source=govdelivery\" target...",
      "pubDate": "Fri, 06 Jun 2025 08:59:41 -0500",
      "timestamp": 1749218381000,
      "feedName": "Braddock Elementary School",
      "category": "Braddock Elementary School",
      "feedSource": "http://www.fcps.edu/index.shtml",
      "feedInfo": {
        "title": "Braddock ES - The Eagle Express - Recent Updates",
        "description": "Braddock Elementary School News and announcements",
        "link": "http://www.fcps.edu/index.shtml"
      }
    },
    {
      "id": "NjUyNjU1NzE=",
      "title": "CORRECTION: Springfield District Volunteer Opportunity",
      "link": "https://content.govdelivery.com/accounts/VAEDUFCPS/bulletins/3e3dfa3",
      "description": "\n        \n\n\n  \n\n\n\n\n\n\n\n<p><a></a>Having trouble viewing this email? <a href=\"https://content.govdelivery.com/accounts/VAEDUFCPS/bulletins/3e3dfa3\">View it as a Web page</a>.</p>\n\n\n\n\n\n\n\n\n\n\n\n<a href=\"https://www.fcps.edu/staff/sandy-anderson?utm_campaign+=&amp;utm_medium=email&amp;utm_source=govdeliver...",
      "pubDate": "Fri, 06 Jun 2025 08:13:10 -0500",
      "timestamp": 1749215590000,
      "feedName": "FCPS School Board Springfield District",
      "category": "FCPS School Board Springfield District",
      "feedSource": "http://www.fcps.edu/index.shtml",
      "feedInfo": {
        "title": "Springfield District Member - Sandy Anderson - Recent Updates",
        "description": "Springfield District Member - Sandy Anderson - Recent Updates",
        "link": "http://www.fcps.edu/index.shtml"
      }
    },
    {
      "id": "NjUyMzQyMTE=",
      "title": "Mustang Memo 6.6.25",
      "link": "https://content.govdelivery.com/accounts/VAEDUFCPS/bulletins/3e36523",
      "description": "\n        \n\n\n  \n\n\n\n\n\n\n\n\n\n\n\n\n\n\n\n\n\n\n\n<a href=\"http://www2.fcps.edu/WestSpringfieldES/?utm_campaign+=&amp;utm_medium=email&amp;utm_source=govdelivery\" target=\"_blank\"></a>\n\n\n\n\n\n\n\n\n\n\n\n\n\n\n\n\nNote from Dr. Sheers\n<strong>Celebrating Academic Growth!</strong>\n<p>We are thrilled to share an update on our stud...",
      "pubDate": "Fri, 06 Jun 2025 08:10:11 -0500",
      "timestamp": 1749215411000,
      "feedName": "West Springfield Elementary School",
      "category": "West Springfield Elementary School",
      "feedSource": "http://www.fcps.edu/index.shtml",
      "feedInfo": {
        "title": "West Springfield Elementary School News and announcements - Recent Updates",
        "description": "West Springfield Elementary School News and announcements",
        "link": "http://www.fcps.edu/index.shtml"
      }
    },
    {
      "id": "NjUyNjUyMDU=",
      "title": "🎓Senior Walks at Floris ES 🎓",
      "link": "https://content.govdelivery.com/accounts/VAEDUFCPS/bulletins/3e3de35",
      "description": "\n        \n\n\n  \n\n\n\n\n\n\n\n<p><a></a>Having trouble viewing this email? <a href=\"https://content.govdelivery.com/accounts/VAEDUFCPS/bulletins/3e3de35\">View it as a Web page</a>.</p>\n\n\n\n\n\n\n\n\n\n\n\n<a href=\"https://florises.fcps.edu/?utm_campaign+=&amp;utm_medium=email&amp;utm_source=govdelivery\" target=\"_bla...",
      "pubDate": "Fri, 06 Jun 2025 07:36:49 -0500",
      "timestamp": 1749213409000,
      "feedName": "Floris Elementary School",
      "category": "Floris Elementary School",
      "feedSource": "http://www.fcps.edu/index.shtml",
      "feedInfo": {
        "title": "Floris Friday Message",
        "description": "Floris Elementary School News and announcements",
        "link": "http://www.fcps.edu/index.shtml"
      }
    },
    {
      "id": "NjUxNjcxNTQ=",
      "title": "Floris Family Message 6/6/25",
      "link": "https://content.govdelivery.com/accounts/VAEDUFCPS/bulletins/3e25f32",
      "description": "\n        \n\n\n  \n\n\n\n\n\n\n\n<p><a></a>Having trouble viewing this email? <a href=\"https://content.govdelivery.com/accounts/VAEDUFCPS/bulletins/3e25f32\">View it as a Web page</a>.</p>\n\n\n\n\n\n\n\n\n\n\n\n<a href=\"https://florises.fcps.edu/?utm_content=&amp;utm_medium=email&amp;utm_name=&amp;utm_source=govdelivery&a...",
      "pubDate": "Fri, 06 Jun 2025 07:25:34 -0500",
      "timestamp": 1749212734000,
      "feedName": "Floris Elementary School",
      "category": "Floris Elementary School",
      "feedSource": "http://www.fcps.edu/index.shtml",
      "feedInfo": {
        "title": "Floris Friday Message",
        "description": "Floris Elementary School News and announcements",
        "link": "http://www.fcps.edu/index.shtml"
      }
    },
    {
      "id": "NjUyNjQyOTk=",
      "title": "FHES Field Day Reminders - Today is the Day!",
      "link": "https://content.govdelivery.com/accounts/VAEDUFCPS/bulletins/3e3daab",
      "description": "\n        \n\n\n  \n\n\n\n\n\n\n\n<p><a></a>Having trouble viewing this email? <a href=\"https://content.govdelivery.com/accounts/VAEDUFCPS/bulletins/3e3daab\">View it as a Web page</a>.</p>\n\n\n\n\n\n\n\n\n\n\n\n<a href=\"http://www2.fcps.edu/FreedomHillES/?utm_campaign+=&amp;utm_medium=email&amp;utm_source=govdelivery\" tar...",
      "pubDate": "Fri, 06 Jun 2025 05:06:49 -0500",
      "timestamp": 1749204409000,
      "feedName": "Freedom Hill Elementary School",
      "category": "Freedom Hill Elementary School",
      "feedSource": "http://www.fcps.edu/index.shtml",
      "feedInfo": {
        "title": "Freedom Hill Elementary School News and announcements - Recent Updates",
        "description": "Freedom Hill Elementary School News and announcements",
        "link": "http://www.fcps.edu/index.shtml"
      }
    },
    {
      "id": "NjUyMzM3MzE=",
      "title": "Springfield District Volunteer Opportunity",
      "link": "https://content.govdelivery.com/accounts/VAEDUFCPS/bulletins/3e36343",
      "description": "\n        \n\n\n  \n\n\n\n\n\n\n\n<p><a></a>Having trouble viewing this email? <a href=\"https://content.govdelivery.com/accounts/VAEDUFCPS/bulletins/3e36343\">View it as a Web page</a>.</p>\n\n\n\n\n\n\n\n\n\n\n\n<a href=\"https://www.fcps.edu/staff/sandy-anderson?utm_campaign+=&amp;utm_medium=email&amp;utm_source=govdeliver...",
      "pubDate": "Fri, 06 Jun 2025 05:00:13 -0500",
      "timestamp": 1749204013000,
      "feedName": "FCPS School Board Springfield District",
      "category": "FCPS School Board Springfield District",
      "feedSource": "http://www.fcps.edu/index.shtml",
      "feedInfo": {
        "title": "Springfield District Member - Sandy Anderson - Recent Updates",
        "description": "Springfield District Member - Sandy Anderson - Recent Updates",
        "link": "http://www.fcps.edu/index.shtml"
      }
    },
    {
      "id": "NjUyNDc2OTc=",
      "title": "Sangster News From The Nest 6-5-25",
      "link": "https://content.govdelivery.com/accounts/VAEDUFCPS/bulletins/3e399d1",
      "description": "\n        \n\n\n  \n\n\n\n\n\n\n\n\n\n\n\n\n\n\n\n\n\n\n\n<a href=\"https://sangsteres.fcps.edu/?utm_content=&amp;utm_medium=email&amp;utm_name=&amp;utm_source=govdelivery&amp;utm_term=\" target=\"_blank\"></a>\n\n\n\n\n\n\n\n\n\n\n\n\n\n\n\n\n\n  \n    \n\n\nIMPORTANT DATES \n \nJune 11  Last day of school! 2-hour Early Release: 1:55 pm Dismissal\nJu...",
      "pubDate": "Thu, 05 Jun 2025 19:00:13 -0500",
      "timestamp": 1749168013000,
      "feedName": "Sangster Elementary School",
      "category": "Sangster Elementary School",
      "feedSource": "http://www.fcps.edu/index.shtml",
      "feedInfo": {
        "title": "Sangster Elementary School News and announcements - Recent Updates",
        "description": "Sangster Elementary School News and announcements",
        "link": "http://www.fcps.edu/index.shtml"
      }
    },
    {
      "id": "NjUwODc2NzM=",
      "title": "June 2025 Newsletter - Cell Phone Updates, #CaribbeanHeritageMonth, Family Resources, and More!",
      "link": "https://content.govdelivery.com/accounts/VAEDUFCPS/bulletins/3e128b9",
      "description": "\n        \n\n\n  \n\n\n\n\n\n\n\n<p><a></a>Having trouble viewing this email? <a href=\"https://content.govdelivery.com/accounts/VAEDUFCPS/bulletins/3e128b9\">View it as a Web page</a>.</p>\n\n\n\n\n\n\n\n\n\n\n\n<a href=\"https://www.fcps.edu/staff/seema-dixit?utm_campaign+=&amp;utm_medium=email&amp;utm_source=govdelivery\" ...",
      "pubDate": "Thu, 05 Jun 2025 17:41:59 -0500",
      "timestamp": 1749163319000,
      "feedName": "FCPS School Board Sully District",
      "category": "FCPS School Board Sully District",
      "feedSource": "http://www.fcps.edu/index.shtml",
      "feedInfo": {
        "title": "Sully District Member - Seema Dixit - Recent Updates",
        "description": "Sully District Member - Seema Dixit - Recent Updates",
        "link": "http://www.fcps.edu/index.shtml"
      }
    },
    {
      "id": "NjUyNTMzNjg=",
      "title": "Dranesville's PTA Newsletter",
      "link": "https://content.govdelivery.com/accounts/VAEDUFCPS/bulletins/3e3aff8",
      "description": "\n        \n\n\n  \n\n\n\n\n\n\n\n<p><a></a>Having trouble viewing this email? <a href=\"https://content.govdelivery.com/accounts/VAEDUFCPS/bulletins/3e3aff8\">View it as a Web page</a>.</p>\n\n\n\n\n\n\n\n\n\n\n\n<a href=\"https://dranesvillees.fcps.edu/?utm_campaign+=&amp;utm_medium=email&amp;utm_source=govdelivery\" target=...",
      "pubDate": "Thu, 05 Jun 2025 17:30:18 -0500",
      "timestamp": 1749162618000,
      "feedName": "Dranesville Elementary School",
      "category": "Dranesville Elementary School",
      "feedSource": "http://www.fcps.edu/index.shtml",
      "feedInfo": {
        "title": "Dranesville Elementary School News and announcements - Recent Updates",
        "description": "Dranesville Elementary School News and announcements",
        "link": "http://www.fcps.edu/index.shtml"
      }
    },
    {
      "id": "NjUyNTY0NDc=",
      "title": "Saratoga Connection",
      "link": "https://content.govdelivery.com/accounts/VAEDUFCPS/bulletins/3e3bbff",
      "description": "\n        \n\n\n  \n\n\n\n\n\n\n\n<p><a></a>Having trouble viewing this email? <a href=\"https://content.govdelivery.com/accounts/VAEDUFCPS/bulletins/3e3bbff\">View it as a Web page</a>.</p>\n\n\n\n\n\n\n\n\n\n\n\n<a href=\"http://www2.fcps.edu/SaratogaES/?utm_campaign+=&amp;utm_medium=email&amp;utm_source=govdelivery\" target...",
      "pubDate": "Thu, 05 Jun 2025 17:00:16 -0500",
      "timestamp": 1749160816000,
      "feedName": "Saratoga Elementary School",
      "category": "Saratoga Elementary School",
      "feedSource": "http://www.fcps.edu/index.shtml",
      "feedInfo": {
        "title": "Saratoga Elementary School News and announcements - Recent Updates",
        "description": "Saratoga Elementary School News and announcements",
        "link": "http://www.fcps.edu/index.shtml"
      }
    },
    {
      "id": "NjUxNTg3NzI=",
      "title": "Orange Hunt News We HOOT",
      "link": "https://content.govdelivery.com/accounts/VAEDUFCPS/bulletins/3e23e74",
      "description": "\n        \n\n\n  \n\n\n\n\n\n\n\n<p><a></a>Having trouble viewing this email? <a href=\"https://content.govdelivery.com/accounts/VAEDUFCPS/bulletins/3e23e74\">View it as a Web page</a>.</p>\n\n\n\n\n\n\n\n\n\n\n\n<a href=\"https://orangehuntes.fcps.edu?utm_content=&amp;utm_medium=email&amp;utm_name=&amp;utm_source=govdeliver...",
      "pubDate": "Thu, 05 Jun 2025 16:03:27 -0500",
      "timestamp": 1749157407000,
      "feedName": "Orange Hunt Elementary School",
      "category": "Orange Hunt Elementary School",
      "feedSource": "http://www.fcps.edu/index.shtml",
      "feedInfo": {
        "title": "Orange Hunt ES News and Announcements - Recent Updates",
        "description": "Orange Hunt ES News and Announcements",
        "link": "http://www.fcps.edu/index.shtml"
      }
    },
    {
      "id": "NjUyNDg4ODk=",
      "title": "The BULLS Bulletin (Week of 06/09)",
      "link": "https://content.govdelivery.com/accounts/VAEDUFCPS/bulletins/3e39e79",
      "description": "\n        \n\n\n  \n\n\n\n\n\n\n\n<p><a></a>Having trouble viewing this email? <a href=\"https://content.govdelivery.com/accounts/VAEDUFCPS/bulletins/3e39e79\">View it as a Web page</a>.</p>\n\n\n\n\n\n\n\n\n\n\n\n<a href=\"https://bullrunes.fcps.edu/?utm_content=&amp;utm_medium=email&amp;utm_name=&amp;utm_source=govdelivery&...",
      "pubDate": "Thu, 05 Jun 2025 16:00:19 -0500",
      "timestamp": 1749157219000,
      "feedName": "Bull Run Elementary School",
      "category": "Bull Run Elementary School",
      "feedSource": "http://www.fcps.edu/index.shtml",
      "feedInfo": {
        "title": "Bull Run Elementary School News and announcements - Recent Updates",
        "description": "Bull Run Elementary School News and announcements",
        "link": "http://www.fcps.edu/index.shtml"
      }
    },
    {
      "id": "NjUyNTk2NzU=",
      "title": "Weekly Updates",
      "link": "https://content.govdelivery.com/accounts/VAEDUFCPS/bulletins/3e3c89b",
      "description": "\n        \n\n\n  \n\n\n\n\n\n\n\n<p><a></a>Having trouble viewing this email? <a href=\"https://content.govdelivery.com/accounts/VAEDUFCPS/bulletins/3e3c89b\">View it as a Web page</a>.</p>\n\n\n\n\n\n\n\n\n\n\n\n<a href=\"http://www2.fcps.edu/SleepyHollowES/?utm_content=&amp;utm_medium=email&amp;utm_name=&amp;utm_source=gov...",
      "pubDate": "Thu, 05 Jun 2025 15:53:42 -0500",
      "timestamp": 1749156822000,
      "feedName": "Sleepy Hollow Elementary School",
      "category": "Sleepy Hollow Elementary School",
      "feedSource": "http://www.fcps.edu/index.shtml",
      "feedInfo": {
        "title": "Sleepy Hollow Elementary School News and announcements - Recent Updates",
        "description": "Sleepy Hollow Elementary School News and announcements",
        "link": "http://www.fcps.edu/index.shtml"
      }
    },
    {
      "id": "NjUyNTkxOTQ=",
      "title": "Falcon Flyer: June 5th, 2025",
      "link": "https://content.govdelivery.com/accounts/VAEDUFCPS/bulletins/3e3c6ba",
      "description": "\n        \n\n\n  \n\n\n\n\n\n\n\n\n\n\n\n\n\n\n\n\n\n\n\n\n\n\n\n\n\n\n\n\n\n\n\n\n\n\n\n<p>June 5th, 2025</p>\n\nFlint Hill Updates\n\n<p>Good Afternoon Flint Hill Families,</p>\n<p>It has been a busy week at Flint Hill as we prepare for our final days of the 24-25 school year.</p>\n<p>On Tuesday, The Lamb Mowers visited FHES. Two flocks of s...",
      "pubDate": "Thu, 05 Jun 2025 15:30:15 -0500",
      "timestamp": 1749155415000,
      "feedName": "Flint Hill Elementary School",
      "category": "Flint Hill Elementary School",
      "feedSource": "http://www.fcps.edu/index.shtml",
      "feedInfo": {
        "title": "Flint Hill Elementary School News and Announcements - Recent Updates",
        "description": "Flint Hill Elementary School News and Announcements",
        "link": "http://www.fcps.edu/index.shtml"
      }
    },
    {
      "id": "NjUyMzAzNDg=",
      "title": "Greenbriar West ES Update 06-05-2025",
      "link": "https://content.govdelivery.com/accounts/VAEDUFCPS/bulletins/3e3560c",
      "description": "\n        \n\n\n  \n\n\n\n\n\n\n\n<p><a></a>Having trouble viewing this email? <a href=\"https://content.govdelivery.com/accounts/VAEDUFCPS/bulletins/3e3560c\">View it as a Web page</a>.</p>\n\n\n\n\n\n\n\n\n\n\n\n<a href=\"https://greenbriarwestes.fcps.edu/?utm_campaign+=&amp;utm_medium=email&amp;utm_source=govdelivery\" targ...",
      "pubDate": "Thu, 05 Jun 2025 15:30:12 -0500",
      "timestamp": 1749155412000,
      "feedName": "Greenbriar West Elementary School",
      "category": "Greenbriar West Elementary School",
      "feedSource": "http://www.fcps.edu/index.shtml",
      "feedInfo": {
        "title": "Greenbriar West Elementary School News and Announcements - Recent Updates",
        "description": "Greenbriar West Elementary School News and Announcements",
        "link": "http://www.fcps.edu/index.shtml"
      }
    }
  ],
  "hasNext": true,
  "hasPrev": true
}