{
  "page": 111,
  "totalPages": 268,
  "totalItems": 5354,
  "itemsPerPage": 20,
  "items": [
    {
      "id": "NjQ5MjM1NTQ=",
      "title": "Sibshops and SibTeens Update",
      "link": "https://content.govdelivery.com/accounts/VAEDUFCPS/bulletins/3dea7a2",
      "description": "\n        \n\n\n  \n\n\n\n\n\n\n\n<p><a></a>Having trouble viewing this email? <a href=\"https://content.govdelivery.com/accounts/VAEDUFCPS/bulletins/3dea7a2\">View it as a Web page</a>.</p>\n\n\n\n\n\n\n\n\n\n\n\n<a href=\"https://www.fcps.edu/resources/family-engagement/parent-resource-center?utm_campaign+=&amp;utm_medium=e...",
      "pubDate": "Fri, 02 May 2025 14:56:32 -0500",
      "timestamp": 1746215792000,
      "feedName": "FCPS Family Resource Newsletters",
      "category": "FCPS Family Resource Newsletters",
      "feedSource": "https://www.fcps.edu/node/46704",
      "feedInfo": {
        "title": "PRC",
        "description": "PRC",
        "link": "https://www.fcps.edu/node/46704"
      }
    },
    {
      "id": "NjQ4ODM0ODY=",
      "title": "Falcon Fanfare-Week of May 5th",
      "link": "https://content.govdelivery.com/accounts/VAEDUFCPS/bulletins/3de0b1e",
      "description": "\n        \n\n\n  \n\n\n\n\n\n\n\n<p><a></a>Having trouble viewing this email? <a href=\"https://content.govdelivery.com/accounts/VAEDUFCPS/bulletins/3de0b1e\">View it as a Web page</a>.</p>\n\n\n\n\n\n\n\n\n\n\n\n<a href=\"https://fairviewes.fcps.edu/?utm_campaign+=&amp;utm_medium=email&amp;utm_source=govdelivery\" target=\"_b...",
      "pubDate": "Fri, 02 May 2025 14:55:30 -0500",
      "timestamp": 1746215730000,
      "feedName": "Fairview Elementary School",
      "category": "Fairview Elementary School",
      "feedSource": "http://www.fcps.edu/index.shtml",
      "feedInfo": {
        "title": "Fairview Elementary School News and Announcements - Recent Updates",
        "description": "Fairview Elementary School News and announcements",
        "link": "http://www.fcps.edu/index.shtml"
      }
    },
    {
      "id": "NjQ4NzYzMjI=",
      "title": "Bulldog Buzz 05/02/25",
      "link": "https://content.govdelivery.com/accounts/VAEDUFCPS/bulletins/3ddef22",
      "description": "\n        \n\n\n  \n\n\n\n\n\n\n\n<p><a></a>Having trouble viewing this email? <a href=\"https://content.govdelivery.com/accounts/VAEDUFCPS/bulletins/3ddef22\">View it as a Web page</a>.</p>\n\n\n\n\n\n\n\n\n\n\n\n<a href=\"http://www2.fcps.edu/BucknellES/?utm_campaign+=&amp;utm_medium=email&amp;utm_source=govdelivery\" target...",
      "pubDate": "Fri, 02 May 2025 14:55:20 -0500",
      "timestamp": 1746215720000,
      "feedName": "Bucknell Elementary School",
      "category": "Bucknell Elementary School",
      "feedSource": "http://live-fcps-bucknell-es.pantheonsite.io/newsfeed",
      "feedInfo": {
        "title": "Bucknell Elementary School News and Announcements",
        "description": "Bucknell Elementary School News and announcements",
        "link": "http://live-fcps-bucknell-es.pantheonsite.io/newsfeed"
      }
    },
    {
      "id": "NjQ5MDUyMDU=",
      "title": "Staff Appreciation Week",
      "link": "https://content.govdelivery.com/accounts/VAEDUFCPS/bulletins/3de5ff5",
      "description": "\n        \n\n\n  \n\n\n\n\n\n\n\n<p><a></a>Having trouble viewing this email? <a href=\"https://content.govdelivery.com/accounts/VAEDUFCPS/bulletins/3de5ff5\">View it as a Web page</a>.</p>\n\n\n\n\n\n\n\n\n\n\n\n<a href=\"http://www2.fcps.edu/SaratogaES/?utm_campaign+=&amp;utm_medium=email&amp;utm_source=govdelivery\" target...",
      "pubDate": "Fri, 02 May 2025 14:45:12 -0500",
      "timestamp": 1746215112000,
      "feedName": "Saratoga Elementary School",
      "category": "Saratoga Elementary School",
      "feedSource": "http://www.fcps.edu/index.shtml",
      "feedInfo": {
        "title": "Saratoga Elementary School News and announcements - Recent Updates",
        "description": "Saratoga Elementary School News and announcements",
        "link": "http://www.fcps.edu/index.shtml"
      }
    },
    {
      "id": "NjQ4ODgzNzI=",
      "title": "Weekly update for 5.2.2025",
      "link": "https://content.govdelivery.com/accounts/VAEDUFCPS/bulletins/3de1e34",
      "description": "\n        \n\n\n  \n\n\n\n\n\n\n\n<p><a></a>Having trouble viewing this email? <a href=\"https://content.govdelivery.com/accounts/VAEDUFCPS/bulletins/3de1e34\">View it as a Web page</a>.</p>\n\n\n\n\n\n\n\n\n\n\n\n<a href=\"https://columbiaes.fcps.edu/?utm_campaign+=&amp;utm_medium=email&amp;utm_source=govdelivery\" target=\"_b...",
      "pubDate": "Fri, 02 May 2025 14:45:11 -0500",
      "timestamp": 1746215111000,
      "feedName": "Columbia Elementary School",
      "category": "Columbia Elementary School",
      "feedSource": "http://www.fcps.edu/index.shtml",
      "feedInfo": {
        "title": "Columbia Elementary School News and Announcements - Recent Updates",
        "description": "Columbia Elementary School News and Announcements",
        "link": "http://www.fcps.edu/index.shtml"
      }
    },
    {
      "id": "NjQ5MDE0ODg=",
      "title": "Stenwood Hive Happenings",
      "link": "https://content.govdelivery.com/accounts/VAEDUFCPS/bulletins/3de5170",
      "description": "\n        \n\n\n  \n\n\n\n\n\n\n\n<p><a></a>Having trouble viewing this email? <a href=\"https://content.govdelivery.com/accounts/VAEDUFCPS/bulletins/3de5170\">View it as a Web page</a>.</p>\n\n\n\n\n\n\n\n\n\n\n\n<a href=\"https://stenwoodes.fcps.edu/?utm_content=&amp;utm_medium=email&amp;utm_name=&amp;utm_source=govdelivery...",
      "pubDate": "Fri, 02 May 2025 14:42:45 -0500",
      "timestamp": 1746214965000,
      "feedName": "Stenwood Elementary School",
      "category": "Stenwood Elementary School",
      "feedSource": "http://www.fcps.edu/index.shtml",
      "feedInfo": {
        "title": "Stenwood Elementary School News and announcements - Recent Updates",
        "description": "Stenwood Elementary School News and announcements",
        "link": "http://www.fcps.edu/index.shtml"
      }
    },
    {
      "id": "NjQ5MjcyMjg=",
      "title": "Mustang Weekly, May 2, 2025",
      "link": "https://content.govdelivery.com/accounts/VAEDUFCPS/bulletins/3deb5fc",
      "description": "\n        \n\n\n  \n\n\n\n\n\n\n\n<p><a></a>Having trouble viewing this email? <a href=\"https://content.govdelivery.com/accounts/VAEDUFCPS/bulletins/3deb5fc\">View it as a Web page</a>.</p>\n\n\n\n\n\n\n\n\n\n\n\n<a href=\"https://southcountyms.fcps.edu/?utm_campaign+=&amp;utm_medium=email&amp;utm_source=govdelivery\" target=...",
      "pubDate": "Fri, 02 May 2025 14:30:15 -0500",
      "timestamp": 1746214215000,
      "feedName": "South County Middle School",
      "category": "South County Middle School",
      "feedSource": "http://www.fcps.edu/index.shtml",
      "feedInfo": {
        "title": "SCMS News and Announcements 2025-2026 - Recent Updates",
        "description": "SCMS News and Announcements 2025-2026 - Recent Updates",
        "link": "http://www.fcps.edu/index.shtml"
      }
    },
    {
      "id": "NjQ5MjcyNTk=",
      "title": "ðŸ¾Poplar Tree Paw Print - Friday, May 2, 2025ðŸ¾",
      "link": "https://content.govdelivery.com/accounts/VAEDUFCPS/bulletins/3deb61b",
      "description": "\n        \n\n\n  \n\n\n\n\n\n\n\n<p><a></a>Having trouble viewing this email? <a href=\"https://content.govdelivery.com/accounts/VAEDUFCPS/bulletins/3deb61b\">View it as a Web page</a>.</p>\n\n\n\n\n\n\n\n\n\n\n\n<a href=\"http://www2.fcps.edu/PoplarTreeES?utm_content=&amp;utm_medium=email&amp;utm_name=&amp;utm_source=govdel...",
      "pubDate": "Fri, 02 May 2025 14:28:40 -0500",
      "timestamp": 1746214120000,
      "feedName": "Poplar Tree Elementary School",
      "category": "Poplar Tree Elementary School",
      "feedSource": "http://www.fcps.edu/index.shtml",
      "feedInfo": {
        "title": "Poplar Tree Elementary School News and announcements - Recent Updates",
        "description": "Poplar Tree Elementary School News and announcements",
        "link": "http://www.fcps.edu/index.shtml"
      }
    },
    {
      "id": "NjQ4NTg4NzE=",
      "title": "Luther Jackson May 2, 2025",
      "link": "https://content.govdelivery.com/accounts/VAEDUFCPS/bulletins/3ddaaf7",
      "description": "\n        \n\n\n  \n\n\n\n\n\n\n\n<a href=\"https://jacksonms.fcps.edu/?utm_campaign+=&amp;utm_medium=email&amp;utm_source=govdelivery\" target=\"_blank\"></a>\n\n\n\n\n\n\n\n\n\n\n\n<a href=\"https://translate.google.com/translate?hl=en&amp;sl=en&amp;tl=es&amp;u=https%3A%2F%2Fcontent.govdelivery.com%2Faccounts%2FVAEDUFCPS%2Fbu...",
      "pubDate": "Fri, 02 May 2025 14:22:06 -0500",
      "timestamp": 1746213726000,
      "feedName": "Jackson Middle School",
      "category": "Jackson Middle School",
      "feedSource": "http://www.fcps.edu/index.shtml",
      "feedInfo": {
        "title": "Jackson Middle School News and Announcements - Recent Updates",
        "description": "Jackson Middle School News and announcements",
        "link": "http://www.fcps.edu/index.shtml"
      }
    },
    {
      "id": "NjQ5MjM0MjQ=",
      "title": "Chantilly Academy Program Highlights",
      "link": "https://content.govdelivery.com/accounts/VAEDUFCPS/bulletins/3dea720",
      "description": "\n        \n\n\n  \n\n\n\n\n\n\n\n<p><a></a>Having trouble viewing this email? <a href=\"https://content.govdelivery.com/accounts/VAEDUFCPS/bulletins/3dea720\">View it as a Web page</a>.</p>\n\n\n\n\n\n\n\n\n\n\n\n<a href=\"https://chantillyacademy.fcps.edu/?utm_campaign+=&amp;utm_medium=email&amp;utm_source=govdelivery\" targ...",
      "pubDate": "Fri, 02 May 2025 14:15:14 -0500",
      "timestamp": 1746213314000,
      "feedName": "Chantilly Academy",
      "category": "Chantilly Academy",
      "feedSource": "http://www.fcps.edu/index.shtml",
      "feedInfo": {
        "title": "Chantilly Academy News and Announcements - Recent Updates",
        "description": "Chantilly Academy News and Announcements - Recent Updates",
        "link": "http://www.fcps.edu/index.shtml"
      }
    },
    {
      "id": "NjQ4NjAwNTc=",
      "title": "ATES Updates_05/02/2025",
      "link": "https://content.govdelivery.com/accounts/VAEDUFCPS/bulletins/3ddaf99",
      "description": "\n        \n\n\n  \n\n\n\n\n\n\n\n<p><a></a>Having trouble viewing this email? <a href=\"https://content.govdelivery.com/accounts/VAEDUFCPS/bulletins/3ddaf99\">View it as a Web page</a>.</p>\n\n\n\n\n\n\n\n\n\n\n\n<a href=\"https://annandaleterracees.fcps.edu/?utm_campaign+=&amp;utm_medium=email&amp;utm_source=govdelivery\" ta...",
      "pubDate": "Fri, 02 May 2025 14:10:36 -0500",
      "timestamp": 1746213036000,
      "feedName": "Annandale Terrace Elementary School",
      "category": "Annandale Terrace Elementary School",
      "feedSource": "http://www.fcps.edu/index.shtml",
      "feedInfo": {
        "title": "Annandale Terrace Elementary School News and announcements - Recent Updates",
        "description": "Annandale Terrace Elementary School News and announcements",
        "link": "http://www.fcps.edu/index.shtml"
      }
    },
    {
      "id": "NjQ5MTgwODU=",
      "title": "Cedar Connection",
      "link": "https://content.govdelivery.com/accounts/VAEDUFCPS/bulletins/3de9245",
      "description": "\n        \n\n\n  \n\n\n\n\n\n\n\n<p><a></a>Having trouble viewing this email? <a href=\"https://content.govdelivery.com/accounts/VAEDUFCPS/bulletins/3de9245\">View it as a Web page</a>.</p>\n\n\n\n\n\n\n\n\n\n\n\n<a href=\"https://cedarlaneschool.fcps.edu/?utm_campaign+=&amp;utm_medium=email&amp;utm_source=govdelivery\" targe...",
      "pubDate": "Fri, 02 May 2025 14:07:22 -0500",
      "timestamp": 1746212842000,
      "feedName": "Cedar Lane School",
      "category": "Cedar Lane School",
      "feedSource": "http://www.fcps.edu/index.shtml",
      "feedInfo": {
        "title": "Cedar Lane School News and Announcements - Recent Updates",
        "description": "Cedar Lane Special Education Center News and announcements",
        "link": "http://www.fcps.edu/index.shtml"
      }
    },
    {
      "id": "NjQ5MjgyNDI=",
      "title": "Principal's Message",
      "link": "https://content.govdelivery.com/accounts/VAEDUFCPS/bulletins/3deb9f2",
      "description": "\n        \n\n\n  \n\n\n\n\n\n\n\n<p><a></a>Having trouble viewing this email? <a href=\"https://content.govdelivery.com/accounts/VAEDUFCPS/bulletins/3deb9f2\">View it as a Web page</a>.</p>\n\n\n\n\n\n\n\n\n\n\n\n<a href=\"https://hughesms.fcps.edu/?utm_campaign+=&amp;utm_medium=email&amp;utm_source=govdelivery\" target=\"_bla...",
      "pubDate": "Fri, 02 May 2025 14:00:40 -0500",
      "timestamp": 1746212440000,
      "feedName": "Hughes Middle School",
      "category": "Hughes Middle School",
      "feedSource": "http://www.fcps.edu/index.shtml",
      "feedInfo": {
        "title": "Hughes Middle School News and announcements - Recent Updates",
        "description": "Hughes Middle School News and announcements",
        "link": "http://www.fcps.edu/index.shtml"
      }
    },
    {
      "id": "NjQ4NzYyMjc=",
      "title": "Brookfield News and Notes 5/2/2025",
      "link": "https://content.govdelivery.com/accounts/VAEDUFCPS/bulletins/3ddeec3",
      "description": "\n        \n\n\n  \n\n\n\n\n\n\n\n<p><a></a>Having trouble viewing this email? <a href=\"https://content.govdelivery.com/accounts/VAEDUFCPS/bulletins/3ddeec3\">View it as a Web page</a>.</p>\n\n\n\n\n\n\n\n\n\n\n\n<a href=\"https://brookfieldes.fcps.edu/?utm_campaign+=&amp;utm_medium=email&amp;utm_source=govdelivery\" target=\"...",
      "pubDate": "Fri, 02 May 2025 14:00:16 -0500",
      "timestamp": 1746212416000,
      "feedName": "Brookfield Elementary School",
      "category": "Brookfield Elementary School",
      "feedSource": "http://www.fcps.edu/index.shtml",
      "feedInfo": {
        "title": "Brookfield Elementary School News and announcements - Recent Updates",
        "description": "Brookfield Elementary School News and announcements",
        "link": "http://www.fcps.edu/index.shtml"
      }
    },
    {
      "id": "NjQ4NTc4NDI=",
      "title": "April Newsletter",
      "link": "https://content.govdelivery.com/accounts/VAEDUFCPS/bulletins/3dda6f2",
      "description": "\n        \n\n\n  \n\n\n\n\n\n\n\n<p><a></a>Having trouble viewing this email? <a href=\"https://content.govdelivery.com/accounts/VAEDUFCPS/bulletins/3dda6f2\">View it as a Web page</a>.</p>\n\n\n\n\n\n\n\n\n\n\n\n<a href=\"https://bryanths.fcps.edu/?utm_campaign+=&amp;utm_medium=email&amp;utm_source=govdelivery\" target=\"_bla...",
      "pubDate": "Fri, 02 May 2025 14:00:14 -0500",
      "timestamp": 1746212414000,
      "feedName": "Bryant High School",
      "category": "Bryant High School",
      "feedSource": "http://www.fcps.edu/index.shtml",
      "feedInfo": {
        "title": "Bryant High School News and Announcements - Recent Updates",
        "description": "Bryant High School News and announcements",
        "link": "http://www.fcps.edu/index.shtml"
      }
    },
    {
      "id": "NjQ4MjEzNjg=",
      "title": "Beavergram",
      "link": "https://content.govdelivery.com/accounts/VAEDUFCPS/bulletins/3dd1878",
      "description": "\n        \n\n\n  \n\n\n\n\n\n\n\n<p><a></a>Having trouble viewing this email? <a href=\"https://content.govdelivery.com/accounts/VAEDUFCPS/bulletins/3dd1878\">View it as a Web page</a>.</p>\n\n\n\n\n\n\n\n\n\n\n\n\n\n\n\n\n\n\n\n\n\n\n\n\n\n\n\n<p><a href=\"https://urldefense.com/v3/__https:/links-1.govdelivery.com/CL0/https:*2F*2Fwoodleyhi...",
      "pubDate": "Fri, 02 May 2025 13:55:55 -0500",
      "timestamp": 1746212155000,
      "feedName": "Woodley Hills Elementary School",
      "category": "Woodley Hills Elementary School",
      "feedSource": "http://www.fcps.edu/index.shtml",
      "feedInfo": {
        "title": "Woodley Hills Elementary School News and announcements - Recent Updates",
        "description": "Woodley Hills Elementary School News and announcements",
        "link": "http://www.fcps.edu/index.shtml"
      }
    },
    {
      "id": "NjQ5MTEwNTg=",
      "title": "Mountain View newsletter 5/2/25",
      "link": "https://content.govdelivery.com/accounts/VAEDUFCPS/bulletins/3de76d2",
      "description": "\n        \n\n\n  \n\n\n\n\n\n\n\n<p><a></a>Having trouble viewing this email? <a href=\"https://content.govdelivery.com/accounts/VAEDUFCPS/bulletins/3de76d2\">View it as a Web page</a>.</p>\n\n\n\n\n\n\n\n\n\n\n\n<a href=\"https://mountainviewhs.fcps.edu/?utm_campaign+=&amp;utm_medium=email&amp;utm_source=govdelivery\" target...",
      "pubDate": "Fri, 02 May 2025 13:30:16 -0500",
      "timestamp": 1746210616000,
      "feedName": "Mountain View High School",
      "category": "Mountain View High School",
      "feedSource": "http://www.fcps.edu/index.shtml",
      "feedInfo": {
        "title": "Mountain View High School News and Announcements - Recent Updates",
        "description": "Mountain View High School News and announcements",
        "link": "http://www.fcps.edu/index.shtml"
      }
    },
    {
      "id": "NjQ5MjMyMzA=",
      "title": "WPHS News You Choose 5/2/25",
      "link": "https://content.govdelivery.com/accounts/VAEDUFCPS/bulletins/3dea65e",
      "description": "\n        \n\n\n  \n\n\n\n\n\n\n\n<p><a></a>Having trouble viewing this email? <a href=\"https://content.govdelivery.com/accounts/VAEDUFCPS/bulletins/3dea65e\">View it as a Web page</a>.</p>\n\n\n\n\n\n\n\n\n\n\n\n<a href=\"https://westpotomachs.fcps.edu/?utm_campaign+=&amp;utm_medium=email&amp;utm_source=govdelivery\" target=...",
      "pubDate": "Fri, 02 May 2025 13:30:16 -0500",
      "timestamp": 1746210616000,
      "feedName": "West Potomac High School",
      "category": "West Potomac High School",
      "feedSource": "http://www.fcps.edu/index.shtml",
      "feedInfo": {
        "title": "West Potomac High School News and announcements - Recent Updates",
        "description": "West Potomac High School News and announcements",
        "link": "http://www.fcps.edu/index.shtml"
      }
    },
    {
      "id": "NjQ4NzcwNDk=",
      "title": "5/2 RRMS School Updates",
      "link": "https://content.govdelivery.com/accounts/VAEDUFCPS/bulletins/3ddf1f9",
      "description": "\n        \n\n\n  \n\n\n\n\n\n\n\n<p><a></a>Having trouble viewing this email? <a href=\"https://content.govdelivery.com/accounts/VAEDUFCPS/bulletins/3ddf1f9\">View it as a Web page</a>.</p>\n\n\n\n\n\n\n\n\n\n\n\n<a href=\"https://rockyrunms.fcps.edu/?utm_campaign+=&amp;utm_medium=email&amp;utm_source=govdelivery\" target=\"_b...",
      "pubDate": "Fri, 02 May 2025 13:25:01 -0500",
      "timestamp": 1746210301000,
      "feedName": "Rocky Run Middle School",
      "category": "Rocky Run Middle School",
      "feedSource": "https://public.govdelivery.com/topics/Rocky_Run_MS_News/feed.rss",
      "feedInfo": {
        "title": "Rocky Run Middle School News and Announcements",
        "description": "Rocky Run Middle School News and Announcements",
        "link": "https://public.govdelivery.com/topics/Rocky_Run_MS_News/feed.rss"
      }
    },
    {
      "id": "NjQ5Mjc1NjY=",
      "title": "*Correction: WSHS Spartan Weekly News, May 2, 2025",
      "link": "https://content.govdelivery.com/accounts/VAEDUFCPS/bulletins/3deb74e",
      "description": "\n        \n\n\n  \n\n\n\n\n\n\n\n<p><a></a>Having trouble viewing this email? <a href=\"https://content.govdelivery.com/accounts/VAEDUFCPS/bulletins/3deb74e\">View it as a Web page</a>.</p>\n\n\n\n\n\n\n\n\n\n\n\n<a href=\"https://westspringfieldhs.fcps.edu/?utm_campaign+=&amp;utm_medium=email&amp;utm_source=govdelivery\" tar...",
      "pubDate": "Fri, 02 May 2025 13:09:28 -0500",
      "timestamp": 1746209368000,
      "feedName": "West Springfield High School",
      "category": "West Springfield High School",
      "feedSource": "http://www.fcps.edu/index.shtml",
      "feedInfo": {
        "title": "West Springfield High School News and Announcements - Recent Updates",
        "description": "West Springfield High School News and Announcements",
        "link": "http://www.fcps.edu/index.shtml"
      }
    }
  ],
  "hasNext": true,
  "hasPrev": true
}