{
  "page": 106,
  "totalPages": 268,
  "totalItems": 5354,
  "itemsPerPage": 20,
  "items": [
    {
      "id": "NjQ5NDg3ODc=",
      "title": "Robinson Student Ram Page |May 5, 2025",
      "link": "https://content.govdelivery.com/accounts/VAEDUFCPS/bulletins/3df0a33",
      "description": "\n        \n\n\n  \n\n\n\n\n\n\n\n<p><a></a>Having trouble viewing this email? <a href=\"https://content.govdelivery.com/accounts/VAEDUFCPS/bulletins/3df0a33\">View it as a Web page</a>.</p>\n\n\n\n\n\n\n\n\n\n\n\n<a href=\"http://www2.fcps.edu/RobinsonSS/?utm_campaign+=&amp;utm_medium=email&amp;utm_source=govdelivery\" target...",
      "pubDate": "Mon, 05 May 2025 16:41:59 -0500",
      "timestamp": 1746481319000,
      "feedName": "Robinson Secondary School",
      "category": "Robinson Secondary School",
      "feedSource": "http://www.fcps.edu/index.shtml",
      "feedInfo": {
        "title": "Robinson RamPage - Recent Updates",
        "description": "Robinson Secondary School News and Announcements",
        "link": "http://www.fcps.edu/index.shtml"
      }
    },
    {
      "id": "NjQ5MDY5NDI=",
      "title": "Principal Updates - May 5",
      "link": "https://content.govdelivery.com/accounts/VAEDUFCPS/bulletins/3de66be",
      "description": "\n        \n\n\n  \n\n\n\n\n\n\n\n<p><a></a>Having trouble viewing this email? <a href=\"https://content.govdelivery.com/accounts/VAEDUFCPS/bulletins/3de66be\">View it as a Web page</a>.</p>\n\n\n\n\n\n\n\n\n\n\n\n<a href=\"https://oaktonhs.fcps.edu/?utm_campaign+=&amp;utm_medium=email&amp;utm_source=govdelivery\" target=\"_bla...",
      "pubDate": "Mon, 05 May 2025 16:30:13 -0500",
      "timestamp": 1746480613000,
      "feedName": "Oakton High School",
      "category": "Oakton High School",
      "feedSource": "http://live-fcps-oakton-hs.pantheonsite.io/newsfeed",
      "feedInfo": {
        "title": "Oakton High School News and announcements",
        "description": "Oakton High School News and announcements",
        "link": "http://live-fcps-oakton-hs.pantheonsite.io/newsfeed"
      }
    },
    {
      "id": "NjQ5MjkyODE=",
      "title": "Beech Tree PTA Virtual Meeting May 8th at 6:30pm",
      "link": "https://content.govdelivery.com/accounts/VAEDUFCPS/bulletins/3debe01",
      "description": "\n        \n\n\n  \n\n\n\n\n\n\n\n<p><a></a>Having trouble viewing this email? <a href=\"https://content.govdelivery.com/accounts/VAEDUFCPS/bulletins/3debe01\">View it as a Web page</a>.</p>\n\n\n\n\n\n\n\n\n\n\n\n<a href=\"http://www2.fcps.edu/BeechTreeES/?utm_campaign+=&amp;utm_medium=email&amp;utm_source=govdelivery\" targe...",
      "pubDate": "Mon, 05 May 2025 16:00:13 -0500",
      "timestamp": 1746478813000,
      "feedName": "Beech Tree Elementary School",
      "category": "Beech Tree Elementary School",
      "feedSource": "http://www.fcps.edu/index.shtml",
      "feedInfo": {
        "title": "Beech Tree Elementary School News and announcements - Recent Updates",
        "description": "Beech Tree Elementary School News and announcements",
        "link": "http://www.fcps.edu/index.shtml"
      }
    },
    {
      "id": "NjQ5NDY2MDc=",
      "title": "Roadrunner Rundown - 5/5/25",
      "link": "https://content.govdelivery.com/accounts/VAEDUFCPS/bulletins/3df01af",
      "description": "\n        \n\n\n  \n\n\n\n\n\n\n\n<p><a></a>Having trouble viewing this email? <a href=\"https://content.govdelivery.com/accounts/VAEDUFCPS/bulletins/3df01af\">View it as a Web page</a>.</p>\n\n\n\n\n\n\n\n\n\n\n\n<a href=\"https://marshallroades.fcps.edu/?utm_campaign+=&amp;utm_medium=email&amp;utm_source=govdelivery\" target...",
      "pubDate": "Mon, 05 May 2025 15:34:54 -0500",
      "timestamp": 1746477294000,
      "feedName": "Marshall Road Elementary School",
      "category": "Marshall Road Elementary School",
      "feedSource": "http://www.fcps.edu/index.shtml",
      "feedInfo": {
        "title": "Marshall Road ES News and Announcements - Recent Updates",
        "description": "Marshall Road Elementary School News and announcements",
        "link": "http://www.fcps.edu/index.shtml"
      }
    },
    {
      "id": "NjQ5NDgxMzA=",
      "title": "Monday, May 5, 2025 Lancer Times",
      "link": "https://content.govdelivery.com/accounts/VAEDUFCPS/bulletins/3df07a2",
      "description": "\n        \n\n\n  \n\n\n\n\n\n\n\n<p><a></a>Having trouble viewing this email? <a href=\"https://content.govdelivery.com/accounts/VAEDUFCPS/bulletins/3df07a2\">View it as a Web page</a>.</p>\n\n\n\n\n\n\n\n\n\n\n\n<a href=\"https://longfellowms.fcps.edu/?utm_campaign+=&amp;utm_medium=email&amp;utm_source=govdelivery\" target=\"...",
      "pubDate": "Mon, 05 May 2025 15:00:20 -0500",
      "timestamp": 1746475220000,
      "feedName": "Longfellow Middle School",
      "category": "Longfellow Middle School",
      "feedSource": "http://www.fcps.edu/index.shtml",
      "feedInfo": {
        "title": "Longfellow Middle School News and announcements - Recent Updates",
        "description": "Longfellow Middle School News and announcements",
        "link": "http://www.fcps.edu/index.shtml"
      }
    },
    {
      "id": "NjQ5NDYxMDI=",
      "title": "Family Liaison Newsletter - May 2025",
      "link": "https://content.govdelivery.com/accounts/VAEDUFCPS/bulletins/3deffb6",
      "description": "\n        \n\n\n  \n\n\n\n\n\n\n\n<p><a></a>Having trouble viewing this email? <a href=\"https://content.govdelivery.com/accounts/VAEDUFCPS/bulletins/3deffb6\">View it as a Web page</a>.</p>\n\n\n\n\n\n\n\n\n\n\n\n<a href=\"https://churchillroades.fcps.edu/?utm_campaign+=&amp;utm_medium=email&amp;utm_source=govdelivery\" targe...",
      "pubDate": "Mon, 05 May 2025 15:00:19 -0500",
      "timestamp": 1746475219000,
      "feedName": "Churchill Road Elementary School",
      "category": "Churchill Road Elementary School",
      "feedSource": "http://www.fcps.edu/index.shtml",
      "feedInfo": {
        "title": "Churchill Road Elementary School News and announcements - Recent Updates",
        "description": "Churchill Road Elementary School News and announcements",
        "link": "http://www.fcps.edu/index.shtml"
      }
    },
    {
      "id": "NjQ5MTY2ODQ=",
      "title": "Virginia Run ES Parent Input Form Due by Friday",
      "link": "https://content.govdelivery.com/accounts/VAEDUFCPS/bulletins/3de8ccc",
      "description": "\n        \n\n\n  \n\n\n\n\n\n\n\n<p><a></a>Having trouble viewing this email? <a href=\"https://content.govdelivery.com/accounts/VAEDUFCPS/bulletins/3de8ccc\">View it as a Web page</a>.</p>\n\n\n\n\n\n\n\n\n\n\n\n<a href=\"http://www2.fcps.edu/VirginiaRunES/?utm_campaign+=&amp;utm_medium=email&amp;utm_source=govdelivery\" tar...",
      "pubDate": "Mon, 05 May 2025 15:00:19 -0500",
      "timestamp": 1746475219000,
      "feedName": "Virginia Run Elementary School",
      "category": "Virginia Run Elementary School",
      "feedSource": "http://www.fcps.edu/index.shtml",
      "feedInfo": {
        "title": "Virginia Run Elementary School News and announcements - Use this One - Recent Updates",
        "description": "Virginia Run Elementary School News and announcements",
        "link": "http://www.fcps.edu/index.shtml"
      }
    },
    {
      "id": "NjQ4NzI3NjE=",
      "title": "Justice HS News &amp; Announcements - 5/5/25",
      "link": "https://content.govdelivery.com/accounts/VAEDUFCPS/bulletins/3dde139",
      "description": "\n        \n\n\n  \n\n\n\n\n\n\n\n<p><a></a>Having trouble viewing this email? <a href=\"https://content.govdelivery.com/accounts/VAEDUFCPS/bulletins/3dde139\">View it as a Web page</a>.</p>\n\n\n\n\n\n\n\n\n\n\n\n<a href=\"https://justicehs.fcps.edu?utm_campaign+=&amp;utm_medium=email&amp;utm_source=govdelivery\" target=\"_bla...",
      "pubDate": "Mon, 05 May 2025 15:00:17 -0500",
      "timestamp": 1746475217000,
      "feedName": "Justice High School",
      "category": "Justice High School",
      "feedSource": "https://justicehs.fcps.edu",
      "feedInfo": {
        "title": "Justice High School",
        "description": "Justice High School News and announcements",
        "link": "https://justicehs.fcps.edu"
      }
    },
    {
      "id": "NjQ5NDk0NzY=",
      "title": "Eagle Express - May 5, 2025",
      "link": "https://content.govdelivery.com/accounts/VAEDUFCPS/bulletins/3df0ce4",
      "description": "\n        \n\n\n  \n\n\n\n\n\n\n\n<p><a></a>Having trouble viewing this email? <a href=\"https://content.govdelivery.com/accounts/VAEDUFCPS/bulletins/3df0ce4\">View it as a Web page</a>.</p>\n\n\n\n\n\n\n\n\n\n\n\n<a href=\"http://www2.fcps.edu/BraddockES/?utm_campaign+=&amp;utm_medium=email&amp;utm_source=govdelivery\" target...",
      "pubDate": "Mon, 05 May 2025 14:44:56 -0500",
      "timestamp": 1746474296000,
      "feedName": "Braddock Elementary School",
      "category": "Braddock Elementary School",
      "feedSource": "http://www.fcps.edu/index.shtml",
      "feedInfo": {
        "title": "Braddock ES - The Eagle Express - Recent Updates",
        "description": "Braddock Elementary School News and announcements",
        "link": "http://www.fcps.edu/index.shtml"
      }
    },
    {
      "id": "NjQ4ODI1NTg=",
      "title": "Terra Centre Newsletter 05/05/2025",
      "link": "https://content.govdelivery.com/accounts/VAEDUFCPS/bulletins/3de077e",
      "description": "\n        \n\n\n  \n\n\n\n\n\n\n\n<p><a></a>Having trouble viewing this email? <a href=\"https://content.govdelivery.com/accounts/VAEDUFCPS/bulletins/3de077e\">View it as a Web page</a>.</p>\n\n\n\n\n\n\n\n\n\n\n\n<a href=\"https://terracentrees.fcps.edu/?utm_campaign+=&amp;utm_medium=email&amp;utm_source=govdelivery\" target=...",
      "pubDate": "Mon, 05 May 2025 14:00:13 -0500",
      "timestamp": 1746471613000,
      "feedName": "Terra Centre Elementary School",
      "category": "Terra Centre Elementary School",
      "feedSource": "http://www.fcps.edu/index.shtml",
      "feedInfo": {
        "title": "Terra Centre Elementary School News and Announcements - Recent Updates",
        "description": "Terra Centre Elementary School News and Announcements",
        "link": "http://www.fcps.edu/index.shtml"
      }
    },
    {
      "id": "NjQ5NDAzMDQ=",
      "title": "FCHS News &amp; Announcements - 5/5/25",
      "link": "https://content.govdelivery.com/accounts/VAEDUFCPS/bulletins/3dee910",
      "description": "\n        \n\n\n  \n\n\n\n\n\n\n\n<p><a></a>Having trouble viewing this email? <a href=\"https://content.govdelivery.com/accounts/VAEDUFCPS/bulletins/3dee910\">View it as a Web page</a>.</p>\n\n\n\n\n\n\n\n\n\n\n\n<a href=\"https://fallschurchhs.fcps.edu/?utm_campaign+=&amp;utm_medium=email&amp;utm_source=govdelivery\" target=...",
      "pubDate": "Mon, 05 May 2025 11:58:55 -0500",
      "timestamp": 1746464335000,
      "feedName": "Falls Church High School",
      "category": "Falls Church High School",
      "feedSource": "https://fallschurchhs.fcps.edu",
      "feedInfo": {
        "title": "Falls Church High School News and announcements",
        "description": "Falls Church High School News and announcements",
        "link": "https://fallschurchhs.fcps.edu"
      }
    },
    {
      "id": "NjQ5NDQ4MDU=",
      "title": "BRES PTA: Feliz Cinco De Mayo!",
      "link": "https://content.govdelivery.com/accounts/VAEDUFCPS/bulletins/3defaa5",
      "description": "\n        \n\n\n  \n\n\n\n\n\n\n\n\n\n\n\n\n\n\n\n\n\n\n\n<a href=\"https://bullrunes.fcps.edu/?utm_content=&amp;utm_medium=email&amp;utm_name=&amp;utm_source=govdelivery&amp;utm_term=\" target=\"_blank\"></a>\n\n\n\n\n\n\n\n\n\n\n\n\n\n\n\n\nMessage from the PTA:\n<p>Hello all, </p>\n<p>We are coming down to the last 26 days of school!</p>\n<p>P...",
      "pubDate": "Mon, 05 May 2025 11:15:13 -0500",
      "timestamp": 1746461713000,
      "feedName": "Bull Run Elementary School",
      "category": "Bull Run Elementary School",
      "feedSource": "http://www.fcps.edu/index.shtml",
      "feedInfo": {
        "title": "Bull Run Elementary School News and announcements - Recent Updates",
        "description": "Bull Run Elementary School News and announcements",
        "link": "http://www.fcps.edu/index.shtml"
      }
    },
    {
      "id": "NjQ5NDY0ODA=",
      "title": "CORRECTION- Panther Press- May 2, 2025",
      "link": "https://content.govdelivery.com/accounts/VAEDUFCPS/bulletins/3df0130",
      "description": "\n        \n\n\n  \n\n\n\n\n\n\n\n<p><a></a>Having trouble viewing this email? <a href=\"https://content.govdelivery.com/accounts/VAEDUFCPS/bulletins/3df0130\">View it as a Web page</a>.</p>\n\n\n\n\n\n\n\n\n\n\n\n<a href=\"https://mountvernonwoodses.fcps.edu/?utm_campaign+=&amp;utm_medium=email&amp;utm_source=govdelivery\" ta...",
      "pubDate": "Mon, 05 May 2025 11:01:06 -0500",
      "timestamp": 1746460866000,
      "feedName": "Mount Vernon Woods Elementary School",
      "category": "Mount Vernon Woods Elementary School",
      "feedSource": "http://www.fcps.edu/index.shtml",
      "feedInfo": {
        "title": "Mount Vernon Woods Elementary School News and announcements - Recent Updates",
        "description": "Mount Vernon Woods Elementary School News and announcements",
        "link": "http://www.fcps.edu/index.shtml"
      }
    },
    {
      "id": "NjQ5NDQxNDM=",
      "title": "Paw Prints, May 5, 2025",
      "link": "https://content.govdelivery.com/accounts/VAEDUFCPS/bulletins/3def80f",
      "description": "\n        \n\n\n  \n\n\n\n\n\n\n\n<p><a></a>Having trouble viewing this email? <a href=\"https://content.govdelivery.com/accounts/VAEDUFCPS/bulletins/3def80f\">View it as a Web page</a>.</p>\n\n\n\n\n\n\n\n\n\n\n\n<a href=\"http://www2.fcps.edu/WolftrapES/?utm_campaign+=&amp;utm_medium=email&amp;utm_source=govdelivery\" target...",
      "pubDate": "Mon, 05 May 2025 09:43:48 -0500",
      "timestamp": 1746456228000,
      "feedName": "Wolftrap Elementary School",
      "category": "Wolftrap Elementary School",
      "feedSource": "http://www.fcps.edu/index.shtml",
      "feedInfo": {
        "title": "Wolftrap Elementary School News and Announcements - Recent Updates",
        "description": "Wolftrap Elementary School News and announcements",
        "link": "http://www.fcps.edu/index.shtml"
      }
    },
    {
      "id": "NjQ5MTU5NjY=",
      "title": "Belle View Beat-May 5, 2025",
      "link": "https://content.govdelivery.com/accounts/VAEDUFCPS/bulletins/3de89fe",
      "description": "\n        \n\n\n  \n\n\n\n\n\n\n\n<p><a></a>Having trouble viewing this email? <a href=\"https://content.govdelivery.com/accounts/VAEDUFCPS/bulletins/3de89fe\">View it as a Web page</a>.</p>\n\n\n\n\n\n\n\n\n\n\n\n\n\n\n\n\n\n\n\n\n\n\n\n\n\n\n\n<a href=\"https://belleviewes.fcps.edu/?utm_campaign+=&amp;utm_medium=email&amp;utm_source=govdel...",
      "pubDate": "Mon, 05 May 2025 09:26:44 -0500",
      "timestamp": 1746455204000,
      "feedName": "Belle View Elementary School",
      "category": "Belle View Elementary School",
      "feedSource": "http://www.fcps.edu/index.shtml",
      "feedInfo": {
        "title": "Belle View Elementary School News and announcements - Recent Updates",
        "description": "Belle View Elementary School News and announcements",
        "link": "http://www.fcps.edu/index.shtml"
      }
    },
    {
      "id": "NjQ5NDQwNzI=",
      "title": "South County HS Athletics",
      "link": "https://content.govdelivery.com/accounts/VAEDUFCPS/bulletins/3def7c8",
      "description": "\n        \n\n\n  \n\n\n\n\n\n\n\n\n\n\n\n\n\n\n\n\n\n\n\n\n\n\n\n\n\n\n\n\n\n\n\n\n\n\n\n<p><strong>For the latest news, scores, and schedules please visit our SCHS Athletics &amp; Activities website:  <a href=\"https://stallionnation.org/?utm_campaign+=&amp;utm_medium=email&amp;utm_source=govdelivery\" target=\"_blank\">https://stallionnati...",
      "pubDate": "Mon, 05 May 2025 09:00:33 -0500",
      "timestamp": 1746453633000,
      "feedName": "South County High School",
      "category": "South County High School",
      "feedSource": "http://www.fcps.edu/index.shtml",
      "feedInfo": {
        "title": "South County High School News and announcements - Recent Updates",
        "description": "South County High School News and announcements",
        "link": "http://www.fcps.edu/index.shtml"
      }
    },
    {
      "id": "NjQ2MzU4ODU=",
      "title": "DCC SPRING DANCE - Tickets on Sale!",
      "link": "https://content.govdelivery.com/accounts/VAEDUFCPS/bulletins/3da43ed",
      "description": "\n        \n\n\n  \n\n\n\n\n\n\n\n<p><a></a>Having trouble viewing this email? <a href=\"https://content.govdelivery.com/accounts/VAEDUFCPS/bulletins/3da43ed\">View it as a Web page</a>.</p>\n\n\n\n\n\n\n\n\n\n\n\n<a href=\"https://daviscenter.fcps.edu/?utm_campaign+=&amp;utm_medium=email&amp;utm_source=govdelivery\" target=\"_...",
      "pubDate": "Mon, 05 May 2025 09:00:20 -0500",
      "timestamp": 1746453620000,
      "feedName": "Davis Career Center",
      "category": "Davis Career Center",
      "feedSource": "http://www.fcps.edu/index.shtml",
      "feedInfo": {
        "title": "Davis Career Center News and announcements - Recent Updates",
        "description": "Davis Career Special Education Center News and announcements",
        "link": "http://www.fcps.edu/index.shtml"
      }
    },
    {
      "id": "NjQ5NDQzMzI=",
      "title": "FROM THE PRINCIPAL'S DESK",
      "link": "https://content.govdelivery.com/accounts/VAEDUFCPS/bulletins/3def8cc",
      "description": "\n        \n\n\n  \n\n\n\n\n\n\n\n<p><a></a>Having trouble viewing this email? <a href=\"https://content.govdelivery.com/accounts/VAEDUFCPS/bulletins/3def8cc\">View it as a Web page</a>.</p>\n\n\n\n\n\n\n\n\n\n\n\n<a href=\"https://cherryrunes.fcps.edu/?utm_campaign+=&amp;utm_medium=email&amp;utm_source=govdelivery\" target=\"_...",
      "pubDate": "Mon, 05 May 2025 07:58:04 -0500",
      "timestamp": 1746449884000,
      "feedName": "Cherry Run Elementary School",
      "category": "Cherry Run Elementary School",
      "feedSource": "http://www.fcps.edu/index.shtml",
      "feedInfo": {
        "title": "Cherry Run Elementary School News and announcements - Recent Updates",
        "description": "Cherry Run Elementary School News and announcements",
        "link": "http://www.fcps.edu/index.shtml"
      }
    },
    {
      "id": "NjQ5MjgxNzQ=",
      "title": "PTA News and Upcoming Events",
      "link": "https://content.govdelivery.com/accounts/VAEDUFCPS/bulletins/3deb9ae",
      "description": "\n        \n\n\n  \n\n\n\n\n\n\n\n<p><a></a>Having trouble viewing this email? <a href=\"https://content.govdelivery.com/accounts/VAEDUFCPS/bulletins/3deb9ae\">View it as a Web page</a>.</p>\n\n\n\n\n\n\n\n\n\n\n\n<a href=\"http://www2.fcps.edu/TwainMS/?utm_campaign+=&amp;utm_medium=email&amp;utm_source=govdelivery\" target=\"_...",
      "pubDate": "Mon, 05 May 2025 06:35:12 -0500",
      "timestamp": 1746444912000,
      "feedName": "Twain Middle School",
      "category": "Twain Middle School",
      "feedSource": "http://www.fcps.edu/index.shtml",
      "feedInfo": {
        "title": "Twain Middle School News and announcements - Recent Updates",
        "description": "Twain Middle School News and announcements",
        "link": "http://www.fcps.edu/index.shtml"
      }
    },
    {
      "id": "NjQ5NDIwMjU=",
      "title": "McNair ES: Teacher &amp; Staff Appreciation Week Is Here!",
      "link": "https://content.govdelivery.com/accounts/VAEDUFCPS/bulletins/3deefc9",
      "description": "\n        \n\n\n  \n\n\n\n\n\n\n\n<p><a></a>Having trouble viewing this email? <a href=\"https://content.govdelivery.com/accounts/VAEDUFCPS/bulletins/3deefc9\">View it as a Web page</a>.</p>\n\n\n\n\n\n\n\n\n\n\n\n<a href=\"http://www2.fcps.edu/McNairES/?utm_campaign+=&amp;utm_medium=email&amp;utm_source=govdelivery\" target=\"...",
      "pubDate": "Sun, 04 May 2025 21:09:34 -0500",
      "timestamp": 1746410974000,
      "feedName": "McNair Lower Elementary School",
      "category": "McNair Lower Elementary School",
      "feedSource": "http://www.fcps.edu/index.shtml",
      "feedInfo": {
        "title": "McNair Elementary (Grades Prek-2) News and Announcements - Recent Updates",
        "description": "McNair Elementary (Grades Prek-2) News and Announcements - Recent Updates",
        "link": "http://www.fcps.edu/index.shtml"
      }
    }
  ],
  "hasNext": true,
  "hasPrev": true
}