{
  "page": 176,
  "totalPages": 268,
  "totalItems": 5354,
  "itemsPerPage": 20,
  "items": [
    {
      "id": "NjQyOTE1MzI=",
      "title": "DCC St. Patrick's Day Dance - Friday, March 14 @ 7:00 PM",
      "link": "https://content.govdelivery.com/accounts/VAEDUFCPS/bulletins/3d502cc",
      "description": "\n        \n\n\n  \n\n\n\n\n\n\n\n<p><a></a>Having trouble viewing this email? <a href=\"https://content.govdelivery.com/accounts/VAEDUFCPS/bulletins/3d502cc\">View it as a Web page</a>.</p>\n\n\n\n\n\n\n\n\n\n\n\n<a href=\"https://daviscenter.fcps.edu/?utm_campaign+=&amp;utm_medium=email&amp;utm_source=govdelivery\" target=\"_...",
      "pubDate": "Sun, 09 Mar 2025 12:00:14 -0500",
      "timestamp": 1741539614000,
      "feedName": "Davis Career Center",
      "category": "Davis Career Center",
      "feedSource": "http://www.fcps.edu/index.shtml",
      "feedInfo": {
        "title": "Davis Career Center News and announcements - Recent Updates",
        "description": "Davis Career Special Education Center News and announcements",
        "link": "http://www.fcps.edu/index.shtml"
      }
    },
    {
      "id": "NjQzNDczMTM=",
      "title": "KG News 3.9.2025",
      "link": "https://content.govdelivery.com/accounts/VAEDUFCPS/bulletins/3d5dcb1",
      "description": "\n        \n\n\n  \n\n\n\n\n\n\n\n<p><a></a>Having trouble viewing this email? <a href=\"https://content.govdelivery.com/accounts/VAEDUFCPS/bulletins/3d5dcb1\">View it as a Web page</a>.</p>\n\n\n\n\n\n\n\n\n\n\n\n<a href=\"http://www2.fcps.edu/KentGardensES/?utm_campaign+=&amp;utm_medium=email&amp;utm_source=govdelivery\" tar...",
      "pubDate": "Sun, 09 Mar 2025 11:00:13 -0500",
      "timestamp": 1741536013000,
      "feedName": "Kent Gardens Elementary School",
      "category": "Kent Gardens Elementary School",
      "feedSource": "http://www.fcps.edu/index.shtml",
      "feedInfo": {
        "title": "Kent Gardens Elementary School News and Announcements - Recent Updates",
        "description": "Kent Gardens Elementary School News and announcements",
        "link": "http://www.fcps.edu/index.shtml"
      }
    },
    {
      "id": "NjQzMDI2NDk=",
      "title": "Bulldog Buzz 03/09/25",
      "link": "https://content.govdelivery.com/accounts/VAEDUFCPS/bulletins/3d52e39",
      "description": "\n        \n\n\n  \n\n\n\n\n\n\n\n<p><a></a>Having trouble viewing this email? <a href=\"https://content.govdelivery.com/accounts/VAEDUFCPS/bulletins/3d52e39\">View it as a Web page</a>.</p>\n\n\n\n\n\n\n\n\n\n\n\n<a href=\"http://www2.fcps.edu/BucknellES/?utm_campaign+=&amp;utm_medium=email&amp;utm_source=govdelivery\" target...",
      "pubDate": "Sun, 09 Mar 2025 07:09:00 -0500",
      "timestamp": 1741522140000,
      "feedName": "Bucknell Elementary School",
      "category": "Bucknell Elementary School",
      "feedSource": "http://live-fcps-bucknell-es.pantheonsite.io/newsfeed",
      "feedInfo": {
        "title": "Bucknell Elementary School News and Announcements",
        "description": "Bucknell Elementary School News and announcements",
        "link": "http://live-fcps-bucknell-es.pantheonsite.io/newsfeed"
      }
    },
    {
      "id": "NjQyNDE5MDU=",
      "title": "Sunrise Valley News",
      "link": "https://content.govdelivery.com/accounts/VAEDUFCPS/bulletins/3d440f1",
      "description": "\n        \n\n\n  \n\n\n\n\n\n\n\n<p><a></a>Having trouble viewing this email? <a href=\"https://content.govdelivery.com/accounts/VAEDUFCPS/bulletins/3d440f1\">View it as a Web page</a>.</p>\n\n\n\n\n\n\n\n\n\n\n\n<a href=\"https://sunrisevalleyes.fcps.edu/?utm_campaign+=&amp;utm_medium=email&amp;utm_source=govdelivery\" targe...",
      "pubDate": "Sun, 09 Mar 2025 07:00:12 -0500",
      "timestamp": 1741521612000,
      "feedName": "Sunrise Valley Elementary School",
      "category": "Sunrise Valley Elementary School",
      "feedSource": "http://www.fcps.edu/index.shtml",
      "feedInfo": {
        "title": "Sunrise Valley Elementary School News and Announcements - Recent Updates",
        "description": "Sunrise Valley Elementary School News and announcements",
        "link": "http://www.fcps.edu/index.shtml"
      }
    },
    {
      "id": "NjQzNTM4NTI=",
      "title": "Weekly Wave: March 8, 2025",
      "link": "https://content.govdelivery.com/accounts/VAEDUFCPS/bulletins/3d5f63c",
      "description": "\n        \n\n\n  \n\n\n\n\n\n\n\n<p><a></a>Having trouble viewing this email? <a href=\"https://content.govdelivery.com/accounts/VAEDUFCPS/bulletins/3d5f63c\">View it as a Web page</a>.</p>\n\n\n\n\n\n\n\n\n\n\n\n<a href=\"https://lakeannees.fcps.edu/?utm_campaign+=&amp;utm_medium=email&amp;utm_source=govdelivery\" target=\"_b...",
      "pubDate": "Sat, 08 Mar 2025 15:30:12 -0600",
      "timestamp": 1741469412000,
      "feedName": "Lake Anne Elementary School",
      "category": "Lake Anne Elementary School",
      "feedSource": "http://www.fcps.edu/index.shtml",
      "feedInfo": {
        "title": "Lake Anne Elementary School News and Announcements - Recent Updates",
        "description": "Lake Anne Elementary School News and announcements",
        "link": "http://www.fcps.edu/index.shtml"
      }
    },
    {
      "id": "NjQzNTM2MDY=",
      "title": "Eagle News - Bulletin for the Week March 10th",
      "link": "https://content.govdelivery.com/accounts/VAEDUFCPS/bulletins/3d5f546",
      "description": "\n        \n\n\n  \n\n\n\n\n\n\n\n<p><a></a>Having trouble viewing this email? <a href=\"https://content.govdelivery.com/accounts/VAEDUFCPS/bulletins/3d5f546\">View it as a Web page</a>.</p>\n\n\n\n\n\n\n\n\n\n\n\n<a href=\"https://whiteoakses.fcps.edu?utm_campaign+=&amp;utm_medium=email&amp;utm_source=govdelivery\" target=\"_b...",
      "pubDate": "Sat, 08 Mar 2025 14:21:23 -0600",
      "timestamp": 1741465283000,
      "feedName": "White Oaks Elementary School",
      "category": "White Oaks Elementary School",
      "feedSource": "http://www.fcps.edu/index.shtml",
      "feedInfo": {
        "title": "White Oaks Elementary School News and Announcements - Recent Updates",
        "description": "White Oaks Elementary School News and Announcements",
        "link": "http://www.fcps.edu/index.shtml"
      }
    },
    {
      "id": "NjQzNTI3NTM=",
      "title": "Fort Hunt Fox Den News | March 7, 2025",
      "link": "https://content.govdelivery.com/accounts/VAEDUFCPS/bulletins/3d5f1f1",
      "description": "\n        \n\n\n  \n\n\n\n\n\n\n\n<p><a></a>Having trouble viewing this email? <a href=\"https://content.govdelivery.com/accounts/VAEDUFCPS/bulletins/3d5f1f1\">View it as a Web page</a>.</p>\n\n\n\n\n\n\n\n\n\n\n\n<a href=\"https://forthuntes.fcps.edu/?utm_campaign+=&amp;utm_medium=email&amp;utm_source=govdelivery\" target=\"_b...",
      "pubDate": "Sat, 08 Mar 2025 11:17:23 -0600",
      "timestamp": 1741454243000,
      "feedName": "Fort Hunt Elementary School",
      "category": "Fort Hunt Elementary School",
      "feedSource": "http://www.fcps.edu/index.shtml",
      "feedInfo": {
        "title": "Fort Hunt Elementary School News and Announcements - Recent Updates",
        "description": "Fort Hunt Elementary School News and announcements",
        "link": "http://www.fcps.edu/index.shtml"
      }
    },
    {
      "id": "NjQzMDg1MjY=",
      "title": "Beavergram",
      "link": "https://content.govdelivery.com/accounts/VAEDUFCPS/bulletins/3d5452e",
      "description": "\n        \n\n\n  \n\n\n\n\n\n\n\n<p><a></a>Having trouble viewing this email? <a href=\"https://content.govdelivery.com/accounts/VAEDUFCPS/bulletins/3d5452e\">View it as a Web page</a>.</p>\n\n\n\n\n\n\n\n\n\n\n\n\n\n\n\n\n\n\n\n\n\n\n\n\n\n\n\n<p><a href=\"https://urldefense.com/v3/__https:/links-1.govdelivery.com/CL0/https:*2F*2Fwoodleyhi...",
      "pubDate": "Fri, 07 Mar 2025 21:58:48 -0600",
      "timestamp": 1741406328000,
      "feedName": "Woodley Hills Elementary School",
      "category": "Woodley Hills Elementary School",
      "feedSource": "http://www.fcps.edu/index.shtml",
      "feedInfo": {
        "title": "Woodley Hills Elementary School News and announcements - Recent Updates",
        "description": "Woodley Hills Elementary School News and announcements",
        "link": "http://www.fcps.edu/index.shtml"
      }
    },
    {
      "id": "NjQzMjcxMTc=",
      "title": "Bailey's ES News- March 7, 2025",
      "link": "https://content.govdelivery.com/accounts/VAEDUFCPS/bulletins/3d58dcd",
      "description": "\n        \n\n\n  \n\n\n\n\n\n\n\n<p><a></a>Having trouble viewing this email? <a href=\"https://content.govdelivery.com/accounts/VAEDUFCPS/bulletins/3d58dcd\">View it as a Web page</a>.</p>\n\n\n\n\n\n\n\n\n\n\n\n<a href=\"https://baileyses.fcps.edu/?utm_campaign+=&amp;utm_medium=email&amp;utm_source=govdelivery\" target=\"_bl...",
      "pubDate": "Fri, 07 Mar 2025 20:46:01 -0600",
      "timestamp": 1741401961000,
      "feedName": "Bailey's Lower",
      "category": "Bailey's Lower",
      "feedSource": "http://www.fcps.edu/index.shtml",
      "feedInfo": {
        "title": "Bailey's Elementary (PreK-2) News and Announcements - Recent Updates",
        "description": "Bailey's Elementary (PreK-2) News and Announcements - Recent Updates",
        "link": "http://www.fcps.edu/index.shtml"
      }
    },
    {
      "id": "NjQyOTEwMDU=",
      "title": "The Bear Bulletin - Volume 30",
      "link": "https://content.govdelivery.com/accounts/VAEDUFCPS/bulletins/3d500bd",
      "description": "\n        \n\n\n  \n\n\n\n\n\n\n\n<p><a></a>Having trouble viewing this email? <a href=\"https://content.govdelivery.com/accounts/VAEDUFCPS/bulletins/3d500bd\">View it as a Web page</a>.</p>\n\n\n\n\n\n\n\n\n\n\n\n<a href=\"https://oldecreekes.fcps.edu/?utm_campaign+=&amp;utm_medium=email&amp;utm_source=govdelivery\" target=\"_...",
      "pubDate": "Fri, 07 Mar 2025 18:17:35 -0600",
      "timestamp": 1741393055000,
      "feedName": "Olde Creek Elementary School",
      "category": "Olde Creek Elementary School",
      "feedSource": "http://www.fcps.edu/index.shtml",
      "feedInfo": {
        "title": "Olde Creek Elementary School News and announcements - Recent Updates",
        "description": "Olde Creek Elementary School News and announcements",
        "link": "http://www.fcps.edu/index.shtml"
      }
    },
    {
      "id": "NjQzNDg4MTQ=",
      "title": "March is a month to March On!",
      "link": "https://content.govdelivery.com/accounts/VAEDUFCPS/bulletins/3d5e28e",
      "description": "\n        \n\n\n  \n\n\n\n\n\n\n\n<p><a></a>Having trouble viewing this email? <a href=\"https://content.govdelivery.com/accounts/VAEDUFCPS/bulletins/3d5e28e\">View it as a Web page</a>.</p>\n\n\n\n\n\n\n\n\n\n\n\n<a href=\"https://www.fcps.edu/staff/ilryong-moon?utm_campaign+=&amp;utm_medium=email&amp;utm_source=govdelivery\"...",
      "pubDate": "Fri, 07 Mar 2025 18:07:20 -0600",
      "timestamp": 1741392440000,
      "feedName": "FCPS School Board Member at Large (Ilryong Moon)",
      "category": "FCPS School Board Member at Large (Ilryong Moon)",
      "feedSource": "http://www.fcps.edu/",
      "feedInfo": {
        "title": "At-Large Member - Ilryong Moon - Recent Updates",
        "description": "At-Large Member - Ilryong Moon - Recent Updates",
        "link": "http://www.fcps.edu/"
      }
    },
    {
      "id": "NjQxODcwMDQ=",
      "title": "March is a month to March On!",
      "link": "https://content.govdelivery.com/accounts/VAEDUFCPS/bulletins/3d36a7c",
      "description": "\n        \n\n\n  \n\n\n\n\n\n\n\n<p><a></a>Having trouble viewing this email? <a href=\"https://content.govdelivery.com/accounts/VAEDUFCPS/bulletins/3d36a7c\">View it as a Web page</a>.</p>\n\n\n\n\n\n\n\n\n\n\n\n<a href=\"https://www.fcps.edu/staff/ilryong-moon?utm_campaign+=&amp;utm_medium=email&amp;utm_source=govdelivery\"...",
      "pubDate": "Fri, 07 Mar 2025 18:00:12 -0600",
      "timestamp": 1741392012000,
      "feedName": "FCPS School Board Member at Large (Ilryong Moon)",
      "category": "FCPS School Board Member at Large (Ilryong Moon)",
      "feedSource": "http://www.fcps.edu/",
      "feedInfo": {
        "title": "At-Large Member - Ilryong Moon - Recent Updates",
        "description": "At-Large Member - Ilryong Moon - Recent Updates",
        "link": "http://www.fcps.edu/"
      }
    },
    {
      "id": "NjQzMDkyODk=",
      "title": "Hollin Meadows Buzz Bulletin for March 7, 2025",
      "link": "https://content.govdelivery.com/accounts/VAEDUFCPS/bulletins/3d54829",
      "description": "\n        \n\n\n  \n\n\n\n\n\n\n\n<p><a></a>Having trouble viewing this email? <a href=\"https://content.govdelivery.com/accounts/VAEDUFCPS/bulletins/3d54829\">View it as a Web page</a>.</p>\n\n\n\n\n\n\n\n\n\n\n\n<a href=\"http://www2.fcps.edu/HollinMeadowsES/?utm_campaign+=&amp;utm_medium=email&amp;utm_source=govdelivery\" t...",
      "pubDate": "Fri, 07 Mar 2025 17:44:31 -0600",
      "timestamp": 1741391071000,
      "feedName": "Hollin Meadows Elementary School",
      "category": "Hollin Meadows Elementary School",
      "feedSource": "http://www.fcps.edu/index.shtml",
      "feedInfo": {
        "title": "Hollin Meadows Elementary School News and announcements - Recent Updates",
        "description": "Hollin Meadows Elementary School News and announcements",
        "link": "http://www.fcps.edu/index.shtml"
      }
    },
    {
      "id": "NjQzMDQxMzU=",
      "title": "Principal's Message",
      "link": "https://content.govdelivery.com/accounts/VAEDUFCPS/bulletins/3d53407",
      "description": "\n        \n\n\n  \n\n\n\n\n\n\n\n<p><a></a>Having trouble viewing this email? <a href=\"https://content.govdelivery.com/accounts/VAEDUFCPS/bulletins/3d53407\">View it as a Web page</a>.</p>\n\n\n\n\n\n\n\n\n\n\n\n<a href=\"https://hughesms.fcps.edu/?utm_campaign+=&amp;utm_medium=email&amp;utm_source=govdelivery\" target=\"_bla...",
      "pubDate": "Fri, 07 Mar 2025 17:35:02 -0600",
      "timestamp": 1741390502000,
      "feedName": "Hughes Middle School",
      "category": "Hughes Middle School",
      "feedSource": "http://www.fcps.edu/index.shtml",
      "feedInfo": {
        "title": "Hughes Middle School News and announcements - Recent Updates",
        "description": "Hughes Middle School News and announcements",
        "link": "http://www.fcps.edu/index.shtml"
      }
    },
    {
      "id": "NjQzMzY3MTU=",
      "title": "The Clearview Community Connect March 7, 2025",
      "link": "https://content.govdelivery.com/accounts/VAEDUFCPS/bulletins/3d5b34b",
      "description": "\n        \n\n\n  \n\n\n\n\n\n\n\n<p><a></a>Having trouble viewing this email? <a href=\"https://content.govdelivery.com/accounts/VAEDUFCPS/bulletins/3d5b34b\">View it as a Web page</a>.</p>\n\n\n\n\n\n\n\n\n\n\n\n<a href=\"https://clearviewes.fcps.edu/?utm_campaign+=&amp;utm_medium=email&amp;utm_source=govdelivery\" target=\"_...",
      "pubDate": "Fri, 07 Mar 2025 17:30:15 -0600",
      "timestamp": 1741390215000,
      "feedName": "Clearview Elementary School",
      "category": "Clearview Elementary School",
      "feedSource": "http://www.fcps.edu/index.shtml",
      "feedInfo": {
        "title": "Clearview Elementary School News and Announcements - Recent Updates",
        "description": "Clearview Elementary School News and announcements",
        "link": "http://www.fcps.edu/index.shtml"
      }
    },
    {
      "id": "NjQzMzQ2OTU=",
      "title": "Bailey's Upper ES News You Choose",
      "link": "https://content.govdelivery.com/accounts/VAEDUFCPS/bulletins/3d5ab67",
      "description": "\n        \n\n\n  \n\n\n\n\n\n\n\n<p><a></a>Having trouble viewing this email? <a href=\"https://content.govdelivery.com/accounts/VAEDUFCPS/bulletins/3d5ab67\">View it as a Web page</a>.</p>\n\n\n\n\n\n\n\n\n\n\n\n<a href=\"https://baileysupperes.fcps.edu/?utm_campaign+=&amp;utm_medium=email&amp;utm_source=govdelivery\" target...",
      "pubDate": "Fri, 07 Mar 2025 17:15:15 -0600",
      "timestamp": 1741389315000,
      "feedName": "Bailey's Upper",
      "category": "Bailey's Upper",
      "feedSource": "http://www.fcps.edu/index.shtml",
      "feedInfo": {
        "title": "Bailey's Upper (Grades 3-5) News and Announcements - Recent Updates",
        "description": "Bailey's Upper (Grades 3-5) News and Announcements - Recent Updates",
        "link": "http://www.fcps.edu/index.shtml"
      }
    },
    {
      "id": "NjQzNDgwMjk=",
      "title": "Mantua ES Weekly Newsletter",
      "link": "https://content.govdelivery.com/accounts/VAEDUFCPS/bulletins/3d5df7d",
      "description": "\n        \n\n\n  \n\n\n\n\n\n\n\n<p><a></a>Having trouble viewing this email? <a href=\"https://content.govdelivery.com/accounts/VAEDUFCPS/bulletins/3d5df7d\">View it as a Web page</a>.</p>\n\n\n\n\n\n\n\n\n\n\n\n<a href=\"https://mantuaes.fcps.edu/?utm_campaign+=&amp;utm_medium=email&amp;utm_source=govdelivery\" target=\"_bla...",
      "pubDate": "Fri, 07 Mar 2025 17:00:55 -0600",
      "timestamp": 1741388455000,
      "feedName": "Mantua Elementary School",
      "category": "Mantua Elementary School",
      "feedSource": "http://www.fcps.edu/index.shtml",
      "feedInfo": {
        "title": "Mantua Elementary School News and announcements - Recent Updates",
        "description": "Mantua Elementary School News and announcements",
        "link": "http://www.fcps.edu/index.shtml"
      }
    },
    {
      "id": "NjQzMzQ2OTY=",
      "title": "Bailey's Upper ES News You Choose",
      "link": "https://content.govdelivery.com/accounts/VAEDUFCPS/bulletins/3d5ab68",
      "description": "\n        \n\n\n  \n\n\n\n\n\n\n\n<p><a></a>Having trouble viewing this email? <a href=\"https://content.govdelivery.com/accounts/VAEDUFCPS/bulletins/3d5ab68\">View it as a Web page</a>.</p>\n\n\n\n\n\n\n\n\n\n\n\n<a href=\"https://baileysupperes.fcps.edu/?utm_campaign+=&amp;utm_medium=email&amp;utm_source=govdelivery\" target...",
      "pubDate": "Fri, 07 Mar 2025 17:00:20 -0600",
      "timestamp": 1741388420000,
      "feedName": "Bailey's Upper",
      "category": "Bailey's Upper",
      "feedSource": "http://www.fcps.edu/index.shtml",
      "feedInfo": {
        "title": "Bailey's Upper (Grades 3-5) News and Announcements - Recent Updates",
        "description": "Bailey's Upper (Grades 3-5) News and Announcements - Recent Updates",
        "link": "http://www.fcps.edu/index.shtml"
      }
    },
    {
      "id": "NjQzNDUxMTQ=",
      "title": "A Weekly Message from Irving MS",
      "link": "https://content.govdelivery.com/accounts/VAEDUFCPS/bulletins/3d5d41a",
      "description": "\n        \n\n\n  \n\n\n\n\n\n\n\n<p><a></a>Having trouble viewing this email? <a href=\"https://content.govdelivery.com/accounts/VAEDUFCPS/bulletins/3d5d41a\">View it as a Web page</a>.</p>\n\n\n\n\n\n\n\n\n\n\n\n<a href=\"https://irvingms.fcps.edu/?utm_campaign+=&amp;utm_medium=email&amp;utm_source=govdelivery\" target=\"_bla...",
      "pubDate": "Fri, 07 Mar 2025 17:00:18 -0600",
      "timestamp": 1741388418000,
      "feedName": "Irving Middle School",
      "category": "Irving Middle School",
      "feedSource": "http://www.fcps.edu/index.shtml",
      "feedInfo": {
        "title": "Irving Middle School News and announcements - Recent Updates",
        "description": "Irving Middle School News and announcements",
        "link": "http://www.fcps.edu/index.shtml"
      }
    },
    {
      "id": "NjQzMTcyNzc=",
      "title": "Timber Lane Times 3/7/25",
      "link": "https://content.govdelivery.com/accounts/VAEDUFCPS/bulletins/3d5675d",
      "description": "\n        \n\n\n  \n\n\n\n\n\n\n\n<p><a></a>Having trouble viewing this email? <a href=\"https://content.govdelivery.com/accounts/VAEDUFCPS/bulletins/3d5675d\">View it as a Web page</a>.</p>\n\n\n\n\n\n\n\n\n\n\n\n\n<a href=\"https://timberlanees.fcps.edu/?utm_campaign+=&amp;utm_medium=email&amp;utm_source=govdelivery\" target=...",
      "pubDate": "Fri, 07 Mar 2025 17:00:17 -0600",
      "timestamp": 1741388417000,
      "feedName": "Timber Lane Elementary School",
      "category": "Timber Lane Elementary School",
      "feedSource": "http://www.fcps.edu/index.shtml",
      "feedInfo": {
        "title": "Timber Lane Elementary School News and announcements - Recent Updates",
        "description": "Timber Lane Elementary School News and announcements",
        "link": "http://www.fcps.edu/index.shtml"
      }
    }
  ],
  "hasNext": true,
  "hasPrev": true
}