{
  "page": 100,
  "totalPages": 268,
  "totalItems": 5354,
  "itemsPerPage": 20,
  "items": [
    {
      "id": "NjQ5NDM5MTg=",
      "title": "Bulldog Buzz 05/09/25",
      "link": "https://content.govdelivery.com/accounts/VAEDUFCPS/bulletins/3def72e",
      "description": "\n        \n\n\n  \n\n\n\n\n\n\n\n<p><a></a>Having trouble viewing this email? <a href=\"https://content.govdelivery.com/accounts/VAEDUFCPS/bulletins/3def72e\">View it as a Web page</a>.</p>\n\n\n\n\n\n\n\n\n\n\n\n<a href=\"http://www2.fcps.edu/BucknellES/?utm_campaign+=&amp;utm_medium=email&amp;utm_source=govdelivery\" target...",
      "pubDate": "Fri, 09 May 2025 14:40:23 -0500",
      "timestamp": 1746819623000,
      "feedName": "Bucknell Elementary School",
      "category": "Bucknell Elementary School",
      "feedSource": "http://live-fcps-bucknell-es.pantheonsite.io/newsfeed",
      "feedInfo": {
        "title": "Bucknell Elementary School News and Announcements",
        "description": "Bucknell Elementary School News and announcements",
        "link": "http://live-fcps-bucknell-es.pantheonsite.io/newsfeed"
      }
    },
    {
      "id": "NjQ5OTM4NTE=",
      "title": "Cedar Connection",
      "link": "https://content.govdelivery.com/accounts/VAEDUFCPS/bulletins/3dfba3b",
      "description": "\n        \n\n\n  \n\n\n\n\n\n\n\n<p><a></a>Having trouble viewing this email? <a href=\"https://content.govdelivery.com/accounts/VAEDUFCPS/bulletins/3dfba3b\">View it as a Web page</a>.</p>\n\n\n\n\n\n\n\n\n\n\n\n<a href=\"https://cedarlaneschool.fcps.edu/?utm_campaign+=&amp;utm_medium=email&amp;utm_source=govdelivery\" targe...",
      "pubDate": "Fri, 09 May 2025 14:38:48 -0500",
      "timestamp": 1746819528000,
      "feedName": "Cedar Lane School",
      "category": "Cedar Lane School",
      "feedSource": "http://www.fcps.edu/index.shtml",
      "feedInfo": {
        "title": "Cedar Lane School News and Announcements - Recent Updates",
        "description": "Cedar Lane Special Education Center News and announcements",
        "link": "http://www.fcps.edu/index.shtml"
      }
    },
    {
      "id": "NjQ5NTk4OTA=",
      "title": "CES Family Connection 5-9-25",
      "link": "https://content.govdelivery.com/accounts/VAEDUFCPS/bulletins/3df3592",
      "description": "\n        \n\n\n  \n\n\n\n\n\n\n\n<p><a></a>Having trouble viewing this email? <a href=\"https://content.govdelivery.com/accounts/VAEDUFCPS/bulletins/3df3592\">View it as a Web page</a>.</p>\n\n\n\n\n\n\n\n\n\n\n\n<a href=\"https://centrevillees.fcps.edu/?utm_campaign+=&amp;utm_medium=email&amp;utm_source=govdelivery\" target=...",
      "pubDate": "Fri, 09 May 2025 14:35:18 -0500",
      "timestamp": 1746819318000,
      "feedName": "Centreville Elementary School",
      "category": "Centreville Elementary School",
      "feedSource": "http://www.fcps.edu/index.shtml",
      "feedInfo": {
        "title": "Centreville Elementary School News and announcements - Recent Updates",
        "description": "Centreville Elementary School News and announcements",
        "link": "http://www.fcps.edu/index.shtml"
      }
    },
    {
      "id": "NjQ5NTY5MzM=",
      "title": "Franklin MS Update- 05/09/2025",
      "link": "https://content.govdelivery.com/accounts/VAEDUFCPS/bulletins/3df2a05",
      "description": "\n        \n\n\n  \n\n\n\n\n\n\n\n<p><a></a>Having trouble viewing this email? <a href=\"https://content.govdelivery.com/accounts/VAEDUFCPS/bulletins/3df2a05\">View it as a Web page</a>.</p>\n\n\n\n\n\n\n\n\n\n\n\n<a href=\"https://franklinms.fcps.edu/?utm_campaign+=&amp;utm_medium=email&amp;utm_source=govdelivery\" target=\"_b...",
      "pubDate": "Fri, 09 May 2025 14:30:16 -0500",
      "timestamp": 1746819016000,
      "feedName": "Franklin Middle School",
      "category": "Franklin Middle School",
      "feedSource": "http://www.fcps.edu/index.shtml",
      "feedInfo": {
        "title": "Franklin Middle School News and announcements - Recent Updates",
        "description": "Franklin Middle School News and announcements",
        "link": "http://www.fcps.edu/index.shtml"
      }
    },
    {
      "id": "NjQ5NTY5MzM=",
      "title": "Franklin MS Update- 05/09/2025",
      "link": "https://content.govdelivery.com/accounts/VAEDUFCPS/bulletins/3df2a05",
      "description": "\n        \n\n\n  \n\n\n\n\n\n\n\n<p><a></a>Having trouble viewing this email? <a href=\"https://content.govdelivery.com/accounts/VAEDUFCPS/bulletins/3df2a05\">View it as a Web page</a>.</p>\n\n\n\n\n\n\n\n\n\n\n\n<a href=\"https://franklinms.fcps.edu/?utm_campaign+=&amp;utm_medium=email&amp;utm_source=govdelivery\" target=\"_b...",
      "pubDate": "Fri, 09 May 2025 14:30:16 -0500",
      "timestamp": 1746819016000,
      "feedName": "Franklin Sherman Elementary School",
      "category": "Franklin Sherman Elementary School",
      "feedSource": "http://www.fcps.edu/index.shtml",
      "feedInfo": {
        "title": "Franklin Middle School News and announcements - Recent Updates",
        "description": "Franklin Middle School News and announcements",
        "link": "http://www.fcps.edu/index.shtml"
      }
    },
    {
      "id": "NjQ5OTEyNjI=",
      "title": "Thoreau Matters Friday May 9th, 2025",
      "link": "https://content.govdelivery.com/accounts/VAEDUFCPS/bulletins/3dfb01e",
      "description": "\n        \n\n\n  \n\n\n\n\n\n\n\n<p><a></a>Having trouble viewing this email? <a href=\"https://content.govdelivery.com/accounts/VAEDUFCPS/bulletins/3dfb01e\">View it as a Web page</a>.</p>\n\n\n\n\n\n\n\n\n\n\n\n<a href=\"https://thoreaums.fcps.edu/?utm_campaign+=&amp;utm_medium=email&amp;utm_source=govdelivery\" target=\"_bl...",
      "pubDate": "Fri, 09 May 2025 14:30:15 -0500",
      "timestamp": 1746819015000,
      "feedName": "Thoreau Middle School",
      "category": "Thoreau Middle School",
      "feedSource": "http://www.fcps.edu/index.shtml",
      "feedInfo": {
        "title": "Thoreau Middle School News and Announcements - Recent Updates",
        "description": "Thoreau Middle School News and Announcements",
        "link": "http://www.fcps.edu/index.shtml"
      }
    },
    {
      "id": "NjQ5ODE3NzI=",
      "title": "Forest Edge ES - Eagle Updates: May 9, 2025",
      "link": "https://content.govdelivery.com/accounts/VAEDUFCPS/bulletins/3df8b0c",
      "description": "\n        \n\n\n  \n\n\n\n\n\n\n\n<p><a></a>Having trouble viewing this email? <a href=\"https://content.govdelivery.com/accounts/VAEDUFCPS/bulletins/3df8b0c\">View it as a Web page</a>.</p>\n\n\n\n\n\n\n\n\n\n\n\n<a href=\"http://www2.fcps.edu/ForestEdgeES/?utm_content=&amp;utm_medium=email&amp;utm_name=&amp;utm_source=govde...",
      "pubDate": "Fri, 09 May 2025 14:25:33 -0500",
      "timestamp": 1746818733000,
      "feedName": "Forest Edge Elementary School",
      "category": "Forest Edge Elementary School",
      "feedSource": "http://www.fcps.edu/index.shtml",
      "feedInfo": {
        "title": "Forest Edge Elementary School News and announcements - Recent Updates",
        "description": "Forest Edge Elementary School News and announcements",
        "link": "http://www.fcps.edu/index.shtml"
      }
    },
    {
      "id": "NjQ5OTMxMDc=",
      "title": "Chantilly Academy Program Highlights",
      "link": "https://content.govdelivery.com/accounts/VAEDUFCPS/bulletins/3dfb753",
      "description": "\n        \n\n\n  \n\n\n\n\n\n\n\n<p><a></a>Having trouble viewing this email? <a href=\"https://content.govdelivery.com/accounts/VAEDUFCPS/bulletins/3dfb753\">View it as a Web page</a>.</p>\n\n\n\n\n\n\n\n\n\n\n\n<a href=\"https://chantillyacademy.fcps.edu/?utm_campaign+=&amp;utm_medium=email&amp;utm_source=govdelivery\" targ...",
      "pubDate": "Fri, 09 May 2025 14:15:11 -0500",
      "timestamp": 1746818111000,
      "feedName": "Chantilly Academy",
      "category": "Chantilly Academy",
      "feedSource": "http://www.fcps.edu/index.shtml",
      "feedInfo": {
        "title": "Chantilly Academy News and Announcements - Recent Updates",
        "description": "Chantilly Academy News and Announcements - Recent Updates",
        "link": "http://www.fcps.edu/index.shtml"
      }
    },
    {
      "id": "NjQ5ODQ5NzU=",
      "title": "Edison Academy Reminders and Celebrations",
      "link": "https://content.govdelivery.com/accounts/VAEDUFCPS/bulletins/3df978f",
      "description": "\n        \n\n\n  \n\n\n\n\n\n\n\n<p><a></a>Having trouble viewing this email? <a href=\"https://content.govdelivery.com/accounts/VAEDUFCPS/bulletins/3df978f\">View it as a Web page</a>.</p>\n\n\n\n\n\n\n\n\n\n\n\n<a href=\"https://edisonacademy.fcps.edu/?utm_campaign+=&amp;utm_medium=email&amp;utm_source=govdelivery\" target=...",
      "pubDate": "Fri, 09 May 2025 14:12:22 -0500",
      "timestamp": 1746817942000,
      "feedName": "Edison Academy",
      "category": "Edison Academy",
      "feedSource": "http://www.fcps.edu/index.shtml",
      "feedInfo": {
        "title": "Edison Academy News and announcements - Recent Updates",
        "description": "Edison Academy News and announcements - Recent Updates",
        "link": "http://www.fcps.edu/index.shtml"
      }
    },
    {
      "id": "NjQ5NDg4MTg=",
      "title": "5/9 Chargers Connect",
      "link": "https://content.govdelivery.com/accounts/VAEDUFCPS/bulletins/3df0a52",
      "description": "\n        \n\n\n  \n\n\n\n\n\n\n\n\n\n\n\n\n\n\n\n\n\n\n\n\n\n\n\n\n\n\n\n\n\n\n\n\n\n\n\n<p><strong><a href=\"https://chantillyhs.fcps.edu/aggregator/sources/1?utm_content=&amp;utm_medium=email&amp;utm_name=&amp;utm_source=govdelivery&amp;utm_term=#modal-language-switcher\" target=\"_blank\">English</a> | <a href=\"https://chantillyhs.fcps.ed...",
      "pubDate": "Fri, 09 May 2025 14:00:14 -0500",
      "timestamp": 1746817214000,
      "feedName": "Chantilly High School",
      "category": "Chantilly High School",
      "feedSource": "http://www.fcps.edu/index.shtml",
      "feedInfo": {
        "title": "Chantilly High School News and announcements - Recent Updates",
        "description": "Chantilly High School News and announcements",
        "link": "http://www.fcps.edu/index.shtml"
      }
    },
    {
      "id": "NjQ5NDM5NzE=",
      "title": "Brookfield News and Notes 5/9/2025",
      "link": "https://content.govdelivery.com/accounts/VAEDUFCPS/bulletins/3def763",
      "description": "\n        \n\n\n  \n\n\n\n\n\n\n\n<p><a></a>Having trouble viewing this email? <a href=\"https://content.govdelivery.com/accounts/VAEDUFCPS/bulletins/3def763\">View it as a Web page</a>.</p>\n\n\n\n\n\n\n\n\n\n\n\n<a href=\"https://brookfieldes.fcps.edu/?utm_campaign+=&amp;utm_medium=email&amp;utm_source=govdelivery\" target=\"...",
      "pubDate": "Fri, 09 May 2025 14:00:12 -0500",
      "timestamp": 1746817212000,
      "feedName": "Brookfield Elementary School",
      "category": "Brookfield Elementary School",
      "feedSource": "http://www.fcps.edu/index.shtml",
      "feedInfo": {
        "title": "Brookfield Elementary School News and announcements - Recent Updates",
        "description": "Brookfield Elementary School News and announcements",
        "link": "http://www.fcps.edu/index.shtml"
      }
    },
    {
      "id": "NjQ5NjY2MjA=",
      "title": "Principal's Message",
      "link": "https://content.govdelivery.com/accounts/VAEDUFCPS/bulletins/3df4fdc",
      "description": "\n        \n\n\n  \n\n\n\n\n\n\n\n<p><a></a>Having trouble viewing this email? <a href=\"https://content.govdelivery.com/accounts/VAEDUFCPS/bulletins/3df4fdc\">View it as a Web page</a>.</p>\n\n\n\n\n\n\n\n\n\n\n\n<a href=\"https://hughesms.fcps.edu/?utm_campaign+=&amp;utm_medium=email&amp;utm_source=govdelivery\" target=\"_bla...",
      "pubDate": "Fri, 09 May 2025 13:31:47 -0500",
      "timestamp": 1746815507000,
      "feedName": "Hughes Middle School",
      "category": "Hughes Middle School",
      "feedSource": "http://www.fcps.edu/index.shtml",
      "feedInfo": {
        "title": "Hughes Middle School News and announcements - Recent Updates",
        "description": "Hughes Middle School News and announcements",
        "link": "http://www.fcps.edu/index.shtml"
      }
    },
    {
      "id": "NjQ5NzA1ODM=",
      "title": "Kilmer MS Newsletter - May 9, 2025",
      "link": "https://content.govdelivery.com/accounts/VAEDUFCPS/bulletins/3df5f57",
      "description": "\n        \n\n\n  \n\n\n\n\n\n\n\n<p><a></a>Having trouble viewing this email? <a href=\"https://content.govdelivery.com/accounts/VAEDUFCPS/bulletins/3df5f57\">View it as a Web page</a>.</p>\n\n\n\n\n\n\n\n\n\n\n\n<a href=\"https://kilmerms.fcps.edu/?utm_campaign+=&amp;utm_medium=email&amp;utm_source=govdelivery\" target=\"_bla...",
      "pubDate": "Fri, 09 May 2025 13:30:15 -0500",
      "timestamp": 1746815415000,
      "feedName": "Kilmer Middle School",
      "category": "Kilmer Middle School",
      "feedSource": "http://www.fcps.edu/index.shtml",
      "feedInfo": {
        "title": "Kilmer Middle School News and announcements - Recent Updates",
        "description": "Kilmer Middle School News and announcements",
        "link": "http://www.fcps.edu/index.shtml"
      }
    },
    {
      "id": "NjQ5ODAzMTY=",
      "title": "Mountain View newsletter 5/9/25",
      "link": "https://content.govdelivery.com/accounts/VAEDUFCPS/bulletins/3df855c",
      "description": "\n        \n\n\n  \n\n\n\n\n\n\n\n<p><a></a>Having trouble viewing this email? <a href=\"https://content.govdelivery.com/accounts/VAEDUFCPS/bulletins/3df855c\">View it as a Web page</a>.</p>\n\n\n\n\n\n\n\n\n\n\n\n<a href=\"https://mountainviewhs.fcps.edu/?utm_campaign+=&amp;utm_medium=email&amp;utm_source=govdelivery\" target...",
      "pubDate": "Fri, 09 May 2025 13:30:14 -0500",
      "timestamp": 1746815414000,
      "feedName": "Mountain View High School",
      "category": "Mountain View High School",
      "feedSource": "http://www.fcps.edu/index.shtml",
      "feedInfo": {
        "title": "Mountain View High School News and Announcements - Recent Updates",
        "description": "Mountain View High School News and announcements",
        "link": "http://www.fcps.edu/index.shtml"
      }
    },
    {
      "id": "NjQ5NTg2NTg=",
      "title": "Message from Holmes MS  - 5/9/2025",
      "link": "https://content.govdelivery.com/accounts/VAEDUFCPS/bulletins/3df30c2",
      "description": "\n        \n\n\n  \n\n\n\n\n\n\n\n<p><a></a>Having trouble viewing this email? <a href=\"https://content.govdelivery.com/accounts/VAEDUFCPS/bulletins/3df30c2\">View it as a Web page</a>.</p>\n\n\n\n\n\n\n\n\n\n\n\n<a href=\"https://holmesms.fcps.edu/?utm_campaign+=&amp;utm_medium=email&amp;utm_source=govdelivery\" target=\"_bla...",
      "pubDate": "Fri, 09 May 2025 13:28:56 -0500",
      "timestamp": 1746815336000,
      "feedName": "Holmes Middle School",
      "category": "Holmes Middle School",
      "feedSource": "http://www.fcps.edu/index.shtml",
      "feedInfo": {
        "title": "Holmes Middle School News and announcements - Recent Updates",
        "description": "Holmes Middle School News and announcements",
        "link": "http://www.fcps.edu/index.shtml"
      }
    },
    {
      "id": "NjQ5ODI0MzA=",
      "title": "LBSS Weekly News - May 9, 2025",
      "link": "https://content.govdelivery.com/accounts/VAEDUFCPS/bulletins/3df8d9e",
      "description": "\n        \n\n\n  \n\n\n\n\n\n\n\n<p><a></a>Having trouble viewing this email? <a href=\"https://content.govdelivery.com/accounts/VAEDUFCPS/bulletins/3df8d9e\">View it as a Web page</a>.</p>\n\n\n\n\n\n\n\n\n\n\n\n<a href=\"https://lakebraddockss.fcps.edu/?utm_campaign+=&amp;utm_medium=email&amp;utm_source=govdelivery\" target...",
      "pubDate": "Fri, 09 May 2025 13:26:03 -0500",
      "timestamp": 1746815163000,
      "feedName": "Lake Braddock Secondary School",
      "category": "Lake Braddock Secondary School",
      "feedSource": "http://www.fcps.edu/index.shtml",
      "feedInfo": {
        "title": "Lake Braddock Secondary School News and announcements - Recent Updates",
        "description": "Lake Braddock Secondary School News and announcements",
        "link": "http://www.fcps.edu/index.shtml"
      }
    },
    {
      "id": "NjQ5NDM4NjQ=",
      "title": "Luther Jackson May 9, 2025",
      "link": "https://content.govdelivery.com/accounts/VAEDUFCPS/bulletins/3def6f8",
      "description": "\n        \n\n\n  \n\n\n\n\n\n\n\n<a href=\"https://jacksonms.fcps.edu/?utm_campaign+=&amp;utm_medium=email&amp;utm_source=govdelivery\" target=\"_blank\"></a>\n\n\n\n\n\n\n\n\n\n\n\n<a href=\"https://translate.google.com/translate?hl=en&amp;sl=en&amp;tl=es&amp;u=https%3A%2F%2Fcontent.govdelivery.com%2Faccounts%2FVAEDUFCPS%2Fbu...",
      "pubDate": "Fri, 09 May 2025 13:14:25 -0500",
      "timestamp": 1746814465000,
      "feedName": "Jackson Middle School",
      "category": "Jackson Middle School",
      "feedSource": "http://www.fcps.edu/index.shtml",
      "feedInfo": {
        "title": "Jackson Middle School News and Announcements - Recent Updates",
        "description": "Jackson Middle School News and announcements",
        "link": "http://www.fcps.edu/index.shtml"
      }
    },
    {
      "id": "NjQ5NDQwNjc=",
      "title": "5/9 RRMS School Updates",
      "link": "https://content.govdelivery.com/accounts/VAEDUFCPS/bulletins/3def7c3",
      "description": "\n        \n\n\n  \n\n\n\n\n\n\n\n<p><a></a>Having trouble viewing this email? <a href=\"https://content.govdelivery.com/accounts/VAEDUFCPS/bulletins/3def7c3\">View it as a Web page</a>.</p>\n\n\n\n\n\n\n\n\n\n\n\n<a href=\"https://rockyrunms.fcps.edu/?utm_campaign+=&amp;utm_medium=email&amp;utm_source=govdelivery\" target=\"_b...",
      "pubDate": "Fri, 09 May 2025 13:10:21 -0500",
      "timestamp": 1746814221000,
      "feedName": "Rocky Run Middle School",
      "category": "Rocky Run Middle School",
      "feedSource": "https://public.govdelivery.com/topics/Rocky_Run_MS_News/feed.rss",
      "feedInfo": {
        "title": "Rocky Run Middle School News and Announcements",
        "description": "Rocky Run Middle School News and Announcements",
        "link": "https://public.govdelivery.com/topics/Rocky_Run_MS_News/feed.rss"
      }
    },
    {
      "id": "NjQ5ODMwODU=",
      "title": "Garfield ES - Eagle Express",
      "link": "https://content.govdelivery.com/accounts/VAEDUFCPS/bulletins/3df902d",
      "description": "\n        \n\n\n  \n\n\n\n\n\n\n\n<p><a></a>Having trouble viewing this email? <a href=\"https://content.govdelivery.com/accounts/VAEDUFCPS/bulletins/3df902d\">View it as a Web page</a>.</p>\n\n\n\n\n\n\n\n\n\n\n\n<a href=\"http://www2.fcps.edu/GarfieldES/?utm_campaign+=&amp;utm_medium=email&amp;utm_source=govdelivery\" target...",
      "pubDate": "Fri, 09 May 2025 13:00:15 -0500",
      "timestamp": 1746813615000,
      "feedName": "Garfield Elementary School",
      "category": "Garfield Elementary School",
      "feedSource": "http://www.fcps.edu/index.shtml",
      "feedInfo": {
        "title": "Garfield Elementary School - Recent Updates",
        "description": "Garfield Elementary School - Recent Updates",
        "link": "http://www.fcps.edu/index.shtml"
      }
    },
    {
      "id": "NjQ4NDQyNjE=",
      "title": "Orange Hunt News We HOOT",
      "link": "https://content.govdelivery.com/accounts/VAEDUFCPS/bulletins/3dd71e5",
      "description": "\n        \n\n\n  \n\n\n\n\n\n\n\n<p><a></a>Having trouble viewing this email? <a href=\"https://content.govdelivery.com/accounts/VAEDUFCPS/bulletins/3dd71e5\">View it as a Web page</a>.</p>\n\n\n\n\n\n\n\n\n\n\n\n<a href=\"https://orangehuntes.fcps.edu?utm_content=&amp;utm_medium=email&amp;utm_name=&amp;utm_source=govdeliver...",
      "pubDate": "Fri, 09 May 2025 12:54:30 -0500",
      "timestamp": 1746813270000,
      "feedName": "Orange Hunt Elementary School",
      "category": "Orange Hunt Elementary School",
      "feedSource": "http://www.fcps.edu/index.shtml",
      "feedInfo": {
        "title": "Orange Hunt ES News and Announcements - Recent Updates",
        "description": "Orange Hunt ES News and Announcements",
        "link": "http://www.fcps.edu/index.shtml"
      }
    }
  ],
  "hasNext": true,
  "hasPrev": true
}