{
  "page": 147,
  "totalPages": 268,
  "totalItems": 5354,
  "itemsPerPage": 20,
  "items": [
    {
      "id": "NjQ2MTcyMTg=",
      "title": "SLES News You Choose",
      "link": "https://content.govdelivery.com/accounts/VAEDUFCPS/bulletins/3d9fb02",
      "description": "\n        \n\n\n  \n\n\n\n\n\n\n\n<p><a></a>Having trouble viewing this email? <a href=\"https://content.govdelivery.com/accounts/VAEDUFCPS/bulletins/3d9fb02\">View it as a Web page</a>.</p>\n\n\n\n\n\n\n\n\n\n\n\n<a href=\"https://stratfordlandinges.fcps.edu/?utm_campaign+=&amp;utm_medium=email&amp;utm_source=govdelivery\" ta...",
      "pubDate": "Thu, 03 Apr 2025 14:45:42 -0500",
      "timestamp": 1743709542000,
      "feedName": "Stratford Landing Elementary School",
      "category": "Stratford Landing Elementary School",
      "feedSource": "http://www.fcps.edu/index.shtml",
      "feedInfo": {
        "title": "Stratford Landing Elementary School News and announcements - Recent Updates",
        "description": "Stratford Landing Elementary School News and announcements",
        "link": "http://www.fcps.edu/index.shtml"
      }
    },
    {
      "id": "NjQ2MTY4Nzk=",
      "title": "April 3, 2025 Newsletter",
      "link": "https://content.govdelivery.com/accounts/VAEDUFCPS/bulletins/3d9f9af",
      "description": "\n        \n\n\n  \n\n\n\n\n\n\n\n\n\n\n\n\n\n\n\n\n\n\n\n\n\n\n\n\n\n\n\n\n\n\n\n\n\n\n\n<p><a href=\"https://laurelhilles.fcps.edu/aggregator/sources/1?utm_content=&amp;utm_medium=email&amp;utm_name=&amp;utm_source=govdelivery&amp;utm_term=#modal-language-switcher\" target=\"_blank\">English</a> | <a href=\"https://laurelhilles.fcps.edu/aggr...",
      "pubDate": "Thu, 03 Apr 2025 14:25:10 -0500",
      "timestamp": 1743708310000,
      "feedName": "Laurel Hill Elementary School",
      "category": "Laurel Hill Elementary School",
      "feedSource": "http://www.fcps.edu/index.shtml",
      "feedInfo": {
        "title": "Laurel Hill Elementary School News and announcements - Recent Updates",
        "description": "Laurel Hill Elementary School News and announcements",
        "link": "http://www.fcps.edu/index.shtml"
      }
    },
    {
      "id": "NjQ2MjAwOTc=",
      "title": "Wolftrap Connection - April 3, 2025",
      "link": "https://content.govdelivery.com/accounts/VAEDUFCPS/bulletins/3da0641",
      "description": "\n        \n\n\n  \n\n\n\n\n\n\n\n<p><a></a>Having trouble viewing this email? <a href=\"https://content.govdelivery.com/accounts/VAEDUFCPS/bulletins/3da0641\">View it as a Web page</a>.</p>\n\n\n\n\n\n\n\n\n\n\n\n\n\n\n\n\n\n\n\n\n\n\n\n\n\n\n\n\n\n<p>Inside this week's Connection:</p>\n<ul>\n<li>Faculty volleyball game- TONIGHT!</li>\n<li>Year...",
      "pubDate": "Thu, 03 Apr 2025 14:17:25 -0500",
      "timestamp": 1743707845000,
      "feedName": "Wolftrap Elementary School",
      "category": "Wolftrap Elementary School",
      "feedSource": "http://www.fcps.edu/index.shtml",
      "feedInfo": {
        "title": "Wolftrap Elementary School News and Announcements - Recent Updates",
        "description": "Wolftrap Elementary School News and announcements",
        "link": "http://www.fcps.edu/index.shtml"
      }
    },
    {
      "id": "NjQ2MzU1Mjg=",
      "title": "Eagle View PTA Newsletter- April 2025",
      "link": "https://content.govdelivery.com/accounts/VAEDUFCPS/bulletins/3da4288",
      "description": "\n        \n\n\n  \n\n\n\n\n\n\n\n<p><a></a>Having trouble viewing this email? <a href=\"https://content.govdelivery.com/accounts/VAEDUFCPS/bulletins/3da4288\">View it as a Web page</a>.</p>\n\n\n\n\n\n\n\n\n\n\n\n<a href=\"https://eagleviewes.fcps.edu/?utm_campaign+=&amp;utm_medium=email&amp;utm_source=govdelivery\" target=\"_...",
      "pubDate": "Thu, 03 Apr 2025 14:11:24 -0500",
      "timestamp": 1743707484000,
      "feedName": "Eagle View Elementary School",
      "category": "Eagle View Elementary School",
      "feedSource": "http://www.fcps.edu/index.shtml",
      "feedInfo": {
        "title": "Eagle View Elementary School News and announcements - Recent Updates",
        "description": "Eagle View Elementary School News and announcements",
        "link": "http://www.fcps.edu/index.shtml"
      }
    },
    {
      "id": "NjQ2MTkxODU=",
      "title": "Kilmer Center School Tiger Tales",
      "link": "https://content.govdelivery.com/accounts/VAEDUFCPS/bulletins/3da02b1",
      "description": "\n        \n\n\n  \n\n\n\n\n\n\n\n<p><a></a>Having trouble viewing this email? <a href=\"https://content.govdelivery.com/accounts/VAEDUFCPS/bulletins/3da02b1\">View it as a Web page</a>.</p>\n\n\n\n\n\n\n\n\n\n\n\n<a href=\"https://kilmercenter.fcps.edu/?utm_campaign+=&amp;utm_medium=email&amp;utm_source=govdelivery\" target=\"...",
      "pubDate": "Thu, 03 Apr 2025 14:00:16 -0500",
      "timestamp": 1743706816000,
      "feedName": "Kilmer Center",
      "category": "Kilmer Center",
      "feedSource": "http://www.fcps.edu/index.shtml",
      "feedInfo": {
        "title": "Kilmer Center News and announcements - Recent Updates",
        "description": "Kilmer Special Education Center News and announcements",
        "link": "http://www.fcps.edu/index.shtml"
      }
    },
    {
      "id": "NjQ2MzI1MTQ=",
      "title": "Board Meeting Recap: Healthier Start Times, Elementary Literacy, and More…",
      "link": "https://content.govdelivery.com/accounts/VAEDUFCPS/bulletins/3da36c2",
      "description": "\n        \n\n\n  \n\n\n\n\n\n\n\n<p><a></a>Having trouble viewing this email? <a href=\"https://content.govdelivery.com/accounts/VAEDUFCPS/bulletins/3da36c2\">View it as a Web page</a>.</p>\n\n\n\n\n\n\n\n\n\n\n\n<a href=\"https://www.fcps.edu/staff/karl-frisch?utm_campaign+=&amp;utm_medium=email&amp;utm_source=govdelivery\" ...",
      "pubDate": "Thu, 03 Apr 2025 12:45:31 -0500",
      "timestamp": 1743702331000,
      "feedName": "FCPS School Board Providence District",
      "category": "FCPS School Board Providence District",
      "feedSource": "http://www.fcps.edu/index.shtml",
      "feedInfo": {
        "title": "Providence District Member - Karl Frisch - Recent Updates",
        "description": "Providence District Member - Karl Frisch - Recent Updates",
        "link": "http://www.fcps.edu/index.shtml"
      }
    },
    {
      "id": "NjQ2MDM1MTA=",
      "title": "Panther Press: April 3",
      "link": "https://content.govdelivery.com/accounts/VAEDUFCPS/bulletins/3d9c576",
      "description": "\n        \n\n\n  \n\n\n\n\n\n\n\n<p><a></a>Having trouble viewing this email? <a href=\"https://content.govdelivery.com/accounts/VAEDUFCPS/bulletins/3d9c576\">View it as a Web page</a>.</p>\n\n\n\n\n\n\n\n\n\n\n\n<a href=\"http://www2.fcps.edu/ProvidenceES/?utm_campaign+=&amp;utm_medium=email&amp;utm_source=govdelivery\" targ...",
      "pubDate": "Thu, 03 Apr 2025 12:39:19 -0500",
      "timestamp": 1743701959000,
      "feedName": "Providence Elementary School",
      "category": "Providence Elementary School",
      "feedSource": "http://www.fcps.edu/index.shtml",
      "feedInfo": {
        "title": "Providence Elementary School News and Announcements - Recent Updates",
        "description": "Providence Elementary School News and announcements",
        "link": "http://www.fcps.edu/index.shtml"
      }
    },
    {
      "id": "NjQ2MzQxMDM=",
      "title": "DATE CHANGE for \"Muffins with Military Lions\" - now Monday, April 28th!",
      "link": "https://content.govdelivery.com/accounts/VAEDUFCPS/bulletins/3da3cf7",
      "description": "\n        \n\n\n  \n\n\n\n\n\n\n\n<p><a></a>Having trouble viewing this email? <a href=\"https://content.govdelivery.com/accounts/VAEDUFCPS/bulletins/3da3cf7\">View it as a Web page</a>.</p>\n\n\n\n\n\n\n\n\n\n\n\n<a href=\"https://lanees.fcps.edu/?utm_campaign+=&amp;utm_medium=email&amp;utm_source=govdelivery\" target=\"_blank...",
      "pubDate": "Thu, 03 Apr 2025 12:38:35 -0500",
      "timestamp": 1743701915000,
      "feedName": "Lane Elementary School",
      "category": "Lane Elementary School",
      "feedSource": "http://www.fcps.edu/index.shtml",
      "feedInfo": {
        "title": "Lane Elementary School News and announcements - Recent Updates",
        "description": "Lane Elementary School News and announcements",
        "link": "http://www.fcps.edu/index.shtml"
      }
    },
    {
      "id": "NjQ2MzE2Mzg=",
      "title": "April 3, 2025",
      "link": "https://content.govdelivery.com/accounts/VAEDUFCPS/bulletins/3da3356",
      "description": "\n        \n\n\n  \n\n\n\n\n\n\n\n<p><a></a>Having trouble viewing this email? <a href=\"https://content.govdelivery.com/accounts/VAEDUFCPS/bulletins/3da3356\">View it as a Web page</a>.</p>\n\n\n\n\n\n\n\n\n\n\n\n<a href=\"https://whitmanms.fcps.edu/?utm_campaign+=&amp;utm_medium=email&amp;utm_source=govdelivery\" target=\"_bl...",
      "pubDate": "Thu, 03 Apr 2025 12:36:38 -0500",
      "timestamp": 1743701798000,
      "feedName": "Whitman Middle School",
      "category": "Whitman Middle School",
      "feedSource": "http://www.fcps.edu/index.shtml",
      "feedInfo": {
        "title": "Whitman Middle School News and announcements - Recent Updates",
        "description": "Whitman Middle School News and announcements",
        "link": "http://www.fcps.edu/index.shtml"
      }
    },
    {
      "id": "NjQ2MDg4NjA=",
      "title": "May Webinars",
      "link": "https://content.govdelivery.com/accounts/VAEDUFCPS/bulletins/3d9da5c",
      "description": "\n        \n\n\n  \n\n\n\n\n\n\n\n<p><a></a>Having trouble viewing this email? <a href=\"https://content.govdelivery.com/accounts/VAEDUFCPS/bulletins/3d9da5c\">View it as a Web page</a>.</p>\n\n\n\n\n\n\n\n\n\n\n\n<a href=\"https://www.fcps.edu/resources/family-engagement/parent-resource-center?utm_campaign+=&amp;utm_medium=e...",
      "pubDate": "Thu, 03 Apr 2025 12:23:05 -0500",
      "timestamp": 1743700985000,
      "feedName": "FCPS Family Resource Newsletters",
      "category": "FCPS Family Resource Newsletters",
      "feedSource": "https://www.fcps.edu/node/46704",
      "feedInfo": {
        "title": "PRC",
        "description": "PRC",
        "link": "https://www.fcps.edu/node/46704"
      }
    },
    {
      "id": "NjQ2MzQwNDI=",
      "title": "Important WP PTSA Info and Requests",
      "link": "https://content.govdelivery.com/accounts/VAEDUFCPS/bulletins/3da3cba",
      "description": "\n        \n\n\n  \n\n\n\n\n\n\n\n<p><a></a>Having trouble viewing this email? <a href=\"https://content.govdelivery.com/accounts/VAEDUFCPS/bulletins/3da3cba\">View it as a Web page</a>.</p>\n\n\n\n\n\n\n\n\n\n\n\n<a href=\"https://westpotomachs.fcps.edu/?utm_campaign+=&amp;utm_medium=email&amp;utm_source=govdelivery\" target=...",
      "pubDate": "Thu, 03 Apr 2025 12:10:14 -0500",
      "timestamp": 1743700214000,
      "feedName": "West Potomac High School",
      "category": "West Potomac High School",
      "feedSource": "http://www.fcps.edu/index.shtml",
      "feedInfo": {
        "title": "West Potomac High School News and announcements - Recent Updates",
        "description": "West Potomac High School News and announcements",
        "link": "http://www.fcps.edu/index.shtml"
      }
    },
    {
      "id": "NjQ2MzM0NjQ=",
      "title": "Montessori",
      "link": "https://content.govdelivery.com/accounts/VAEDUFCPS/bulletins/3da3a78",
      "description": "\n        \n\n\n  \n\n\n\n\n\n\n\n<p><a></a>Having trouble viewing this email? <a href=\"https://content.govdelivery.com/accounts/VAEDUFCPS/bulletins/3da3a78\">View it as a Web page</a>.</p>\n\n\n\n\n\n\n\n\n\n\n\n<a href=\"https://waynewoodes.fcps.edu/?utm_campaign+=&amp;utm_medium=email&amp;utm_source=govdelivery\" target=\"_...",
      "pubDate": "Thu, 03 Apr 2025 11:39:49 -0500",
      "timestamp": 1743698389000,
      "feedName": "Waynewood Elementary School",
      "category": "Waynewood Elementary School",
      "feedSource": "http://www.fcps.edu/index.shtml",
      "feedInfo": {
        "title": "Waynewood Elementary School News and announcements - Recent Updates",
        "description": "Waynewood Elementary School News and announcements",
        "link": "http://www.fcps.edu/index.shtml"
      }
    },
    {
      "id": "NjQ2MzEzMDc=",
      "title": "DCC SPRING DANCE - Tickets on Sale!",
      "link": "https://content.govdelivery.com/accounts/VAEDUFCPS/bulletins/3da320b",
      "description": "\n        \n\n\n  \n\n\n\n\n\n\n\n<p><a></a>Having trouble viewing this email? <a href=\"https://content.govdelivery.com/accounts/VAEDUFCPS/bulletins/3da320b\">View it as a Web page</a>.</p>\n\n\n\n\n\n\n\n\n\n\n\n<a href=\"https://daviscenter.fcps.edu/?utm_campaign+=&amp;utm_medium=email&amp;utm_source=govdelivery\" target=\"_...",
      "pubDate": "Thu, 03 Apr 2025 11:18:03 -0500",
      "timestamp": 1743697083000,
      "feedName": "Davis Career Center",
      "category": "Davis Career Center",
      "feedSource": "http://www.fcps.edu/index.shtml",
      "feedInfo": {
        "title": "Davis Career Center News and announcements - Recent Updates",
        "description": "Davis Career Special Education Center News and announcements",
        "link": "http://www.fcps.edu/index.shtml"
      }
    },
    {
      "id": "NjQ2MjI5MzU=",
      "title": "Westlawn Feather Report: Volume 1, Issue 30",
      "link": "https://content.govdelivery.com/accounts/VAEDUFCPS/bulletins/3da1157",
      "description": "\n        \n\n\n  \n\n\n\n\n\n\n\n<p><a></a>Having trouble viewing this email? <a href=\"https://content.govdelivery.com/accounts/VAEDUFCPS/bulletins/3da1157\">View it as a Web page</a>.</p>\n\n\n\n\n\n\n\n\n\n\n\n<a href=\"https://westlawnes.fcps.edu/?utm_campaign+=&amp;utm_medium=email&amp;utm_source=govdelivery\" target=\"_b...",
      "pubDate": "Thu, 03 Apr 2025 08:00:19 -0500",
      "timestamp": 1743685219000,
      "feedName": "Westlawn Elementary School",
      "category": "Westlawn Elementary School",
      "feedSource": "http://www.fcps.edu/index.shtml",
      "feedInfo": {
        "title": "Westlawn Elementary School News and Announcements - Recent Updates",
        "description": "Westlawn Elementary School News and Announcements",
        "link": "http://www.fcps.edu/index.shtml"
      }
    },
    {
      "id": "NjQ1OTg3MTY=",
      "title": "McNair Elementary School Weekly Newsletter April 3, 2025",
      "link": "https://content.govdelivery.com/accounts/VAEDUFCPS/bulletins/3d9b2bc",
      "description": "\n        \n\n\n  \n\n\n\n\n\n\n\n<p><a></a>Having trouble viewing this email? <a href=\"https://content.govdelivery.com/accounts/VAEDUFCPS/bulletins/3d9b2bc\">View it as a Web page</a>.</p>\n\n\n\n\n\n\n\n\n\n\n\n<a href=\"http://www2.fcps.edu/McNairES/?utm_campaign+=&amp;utm_medium=email&amp;utm_source=govdelivery\" target=\"...",
      "pubDate": "Thu, 03 Apr 2025 06:00:51 -0500",
      "timestamp": 1743678051000,
      "feedName": "McNair Lower Elementary School",
      "category": "McNair Lower Elementary School",
      "feedSource": "http://www.fcps.edu/index.shtml",
      "feedInfo": {
        "title": "McNair Elementary (Grades Prek-2) News and Announcements - Recent Updates",
        "description": "McNair Elementary (Grades Prek-2) News and Announcements - Recent Updates",
        "link": "http://www.fcps.edu/index.shtml"
      }
    },
    {
      "id": "NjQ2MjQ3NTc=",
      "title": "Franconia ES Wednesday Word - 4/2/25",
      "link": "https://content.govdelivery.com/accounts/VAEDUFCPS/bulletins/3da1875",
      "description": "\n        \n\n\n  \n\n\n\n\n\n\n\n<p><a></a>Having trouble viewing this email? <a href=\"https://content.govdelivery.com/accounts/VAEDUFCPS/bulletins/3da1875\">View it as a Web page</a>.</p>\n\n\n\n\n\n\n\n\n\n\n\n<a href=\"https://franconiaes.fcps.edu/?utm_campaign+=&amp;utm_medium=email&amp;utm_source=govdelivery\" target=\"_...",
      "pubDate": "Wed, 02 Apr 2025 19:14:22 -0500",
      "timestamp": 1743639262000,
      "feedName": "Franconia Elementary School",
      "category": "Franconia Elementary School",
      "feedSource": "http://www.fcps.edu/index.shtml",
      "feedInfo": {
        "title": "Franconia Elementary School News and Announcements - Recent Updates",
        "description": "Franconia Elementary School News and Announcements",
        "link": "http://www.fcps.edu/index.shtml"
      }
    },
    {
      "id": "NjQ2MDkyMDc=",
      "title": "Urgent Time to Protect Fairfax Public Schools! Show up in April for Town Hall and Budget Hearings",
      "link": "https://content.govdelivery.com/accounts/VAEDUFCPS/bulletins/3d9dbb7",
      "description": "\n        \n\n\n  \n\n\n\n\n\n\n\n<p><a></a>Having trouble viewing this email? <a href=\"https://content.govdelivery.com/accounts/VAEDUFCPS/bulletins/3d9dbb7\">View it as a Web page</a>.</p>\n\n\n\n\n\n\n\n\n\n\n\n<a href=\"https://www.fcps.edu/staff/melanie-k-meren?utm_campaign+=&amp;utm_medium=email&amp;utm_source=govdelive...",
      "pubDate": "Wed, 02 Apr 2025 18:18:24 -0500",
      "timestamp": 1743635904000,
      "feedName": "FCPS School Board Hunter District",
      "category": "FCPS School Board Hunter District",
      "feedSource": "http://www.fcps.edu/index.shtml",
      "feedInfo": {
        "title": "Hunter Mill District Member - Melanie Meren - Recent Updates",
        "description": "Hunter Mill District Member - Melanie Meren - Recent Updates",
        "link": "http://www.fcps.edu/index.shtml"
      }
    },
    {
      "id": "NjQ2MDk0MDM=",
      "title": "Upcoming Change to Telework Regulation, Share Your Thoughts on School Start Times, FCPS Budget",
      "link": "https://content.govdelivery.com/accounts/VAEDUFCPS/bulletins/3d9dc7b",
      "description": "\n        \n\n\n  \n\n\n\n\n\n\n\n<p>Having trouble viewing this email? <a href=\"https://content.govdelivery.com/accounts/VAEDUFCPS/bulletins/3d9dc7b\">View it as a Web page</a>.</p>\n\n\n\n\n\n\n\n\n\n\n\n<a href=\"https://www.fcps.edu/?utm_campaign+=&amp;utm_medium=email&amp;utm_source=govdelivery\" target=\"_blank\"></a>\n\n\n\n...",
      "pubDate": "Wed, 02 Apr 2025 16:30:12 -0500",
      "timestamp": 1743629412000,
      "feedName": "FCPS Employee News",
      "category": "FCPS Employee News",
      "feedSource": "http://www.fcps.edu/index.shtml",
      "feedInfo": {
        "title": "FCPS Employees - Recent Updates",
        "description": "FCPS Employees - Recent Updates",
        "link": "http://www.fcps.edu/index.shtml"
      }
    },
    {
      "id": "NjQ1NDEzNDg=",
      "title": "Kings Glen Gator Bytes April 2, 2025",
      "link": "https://content.govdelivery.com/accounts/VAEDUFCPS/bulletins/3d8d2a4",
      "description": "\n        \n\n\n  \n\n\n\n\n\n\n\n<p><a></a>Having trouble viewing this email? <a href=\"https://content.govdelivery.com/accounts/VAEDUFCPS/bulletins/3d8d2a4\">View it as a Web page</a>.</p>\n\n\n\n\n\n\n\n\n\n\n\n<a href=\"https://kingsglenes.fcps.edu/?utm_content=&amp;utm_medium=email&amp;utm_name=&amp;utm_source=govdeliver...",
      "pubDate": "Wed, 02 Apr 2025 15:50:14 -0500",
      "timestamp": 1743627014000,
      "feedName": "Kings Glen Elementary School",
      "category": "Kings Glen Elementary School",
      "feedSource": "http://www.fcps.edu/index.shtml",
      "feedInfo": {
        "title": "Kings Glen Elementary School News and announcements - Recent Updates",
        "description": "Kings Glen Elementary School News and announcements",
        "link": "http://www.fcps.edu/index.shtml"
      }
    },
    {
      "id": "NjQ2MTcyNjI=",
      "title": "Hunt Valley ES PTA 04-02-2025",
      "link": "https://content.govdelivery.com/accounts/VAEDUFCPS/bulletins/3d9fb2e",
      "description": "\n        \n\n\n  \n\n\n\n\n\n\n\n<p><a></a>Having trouble viewing this email? <a href=\"https://content.govdelivery.com/accounts/VAEDUFCPS/bulletins/3d9fb2e\">View it as a Web page</a>.</p>\n\n\n\n\n\n\n\n\n\n\n\n\n\n\n\n\n\n\n\n\n\n\n\n\n\n\n\n\n\nHunt Valley PTA News You Choose\n\n\n\n\n<p>We communicate with PTA members and the entire Hunt Val...",
      "pubDate": "Wed, 02 Apr 2025 15:45:13 -0500",
      "timestamp": 1743626713000,
      "feedName": "Hunt Valley Elementary School",
      "category": "Hunt Valley Elementary School",
      "feedSource": "http://www.fcps.edu/index.shtml",
      "feedInfo": {
        "title": "Hunt Valley Elementary School News and announcements - Recent Updates",
        "description": "Hunt Valley Elementary School News and announcements",
        "link": "http://www.fcps.edu/index.shtml"
      }
    }
  ],
  "hasNext": true,
  "hasPrev": true
}