{
  "page": 188,
  "totalPages": 268,
  "totalItems": 5354,
  "itemsPerPage": 20,
  "items": [
    {
      "id": "NjQyNDMyMTc=",
      "title": "Dogwood Digest 02/26/2025",
      "link": "https://content.govdelivery.com/accounts/VAEDUFCPS/bulletins/3d44611",
      "description": "\n        \n\n\n  \n\n\n\n\n\n\n\n<p><a></a>Having trouble viewing this email? <a href=\"https://content.govdelivery.com/accounts/VAEDUFCPS/bulletins/3d44611\">View it as a Web page</a>.</p>\n\n\n\n\n\n\n\n\n\n\n\n<a href=\"https://dogwoodes.fcps.edu/?utm_campaign+=&amp;utm_medium=email&amp;utm_source=govdelivery\" target=\"_bl...",
      "pubDate": "Wed, 26 Feb 2025 15:00:16 -0600",
      "timestamp": 1740603616000,
      "feedName": "Dogwood Elementary School",
      "category": "Dogwood Elementary School",
      "feedSource": "http://www.fcps.edu/index.shtml",
      "feedInfo": {
        "title": "Dogwood Elementary School News and announcements - Recent Updates",
        "description": "Dogwood Elementary School News and announcements",
        "link": "http://www.fcps.edu/index.shtml"
      }
    },
    {
      "id": "NjQyMjg2MDA=",
      "title": "Weekly Newsletter 2/26/2025",
      "link": "https://content.govdelivery.com/accounts/VAEDUFCPS/bulletins/3d40cf8",
      "description": "\n        \n\n\n  \n\n\n\n\n\n\n\n<p><a></a>Having trouble viewing this email? <a href=\"https://content.govdelivery.com/accounts/VAEDUFCPS/bulletins/3d40cf8\">View it as a Web page</a>.</p>\n\n\n\n\n\n\n\n\n\n\n\n<a href=\"https://keycenter.fcps.edu/?utm_campaign+=&amp;utm_medium=email&amp;utm_source=govdelivery\" target=\"_bl...",
      "pubDate": "Wed, 26 Feb 2025 14:50:13 -0600",
      "timestamp": 1740603013000,
      "feedName": "Key Center",
      "category": "Key Center",
      "feedSource": "http://www.fcps.edu/index.shtml",
      "feedInfo": {
        "title": "Key Center News and announcements - Recent Updates",
        "description": "Key Special Education Center News and announcements",
        "link": "http://www.fcps.edu/index.shtml"
      }
    },
    {
      "id": "NjQyMjgyMTI=",
      "title": "Westgate Weekly News",
      "link": "https://content.govdelivery.com/accounts/VAEDUFCPS/bulletins/3d40b74",
      "description": "\n        \n\n\n  \n\n\n\n\n\n\n\n<p><a></a>Having trouble viewing this email? <a href=\"https://content.govdelivery.com/accounts/VAEDUFCPS/bulletins/3d40b74\">View it as a Web page</a>.</p>\n\n\n\n\n\n\n\n\n\n\n\n<a href=\"http://www2.fcps.edu/WestgateES/?utm_content=&amp;utm_medium=email&amp;utm_name=&amp;utm_source=govdeli...",
      "pubDate": "Wed, 26 Feb 2025 14:03:30 -0600",
      "timestamp": 1740600210000,
      "feedName": "Westgate Elementary School",
      "category": "Westgate Elementary School",
      "feedSource": "http://www.fcps.edu/index.shtml",
      "feedInfo": {
        "title": "Westgate ES News",
        "description": "Westgate Elementary School News and announcements",
        "link": "http://www.fcps.edu/index.shtml"
      }
    },
    {
      "id": "NjQyMjg5MTM=",
      "title": "Glasgow Middle School- February 26; 4th Edition",
      "link": "https://content.govdelivery.com/accounts/VAEDUFCPS/bulletins/3d40e31",
      "description": "\n        \n\n\n  \n\n\n\n\n\n\n\n<p><a></a>Having trouble viewing this email? <a href=\"https://content.govdelivery.com/accounts/VAEDUFCPS/bulletins/3d40e31\">View it as a Web page</a>.</p>\n\n\n\n\n\n\n\n\n\n\n\n<a href=\"https://glasgowms.fcps.edu/?utm_campaign+=&amp;utm_medium=email&amp;utm_source=govdelivery\" target=\"_bl...",
      "pubDate": "Wed, 26 Feb 2025 14:00:17 -0600",
      "timestamp": 1740600017000,
      "feedName": "Glasgow Middle School",
      "category": "Glasgow Middle School",
      "feedSource": "http://www.fcps.edu/index.shtml",
      "feedInfo": {
        "title": "Glasgow Middle School News and Announcements - Recent Updates",
        "description": "Glasgow Middle School News and Announcements",
        "link": "http://www.fcps.edu/index.shtml"
      }
    },
    {
      "id": "NjQyNDY0MjI=",
      "title": "February 26, 2025 - NSES News",
      "link": "https://content.govdelivery.com/accounts/VAEDUFCPS/bulletins/3d45296",
      "description": "\n        \n\n\n  \n\n\n\n\n\n\n\n<p><a></a>Having trouble viewing this email? <a href=\"https://content.govdelivery.com/accounts/VAEDUFCPS/bulletins/3d45296\">View it as a Web\npage</a>.</p>\n\n\n\n\n\n\n\n\n\n\n\n<a href=\"https://northspringfieldes.fcps.edu/?utm_content=&amp;utm_medium=email&amp;utm_name=&amp;utm_source=gov...",
      "pubDate": "Wed, 26 Feb 2025 13:54:05 -0600",
      "timestamp": 1740599645000,
      "feedName": "North Springfield Elementary School",
      "category": "North Springfield Elementary School",
      "feedSource": "http://www.fcps.edu/index.shtml",
      "feedInfo": {
        "title": "North Springfield Elementary School News and announcements - Recent Updates",
        "description": "North Springfield Elementary School News and announcements",
        "link": "http://www.fcps.edu/index.shtml"
      }
    },
    {
      "id": "NjQxNjUyODg=",
      "title": "Kings Glen Gator Bytes February 26, 2025",
      "link": "https://content.govdelivery.com/accounts/VAEDUFCPS/bulletins/3d315a8",
      "description": "\n        \n\n\n  \n\n\n\n\n\n\n\n<p><a></a>Having trouble viewing this email? <a href=\"https://content.govdelivery.com/accounts/VAEDUFCPS/bulletins/3d315a8\">View it as a Web page</a>.</p>\n\n\n\n\n\n\n\n\n\n\n\n<a href=\"https://kingsglenes.fcps.edu/?utm_content=&amp;utm_medium=email&amp;utm_name=&amp;utm_source=govdeliver...",
      "pubDate": "Wed, 26 Feb 2025 12:00:16 -0600",
      "timestamp": 1740592816000,
      "feedName": "Kings Glen Elementary School",
      "category": "Kings Glen Elementary School",
      "feedSource": "http://www.fcps.edu/index.shtml",
      "feedInfo": {
        "title": "Kings Glen Elementary School News and announcements - Recent Updates",
        "description": "Kings Glen Elementary School News and announcements",
        "link": "http://www.fcps.edu/index.shtml"
      }
    },
    {
      "id": "NjQxNjYzNzE=",
      "title": "WSES School-Wide Field Trip Reminders",
      "link": "https://content.govdelivery.com/accounts/VAEDUFCPS/bulletins/3d319e3",
      "description": "\n        \n\n\n  \n\n\n\n\n\n\n\n\n\n\n\n\n\n\n\n\n\n\n\n<a href=\"https://westspringfieldes.fcps.edu/?utm_campaign+=&amp;utm_medium=email&amp;utm_source=govdelivery\" target=\"_blank\"></a>\n\n\n\n\n\n\n\n\n\n\n\n\n\n\n\n\n<strong><br />School-Wide Field Trip Reminders</strong>\n<ul>\n<li>Tomorrow morning, children will be handed their school-...",
      "pubDate": "Wed, 26 Feb 2025 10:50:12 -0600",
      "timestamp": 1740588612000,
      "feedName": "West Springfield Elementary School",
      "category": "West Springfield Elementary School",
      "feedSource": "http://www.fcps.edu/index.shtml",
      "feedInfo": {
        "title": "West Springfield Elementary School News and announcements - Recent Updates",
        "description": "West Springfield Elementary School News and announcements",
        "link": "http://www.fcps.edu/index.shtml"
      }
    },
    {
      "id": "NjQyNDIyNDk=",
      "title": "Pine Spring Paw Print",
      "link": "https://content.govdelivery.com/accounts/VAEDUFCPS/bulletins/3d44249",
      "description": "\n        \n\n\n  \n\n\n\n\n\n\n\n<p><a></a>Having trouble viewing this email? <a href=\"https://content.govdelivery.com/accounts/VAEDUFCPS/bulletins/3d44249\">View it as a Web page</a>.</p>\n\n\n\n\n\n\n\n\n\n\n\n<a href=\"https://pinespringes.fcps.edu/?utm_campaign+=&amp;utm_medium=email&amp;utm_source=govdelivery\" target=\"...",
      "pubDate": "Wed, 26 Feb 2025 09:38:32 -0600",
      "timestamp": 1740584312000,
      "feedName": "Pine Spring Elementary School",
      "category": "Pine Spring Elementary School",
      "feedSource": "http://www.fcps.edu/index.shtml",
      "feedInfo": {
        "title": "Pine Spring Elementary School News and announcements - Recent Updates",
        "description": "Pine Spring Elementary School News and announcements",
        "link": "http://www.fcps.edu/index.shtml"
      }
    },
    {
      "id": "NjQyNDA5Mzg=",
      "title": "Read Across America Week",
      "link": "https://content.govdelivery.com/accounts/VAEDUFCPS/bulletins/3d43d2a",
      "description": "\n        \n\n\n  \n\n\n\n\n\n\n\n<p><a></a>Having trouble viewing this email? <a href=\"https://content.govdelivery.com/accounts/VAEDUFCPS/bulletins/3d43d2a\">View it as a Web page</a>.</p>\n\n\n\n\n\n\n\n\n\n\n\n<a href=\"https://waynewoodes.fcps.edu/?utm_campaign+=&amp;utm_medium=email&amp;utm_source=govdelivery\" target=\"_...",
      "pubDate": "Wed, 26 Feb 2025 07:31:34 -0600",
      "timestamp": 1740576694000,
      "feedName": "Waynewood Elementary School",
      "category": "Waynewood Elementary School",
      "feedSource": "http://www.fcps.edu/index.shtml",
      "feedInfo": {
        "title": "Waynewood Elementary School News and announcements - Recent Updates",
        "description": "Waynewood Elementary School News and announcements",
        "link": "http://www.fcps.edu/index.shtml"
      }
    },
    {
      "id": "NjQyMzY4MjU=",
      "title": "Aldrin Family Newsletter",
      "link": "https://content.govdelivery.com/accounts/VAEDUFCPS/bulletins/3d42d19",
      "description": "\n        \n\n\n  \n\n\n\n\n\n\n\n<p><a></a>Having trouble viewing this email? <a href=\"https://content.govdelivery.com/accounts/VAEDUFCPS/bulletins/3d42d19\">View it as a Web page</a>.</p>\n\n\n\n\n\n\n\n\n\n\n\n<a href=\"https://aldrines.fcps.edu/?utm_campaign+=&amp;utm_medium=email&amp;utm_source=govdelivery\" target=\"_bla...",
      "pubDate": "Tue, 25 Feb 2025 18:30:26 -0600",
      "timestamp": 1740529826000,
      "feedName": "Aldrin Elementary School",
      "category": "Aldrin Elementary School",
      "feedSource": "http://www.fcps.edu/index.shtml",
      "feedInfo": {
        "title": "Aldrin Elementary School News and announcements - Recent Updates",
        "description": "Aldrin Elementary School News and announcements",
        "link": "http://www.fcps.edu/index.shtml"
      }
    },
    {
      "id": "NjQyMjgzMTk=",
      "title": "Professional Learning Opportunities, Join the Wellness Challenge",
      "link": "https://content.govdelivery.com/accounts/VAEDUFCPS/bulletins/3d40bdf",
      "description": "\n        \n\n\n  \n\n\n\n\n\n\n\n<p>Having trouble viewing this email? <a href=\"https://content.govdelivery.com/accounts/VAEDUFCPS/bulletins/3d40bdf\">View it as a Web page</a>.</p>\n\n\n\n\n\n\n\n\n\n\n\n<a href=\"https://www.fcps.edu/?utm_campaign+=&amp;utm_medium=email&amp;utm_source=govdelivery\" target=\"_blank\"></a>\n\n\n\n...",
      "pubDate": "Tue, 25 Feb 2025 18:10:12 -0600",
      "timestamp": 1740528612000,
      "feedName": "FCPS Employee News",
      "category": "FCPS Employee News",
      "feedSource": "http://www.fcps.edu/index.shtml",
      "feedInfo": {
        "title": "FCPS Employees - Recent Updates",
        "description": "FCPS Employees - Recent Updates",
        "link": "http://www.fcps.edu/index.shtml"
      }
    },
    {
      "id": "NjQyMTY5OTQ=",
      "title": "Orange Hunt News We HOOT",
      "link": "https://content.govdelivery.com/accounts/VAEDUFCPS/bulletins/3d3dfa2",
      "description": "\n        \n\n\n  \n\n\n\n\n\n\n\n<p><a></a>Having trouble viewing this email? <a href=\"https://content.govdelivery.com/accounts/VAEDUFCPS/bulletins/3d3dfa2\">View it as a Web page</a>.</p>\n\n\n\n\n\n\n\n\n\n\n\n<a href=\"https://orangehuntes.fcps.edu?utm_content=&amp;utm_medium=email&amp;utm_name=&amp;utm_source=govdeliver...",
      "pubDate": "Tue, 25 Feb 2025 16:55:48 -0600",
      "timestamp": 1740524148000,
      "feedName": "Orange Hunt Elementary School",
      "category": "Orange Hunt Elementary School",
      "feedSource": "http://www.fcps.edu/index.shtml",
      "feedInfo": {
        "title": "Orange Hunt ES News and Announcements - Recent Updates",
        "description": "Orange Hunt ES News and Announcements",
        "link": "http://www.fcps.edu/index.shtml"
      }
    },
    {
      "id": "NjQyMzQ1ODU=",
      "title": "Parent Newsletter",
      "link": "https://content.govdelivery.com/accounts/VAEDUFCPS/bulletins/3d42459",
      "description": "\n        \n\n\n  \n\n\n\n\n\n\n\n<p><a></a>Having trouble viewing this email? <a href=\"https://content.govdelivery.com/accounts/VAEDUFCPS/bulletins/3d42459\">View it as a Web page</a>.</p>\n\n\n\n\n\n\n\n\n\n\n\n<a href=\"http://www2.fcps.edu/FtBelvoirES/?utm_campaign+=&amp;utm_medium=email&amp;utm_source=govdelivery\" targe...",
      "pubDate": "Tue, 25 Feb 2025 15:32:49 -0600",
      "timestamp": 1740519169000,
      "feedName": "Fort Belvoir Elementary School",
      "category": "Fort Belvoir Elementary School",
      "feedSource": "http://www.fcps.edu/index.shtml",
      "feedInfo": {
        "title": "Fort Belvoir Primary (PreK-2) News and Announcements - Recent Updates",
        "description": "Fort Belvoir Primary (PreK-2) News and Announcements - Recent Updates",
        "link": "http://www.fcps.edu/index.shtml"
      }
    },
    {
      "id": "NjQxNjYwNjg=",
      "title": "Kings Park News Tuesday, Feb 25th",
      "link": "https://content.govdelivery.com/accounts/VAEDUFCPS/bulletins/3d318b4",
      "description": "\n        \n\n\n  \n\n\n\n\n\n\n\n<p><a></a>Having trouble viewing this email? <a href=\"https://content.govdelivery.com/accounts/VAEDUFCPS/bulletins/3d318b4\">View it as a Web page</a>.</p>\n\n\n\n\n\n\n\n\n\n\n\n<a href=\"http://www2.fcps.edu/KingsParkES/?utm_campaign+=&amp;utm_medium=email&amp;utm_source=govdelivery\" targe...",
      "pubDate": "Tue, 25 Feb 2025 15:29:55 -0600",
      "timestamp": 1740518995000,
      "feedName": "Kings Park Elementary School",
      "category": "Kings Park Elementary School",
      "feedSource": "http://www.fcps.edu/index.shtml",
      "feedInfo": {
        "title": "Kings Park Elementary School News and announcements - Recent Updates",
        "description": "Kings Park Elementary School News and announcements",
        "link": "http://www.fcps.edu/index.shtml"
      }
    },
    {
      "id": "NjQxOTYwMjI=",
      "title": "Crossfield News 2/25/25",
      "link": "https://content.govdelivery.com/accounts/VAEDUFCPS/bulletins/3d38db6",
      "description": "\n        \n\n\n  \n\n\n\n\n\n\n\n<p><a></a>Having trouble viewing this email? <a href=\"https://content.govdelivery.com/accounts/VAEDUFCPS/bulletins/3d38db6\">View it as a Web page</a>.</p>\n\n\n\n\n\n\n\n\n\n\n\n<a href=\"https://crossfieldes.fcps.edu/?utm_campaign+=&amp;utm_medium=email&amp;utm_source=govdelivery\" target=\"...",
      "pubDate": "Tue, 25 Feb 2025 14:11:53 -0600",
      "timestamp": 1740514313000,
      "feedName": "Crossfield Elementary School",
      "category": "Crossfield Elementary School",
      "feedSource": "http://www.fcps.edu/index.shtml",
      "feedInfo": {
        "title": "Crossfield Elementary School News and announcements - Recent Updates",
        "description": "Crossfield Elementary School News and announcements",
        "link": "http://www.fcps.edu/index.shtml"
      }
    },
    {
      "id": "NjQyMDgwNTI=",
      "title": "Willow Springs News: Ramadan Fasting Plans",
      "link": "https://content.govdelivery.com/accounts/VAEDUFCPS/bulletins/3d3bcb4",
      "description": "\n        \n\n\n  \n\n\n\n\n\n\n\n<p><a href=\"https://content.govdelivery.com/accounts/VAEDUFCPS/bulletins/3d3bcb4\">Having trouble viewing this email? <a href=\"https://content.govdelivery.com/accounts/VAEDUFCPS/bulletins/3d3bcb4\">View it as a Web page</a>.</a></p>\n\n\n\n\n\n\n\n\n\n\n\n<a href=\"https://willowspringses.fcp...",
      "pubDate": "Tue, 25 Feb 2025 14:00:12 -0600",
      "timestamp": 1740513612000,
      "feedName": "Willow Springs Elementary School",
      "category": "Willow Springs Elementary School",
      "feedSource": "https://willowspringses.fcps.edu",
      "feedInfo": {
        "title": "Willow Springs Elementary School",
        "description": "Willow Springs Elementary School News and announcements",
        "link": "https://willowspringses.fcps.edu"
      }
    },
    {
      "id": "NjQxNjQ4OTc=",
      "title": "Carson MS Weekly Updates -Updates - Week of February 24",
      "link": "https://content.govdelivery.com/accounts/VAEDUFCPS/bulletins/3d31421",
      "description": "\n        \n\n\n  \n\n\n\n\n\n\n\n<p><a></a>Having trouble viewing this email? <a href=\"https://content.govdelivery.com/accounts/VAEDUFCPS/bulletins/3d31421\">View it as a Web page</a>.</p>\n\n\n\n\n\n\n\n\n\n\n\n<a href=\"https://carsonms.fcps.edu/?utm_campaign+=&amp;utm_medium=email&amp;utm_source=govdelivery\" target=\"_bla...",
      "pubDate": "Tue, 25 Feb 2025 13:41:59 -0600",
      "timestamp": 1740512519000,
      "feedName": "Carson Middle School",
      "category": "Carson Middle School",
      "feedSource": "http://www.fcps.edu/index.shtml",
      "feedInfo": {
        "title": "Carson Middle School News and announcements - Recent Updates",
        "description": "Carson Middle School News and announcements",
        "link": "http://www.fcps.edu/index.shtml"
      }
    },
    {
      "id": "NjQxNTc5MTk=",
      "title": "5 Full Weeks!",
      "link": "https://content.govdelivery.com/accounts/VAEDUFCPS/bulletins/3d2f8df",
      "description": "\n        \n\n\n  \n\n\n\n\n\n\n\n\n\n\n\n\n\n\n\n\n\n\n\n\n\n\n\n\n\n\n\n\n\n\n\n\n\n\n\n\n<p><a href=\"https://fairhilles.fcps.edu/aggregator/sources/1?utm_campaign+=&amp;utm_medium=email&amp;utm_source=govdelivery#modal-language-switcher\" target=\"_blank\">English | Español | አማርኛ | 中文 | 한국어 | Tiếng Việt | العربية | فارسی | اردو</a></p>\n\n\n...",
      "pubDate": "Tue, 25 Feb 2025 13:04:36 -0600",
      "timestamp": 1740510276000,
      "feedName": "Fairhill Elementary School",
      "category": "Fairhill Elementary School",
      "feedSource": "http://www.fcps.edu/index.shtml",
      "feedInfo": {
        "title": "Fairhill Elementary School News and Announcements - Recent Updates",
        "description": "Fairhill Elementary School News and Announcements",
        "link": "http://www.fcps.edu/index.shtml"
      }
    },
    {
      "id": "NjQyMTY0Nzg=",
      "title": "Tuesday Terragram February 25",
      "link": "https://content.govdelivery.com/accounts/VAEDUFCPS/bulletins/3d3dd9e",
      "description": "\n        \n\n\n  \n\n\n\n\n\n\n\n<p><a></a>Having trouble viewing this email? <a href=\"https://content.govdelivery.com/accounts/VAEDUFCPS/bulletins/3d3dd9e\">View it as a Web page</a>.</p>\n\n\n\n\n\n\n\n\n\n\n\n<a href=\"https://terrasetes.fcps.edu?utm_campaign+=&amp;utm_medium=email&amp;utm_source=govdelivery\" target=\"_bl...",
      "pubDate": "Tue, 25 Feb 2025 12:02:33 -0600",
      "timestamp": 1740506553000,
      "feedName": "Terraset Elementary School",
      "category": "Terraset Elementary School",
      "feedSource": "http://www.fcps.edu/index.shtml",
      "feedInfo": {
        "title": "Tuesday Terragram - Recent Updates",
        "description": "Terraset Elementary School weekly news and announcements",
        "link": "http://www.fcps.edu/index.shtml"
      }
    },
    {
      "id": "NjQxNzgxMzM=",
      "title": "Bush Hill Updates -- Tuesday, February 25, 2025",
      "link": "https://content.govdelivery.com/accounts/VAEDUFCPS/bulletins/3d347d5",
      "description": "\n        \n\n\n  \n\n\n\n\n\n\n\n<p><a></a>Having trouble viewing this email? <a href=\"https://content.govdelivery.com/accounts/VAEDUFCPS/bulletins/3d347d5\">View it as a Web page</a>.</p>\n\n\n\n\n\n\n\n\n\n\n\n<a href=\"https://bushhilles.fcps.edu/?utm_campaign+=&amp;utm_medium=email&amp;utm_source=govdelivery\" target=\"_b...",
      "pubDate": "Tue, 25 Feb 2025 11:59:50 -0600",
      "timestamp": 1740506390000,
      "feedName": "Bush Hill Elementary School",
      "category": "Bush Hill Elementary School",
      "feedSource": "http://www.fcps.edu/index.shtml",
      "feedInfo": {
        "title": "Bush Hill Elementary School News and announcements - Recent Updates",
        "description": "Bush Hill Elementary School News and announcements",
        "link": "http://www.fcps.edu/index.shtml"
      }
    }
  ],
  "hasNext": true,
  "hasPrev": true
}