{
  "page": 115,
  "totalPages": 268,
  "totalItems": 5354,
  "itemsPerPage": 20,
  "items": [
    {
      "id": "NjQ5MDA0NjM=",
      "title": "Westgate Weekly News",
      "link": "https://content.govdelivery.com/accounts/VAEDUFCPS/bulletins/3de4d6f",
      "description": "\n        \n\n\n  \n\n\n\n\n\n\n\n<p><a></a>Having trouble viewing this email? <a href=\"https://content.govdelivery.com/accounts/VAEDUFCPS/bulletins/3de4d6f\">View it as a Web page</a>.</p>\n\n\n\n\n\n\n\n\n\n\n\n<a href=\"http://www2.fcps.edu/WestgateES/?utm_content=&amp;utm_medium=email&amp;utm_name=&amp;utm_source=govdeli...",
      "pubDate": "Wed, 30 Apr 2025 09:42:08 -0500",
      "timestamp": 1746024128000,
      "feedName": "Westgate Elementary School",
      "category": "Westgate Elementary School",
      "feedSource": "http://www.fcps.edu/index.shtml",
      "feedInfo": {
        "title": "Westgate ES News",
        "description": "Westgate Elementary School News and announcements",
        "link": "http://www.fcps.edu/index.shtml"
      }
    },
    {
      "id": "NjQ4Nzg3MzE=",
      "title": "Hybla Happenings April 30th, 2025 Edition",
      "link": "https://content.govdelivery.com/accounts/VAEDUFCPS/bulletins/3ddf88b",
      "description": "\n        \n\n\n  \n\n\n\n\n\n\n\n<p><a></a><a href=\"https://urldefense.com/v3/__https:/links-1.govdelivery.com/CL0/https:*2F*2Furldefense.com*2Fv3*2F__https:*2Flinks-1.govdelivery.com*2FCL0*2Fhttps:*2F*2Furldefense.com*2Fv3*2F__https:*2Flnks.gd*2Fl*2FeyJhbGciOiJIUzI1NiJ9.eyJidWxsZXRpbl9saW5rX2lkIjoxMDEsInVyaSI...",
      "pubDate": "Wed, 30 Apr 2025 09:38:04 -0500",
      "timestamp": 1746023884000,
      "feedName": "Hybla Valley Elementary School",
      "category": "Hybla Valley Elementary School",
      "feedSource": "http://www.fcps.edu/index.shtml",
      "feedInfo": {
        "title": "Hybla Valley Elementary School News and announcements - Recent Updates",
        "description": "Hybla Valley Elementary School News and announcements",
        "link": "http://www.fcps.edu/index.shtml"
      }
    },
    {
      "id": "NjQ4OTkyMDQ=",
      "title": "Teacher Appreciation Week is Next Week!",
      "link": "https://content.govdelivery.com/accounts/VAEDUFCPS/bulletins/3de4884",
      "description": "\n        \n\n\n  \n\n\n\n\n\n\n\n<p><a></a>Having trouble viewing this email? <a href=\"https://content.govdelivery.com/accounts/VAEDUFCPS/bulletins/3de4884\">View it as a Web page</a>.</p>\n\n\n\n\n\n\n\n\n\n\n\n<a href=\"http://www2.fcps.edu/WolftrapES/?utm_campaign+=&amp;utm_medium=email&amp;utm_source=govdelivery\" target...",
      "pubDate": "Wed, 30 Apr 2025 07:32:09 -0500",
      "timestamp": 1746016329000,
      "feedName": "Wolftrap Elementary School",
      "category": "Wolftrap Elementary School",
      "feedSource": "http://www.fcps.edu/index.shtml",
      "feedInfo": {
        "title": "Wolftrap Elementary School News and Announcements - Recent Updates",
        "description": "Wolftrap Elementary School News and announcements",
        "link": "http://www.fcps.edu/index.shtml"
      }
    },
    {
      "id": "NjQ4ODI3MjI=",
      "title": "Staff Appreciation Week-May 5-May 9",
      "link": "https://content.govdelivery.com/accounts/VAEDUFCPS/bulletins/3de0822",
      "description": "\n        \n\n\n  \n\n\n\n\n\n\n\n<p><a></a>Having trouble viewing this email? <a href=\"https://content.govdelivery.com/accounts/VAEDUFCPS/bulletins/3de0822\">View it as a Web page</a>.</p>\n\n\n\n\n\n\n\n\n\n\n\n<a href=\"https://terracentrees.fcps.edu/?utm_campaign+=&amp;utm_medium=email&amp;utm_source=govdelivery\" target=...",
      "pubDate": "Wed, 30 Apr 2025 07:00:14 -0500",
      "timestamp": 1746014414000,
      "feedName": "Terra Centre Elementary School",
      "category": "Terra Centre Elementary School",
      "feedSource": "http://www.fcps.edu/index.shtml",
      "feedInfo": {
        "title": "Terra Centre Elementary School News and Announcements - Recent Updates",
        "description": "Terra Centre Elementary School News and Announcements",
        "link": "http://www.fcps.edu/index.shtml"
      }
    },
    {
      "id": "NjQ4ODA2NTQ=",
      "title": "Family Liaison Newsletter",
      "link": "https://content.govdelivery.com/accounts/VAEDUFCPS/bulletins/3de000e",
      "description": "\n        \n\n\n  \n\n\n\n\n\n\n\n<p><a></a>Having trouble viewing this email? <a href=\"https://content.govdelivery.com/accounts/VAEDUFCPS/bulletins/3de000e\">View it as a Web page</a>.</p>\n\n\n\n\n\n\n\n\n\n\n\n<a href=\"https://haycockes.fcps.edu/?utm_campaign+=&amp;utm_medium=email&amp;utm_source=govdelivery\" target=\"_bl...",
      "pubDate": "Wed, 30 Apr 2025 02:10:12 -0500",
      "timestamp": 1745997012000,
      "feedName": "Haycock Elementary School",
      "category": "Haycock Elementary School",
      "feedSource": "http://www.fcps.edu/index.shtml",
      "feedInfo": {
        "title": "Haycock Elementary School News and announcements - Recent Updates",
        "description": "Haycock Elementary School News and announcements",
        "link": "http://www.fcps.edu/index.shtml"
      }
    },
    {
      "id": "NjQ4OTU3MDg=",
      "title": "Dranesville Tuesday Connection",
      "link": "https://content.govdelivery.com/accounts/VAEDUFCPS/bulletins/3de3adc",
      "description": "\n        \n\n\n  \n\n\n\n\n\n\n\n<p><a></a>Having trouble viewing this email? <a href=\"https://content.govdelivery.com/accounts/VAEDUFCPS/bulletins/3de3adc\">View it as a Web page</a>.</p>\n\n\n\n\n\n\n\n\n\n\n\n<a href=\"https://dranesvillees.fcps.edu/?utm_campaign+=&amp;utm_medium=email&amp;utm_source=govdelivery\" target=...",
      "pubDate": "Tue, 29 Apr 2025 19:40:11 -0500",
      "timestamp": 1745973611000,
      "feedName": "Dranesville Elementary School",
      "category": "Dranesville Elementary School",
      "feedSource": "http://www.fcps.edu/index.shtml",
      "feedInfo": {
        "title": "Dranesville Elementary School News and announcements - Recent Updates",
        "description": "Dranesville Elementary School News and announcements",
        "link": "http://www.fcps.edu/index.shtml"
      }
    },
    {
      "id": "NjQ4ODcxNjg=",
      "title": "Employee Conversations with Dr. Reid, Update Your Number in UConnect, Upcoming Professional Learning",
      "link": "https://content.govdelivery.com/accounts/VAEDUFCPS/bulletins/3de1980",
      "description": "\n        \n\n\n  \n\n\n\n\n\n\n\n<p>Having trouble viewing this email? <a href=\"https://content.govdelivery.com/accounts/VAEDUFCPS/bulletins/3de1980\">View it as a Web page</a>.</p>\n\n\n\n\n\n\n\n\n\n\n\n<a href=\"https://www.fcps.edu/?utm_campaign+=&amp;utm_medium=email&amp;utm_source=govdelivery\" target=\"_blank\"></a>\n\n\n\n...",
      "pubDate": "Tue, 29 Apr 2025 18:00:13 -0500",
      "timestamp": 1745967613000,
      "feedName": "FCPS Employee News",
      "category": "FCPS Employee News",
      "feedSource": "http://www.fcps.edu/index.shtml",
      "feedInfo": {
        "title": "FCPS Employees - Recent Updates",
        "description": "FCPS Employees - Recent Updates",
        "link": "http://www.fcps.edu/index.shtml"
      }
    },
    {
      "id": "NjQ4OTQ0MTc=",
      "title": "From Eagle View PTA:   Teacher/Staff Appreciation Week is Next Week!",
      "link": "https://content.govdelivery.com/accounts/VAEDUFCPS/bulletins/3de35d1",
      "description": "\n        \n\n\n  \n\n\n\n\n\n\n\n<p><a></a>Having trouble viewing this email? <a href=\"https://content.govdelivery.com/accounts/VAEDUFCPS/bulletins/3de35d1\">View it as a Web page</a>.</p>\n\n\n\n\n\n\n\n\n\n\n\n<a href=\"https://eagleviewes.fcps.edu/?utm_campaign+=&amp;utm_medium=email&amp;utm_source=govdelivery\" target=\"_...",
      "pubDate": "Tue, 29 Apr 2025 16:16:36 -0500",
      "timestamp": 1745961396000,
      "feedName": "Eagle View Elementary School",
      "category": "Eagle View Elementary School",
      "feedSource": "http://www.fcps.edu/index.shtml",
      "feedInfo": {
        "title": "Eagle View Elementary School News and announcements - Recent Updates",
        "description": "Eagle View Elementary School News and announcements",
        "link": "http://www.fcps.edu/index.shtml"
      }
    },
    {
      "id": "NjQ4NDg1MDU=",
      "title": "Braddock District School Board News - April 2025",
      "link": "https://content.govdelivery.com/accounts/VAEDUFCPS/bulletins/3dd8279",
      "description": "\n        \n\n\n  \n\n\n\n\n\n\n\n<p><a></a>Having trouble viewing this email? <a href=\"https://content.govdelivery.com/accounts/VAEDUFCPS/bulletins/3dd8279\">View it as a Web page</a>.</p>\n\n\n\n\n\n\n\n\n\n\n\n<a href=\"https://www.fcps.edu/staff/rachna-sizemore-heizer?utm_campaign+=&amp;utm_medium=email&amp;utm_source=go...",
      "pubDate": "Tue, 29 Apr 2025 15:25:39 -0500",
      "timestamp": 1745958339000,
      "feedName": "FCPS School Board Braddock District",
      "category": "FCPS School Board Braddock District",
      "feedSource": "http://www.fcps.edu/index.shtml",
      "feedInfo": {
        "title": "Braddock District Member - Rachna Sizemore Heizer - Recent Updates",
        "description": "Braddock District Member - Rachna Sizemore Heizer - Recent Updates",
        "link": "http://www.fcps.edu/index.shtml"
      }
    },
    {
      "id": "NjQ4NzQwMjM=",
      "title": "FCHS News &amp; Announcements - 4/29/25",
      "link": "https://content.govdelivery.com/accounts/VAEDUFCPS/bulletins/3dde627",
      "description": "\n        \n\n\n  \n\n\n\n\n\n\n\n<p><a></a>Having trouble viewing this email? <a href=\"https://content.govdelivery.com/accounts/VAEDUFCPS/bulletins/3dde627\">View it as a Web page</a>.</p>\n\n\n\n\n\n\n\n\n\n\n\n<a href=\"https://fallschurchhs.fcps.edu/?utm_campaign+=&amp;utm_medium=email&amp;utm_source=govdelivery\" target=...",
      "pubDate": "Tue, 29 Apr 2025 15:23:23 -0500",
      "timestamp": 1745958203000,
      "feedName": "Falls Church High School",
      "category": "Falls Church High School",
      "feedSource": "https://fallschurchhs.fcps.edu",
      "feedInfo": {
        "title": "Falls Church High School News and announcements",
        "description": "Falls Church High School News and announcements",
        "link": "https://fallschurchhs.fcps.edu"
      }
    },
    {
      "id": "NjQ4OTI4OTA=",
      "title": "Aldrin Celebrates 30 Years Tomorrow!",
      "link": "https://content.govdelivery.com/accounts/VAEDUFCPS/bulletins/3de2fda",
      "description": "\n        \n\n\n  \n\n\n\n\n\n\n\n<p><a></a>Having trouble viewing this email? <a href=\"https://content.govdelivery.com/accounts/VAEDUFCPS/bulletins/3de2fda\">View it as a Web page</a>.</p>\n\n\n\n\n\n\n\n\n\n\n\n<a href=\"https://aldrines.fcps.edu/?utm_campaign+=&amp;utm_medium=email&amp;utm_source=govdelivery\" target=\"_bla...",
      "pubDate": "Tue, 29 Apr 2025 15:10:39 -0500",
      "timestamp": 1745957439000,
      "feedName": "Aldrin Elementary School",
      "category": "Aldrin Elementary School",
      "feedSource": "http://www.fcps.edu/index.shtml",
      "feedInfo": {
        "title": "Aldrin Elementary School News and announcements - Recent Updates",
        "description": "Aldrin Elementary School News and announcements",
        "link": "http://www.fcps.edu/index.shtml"
      }
    },
    {
      "id": "NjQ4Mjk3MDY=",
      "title": "Kings Park News Tuesday, Apr 29th",
      "link": "https://content.govdelivery.com/accounts/VAEDUFCPS/bulletins/3dd390a",
      "description": "\n        \n\n\n  \n\n\n\n\n\n\n\n<p><a></a>Having trouble viewing this email? <a href=\"https://content.govdelivery.com/accounts/VAEDUFCPS/bulletins/3dd390a\">View it as a Web page</a>.</p>\n\n\n\n\n\n\n\n\n\n\n\n<a href=\"http://www2.fcps.edu/KingsParkES/?utm_campaign+=&amp;utm_medium=email&amp;utm_source=govdelivery\" targe...",
      "pubDate": "Tue, 29 Apr 2025 15:03:35 -0500",
      "timestamp": 1745957015000,
      "feedName": "Kings Park Elementary School",
      "category": "Kings Park Elementary School",
      "feedSource": "http://www.fcps.edu/index.shtml",
      "feedInfo": {
        "title": "Kings Park Elementary School News and announcements - Recent Updates",
        "description": "Kings Park Elementary School News and announcements",
        "link": "http://www.fcps.edu/index.shtml"
      }
    },
    {
      "id": "NjQ4OTE4Nzc=",
      "title": "Tuesday, April 29, 2025 Lancer Times",
      "link": "https://content.govdelivery.com/accounts/VAEDUFCPS/bulletins/3de2be5",
      "description": "\n        \n\n\n  \n\n\n\n\n\n\n\n<p><a></a>Having trouble viewing this email? <a href=\"https://content.govdelivery.com/accounts/VAEDUFCPS/bulletins/3de2be5\">View it as a Web page</a>.</p>\n\n\n\n\n\n\n\n\n\n\n\n<a href=\"https://longfellowms.fcps.edu/?utm_campaign+=&amp;utm_medium=email&amp;utm_source=govdelivery\" target=\"...",
      "pubDate": "Tue, 29 Apr 2025 15:00:14 -0500",
      "timestamp": 1745956814000,
      "feedName": "Longfellow Middle School",
      "category": "Longfellow Middle School",
      "feedSource": "http://www.fcps.edu/index.shtml",
      "feedInfo": {
        "title": "Longfellow Middle School News and announcements - Recent Updates",
        "description": "Longfellow Middle School News and announcements",
        "link": "http://www.fcps.edu/index.shtml"
      }
    },
    {
      "id": "NjQ4OTMwMDE=",
      "title": "Help Make Faculty &amp; Staff Appreciation Week Wicked Fun!",
      "link": "https://content.govdelivery.com/accounts/VAEDUFCPS/bulletins/3de3049",
      "description": "\n        \n\n\n  \n\n\n\n\n\n\n\n<p><a></a>Having trouble viewing this email? <a href=\"https://content.govdelivery.com/accounts/VAEDUFCPS/bulletins/3de3049\">View it as a Web page</a>.</p>\n\n\n\n\n\n\n\n\n\n\n\n<a href=\"https://islandcreekes.fcps.edu/?utm_campaign+=&amp;utm_medium=email&amp;utm_source=govdelivery\" target=...",
      "pubDate": "Tue, 29 Apr 2025 14:55:05 -0500",
      "timestamp": 1745956505000,
      "feedName": "Island Creek Elementary School",
      "category": "Island Creek Elementary School",
      "feedSource": "http://www.fcps.edu/index.shtml",
      "feedInfo": {
        "title": "Island Creek Elementary School News and announcements - Recent Updates",
        "description": "Island Creek Elementary School News and announcements",
        "link": "http://www.fcps.edu/index.shtml"
      }
    },
    {
      "id": "NjQ4ODg2OTQ=",
      "title": "Tuesday Terragram April 29",
      "link": "https://content.govdelivery.com/accounts/VAEDUFCPS/bulletins/3de1f76",
      "description": "\n        \n\n\n  \n\n\n\n\n\n\n\n<p><a></a>Having trouble viewing this email? <a href=\"https://content.govdelivery.com/accounts/VAEDUFCPS/bulletins/3de1f76\">View it as a Web page</a>.</p>\n\n\n\n\n\n\n\n\n\n\n\n<a href=\"https://terrasetes.fcps.edu?utm_campaign+=&amp;utm_medium=email&amp;utm_source=govdelivery\" target=\"_bl...",
      "pubDate": "Tue, 29 Apr 2025 14:25:32 -0500",
      "timestamp": 1745954732000,
      "feedName": "Terraset Elementary School",
      "category": "Terraset Elementary School",
      "feedSource": "http://www.fcps.edu/index.shtml",
      "feedInfo": {
        "title": "Tuesday Terragram - Recent Updates",
        "description": "Terraset Elementary School weekly news and announcements",
        "link": "http://www.fcps.edu/index.shtml"
      }
    },
    {
      "id": "NjQ4ODY5Nzg=",
      "title": "Justice HS Student Services - 4/29/2025",
      "link": "https://content.govdelivery.com/accounts/VAEDUFCPS/bulletins/3de18c2",
      "description": "\n        \n\n\n  \n\n\n\n\n\n\n\n<p><a></a>Having trouble viewing this email? <a href=\"https://content.govdelivery.com/accounts/VAEDUFCPS/bulletins/3de18c2\">View it as a Web page</a>.</p>\n\n\n\n\n\n\n\n\n\n\n\n<a href=\"https://justicehs.fcps.edu?utm_campaign+=&amp;utm_medium=email&amp;utm_source=govdelivery\" target=\"_bla...",
      "pubDate": "Tue, 29 Apr 2025 14:24:55 -0500",
      "timestamp": 1745954695000,
      "feedName": "Justice High School",
      "category": "Justice High School",
      "feedSource": "https://justicehs.fcps.edu",
      "feedInfo": {
        "title": "Justice High School",
        "description": "Justice High School News and announcements",
        "link": "https://justicehs.fcps.edu"
      }
    },
    {
      "id": "NjQ4NDgyOTg=",
      "title": "Crossfield News 4/29/25",
      "link": "https://content.govdelivery.com/accounts/VAEDUFCPS/bulletins/3dd81aa",
      "description": "\n        \n\n\n  \n\n\n\n\n\n\n\n<p><a></a>Having trouble viewing this email? <a href=\"https://content.govdelivery.com/accounts/VAEDUFCPS/bulletins/3dd81aa\">View it as a Web page</a>.</p>\n\n\n\n\n\n\n\n\n\n\n\n<a href=\"https://crossfieldes.fcps.edu/?utm_campaign+=&amp;utm_medium=email&amp;utm_source=govdelivery\" target=\"...",
      "pubDate": "Tue, 29 Apr 2025 14:17:19 -0500",
      "timestamp": 1745954239000,
      "feedName": "Crossfield Elementary School",
      "category": "Crossfield Elementary School",
      "feedSource": "http://www.fcps.edu/index.shtml",
      "feedInfo": {
        "title": "Crossfield Elementary School News and announcements - Recent Updates",
        "description": "Crossfield Elementary School News and announcements",
        "link": "http://www.fcps.edu/index.shtml"
      }
    },
    {
      "id": "NjQ4NTcwOTU=",
      "title": "Carson MS Weekly Updates -Updates - Week of April 28",
      "link": "https://content.govdelivery.com/accounts/VAEDUFCPS/bulletins/3dda407",
      "description": "\n        \n\n\n  \n\n\n\n\n\n\n\n<p><a></a>Having trouble viewing this email? <a href=\"https://content.govdelivery.com/accounts/VAEDUFCPS/bulletins/3dda407\">View it as a Web page</a>.</p>\n\n\n\n\n\n\n\n\n\n\n\n<a href=\"https://carsonms.fcps.edu/?utm_campaign+=&amp;utm_medium=email&amp;utm_source=govdelivery\" target=\"_bla...",
      "pubDate": "Tue, 29 Apr 2025 13:57:49 -0500",
      "timestamp": 1745953069000,
      "feedName": "Carson Middle School",
      "category": "Carson Middle School",
      "feedSource": "http://www.fcps.edu/index.shtml",
      "feedInfo": {
        "title": "Carson Middle School News and announcements - Recent Updates",
        "description": "Carson Middle School News and announcements",
        "link": "http://www.fcps.edu/index.shtml"
      }
    },
    {
      "id": "NjQ4MjM2MjI=",
      "title": "Gratitude for the Week",
      "link": "https://content.govdelivery.com/accounts/VAEDUFCPS/bulletins/3dd2146",
      "description": "\n        \n\n\n  \n\n\n\n\n\n\n\n\n\n\n\n\n\n\n\n\n\n\n\n\n\n\n\n\n\n\n\n\n\n\n\n\n\n\n\n\n<p><a href=\"https://fairhilles.fcps.edu/aggregator/sources/1?utm_campaign+=&amp;utm_medium=email&amp;utm_source=govdelivery#modal-language-switcher\" target=\"_blank\">English | Español | አማርኛ | 中文 | 한국어 | Tiếng Việt | العربية | فارسی | اردو</a></p>\n\n\n...",
      "pubDate": "Tue, 29 Apr 2025 13:37:18 -0500",
      "timestamp": 1745951838000,
      "feedName": "Fairhill Elementary School",
      "category": "Fairhill Elementary School",
      "feedSource": "http://www.fcps.edu/index.shtml",
      "feedInfo": {
        "title": "Fairhill Elementary School News and Announcements - Recent Updates",
        "description": "Fairhill Elementary School News and Announcements",
        "link": "http://www.fcps.edu/index.shtml"
      }
    },
    {
      "id": "NjQ4OTE0NTA=",
      "title": "Staff Appreciation Week - Coming Soon!!",
      "link": "https://content.govdelivery.com/accounts/VAEDUFCPS/bulletins/3de2a3a",
      "description": "\n        \n\n\n  \n\n\n\n\n\n\n\n<p><a></a>Having trouble viewing this email? <a href=\"https://content.govdelivery.com/accounts/VAEDUFCPS/bulletins/3de2a3a\">View it as a Web page</a>.</p>\n\n\n\n\n\n\n\n\n\n\n\n<a href=\"https://cedarlaneschool.fcps.edu/?utm_campaign+=&amp;utm_medium=email&amp;utm_source=govdelivery\" targe...",
      "pubDate": "Tue, 29 Apr 2025 12:34:33 -0500",
      "timestamp": 1745948073000,
      "feedName": "Cedar Lane School",
      "category": "Cedar Lane School",
      "feedSource": "http://www.fcps.edu/index.shtml",
      "feedInfo": {
        "title": "Cedar Lane School News and Announcements - Recent Updates",
        "description": "Cedar Lane Special Education Center News and announcements",
        "link": "http://www.fcps.edu/index.shtml"
      }
    }
  ],
  "hasNext": true,
  "hasPrev": true
}