{
  "page": 42,
  "totalPages": 268,
  "totalItems": 5354,
  "itemsPerPage": 20,
  "items": [
    {
      "id": "NjUzODM5MDc=",
      "title": "Hollin Meadows Buzz Bulletin for June 18, 2025",
      "link": "https://content.govdelivery.com/accounts/VAEDUFCPS/bulletins/3e5ade3",
      "description": "\n        \n\n\n  \n\n\n\n\n\n\n\n<p><a></a>Having trouble viewing this email? <a href=\"https://content.govdelivery.com/accounts/VAEDUFCPS/bulletins/3e5ade3\">View it as a Web page</a>.</p>\n\n\n\n\n\n\n\n\n\n\n\n<a href=\"http://www2.fcps.edu/HollinMeadowsES/?utm_campaign+=&amp;utm_medium=email&amp;utm_source=govdelivery\" t...",
      "pubDate": "Wed, 18 Jun 2025 17:05:09 -0500",
      "timestamp": 1750284309000,
      "feedName": "Hollin Meadows Elementary School",
      "category": "Hollin Meadows Elementary School",
      "feedSource": "http://www.fcps.edu/index.shtml",
      "feedInfo": {
        "title": "Hollin Meadows Elementary School News and announcements - Recent Updates",
        "description": "Hollin Meadows Elementary School News and announcements",
        "link": "http://www.fcps.edu/index.shtml"
      }
    },
    {
      "id": "NjUzODY2NDk=",
      "title": "Week of June 16",
      "link": "https://content.govdelivery.com/accounts/VAEDUFCPS/bulletins/3e5b899",
      "description": "\n        \n\n\n  \n\n\n\n\n\n\n\n<p><a></a>Having trouble viewing this email? <a href=\"https://content.govdelivery.com/accounts/VAEDUFCPS/bulletins/3e5b899\">View it as a Web page</a>.</p>\n\n\n\n\n\n\n\n\n\n\n\n<a href=\"https://herndonms.fcps.edu/?utm_campaign+=&amp;utm_medium=email&amp;utm_source=govdelivery\" target=\"_bl...",
      "pubDate": "Wed, 18 Jun 2025 16:03:50 -0500",
      "timestamp": 1750280630000,
      "feedName": "Herndon Middle School",
      "category": "Herndon Middle School",
      "feedSource": "http://www.fcps.edu/index.shtml",
      "feedInfo": {
        "title": "Herndon Middle School News and announcements - Recent Updates",
        "description": "Herndon Middle School News and announcements",
        "link": "http://www.fcps.edu/index.shtml"
      }
    },
    {
      "id": "NjUzODA5ODI=",
      "title": "Falcon Flyer: June 18th, 2025",
      "link": "https://content.govdelivery.com/accounts/VAEDUFCPS/bulletins/3e5a276",
      "description": "\n        \n\n\n  \n\n\n\n\n\n\n\n\n\n\n\n\n\n\n\n\n\n\n\n\n\n\n\n\n\n\n\n\n\n\n\n\n\n\n\n<p>June 18th, 2025</p>\n\nFlint Hill Updates\n\n<p>Good Afternoon Flint Hill Families,</p>\n<p>It was a joy to see the students close the 2024-2025 school year with pride for their achievements and excitement for summer fun last week. Thank you to the man...",
      "pubDate": "Wed, 18 Jun 2025 15:30:14 -0500",
      "timestamp": 1750278614000,
      "feedName": "Flint Hill Elementary School",
      "category": "Flint Hill Elementary School",
      "feedSource": "http://www.fcps.edu/index.shtml",
      "feedInfo": {
        "title": "Flint Hill Elementary School News and Announcements - Recent Updates",
        "description": "Flint Hill Elementary School News and Announcements",
        "link": "http://www.fcps.edu/index.shtml"
      }
    },
    {
      "id": "NjUzMzU3NDc=",
      "title": "SUMMER IN THE FOREST - 6/18/25",
      "link": "https://content.govdelivery.com/accounts/VAEDUFCPS/bulletins/3e4f1c3",
      "description": "\n        \n\n\n  \n\n\n\n\n\n\n\n<p><a></a>Having trouble viewing this email? <a href=\"https://content.govdelivery.com/accounts/VAEDUFCPS/bulletins/3e4f1c3\">View it as a Web page</a>.</p>\n\n\n\n\n\n\n\n\n\n\n\n<a href=\"http://www2.fcps.edu/NewingtonForestES/?utm_campaign+=&amp;utm_medium=email&amp;utm_source=govdelivery\"...",
      "pubDate": "Wed, 18 Jun 2025 15:01:37 -0500",
      "timestamp": 1750276897000,
      "feedName": "Newington Forest Elementary School",
      "category": "Newington Forest Elementary School",
      "feedSource": "http://www.fcps.edu/index.shtml",
      "feedInfo": {
        "title": "Newington Forest Elementary School News and announcements - Recent Updates",
        "description": "Newington Forest Elementary School News and announcements",
        "link": "http://www.fcps.edu/index.shtml"
      }
    },
    {
      "id": "NjUzNjA0NDg=",
      "title": "Virginia Run Weekly Message 6/18/25",
      "link": "https://content.govdelivery.com/accounts/VAEDUFCPS/bulletins/3e55240",
      "description": "\n        \n\n\n  \n\n\n\n\n\n\n\n<p><a></a>Having trouble viewing this email? <a href=\"https://content.govdelivery.com/accounts/VAEDUFCPS/bulletins/3e55240\">View it as a Web page</a>.</p>\n\n\n\n\n\n\n\n\n\n\n\n<a href=\"http://www2.fcps.edu/VirginiaRunES/?utm_campaign+=&amp;utm_medium=email&amp;utm_source=govdelivery\" tar...",
      "pubDate": "Wed, 18 Jun 2025 15:00:17 -0500",
      "timestamp": 1750276817000,
      "feedName": "Virginia Run Elementary School",
      "category": "Virginia Run Elementary School",
      "feedSource": "http://www.fcps.edu/index.shtml",
      "feedInfo": {
        "title": "Virginia Run Elementary School News and announcements - Use this One - Recent Updates",
        "description": "Virginia Run Elementary School News and announcements",
        "link": "http://www.fcps.edu/index.shtml"
      }
    },
    {
      "id": "NjUyNzA5NTE=",
      "title": "Daniels Run ES- June 18, 2025",
      "link": "https://content.govdelivery.com/accounts/VAEDUFCPS/bulletins/3e3f4a7",
      "description": "\n        \n\n\n  \n\n\n\n\n\n\n\n<p><a></a>Having trouble viewing this email? <a href=\"https://content.govdelivery.com/accounts/VAEDUFCPS/bulletins/3e3f4a7\">View it as a Web page</a>.</p>\n\n\n\n\n\n\n\n\n\n\n\n<a href=\"https://danielsrunes.fcps.edu/?utm_campaign+=&amp;utm_medium=email&amp;utm_source=govdelivery\" target=\"...",
      "pubDate": "Wed, 18 Jun 2025 14:27:54 -0500",
      "timestamp": 1750274874000,
      "feedName": "Daniels Run Elementary School",
      "category": "Daniels Run Elementary School",
      "feedSource": "http://www.fcps.edu/index.shtml",
      "feedInfo": {
        "title": "Daniels Run Elementary School News and announcements - Recent Updates",
        "description": "Daniels Run Elementary School News and announcements",
        "link": "http://www.fcps.edu/index.shtml"
      }
    },
    {
      "id": "NjUzMDQ0ODk=",
      "title": "📣 Now Accepting Applications – Apply to Serve on the Fairfax County School Board Adult and Community Education (ACE) Advisory Committee!",
      "link": "https://content.govdelivery.com/accounts/VAEDUFCPS/bulletins/3e477a9",
      "description": "\n        \n\n\n  \n\n\n\n\n\n\n\n<p><a></a>Having trouble viewing this email? <a href=\"https://content.govdelivery.com/accounts/VAEDUFCPS/bulletins/3e477a9\">View it as a Web page</a>.</p>\n\n\n\n\n\n\n\n\n\n\n\n<a href=\"https://www.fcps.edu/staff/seema-dixit?utm_campaign+=&amp;utm_medium=email&amp;utm_source=govdelivery\" ...",
      "pubDate": "Wed, 18 Jun 2025 12:49:30 -0500",
      "timestamp": 1750268970000,
      "feedName": "FCPS School Board Sully District",
      "category": "FCPS School Board Sully District",
      "feedSource": "http://www.fcps.edu/index.shtml",
      "feedInfo": {
        "title": "Sully District Member - Seema Dixit - Recent Updates",
        "description": "Sully District Member - Seema Dixit - Recent Updates",
        "link": "http://www.fcps.edu/index.shtml"
      }
    },
    {
      "id": "NjUzODAzODU=",
      "title": "Deer Park Elementary Summer News and Information",
      "link": "https://content.govdelivery.com/accounts/VAEDUFCPS/bulletins/3e5a021",
      "description": "\n        \n\n\n  \n\n\n\n\n\n\n\n<p><a></a>Having trouble viewing this email? <a href=\"https://content.govdelivery.com/accounts/VAEDUFCPS/bulletins/3e5a021\">View it as a Web page</a>.</p>\n\n\n\n\n\n\n\n\n\n\n\n<a href=\"https://deerparkes.fcps.edu/?utm_campaign+=&amp;utm_medium=email&amp;utm_source=govdelivery\" target=\"_b...",
      "pubDate": "Wed, 18 Jun 2025 11:00:22 -0500",
      "timestamp": 1750262422000,
      "feedName": "Deer Park Elementary School",
      "category": "Deer Park Elementary School",
      "feedSource": "http://www.fcps.edu/index.shtml",
      "feedInfo": {
        "title": "Deer Park Elementary School News and Announcements - Recent Updates",
        "description": "Deer Park Elementary School News and announcements",
        "link": "http://www.fcps.edu/index.shtml"
      }
    },
    {
      "id": "NjUzODE5MjU=",
      "title": "Thank You &amp; Summer Info/Dates",
      "link": "https://content.govdelivery.com/accounts/VAEDUFCPS/bulletins/3e5a625",
      "description": "\n        \n\n\n  \n\n\n\n\n\n\n\n<p><a></a>Having trouble viewing this email? <a href=\"https://content.govdelivery.com/accounts/VAEDUFCPS/bulletins/3e5a625\">View it as a Web page</a>.</p>\n\n\n\n\n\n\n\n\n\n\n\n<a href=\"https://terrasetes.fcps.edu?utm_campaign+=&amp;utm_medium=email&amp;utm_source=govdelivery\" target=\"_bl...",
      "pubDate": "Wed, 18 Jun 2025 10:13:10 -0500",
      "timestamp": 1750259590000,
      "feedName": "Terraset Elementary School",
      "category": "Terraset Elementary School",
      "feedSource": "http://www.fcps.edu/index.shtml",
      "feedInfo": {
        "title": "Tuesday Terragram - Recent Updates",
        "description": "Terraset Elementary School weekly news and announcements",
        "link": "http://www.fcps.edu/index.shtml"
      }
    },
    {
      "id": "NjUzODIxMzY=",
      "title": "Thank You from Lewis Activities!",
      "link": "https://content.govdelivery.com/accounts/VAEDUFCPS/bulletins/3e5a6f8",
      "description": "\n        <p><b>Dear Lewis Community,</b></p>\n<p> As we wrap up another fantastic year, the Lewis Activities Office would like to extend our heartfelt thanks to all of you for your continued support.</p>\n<p>This year has been filled with energy, enthusiasm, and excellence across all of our activities...",
      "pubDate": "Wed, 18 Jun 2025 09:45:11 -0500",
      "timestamp": 1750257911000,
      "feedName": "John R. Lewis High School",
      "category": "John R. Lewis High School",
      "feedSource": "http://www.fcps.edu/index.shtml",
      "feedInfo": {
        "title": "Lewis High School News and announcements - Recent Updates",
        "description": "Lewis High School News and announcements",
        "link": "http://www.fcps.edu/index.shtml"
      }
    },
    {
      "id": "NjUzNjE3NTU=",
      "title": "Hunters Woods ES News and Notes: June 18, 2025",
      "link": "https://content.govdelivery.com/accounts/VAEDUFCPS/bulletins/3e5575b",
      "description": "\n        \n\n\n  \n\n\n\n\n\n\n\n<p><a></a>Having trouble viewing this email? <a href=\"https://content.govdelivery.com/accounts/VAEDUFCPS/bulletins/3e5575b\">View it as a Web page</a>.</p>\n\n\n\n\n\n\n\n\n\n\n\n<a href=\"http://www2.fcps.edu/HuntersWoodsES/?utm_campaign+=&amp;utm_medium=email&amp;utm_source=govdelivery\" ta...",
      "pubDate": "Wed, 18 Jun 2025 09:09:15 -0500",
      "timestamp": 1750255755000,
      "feedName": "Hunters Woods Elementary School",
      "category": "Hunters Woods Elementary School",
      "feedSource": "http://www.fcps.edu/index.shtml",
      "feedInfo": {
        "title": "Hunters Woods Elementary School News and Announcements - Recent Updates",
        "description": "Hunters Woods Elementary School News and Announcements",
        "link": "http://www.fcps.edu/index.shtml"
      }
    },
    {
      "id": "NjUzNjkzMDY=",
      "title": "One-Time Bonus, 2025 Bond Referendum, Benefits Updates",
      "link": "https://content.govdelivery.com/accounts/VAEDUFCPS/bulletins/3e574da",
      "description": "\n        \n\n\n  \n\n\n\n\n\n\n\n<p>Having trouble viewing this email? <a href=\"https://content.govdelivery.com/accounts/VAEDUFCPS/bulletins/3e574da\">View it as a Web page</a>.</p>\n\n\n\n\n\n\n\n\n\n\n\n<a href=\"https://www.fcps.edu/?utm_campaign+=&amp;utm_medium=email&amp;utm_source=govdelivery\" target=\"_blank\"></a>\n\n\n\n...",
      "pubDate": "Tue, 17 Jun 2025 18:00:16 -0500",
      "timestamp": 1750201216000,
      "feedName": "FCPS Employee News",
      "category": "FCPS Employee News",
      "feedSource": "http://www.fcps.edu/index.shtml",
      "feedInfo": {
        "title": "FCPS Employees - Recent Updates",
        "description": "FCPS Employees - Recent Updates",
        "link": "http://www.fcps.edu/index.shtml"
      }
    },
    {
      "id": "NjUzNzM4OTU=",
      "title": "CES Weekly Update - Additional Info for Summer Prep",
      "link": "https://content.govdelivery.com/accounts/VAEDUFCPS/bulletins/3e586c7",
      "description": "\n        \n\n\n  \n\n\n\n\n\n\n\n<p><a></a>Having trouble viewing this email? <a href=\"https://content.govdelivery.com/accounts/VAEDUFCPS/bulletins/3e586c7\">View it as a Web page</a>.</p>\n\n\n\n\n\n\n\n\n\n\n\n<a href=\"https://chesterbrookes.fcps.edu/?utm_campaign+=&amp;utm_medium=email&amp;utm_source=govdelivery\" target...",
      "pubDate": "Tue, 17 Jun 2025 15:00:34 -0500",
      "timestamp": 1750190434000,
      "feedName": "Chesterbrook Elementary School",
      "category": "Chesterbrook Elementary School",
      "feedSource": "https://chesterbrookes.fcps.edu/aggregator/sources/1",
      "feedInfo": {
        "title": "Chesterbrook Elementary School News and Announcements",
        "description": "Chesterbrook Elementary School News and Announcements",
        "link": "https://chesterbrookes.fcps.edu/aggregator/sources/1"
      }
    },
    {
      "id": "NjUyMDA1Njk=",
      "title": "Beavergram",
      "link": "https://content.govdelivery.com/accounts/VAEDUFCPS/bulletins/3e2e1b9",
      "description": "\n        \n\n\n  \n\n\n\n\n\n\n\n<p><a></a>Having trouble viewing this email? <a href=\"https://content.govdelivery.com/accounts/VAEDUFCPS/bulletins/3e2e1b9\">View it as a Web page</a>.</p>\n\n\n\n\n\n\n\n\n\n\n\n\n\n\n\n\n\n\n\n\n\n\n\n\n\n\n\n<p><a href=\"https://urldefense.com/v3/__https:/links-1.govdelivery.com/CL0/https:*2F*2Fwoodleyhi...",
      "pubDate": "Tue, 17 Jun 2025 14:02:14 -0500",
      "timestamp": 1750186934000,
      "feedName": "Woodley Hills Elementary School",
      "category": "Woodley Hills Elementary School",
      "feedSource": "http://www.fcps.edu/index.shtml",
      "feedInfo": {
        "title": "Woodley Hills Elementary School News and announcements - Recent Updates",
        "description": "Woodley Hills Elementary School News and announcements",
        "link": "http://www.fcps.edu/index.shtml"
      }
    },
    {
      "id": "NjUzNDY2NzA=",
      "title": "Dranesville's Summer Connection",
      "link": "https://content.govdelivery.com/accounts/VAEDUFCPS/bulletins/3e51c6e",
      "description": "\n        \n\n\n  \n\n\n\n\n\n\n\n<p><a></a>Having trouble viewing this email? <a href=\"https://content.govdelivery.com/accounts/VAEDUFCPS/bulletins/3e51c6e\">View it as a Web page</a>.</p>\n\n\n\n\n\n\n\n\n\n\n\n<a href=\"https://dranesvillees.fcps.edu/?utm_campaign+=&amp;utm_medium=email&amp;utm_source=govdelivery\" target=...",
      "pubDate": "Tue, 17 Jun 2025 11:00:24 -0500",
      "timestamp": 1750176024000,
      "feedName": "Dranesville Elementary School",
      "category": "Dranesville Elementary School",
      "feedSource": "http://www.fcps.edu/index.shtml",
      "feedInfo": {
        "title": "Dranesville Elementary School News and announcements - Recent Updates",
        "description": "Dranesville Elementary School News and announcements",
        "link": "http://www.fcps.edu/index.shtml"
      }
    },
    {
      "id": "NjUzNzA2MDQ=",
      "title": "Sprout School Supply Kits",
      "link": "https://content.govdelivery.com/accounts/VAEDUFCPS/bulletins/3e579ec",
      "description": "\n        \n\n\n  \n\n\n\n\n\n\n\n<p><a></a>Having trouble viewing this email? <a href=\"https://content.govdelivery.com/accounts/VAEDUFCPS/bulletins/3e579ec\">View it as a Web page</a>.</p>\n\n\n\n\n\n\n\n\n\n\n\n<a href=\"http://www2.fcps.edu/LaurelRidgeES/?utm_campaign+=&amp;utm_medium=email&amp;utm_source=govdelivery\" tar...",
      "pubDate": "Tue, 17 Jun 2025 11:00:23 -0500",
      "timestamp": 1750176023000,
      "feedName": "Laurel Ridge Elementary School",
      "category": "Laurel Ridge Elementary School",
      "feedSource": "http://www.fcps.edu/index.shtml",
      "feedInfo": {
        "title": "Laurel Ridge Elementary School News and announcements - Recent Updates",
        "description": "Laurel Ridge Elementary School News and announcements",
        "link": "http://www.fcps.edu/index.shtml"
      }
    },
    {
      "id": "NjUzNjk3MjI=",
      "title": "Money Camp Spots still available",
      "link": "https://content.govdelivery.com/accounts/VAEDUFCPS/bulletins/3e5767a",
      "description": "\n        \n\n\n  \n\n\n\n\n\n\n\n<p><a></a>Having trouble viewing this email? <a href=\"https://content.govdelivery.com/accounts/VAEDUFCPS/bulletins/3e5767a\">View it as a Web page</a>.</p>\n\n\n\n\n\n\n\n\n\n\n\n<a href=\"http://www2.fcps.edu/OakViewES/?utm_campaign+=&amp;utm_medium=email&amp;utm_source=govdelivery\" target=...",
      "pubDate": "Tue, 17 Jun 2025 08:21:43 -0500",
      "timestamp": 1750166503000,
      "feedName": "Oak Hill Elementary School",
      "category": "Oak Hill Elementary School",
      "feedSource": "http://www.fcps.edu/index.shtml",
      "feedInfo": {
        "title": "Oak Hill Elementary School News and Announcements - Recent Updates",
        "description": "Oak Hill Elementary School News and Announcements",
        "link": "http://www.fcps.edu/index.shtml"
      }
    },
    {
      "id": "NjUzMjA5Mzc=",
      "title": "School Board News and Saying Goodbye to the Class of 2025",
      "link": "https://content.govdelivery.com/accounts/VAEDUFCPS/bulletins/3e4b7e9",
      "description": "\n        \n\n\n  \n\n\n\n\n\n\n\n<p><a></a>Having trouble viewing this email? <a href=\"https://content.govdelivery.com/accounts/VAEDUFCPS/bulletins/3e4b7e9\">View it as a Web page</a>.</p>\n\n\n\n\n\n\n\n\n\n\n\n<a href=\"https://www.fcps.edu/staff/rachna-sizemore-heizer?utm_campaign+=&amp;utm_medium=email&amp;utm_source=go...",
      "pubDate": "Tue, 17 Jun 2025 05:00:14 -0500",
      "timestamp": 1750154414000,
      "feedName": "FCPS School Board Braddock District",
      "category": "FCPS School Board Braddock District",
      "feedSource": "http://www.fcps.edu/index.shtml",
      "feedInfo": {
        "title": "Braddock District Member - Rachna Sizemore Heizer - Recent Updates",
        "description": "Braddock District Member - Rachna Sizemore Heizer - Recent Updates",
        "link": "http://www.fcps.edu/index.shtml"
      }
    },
    {
      "id": "NjUzMjc5NTA=",
      "title": "Haycock Hello 6.16.25",
      "link": "https://content.govdelivery.com/accounts/VAEDUFCPS/bulletins/3e4d34e",
      "description": "\n        \n\n\n  \n\n\n\n\n\n\n\n<p><a></a>Having trouble viewing this email? <a href=\"https://content.govdelivery.com/accounts/VAEDUFCPS/bulletins/3e4d34e\">View it as a Web page</a>.</p>\n\n\n\n\n\n\n\n\n\n\n\n<a href=\"https://haycockes.fcps.edu/?utm_campaign+=&amp;utm_medium=email&amp;utm_source=govdelivery\" target=\"_bl...",
      "pubDate": "Mon, 16 Jun 2025 19:17:28 -0500",
      "timestamp": 1750119448000,
      "feedName": "Haycock Elementary School",
      "category": "Haycock Elementary School",
      "feedSource": "http://www.fcps.edu/index.shtml",
      "feedInfo": {
        "title": "Haycock Elementary School News and announcements - Recent Updates",
        "description": "Haycock Elementary School News and announcements",
        "link": "http://www.fcps.edu/index.shtml"
      }
    },
    {
      "id": "NjUzMDQxOTc=",
      "title": "McLean HS: Dr. Reilly's Monday Message 6/16/2025",
      "link": "https://content.govdelivery.com/accounts/VAEDUFCPS/bulletins/3e47685",
      "description": "\n        \n\n\n  \n\n\n\n\n\n\n\n<p><a></a>Having trouble viewing this email? <a href=\"https://content.govdelivery.com/accounts/VAEDUFCPS/bulletins/3e47685\">View it as a Web page</a>.</p>\n\n\n\n\n\n\n\n\n\n\n\n<a href=\"https://mcleanhs.fcps.edu/?utm_content=&amp;utm_medium=email&amp;utm_name=&amp;utm_source=govdelivery&a...",
      "pubDate": "Mon, 16 Jun 2025 17:00:17 -0500",
      "timestamp": 1750111217000,
      "feedName": "McLean High School",
      "category": "McLean High School",
      "feedSource": "http://www.fcps.edu/index.shtml",
      "feedInfo": {
        "title": "McLean HS: News and Announcements - Recent Updates",
        "description": "McLean HS: News and Announcements",
        "link": "http://www.fcps.edu/index.shtml"
      }
    }
  ],
  "hasNext": true,
  "hasPrev": true
}