{
  "page": 45,
  "totalPages": 268,
  "totalItems": 5354,
  "itemsPerPage": 20,
  "items": [
    {
      "id": "NjUzMzUwOTQ=",
      "title": "PUMA PRESS – School News &amp; Information: June 13, 2025",
      "link": "https://content.govdelivery.com/accounts/VAEDUFCPS/bulletins/3e4ef36",
      "description": "\n        \n\n\n  \n\n\n\n\n\n\n\n<p><a></a>Having trouble viewing this email? <a href=\"https://content.govdelivery.com/accounts/VAEDUFCPS/bulletins/3e4ef36\">View it as a Web page</a>.</p>\n\n\n\n\n\n\n\n\n\n\n\n<a href=\"https://powelles.fcps.edu/?utm_campaign+=&amp;utm_medium=email&amp;utm_source=govdelivery\" target=\"_bla...",
      "pubDate": "Fri, 13 Jun 2025 15:30:16 -0500",
      "timestamp": 1749846616000,
      "feedName": "Powell Elementary School",
      "category": "Powell Elementary School",
      "feedSource": "http://www.fcps.edu/index.shtml",
      "feedInfo": {
        "title": "Powell Elementary School News and Announcements - Recent Updates",
        "description": "Powell Elementary School News and announcements",
        "link": "http://www.fcps.edu/index.shtml"
      }
    },
    {
      "id": "NjUzMzY3Mzg=",
      "title": "Seahawks Weekly News 06/13/2025",
      "link": "https://content.govdelivery.com/accounts/VAEDUFCPS/bulletins/3e4f5a2",
      "description": "\n        \n\n\n  \n\n\n\n\n\n\n\n<p><a></a>Having trouble viewing this email? <a href=\"https://content.govdelivery.com/accounts/VAEDUFCPS/bulletins/3e4f5a2\">View it as a Web page</a>.</p>\n\n\n\n\n\n\n\n\n\n\n\n<a href=\"http://www2.fcps.edu/SilverbrookES/?utm_campaign+=&amp;utm_medium=email&amp;utm_source=govdelivery\" tar...",
      "pubDate": "Fri, 13 Jun 2025 15:30:16 -0500",
      "timestamp": 1749846616000,
      "feedName": "Silverbrook Elementary School",
      "category": "Silverbrook Elementary School",
      "feedSource": "http://www.fcps.edu/index.shtml",
      "feedInfo": {
        "title": "Silverbrook Elementary School News and announcements - Recent Updates",
        "description": "Silverbrook Elementary School News and announcements",
        "link": "http://www.fcps.edu/index.shtml"
      }
    },
    {
      "id": "NjUyNjIxNDg=",
      "title": "Woodburn Newsletter - June 13, 2025",
      "link": "https://content.govdelivery.com/accounts/VAEDUFCPS/bulletins/3e3d244",
      "description": "\n        \n\n\n  \n\n\n\n\n\n\n\n<p><a></a>Having trouble viewing this email? <a href=\"https://content.govdelivery.com/accounts/VAEDUFCPS/bulletins/3e3d244\">View it as a Web page</a>.</p>\n\n\n\n\n\n\n\n\n\n\n\n<a href=\"https://woodburnes.fcps.edu/?utm_content=&amp;utm_medium=email&amp;utm_name=&amp;utm_source=govdelivery...",
      "pubDate": "Fri, 13 Jun 2025 15:30:15 -0500",
      "timestamp": 1749846615000,
      "feedName": "Woodburn Elementary School",
      "category": "Woodburn Elementary School",
      "feedSource": "https://public.govdelivery.com/topics/Woodburn_Elementary_school_News_and_Announcements/feed.rss",
      "feedInfo": {
        "title": "Woodburn Elementary School News and announcements - Recent Updates",
        "description": "Woodburn Elementary School News and announcements",
        "link": "https://public.govdelivery.com/topics/Woodburn_Elementary_school_News_and_Announcements/feed.rss"
      }
    },
    {
      "id": "NjUzMjM3NzU=",
      "title": "Shrevewood Wise Words Summer Edition -  June 13, 2025",
      "link": "https://content.govdelivery.com/accounts/VAEDUFCPS/bulletins/3e4c2ff",
      "description": "\n        \n\n\n  \n\n\n\n\n\n\n\n<p><a></a>Having trouble viewing this email? <a href=\"https://content.govdelivery.com/accounts/VAEDUFCPS/bulletins/3e4c2ff\">View it as a Web page</a>.</p>\n\n\n\n\n\n\n\n\n\n\n\n<a href=\"https://shrevewoodes.fcps.edu/?utm_campaign+=&amp;utm_medium=email&amp;utm_source=govdelivery\" target=\"...",
      "pubDate": "Fri, 13 Jun 2025 15:04:01 -0500",
      "timestamp": 1749845041000,
      "feedName": "Shrevewood Elementary School",
      "category": "Shrevewood Elementary School",
      "feedSource": "http://www.fcps.edu/index.shtml",
      "feedInfo": {
        "title": "Shrevewood Elementary School News and announcements - Recent Updates",
        "description": "Shrevewood Elementary School News and announcements",
        "link": "http://www.fcps.edu/index.shtml"
      }
    },
    {
      "id": "NjUzMjc1NTE=",
      "title": "Groveton ES: Weekly Newsletter",
      "link": "https://content.govdelivery.com/accounts/VAEDUFCPS/bulletins/3e4d1bf",
      "description": "\n        \n\n\n  \n\n\n\n\n\n\n\n<p><a></a>Having trouble viewing this email? <a href=\"https://content.govdelivery.com/accounts/VAEDUFCPS/bulletins/3e4d1bf\">View it as a Web page</a>.</p>\n\n\n\n\n\n\n\n\n\n\n\n<a href=\"http://www2.fcps.edu/GrovetonES/?utm_campaign+=&amp;utm_medium=email&amp;utm_source=govdelivery\" target...",
      "pubDate": "Fri, 13 Jun 2025 15:00:17 -0500",
      "timestamp": 1749844817000,
      "feedName": "Groveton Elementary School",
      "category": "Groveton Elementary School",
      "feedSource": "http://www.fcps.edu/index.shtml",
      "feedInfo": {
        "title": "Groveton Elementary School News and announcements - Recent Updates",
        "description": "Groveton Elementary School News and announcements",
        "link": "http://www.fcps.edu/index.shtml"
      }
    },
    {
      "id": "NjUzMzQyODI=",
      "title": "McNair Upper Elementary School, Weekly News &amp; Updates",
      "link": "https://content.govdelivery.com/accounts/VAEDUFCPS/bulletins/3e4ec0a",
      "description": "\n        \n\n\n  \n\n\n\n\n\n\n\n<p><a></a>Having trouble viewing this email? <a href=\"https://content.govdelivery.com/accounts/VAEDUFCPS/bulletins/3e4ec0a\">View it as a Web page</a>.</p>\n\n\n\n\n\n\n\n\n\n\n\n<a href=\"http://www2.fcps.edu/McNairES/?utm_content=&amp;utm_medium=email&amp;utm_name=&amp;utm_source=govdelive...",
      "pubDate": "Fri, 13 Jun 2025 15:00:14 -0500",
      "timestamp": 1749844814000,
      "feedName": "McNair Upper Elementary School",
      "category": "McNair Upper Elementary School",
      "feedSource": "http://www.fcps.edu/index.shtml",
      "feedInfo": {
        "title": "McNair Upper (Grades 3-6) News and Announcements - Recent Updates",
        "description": "McNair Upper (Grades 3-6) News and Announcements - Recent Updates",
        "link": "http://www.fcps.edu/index.shtml"
      }
    },
    {
      "id": "NjUyNzAyODg=",
      "title": "From the Principal's Desk",
      "link": "https://content.govdelivery.com/accounts/VAEDUFCPS/bulletins/3e3f210",
      "description": "\n        \n\n\n  \n\n\n\n\n\n\n\n\n\n\n\n\n\n\n\n\n\n\n\n\n\n\n\n\n\n\n\n\n\n\n\n\n\n\n\n\n  \n    <a href=\"https://fairfaxhs.fcps.edu/events?utm_content=&amp;utm_medium=email&amp;utm_name=&amp;utm_source=govdelivery&amp;utm_term=\" target=\"_blank\"></a>\n\n\nUpcoming Events\n<p> </p>\n<p><strong>June 15: </strong>Father's Day</p>\n<p><strong>June...",
      "pubDate": "Fri, 13 Jun 2025 15:00:13 -0500",
      "timestamp": 1749844813000,
      "feedName": "Fairfax High School",
      "category": "Fairfax High School",
      "feedSource": "http://www.fcps.edu/index.shtml",
      "feedInfo": {
        "title": "Fairfax HS News and Announcements - Recent Updates",
        "description": "Fairfax High School News and announcements",
        "link": "http://www.fcps.edu/index.shtml"
      }
    },
    {
      "id": "NjUyOTEwODQ=",
      "title": "LCES Updates 6/13/25 This Week's Updates",
      "link": "https://content.govdelivery.com/accounts/VAEDUFCPS/bulletins/3e4434c",
      "description": "\n        \n\n\n  \n\n\n\n\n\n\n\n<p><a></a>Having trouble viewing this email? <a href=\"https://content.govdelivery.com/accounts/VAEDUFCPS/bulletins/3e4434c\">View it as a Web page</a>.</p>\n\n\n\n\n\n\n\n\n\n\n\n<a href=\"http://www2.fcps.edu/LeesCornerES/?utm_content=&amp;utm_medium=email&amp;utm_name=&amp;utm_source=govde...",
      "pubDate": "Fri, 13 Jun 2025 15:00:12 -0500",
      "timestamp": 1749844812000,
      "feedName": "Lees Corner Elementary School",
      "category": "Lees Corner Elementary School",
      "feedSource": "http://www.fcps.edu/index.shtml",
      "feedInfo": {
        "title": "Lees Corner Elementary School News and announcements - Recent Updates",
        "description": "Lees Corner Elementary School News and announcements",
        "link": "http://www.fcps.edu/index.shtml"
      }
    },
    {
      "id": "NjUzMzE3ODE=",
      "title": "Bulldog Buzz 06/13/25",
      "link": "https://content.govdelivery.com/accounts/VAEDUFCPS/bulletins/3e4e245",
      "description": "\n        \n\n\n  \n\n\n\n\n\n\n\n<p><a></a>Having trouble viewing this email? <a href=\"https://content.govdelivery.com/accounts/VAEDUFCPS/bulletins/3e4e245\">View it as a Web page</a>.</p>\n\n\n\n\n\n\n\n\n\n\n\n<a href=\"http://www2.fcps.edu/BucknellES/?utm_campaign+=&amp;utm_medium=email&amp;utm_source=govdelivery\" target...",
      "pubDate": "Fri, 13 Jun 2025 14:37:01 -0500",
      "timestamp": 1749843421000,
      "feedName": "Bucknell Elementary School",
      "category": "Bucknell Elementary School",
      "feedSource": "http://live-fcps-bucknell-es.pantheonsite.io/newsfeed",
      "feedInfo": {
        "title": "Bucknell Elementary School News and Announcements",
        "description": "Bucknell Elementary School News and announcements",
        "link": "http://live-fcps-bucknell-es.pantheonsite.io/newsfeed"
      }
    },
    {
      "id": "NjUzMzYxMzg=",
      "title": "Announcements and Upcoming Events",
      "link": "https://content.govdelivery.com/accounts/VAEDUFCPS/bulletins/3e4f34a",
      "description": "\n        \n\n\n  \n\n\n\n\n\n\n\n<p><a></a>Having trouble viewing this email? <a href=\"https://content.govdelivery.com/accounts/VAEDUFCPS/bulletins/3e4f34a\">View it as a Web page</a>.</p>\n\n\n\n\n\n\n\n\n\n\n\n<a href=\"http://www2.fcps.edu/TwainMS/?utm_campaign+=&amp;utm_medium=email&amp;utm_source=govdelivery\" target=\"_...",
      "pubDate": "Fri, 13 Jun 2025 14:30:14 -0500",
      "timestamp": 1749843014000,
      "feedName": "Twain Middle School",
      "category": "Twain Middle School",
      "feedSource": "http://www.fcps.edu/index.shtml",
      "feedInfo": {
        "title": "Twain Middle School News and announcements - Recent Updates",
        "description": "Twain Middle School News and announcements",
        "link": "http://www.fcps.edu/index.shtml"
      }
    },
    {
      "id": "NjUyODM1MzU=",
      "title": "Island Creek's Weekly Words: June 13, 2025",
      "link": "https://content.govdelivery.com/accounts/VAEDUFCPS/bulletins/3e425cf",
      "description": "\n        \n\n\n  \n\n\n\n\n\n\n\n<p><a></a>Having trouble viewing this email? <a href=\"https://content.govdelivery.com/accounts/VAEDUFCPS/bulletins/3e425cf\">View it as a Web page</a>.</p>\n\n\n\n\n\n\n\n\n\n\n\n<a href=\"https://islandcreekes.fcps.edu/?utm_campaign+=&amp;utm_medium=email&amp;utm_source=govdelivery\" target=...",
      "pubDate": "Fri, 13 Jun 2025 14:24:08 -0500",
      "timestamp": 1749842648000,
      "feedName": "Island Creek Elementary School",
      "category": "Island Creek Elementary School",
      "feedSource": "http://www.fcps.edu/index.shtml",
      "feedInfo": {
        "title": "Island Creek Elementary School News and announcements - Recent Updates",
        "description": "Island Creek Elementary School News and announcements",
        "link": "http://www.fcps.edu/index.shtml"
      }
    },
    {
      "id": "NjUzMzkwMDk=",
      "title": "GUNSTON GAZETTE",
      "link": "https://content.govdelivery.com/accounts/VAEDUFCPS/bulletins/3e4fe81",
      "description": "\n        \n\n\n  \n\n\n\n\n\n\n\n\n\n\n\n\n\n\n\n\n\n\n\n<a href=\"https://gunstones.fcps.edu?utm_content=&amp;utm_medium=email&amp;utm_name=&amp;utm_source=govdelivery&amp;utm_term=\" target=\"_blank\"></a>\n\n\n\n\n\n\n\n\n\n\n\n\n\n\n\n\n<p><a href=\"https://hayfieldes.fcps.edu/aggregator/sources/1?utm_campaign+=&amp;utm_content=&amp;utm_me...",
      "pubDate": "Fri, 13 Jun 2025 14:19:50 -0500",
      "timestamp": 1749842390000,
      "feedName": "Gunston Elementary School",
      "category": "Gunston Elementary School",
      "feedSource": "http://www.fcps.edu/index.shtml",
      "feedInfo": {
        "title": "Gunston Elementary School News and announcements - Recent Updates",
        "description": "Gunston Elementary School News and announcements",
        "link": "http://www.fcps.edu/index.shtml"
      }
    },
    {
      "id": "NjUzMjM5NzY=",
      "title": "Rockets Updates Week 39 - June 13, 2025",
      "link": "https://content.govdelivery.com/accounts/VAEDUFCPS/bulletins/3e4c3c8",
      "description": "\n        \n\n\n  \n\n\n\n\n\n\n\n<p><a></a>Having trouble viewing this email? <a href=\"https://content.govdelivery.com/accounts/VAEDUFCPS/bulletins/3e4c3c8\">View it as a Web page</a>.</p>\n\n\n\n\n\n\n\n\n\n\n\n<a href=\"http://www2.fcps.edu/RiversideES/?utm_campaign+=&amp;utm_medium=email&amp;utm_source=govdelivery\" targe...",
      "pubDate": "Fri, 13 Jun 2025 14:19:43 -0500",
      "timestamp": 1749842383000,
      "feedName": "Riverside Elementary School",
      "category": "Riverside Elementary School",
      "feedSource": "http://www.fcps.edu/index.shtml",
      "feedInfo": {
        "title": "Riverside Elementary School News and Announcements - Recent Updates",
        "description": "Riverside Elementary School News and announcements",
        "link": "http://www.fcps.edu/index.shtml"
      }
    },
    {
      "id": "NjUzMzk3Njg=",
      "title": "WSHS Report Cards",
      "link": "https://content.govdelivery.com/accounts/VAEDUFCPS/bulletins/3e50178",
      "description": "\n        \n\n\n  \n\n\n\n\n\n\n\n<p><a></a>Having trouble viewing this email? <a href=\"https://content.govdelivery.com/accounts/VAEDUFCPS/bulletins/3e50178\">View it as a Web page</a>.</p>\n\n\n\n\n\n\n\n\n\n\n\n<a href=\"https://westspringfieldhs.fcps.edu/?utm_campaign+=&amp;utm_medium=email&amp;utm_source=govdelivery\" tar...",
      "pubDate": "Fri, 13 Jun 2025 14:05:10 -0500",
      "timestamp": 1749841510000,
      "feedName": "West Springfield High School",
      "category": "West Springfield High School",
      "feedSource": "http://www.fcps.edu/index.shtml",
      "feedInfo": {
        "title": "West Springfield High School News and Announcements - Recent Updates",
        "description": "West Springfield High School News and Announcements",
        "link": "http://www.fcps.edu/index.shtml"
      }
    },
    {
      "id": "NjUzMjM3NTc=",
      "title": "Mustang Memo 6.13.25",
      "link": "https://content.govdelivery.com/accounts/VAEDUFCPS/bulletins/3e4c2ed",
      "description": "\n        \n\n\n  \n\n\n\n\n\n\n\n\n\n\n\n\n\n\n\n\n\n\n\n<a href=\"http://www2.fcps.edu/WestSpringfieldES/?utm_campaign+=&amp;utm_medium=email&amp;utm_source=govdelivery\" target=\"_blank\"></a>\n\n\n\n\n\n\n\n\n\n\n\n\n\n\n\n\nNote from Dr. Sheers\n2024-25 WSES School Awardee Recipients! \n<p><strong>Ms. Amy Stevenson, Librarian - Extra Mile</...",
      "pubDate": "Fri, 13 Jun 2025 13:41:27 -0500",
      "timestamp": 1749840087000,
      "feedName": "West Springfield Elementary School",
      "category": "West Springfield Elementary School",
      "feedSource": "http://www.fcps.edu/index.shtml",
      "feedInfo": {
        "title": "West Springfield Elementary School News and announcements - Recent Updates",
        "description": "West Springfield Elementary School News and announcements",
        "link": "http://www.fcps.edu/index.shtml"
      }
    },
    {
      "id": "NjUzMTI2NjQ=",
      "title": "Mountain View newsletter 6/13/25",
      "link": "https://content.govdelivery.com/accounts/VAEDUFCPS/bulletins/3e49798",
      "description": "\n        \n\n\n  \n\n\n\n\n\n\n\n<p><a></a>Having trouble viewing this email? <a href=\"https://content.govdelivery.com/accounts/VAEDUFCPS/bulletins/3e49798\">View it as a Web page</a>.</p>\n\n\n\n\n\n\n\n\n\n\n\n<a href=\"https://mountainviewhs.fcps.edu/?utm_campaign+=&amp;utm_medium=email&amp;utm_source=govdelivery\" target...",
      "pubDate": "Fri, 13 Jun 2025 13:27:03 -0500",
      "timestamp": 1749839223000,
      "feedName": "Mountain View High School",
      "category": "Mountain View High School",
      "feedSource": "http://www.fcps.edu/index.shtml",
      "feedInfo": {
        "title": "Mountain View High School News and Announcements - Recent Updates",
        "description": "Mountain View High School News and announcements",
        "link": "http://www.fcps.edu/index.shtml"
      }
    },
    {
      "id": "NjUzMzUyMDA=",
      "title": "Panther Press- June 13, 2025",
      "link": "https://content.govdelivery.com/accounts/VAEDUFCPS/bulletins/3e4efa0",
      "description": "\n        \n\n\n  \n\n\n\n\n\n\n\n<p><a></a>Having trouble viewing this email? <a href=\"https://content.govdelivery.com/accounts/VAEDUFCPS/bulletins/3e4efa0\">View it as a Web page</a>.</p>\n\n\n\n\n\n\n\n\n\n\n\n<a href=\"https://mountvernonwoodses.fcps.edu/?utm_campaign+=&amp;utm_medium=email&amp;utm_source=govdelivery\" ta...",
      "pubDate": "Fri, 13 Jun 2025 13:25:10 -0500",
      "timestamp": 1749839110000,
      "feedName": "Mount Vernon Woods Elementary School",
      "category": "Mount Vernon Woods Elementary School",
      "feedSource": "http://www.fcps.edu/index.shtml",
      "feedInfo": {
        "title": "Mount Vernon Woods Elementary School News and announcements - Recent Updates",
        "description": "Mount Vernon Woods Elementary School News and announcements",
        "link": "http://www.fcps.edu/index.shtml"
      }
    },
    {
      "id": "NjUyODc5MDk=",
      "title": "6/13 Chargers Connect",
      "link": "https://content.govdelivery.com/accounts/VAEDUFCPS/bulletins/3e436e5",
      "description": "\n        \n\n\n  \n\n\n\n\n\n\n\n\n\n\n\n\n\n\n\n\n\n\n\n\n\n\n\n\n\n\n\n\n\n\n\n\n\n\n\n<p><strong><a href=\"https://chantillyhs.fcps.edu/aggregator/sources/1?utm_content=&amp;utm_medium=email&amp;utm_name=&amp;utm_source=govdelivery&amp;utm_term=#modal-language-switcher\" target=\"_blank\">English</a> | <a href=\"https://chantillyhs.fcps.ed...",
      "pubDate": "Fri, 13 Jun 2025 13:21:47 -0500",
      "timestamp": 1749838907000,
      "feedName": "Chantilly High School",
      "category": "Chantilly High School",
      "feedSource": "http://www.fcps.edu/index.shtml",
      "feedInfo": {
        "title": "Chantilly High School News and announcements - Recent Updates",
        "description": "Chantilly High School News and announcements",
        "link": "http://www.fcps.edu/index.shtml"
      }
    },
    {
      "id": "NjUzMzkyNjI=",
      "title": "Floris ES Annual Report 2024-2025",
      "link": "https://content.govdelivery.com/accounts/VAEDUFCPS/bulletins/3e4ff7e",
      "description": "\n        \n\n\n  \n\n\n\n\n\n\n\n<p><a></a>Having trouble viewing this email? <a href=\"https://content.govdelivery.com/accounts/VAEDUFCPS/bulletins/3e4ff7e\">View it as a Web page</a>.</p>\n\n\n\n\n\n\n\n\n\n\n\n\n\n\n\n\n\n\n\n\n\n\n\n\n\n\n\n\n<p><a href=\"https://florises.fcps.edu/aggregator/sources/1?utm_campaign+=&amp;utm_medium=email&...",
      "pubDate": "Fri, 13 Jun 2025 13:12:49 -0500",
      "timestamp": 1749838369000,
      "feedName": "Floris Elementary School",
      "category": "Floris Elementary School",
      "feedSource": "http://www.fcps.edu/index.shtml",
      "feedInfo": {
        "title": "Floris Friday Message",
        "description": "Floris Elementary School News and announcements",
        "link": "http://www.fcps.edu/index.shtml"
      }
    },
    {
      "id": "NjUzMzg4MTM=",
      "title": "Fairfax Villa News You Choose June 13, 2025",
      "link": "https://content.govdelivery.com/accounts/VAEDUFCPS/bulletins/3e4fdbd",
      "description": "\n        \n\n\n  \n\n\n\n\n\n\n\n<p><a></a>Having trouble viewing this email? <a href=\"https://content.govdelivery.com/accounts/VAEDUFCPS/bulletins/3e4fdbd\">View it as a Web page</a>.</p>\n\n\n\n\n\n\n\n\n\n\n\n<a href=\"https://fairfaxvillaes.fcps.edu?utm_campaign+=&amp;utm_medium=email&amp;utm_source=govdelivery\" target=...",
      "pubDate": "Fri, 13 Jun 2025 13:06:18 -0500",
      "timestamp": 1749837978000,
      "feedName": "Fairfax Villa Elementary School",
      "category": "Fairfax Villa Elementary School",
      "feedSource": "https://fairfaxvillaes.fcps.edu",
      "feedInfo": {
        "title": "Fairfax Villa Elementary School News and announcements",
        "description": "Fairfax Villa Elementary School News and announcements",
        "link": "https://fairfaxvillaes.fcps.edu"
      }
    }
  ],
  "hasNext": true,
  "hasPrev": true
}