{
  "page": 257,
  "totalPages": 268,
  "totalItems": 5354,
  "itemsPerPage": 20,
  "items": [
    {
      "id": "NTE4MDM5MTc=",
      "title": "Album Release Event - Music Computer Tech",
      "link": "https://content.govdelivery.com/accounts/VAEDUFCPS/bulletins/316770d",
      "description": "\n        \n\n\n  \n\n\n\n\n\n\n\n<p><a></a>Having trouble viewing this email? <a href=\"https://content.govdelivery.com/accounts/VAEDUFCPS/bulletins/316770d\">View it as a Web page</a>.</p>\n\n\n\n\n\n\n\n\n\n\n\n<a href=\"http://www2.fcps.edu/WestPotomacAcademy/?utm_campaign+=&amp;utm_medium=email&amp;utm_source=govdelivery...",
      "pubDate": "Thu, 05 May 2022 08:39:49 -0500",
      "timestamp": 1651757989000,
      "feedName": "West Potomac Academy",
      "category": "West Potomac Academy",
      "feedSource": "http://www.fcps.edu/index.shtml",
      "feedInfo": {
        "title": "West Potomac Academy News and Announcements - Recent Updates",
        "description": "West Potomac Academy News and Announcements - Recent Updates",
        "link": "http://www.fcps.edu/index.shtml"
      }
    },
    {
      "id": "NTE3NTU0MDY=",
      "title": "Waples Mill Updates 4/30/22",
      "link": "https://content.govdelivery.com/accounts/VAEDUFCPS/bulletins/315b98e",
      "description": "\n        \n\n\n  \n\n\n\n\n\n\n\n<p><a></a>Having trouble viewing this email? <a href=\"https://content.govdelivery.com/accounts/VAEDUFCPS/bulletins/315b98e\">View it as a Web page</a>.</p>\n\n\n\n\n\n\n\n\n\n\n\n<a href=\"https://waplesmilles.fcps.edu/?utm_content=&amp;utm_medium=email&amp;utm_name=&amp;utm_source=govdelive...",
      "pubDate": "Sat, 30 Apr 2022 09:40:31 -0500",
      "timestamp": 1651329631000,
      "feedName": "Waples Mill Elementary School",
      "category": "Waples Mill Elementary School",
      "feedSource": "http://www.fcps.edu/index.shtml",
      "feedInfo": {
        "title": "Waples Mill Elementary School News and announcements - Recent Updates",
        "description": "Waples Mill Elementary School News and announcements",
        "link": "http://www.fcps.edu/index.shtml"
      }
    },
    {
      "id": "NTE2ODY0NzQ=",
      "title": "Waples Mill Updates 4/22/22",
      "link": "https://content.govdelivery.com/accounts/VAEDUFCPS/bulletins/314ac4a",
      "description": "\n        \n\n\n  \n\n\n\n\n\n\n\n<p><a></a>Having trouble viewing this email? <a href=\"https://content.govdelivery.com/accounts/VAEDUFCPS/bulletins/314ac4a\">View it as a Web page</a>.</p>\n\n\n\n\n\n\n\n\n\n\n\n<a href=\"https://waplesmilles.fcps.edu/?utm_content=&amp;utm_medium=email&amp;utm_name=&amp;utm_source=govdelive...",
      "pubDate": "Fri, 22 Apr 2022 16:01:59 -0500",
      "timestamp": 1650661319000,
      "feedName": "Waples Mill Elementary School",
      "category": "Waples Mill Elementary School",
      "feedSource": "http://www.fcps.edu/index.shtml",
      "feedInfo": {
        "title": "Waples Mill Elementary School News and announcements - Recent Updates",
        "description": "Waples Mill Elementary School News and announcements",
        "link": "http://www.fcps.edu/index.shtml"
      }
    },
    {
      "id": "NTE2NDg5ODU=",
      "title": "Purple Up Day - Tomorrow, April 20th!",
      "link": "https://content.govdelivery.com/accounts/VAEDUFCPS/bulletins/31419d9",
      "description": "\n        \n\n\n  \n\n\n\n\n\n\n\n<p><a></a>Having trouble viewing this email? <a href=\"https://content.govdelivery.com/accounts/VAEDUFCPS/bulletins/31419d9\">View it as a Web page</a>.</p>\n\n\n\n\n\n\n\n\n\n\n\n<a href=\"https://waplesmilles.fcps.edu/?utm_content=&amp;utm_medium=email&amp;utm_name=&amp;utm_source=govdelive...",
      "pubDate": "Tue, 19 Apr 2022 10:34:08 -0500",
      "timestamp": 1650382448000,
      "feedName": "Waples Mill Elementary School",
      "category": "Waples Mill Elementary School",
      "feedSource": "http://www.fcps.edu/index.shtml",
      "feedInfo": {
        "title": "Waples Mill Elementary School News and announcements - Recent Updates",
        "description": "Waples Mill Elementary School News and announcements",
        "link": "http://www.fcps.edu/index.shtml"
      }
    },
    {
      "id": "NTE2MTU4NDg=",
      "title": "Waples Mill Updates 4/15/22",
      "link": "https://content.govdelivery.com/accounts/VAEDUFCPS/bulletins/3139868",
      "description": "\n        \n\n\n  \n\n\n\n\n\n\n\n<p><a></a>Having trouble viewing this email? <a href=\"https://content.govdelivery.com/accounts/VAEDUFCPS/bulletins/3139868\">View it as a Web page</a>.</p>\n\n\n\n\n\n\n\n\n\n\n\n<a href=\"https://waplesmilles.fcps.edu/?utm_content=&amp;utm_medium=email&amp;utm_name=&amp;utm_source=govdelive...",
      "pubDate": "Fri, 15 Apr 2022 17:05:52 -0500",
      "timestamp": 1650060352000,
      "feedName": "Waples Mill Elementary School",
      "category": "Waples Mill Elementary School",
      "feedSource": "http://www.fcps.edu/index.shtml",
      "feedInfo": {
        "title": "Waples Mill Elementary School News and announcements - Recent Updates",
        "description": "Waples Mill Elementary School News and announcements",
        "link": "http://www.fcps.edu/index.shtml"
      }
    },
    {
      "id": "NTE1NjgwOTY=",
      "title": "3rd Quarter WP Academy Newsletter",
      "link": "https://content.govdelivery.com/accounts/VAEDUFCPS/bulletins/312dde0",
      "description": "\n        \n\n\n  \n\n\n\n\n\n\n\n<p><a></a>Having trouble viewing this email? <a href=\"https://content.govdelivery.com/accounts/VAEDUFCPS/bulletins/312dde0\">View it as a Web page</a>.</p>\n\n\n\n\n\n\n\n\n\n\n\n<a href=\"http://www2.fcps.edu/WestPotomacAcademy/?utm_content=&amp;utm_medium=email&amp;utm_name=&amp;utm_source...",
      "pubDate": "Tue, 12 Apr 2022 09:35:39 -0500",
      "timestamp": 1649774139000,
      "feedName": "West Potomac Academy",
      "category": "West Potomac Academy",
      "feedSource": "http://www.fcps.edu/index.shtml",
      "feedInfo": {
        "title": "West Potomac Academy News and Announcements - Recent Updates",
        "description": "West Potomac Academy News and Announcements - Recent Updates",
        "link": "http://www.fcps.edu/index.shtml"
      }
    },
    {
      "id": "NTE1NDA4MDQ=",
      "title": "April events",
      "link": "https://content.govdelivery.com/accounts/VAEDUFCPS/bulletins/3127344",
      "description": "\n        \n\n\n  \n\n\n\n\n\n\n\n<p><a></a>Having trouble viewing this email? <a href=\"https://content.govdelivery.com/accounts/VAEDUFCPS/bulletins/3127344\">View it as a Web page</a>.</p>\n\n\n\n\n\n\n\n\n\n\n\n<a href=\"https://www.fcps.edu/resources/safety-and-transportation/transportation-services/safe-routes-school-srt...",
      "pubDate": "Mon, 11 Apr 2022 08:48:14 -0500",
      "timestamp": 1649684894000,
      "feedName": "FCPS Safe Routes to School",
      "category": "FCPS Safe Routes to School",
      "feedSource": "http://www.fcps.edu/",
      "feedInfo": {
        "title": "Safe Routes to School - Recent Updates",
        "description": "Safe Routes to School - Recent Updates",
        "link": "http://www.fcps.edu/"
      }
    },
    {
      "id": "NTE0NjQyMjM=",
      "title": "Calendar Reminder - 2 Hour Early Dismissal Today, 3/31/22",
      "link": "https://content.govdelivery.com/accounts/VAEDUFCPS/bulletins/311481f",
      "description": "\n        \n\n\n  \n\n\n\n\n\n\n\n<p><a></a>Having trouble viewing this email? <a href=\"https://content.govdelivery.com/accounts/VAEDUFCPS/bulletins/311481f\">View it as a Web page</a>.</p>\n\n\n\n\n\n\n\n\n\n\n\n<a href=\"https://waplesmilles.fcps.edu/?utm_campaign+=&amp;utm_medium=email&amp;utm_source=govdelivery\" target=\"...",
      "pubDate": "Thu, 31 Mar 2022 08:57:02 -0500",
      "timestamp": 1648735022000,
      "feedName": "Waples Mill Elementary School",
      "category": "Waples Mill Elementary School",
      "feedSource": "http://www.fcps.edu/index.shtml",
      "feedInfo": {
        "title": "Waples Mill Elementary School News and announcements - Recent Updates",
        "description": "Waples Mill Elementary School News and announcements",
        "link": "http://www.fcps.edu/index.shtml"
      }
    },
    {
      "id": "NTE0NTU5MjU=",
      "title": "Waples Mill Updates 3/30/22",
      "link": "https://content.govdelivery.com/accounts/VAEDUFCPS/bulletins/31127b5",
      "description": "\n        \n\n\n  \n\n\n\n\n\n\n\n<p><a></a>Having trouble viewing this email? <a href=\"https://content.govdelivery.com/accounts/VAEDUFCPS/bulletins/31127b5\">View it as a Web page</a>.</p>\n\n\n\n\n\n\n\n\n\n\n\n<a href=\"https://waplesmilles.fcps.edu/?utm_content=&amp;utm_medium=email&amp;utm_name=&amp;utm_source=govdelive...",
      "pubDate": "Wed, 30 Mar 2022 16:32:10 -0500",
      "timestamp": 1648675930000,
      "feedName": "Waples Mill Elementary School",
      "category": "Waples Mill Elementary School",
      "feedSource": "http://www.fcps.edu/index.shtml",
      "feedInfo": {
        "title": "Waples Mill Elementary School News and announcements - Recent Updates",
        "description": "Waples Mill Elementary School News and announcements",
        "link": "http://www.fcps.edu/index.shtml"
      }
    },
    {
      "id": "NTE0MTQ5OTg=",
      "title": "Waples Mill Updates 3/25/22",
      "link": "https://content.govdelivery.com/accounts/VAEDUFCPS/bulletins/31087d6",
      "description": "\n        \n\n\n  \n\n\n\n\n\n\n\n<p><a></a>Having trouble viewing this email? <a href=\"https://content.govdelivery.com/accounts/VAEDUFCPS/bulletins/31087d6\">View it as a Web page</a>.</p>\n\n\n\n\n\n\n\n\n\n\n\n<a href=\"https://waplesmilles.fcps.edu/?utm_content=&amp;utm_medium=email&amp;utm_name=&amp;utm_source=govdelive...",
      "pubDate": "Fri, 25 Mar 2022 17:30:28 -0500",
      "timestamp": 1648247428000,
      "feedName": "Waples Mill Elementary School",
      "category": "Waples Mill Elementary School",
      "feedSource": "http://www.fcps.edu/index.shtml",
      "feedInfo": {
        "title": "Waples Mill Elementary School News and announcements - Recent Updates",
        "description": "Waples Mill Elementary School News and announcements",
        "link": "http://www.fcps.edu/index.shtml"
      }
    },
    {
      "id": "NTEyNTQ5NDk=",
      "title": "FCPS Wellness Newsletter Spring 2022",
      "link": "https://content.govdelivery.com/accounts/VAEDUFCPS/bulletins/30e16a5",
      "description": "\n        \n\n\n  \n\n\n\n\n\n\n\n<p>Having trouble viewing this email? <a href=\"https://content.govdelivery.com/accounts/VAEDUFCPS/bulletins/30e16a5\">View it as a Web page</a>.</p>\n\n\n\n\n\n\n\n\n\n\n\n\n\n\n\n\n\n\n\n\n\n\n\n\n\n\n\n<p><strong>Spring 2022</strong></p>\n<p> </p>\nFCPS Wellness Newsletter\n\n<strong>Small steps by students ...",
      "pubDate": "Fri, 25 Mar 2022 12:00:31 -0500",
      "timestamp": 1648227631000,
      "feedName": "FCPS Wellness Newsletter",
      "category": "FCPS Wellness Newsletter",
      "feedSource": "http://www.fcps.edu/",
      "feedInfo": {
        "title": "FCPS Wellness - Recent Updates",
        "description": "FCPS Wellness - Recent Updates",
        "link": "http://www.fcps.edu/"
      }
    },
    {
      "id": "NTEzNjU1NjQ=",
      "title": "PTA Top Golf event",
      "link": "https://content.govdelivery.com/accounts/VAEDUFCPS/bulletins/30fc6bc",
      "description": "\n        \n\n\n  \n\n\n\n\n\n\n\n<p><a></a>Having trouble viewing this email? <a href=\"https://content.govdelivery.com/accounts/VAEDUFCPS/bulletins/30fc6bc\">View it as a Web page</a>.</p>\n\n\n\n\n\n\n\n\n\n\n\n<a href=\"https://armstronges.fcps.edu/?utm_campaign+=&amp;utm_medium=email&amp;utm_source=govdelivery\" target=\"_...",
      "pubDate": "Mon, 21 Mar 2022 09:41:37 -0500",
      "timestamp": 1647873697000,
      "feedName": "Armstrong Elementary School",
      "category": "Armstrong Elementary School",
      "feedSource": "http://www.fcps.edu/index.shtml",
      "feedInfo": {
        "title": "Armstrong Elementary School News and announcements - Recent Updates",
        "description": "Armstrong Elementary School News and announcements",
        "link": "http://www.fcps.edu/index.shtml"
      }
    },
    {
      "id": "NTEzNDgxNjk=",
      "title": "Waples Mill Updates 3/18/22",
      "link": "https://content.govdelivery.com/accounts/VAEDUFCPS/bulletins/30f82c9",
      "description": "\n        \n\n\n  \n\n\n\n\n\n\n\n<p><a></a>Having trouble viewing this email? <a href=\"https://content.govdelivery.com/accounts/VAEDUFCPS/bulletins/30f82c9\">View it as a Web page</a>.</p>\n\n\n\n\n\n\n\n\n\n\n\n<a href=\"https://waplesmilles.fcps.edu/?utm_content=&amp;utm_medium=email&amp;utm_name=&amp;utm_source=govdelive...",
      "pubDate": "Fri, 18 Mar 2022 16:23:06 -0500",
      "timestamp": 1647638586000,
      "feedName": "Waples Mill Elementary School",
      "category": "Waples Mill Elementary School",
      "feedSource": "http://www.fcps.edu/index.shtml",
      "feedInfo": {
        "title": "Waples Mill Elementary School News and announcements - Recent Updates",
        "description": "Waples Mill Elementary School News and announcements",
        "link": "http://www.fcps.edu/index.shtml"
      }
    },
    {
      "id": "NTEyODI1MDI=",
      "title": "Waples Mill Updates 3/11/22",
      "link": "https://content.govdelivery.com/accounts/VAEDUFCPS/bulletins/30e8246",
      "description": "\n        \n\n\n  \n\n\n\n\n\n\n\n<p><a></a>Having trouble viewing this email? <a href=\"https://content.govdelivery.com/accounts/VAEDUFCPS/bulletins/30e8246\">View it as a Web page</a>.</p>\n\n\n\n\n\n\n\n\n\n\n\n<a href=\"https://waplesmilles.fcps.edu/?utm_content=&amp;utm_medium=email&amp;utm_name=&amp;utm_source=govdelive...",
      "pubDate": "Fri, 11 Mar 2022 17:29:18 -0600",
      "timestamp": 1647041358000,
      "feedName": "Waples Mill Elementary School",
      "category": "Waples Mill Elementary School",
      "feedSource": "http://www.fcps.edu/index.shtml",
      "feedInfo": {
        "title": "Waples Mill Elementary School News and announcements - Recent Updates",
        "description": "Waples Mill Elementary School News and announcements",
        "link": "http://www.fcps.edu/index.shtml"
      }
    },
    {
      "id": "NTEyNjk2MzY=",
      "title": "Oakton Pyramid Digital Citizenship - Parenting in the Digital Age",
      "link": "https://content.govdelivery.com/accounts/VAEDUFCPS/bulletins/30e5004",
      "description": "\n        \n\n\n  \n\n\n\n\n\n\n\n<p><a></a>Having trouble viewing this email? <a href=\"https://content.govdelivery.com/accounts/VAEDUFCPS/bulletins/30e5004\">View it as a Web page</a>.</p>\n\n\n\n\n\n\n\n\n\n\n\n<a href=\"https://waplesmilles.fcps.edu/?utm_campaign+=&amp;utm_medium=email&amp;utm_source=govdelivery\" target=\"...",
      "pubDate": "Thu, 10 Mar 2022 14:47:30 -0600",
      "timestamp": 1646945250000,
      "feedName": "Waples Mill Elementary School",
      "category": "Waples Mill Elementary School",
      "feedSource": "http://www.fcps.edu/index.shtml",
      "feedInfo": {
        "title": "Waples Mill Elementary School News and announcements - Recent Updates",
        "description": "Waples Mill Elementary School News and announcements",
        "link": "http://www.fcps.edu/index.shtml"
      }
    },
    {
      "id": "NTEyNjEyNTM=",
      "title": "Oakton Pyramid Digital Citizenship 2022- Selecting Quality Content",
      "link": "https://content.govdelivery.com/accounts/VAEDUFCPS/bulletins/30e2f45",
      "description": "\n        \n\n\n  \n\n\n\n\n\n\n\n<p><a></a>Having trouble viewing this email? <a href=\"https://content.govdelivery.com/accounts/VAEDUFCPS/bulletins/30e2f45\">View it as a Web page</a>.</p>\n\n\n\n\n\n\n\n\n\n\n\n<a href=\"https://waplesmilles.fcps.edu/?utm_campaign+=&amp;utm_medium=email&amp;utm_source=govdelivery\" target=\"...",
      "pubDate": "Wed, 09 Mar 2022 21:23:01 -0600",
      "timestamp": 1646882581000,
      "feedName": "Waples Mill Elementary School",
      "category": "Waples Mill Elementary School",
      "feedSource": "http://www.fcps.edu/index.shtml",
      "feedInfo": {
        "title": "Waples Mill Elementary School News and announcements - Recent Updates",
        "description": "Waples Mill Elementary School News and announcements",
        "link": "http://www.fcps.edu/index.shtml"
      }
    },
    {
      "id": "NTEyNDU4NDg=",
      "title": "Oakton Pyramid Digital Citizenship 2022- Digital Footprint",
      "link": "https://content.govdelivery.com/accounts/VAEDUFCPS/bulletins/30df318",
      "description": "\n        \n\n\n  \n\n\n\n\n\n\n\n<p><a></a>Having trouble viewing this email? <a href=\"https://content.govdelivery.com/accounts/VAEDUFCPS/bulletins/30df318\">View it as a Web page</a>.</p>\n\n\n\n\n\n\n\n\n\n\n\n<a href=\"https://waplesmilles.fcps.edu/?utm_campaign+=&amp;utm_medium=email&amp;utm_source=govdelivery\" target=\"...",
      "pubDate": "Tue, 08 Mar 2022 14:41:33 -0600",
      "timestamp": 1646772093000,
      "feedName": "Waples Mill Elementary School",
      "category": "Waples Mill Elementary School",
      "feedSource": "http://www.fcps.edu/index.shtml",
      "feedInfo": {
        "title": "Waples Mill Elementary School News and announcements - Recent Updates",
        "description": "Waples Mill Elementary School News and announcements",
        "link": "http://www.fcps.edu/index.shtml"
      }
    },
    {
      "id": "NTEyMjk1NTM=",
      "title": "Oakton Pyramid Digital Citizenship Week 2022!",
      "link": "https://content.govdelivery.com/accounts/VAEDUFCPS/bulletins/30db371",
      "description": "\n        \n\n\n  \n\n\n\n\n\n\n\n<p><a></a>Having trouble viewing this email? <a href=\"https://content.govdelivery.com/accounts/VAEDUFCPS/bulletins/30db371\">View it as a Web page</a>.</p>\n\n\n\n\n\n\n\n\n\n\n\n<a href=\"https://waplesmilles.fcps.edu/?utm_campaign+=&amp;utm_medium=email&amp;utm_source=govdelivery\" target=\"...",
      "pubDate": "Mon, 07 Mar 2022 09:32:05 -0600",
      "timestamp": 1646667125000,
      "feedName": "Waples Mill Elementary School",
      "category": "Waples Mill Elementary School",
      "feedSource": "http://www.fcps.edu/index.shtml",
      "feedInfo": {
        "title": "Waples Mill Elementary School News and announcements - Recent Updates",
        "description": "Waples Mill Elementary School News and announcements",
        "link": "http://www.fcps.edu/index.shtml"
      }
    },
    {
      "id": "NTExOTk1Njc=",
      "title": "PTA After School Classes Registration starts tomorrow March 4",
      "link": "https://content.govdelivery.com/accounts/VAEDUFCPS/bulletins/30d3e4f",
      "description": "\n        \n\n\n  \n\n\n\n\n\n\n\n<p><a></a>Having trouble viewing this email? <a href=\"https://content.govdelivery.com/accounts/VAEDUFCPS/bulletins/30d3e4f\">View it as a Web page</a>.</p>\n\n\n\n\n\n\n\n\n\n\n\n<a href=\"https://armstronges.fcps.edu/?utm_campaign+=&amp;utm_medium=email&amp;utm_source=govdelivery\" target=\"_...",
      "pubDate": "Thu, 03 Mar 2022 15:02:27 -0600",
      "timestamp": 1646341347000,
      "feedName": "Armstrong Elementary School",
      "category": "Armstrong Elementary School",
      "feedSource": "http://www.fcps.edu/index.shtml",
      "feedInfo": {
        "title": "Armstrong Elementary School News and announcements - Recent Updates",
        "description": "Armstrong Elementary School News and announcements",
        "link": "http://www.fcps.edu/index.shtml"
      }
    },
    {
      "id": "NTExNzcxMzU=",
      "title": "How Does Your Child Get to School?",
      "link": "https://content.govdelivery.com/accounts/VAEDUFCPS/bulletins/30ce6af",
      "description": "\n        \n\n\n  \n\n\n\n\n\n\n\n<p><a></a>Having trouble viewing this email? <a href=\"https://content.govdelivery.com/accounts/VAEDUFCPS/bulletins/30ce6af\">View it as a Web page</a>.</p>\n\n\n\n\n\n\n\n\n\n\n\n<a href=\"https://www.fcps.edu/resources/safety-and-transportation/transportation-services/safe-routes-school-srt...",
      "pubDate": "Wed, 02 Mar 2022 11:24:14 -0600",
      "timestamp": 1646241854000,
      "feedName": "FCPS Safe Routes to School",
      "category": "FCPS Safe Routes to School",
      "feedSource": "http://www.fcps.edu/",
      "feedInfo": {
        "title": "Safe Routes to School - Recent Updates",
        "description": "Safe Routes to School - Recent Updates",
        "link": "http://www.fcps.edu/"
      }
    }
  ],
  "hasNext": true,
  "hasPrev": true
}