{
  "page": 54,
  "totalPages": 268,
  "totalItems": 5354,
  "itemsPerPage": 20,
  "items": [
    {
      "id": "NjUyNDE1NDA=",
      "title": "Rockets Updates Week 38 - June 6, 2025",
      "link": "https://content.govdelivery.com/accounts/VAEDUFCPS/bulletins/3e381c4",
      "description": "\n        \n\n\n  \n\n\n\n\n\n\n\n<p><a></a>Having trouble viewing this email? <a href=\"https://content.govdelivery.com/accounts/VAEDUFCPS/bulletins/3e381c4\">View it as a Web page</a>.</p>\n\n\n\n\n\n\n\n\n\n\n\n<a href=\"http://www2.fcps.edu/RiversideES/?utm_campaign+=&amp;utm_medium=email&amp;utm_source=govdelivery\" targe...",
      "pubDate": "Fri, 06 Jun 2025 15:51:35 -0500",
      "timestamp": 1749243095000,
      "feedName": "Riverside Elementary School",
      "category": "Riverside Elementary School",
      "feedSource": "http://www.fcps.edu/index.shtml",
      "feedInfo": {
        "title": "Riverside Elementary School News and Announcements - Recent Updates",
        "description": "Riverside Elementary School News and announcements",
        "link": "http://www.fcps.edu/index.shtml"
      }
    },
    {
      "id": "NjUyMDg2NDc=",
      "title": "RVES News and Notes - June 6",
      "link": "https://content.govdelivery.com/accounts/VAEDUFCPS/bulletins/3e30147",
      "description": "\n        \n\n\n  \n\n\n\n\n\n\n\n<p><a></a>Having trouble viewing this email? <a href=\"https://content.govdelivery.com/accounts/VAEDUFCPS/bulletins/3e30147\">View it as a Web page</a>.</p>\n\n\n\n\n\n\n\n\n\n\n\n<a href=\"http://www2.fcps.edu/RollingValleyES/?utm_campaign+=&amp;utm_medium=email&amp;utm_source=govdelivery\" t...",
      "pubDate": "Fri, 06 Jun 2025 15:45:59 -0500",
      "timestamp": 1749242759000,
      "feedName": "Rolling Valley Elementary School",
      "category": "Rolling Valley Elementary School",
      "feedSource": "http://www.fcps.edu/index.shtml",
      "feedInfo": {
        "title": "Rolling Valley Elementary School News and announcements - Recent Updates",
        "description": "Rolling Valley Elementary School News and announcements",
        "link": "http://www.fcps.edu/index.shtml"
      }
    },
    {
      "id": "NjUyNjExMTI=",
      "title": "ATES Updates_06/06/2025",
      "link": "https://content.govdelivery.com/accounts/VAEDUFCPS/bulletins/3e3ce38",
      "description": "\n        \n\n\n  \n\n\n\n\n\n\n\n<p><a></a>Having trouble viewing this email? <a href=\"https://content.govdelivery.com/accounts/VAEDUFCPS/bulletins/3e3ce38\">View it as a Web page</a>.</p>\n\n\n\n\n\n\n\n\n\n\n\n<a href=\"https://annandaleterracees.fcps.edu/?utm_campaign+=&amp;utm_medium=email&amp;utm_source=govdelivery\" ta...",
      "pubDate": "Fri, 06 Jun 2025 15:36:25 -0500",
      "timestamp": 1749242185000,
      "feedName": "Annandale Terrace Elementary School",
      "category": "Annandale Terrace Elementary School",
      "feedSource": "http://www.fcps.edu/index.shtml",
      "feedInfo": {
        "title": "Annandale Terrace Elementary School News and announcements - Recent Updates",
        "description": "Annandale Terrace Elementary School News and announcements",
        "link": "http://www.fcps.edu/index.shtml"
      }
    },
    {
      "id": "NjUyNTYyMDU=",
      "title": "RAVENS' NEST 06/06/2025",
      "link": "https://content.govdelivery.com/accounts/VAEDUFCPS/bulletins/3e3bb0d",
      "description": "\n        \n\n\n  \n\n\n\n\n\n\n\n<p><a></a>Having trouble viewing this email? <a href=\"https://content.govdelivery.com/accounts/VAEDUFCPS/bulletins/3e3bb0d\">View it as a Web page</a>.</p>\n\n\n\n\n\n\n\n\n\n\n\n<a href=\"http://www2.fcps.edu/RavensworthES/?utm_campaign+=&amp;utm_medium=email&amp;utm_source=govdelivery\" tar...",
      "pubDate": "Fri, 06 Jun 2025 15:35:12 -0500",
      "timestamp": 1749242112000,
      "feedName": "Ravensworth Elementary School",
      "category": "Ravensworth Elementary School",
      "feedSource": "http://www.fcps.edu/index.shtml",
      "feedInfo": {
        "title": "Ravensworth Elementary School News and announcements - Recent Updates",
        "description": "Ravensworth Elementary School News and announcements",
        "link": "http://www.fcps.edu/index.shtml"
      }
    },
    {
      "id": "NjUyNTg1Njk=",
      "title": "Announcements and Upcoming Events",
      "link": "https://content.govdelivery.com/accounts/VAEDUFCPS/bulletins/3e3c449",
      "description": "\n        \n\n\n  \n\n\n\n\n\n\n\n<p><a></a>Having trouble viewing this email? <a href=\"https://content.govdelivery.com/accounts/VAEDUFCPS/bulletins/3e3c449\">View it as a Web page</a>.</p>\n\n\n\n\n\n\n\n\n\n\n\n<a href=\"http://www2.fcps.edu/TwainMS/?utm_campaign+=&amp;utm_medium=email&amp;utm_source=govdelivery\" target=\"_...",
      "pubDate": "Fri, 06 Jun 2025 15:35:12 -0500",
      "timestamp": 1749242112000,
      "feedName": "Twain Middle School",
      "category": "Twain Middle School",
      "feedSource": "http://www.fcps.edu/index.shtml",
      "feedInfo": {
        "title": "Twain Middle School News and announcements - Recent Updates",
        "description": "Twain Middle School News and announcements",
        "link": "http://www.fcps.edu/index.shtml"
      }
    },
    {
      "id": "NjUyNTQ1OTA=",
      "title": "Seahawks Weekly News 06/06/2025",
      "link": "https://content.govdelivery.com/accounts/VAEDUFCPS/bulletins/3e3b4be",
      "description": "\n        \n\n\n  \n\n\n\n\n\n\n\n<p><a></a>Having trouble viewing this email? <a href=\"https://content.govdelivery.com/accounts/VAEDUFCPS/bulletins/3e3b4be\">View it as a Web page</a>.</p>\n\n\n\n\n\n\n\n\n\n\n\n<a href=\"http://www2.fcps.edu/SilverbrookES/?utm_campaign+=&amp;utm_medium=email&amp;utm_source=govdelivery\" tar...",
      "pubDate": "Fri, 06 Jun 2025 15:30:16 -0500",
      "timestamp": 1749241816000,
      "feedName": "Silverbrook Elementary School",
      "category": "Silverbrook Elementary School",
      "feedSource": "http://www.fcps.edu/index.shtml",
      "feedInfo": {
        "title": "Silverbrook Elementary School News and announcements - Recent Updates",
        "description": "Silverbrook Elementary School News and announcements",
        "link": "http://www.fcps.edu/index.shtml"
      }
    },
    {
      "id": "NjUyNjUxMjE=",
      "title": "Eagle View E-Newsletter: June 6, 2025",
      "link": "https://content.govdelivery.com/accounts/VAEDUFCPS/bulletins/3e3dde1",
      "description": "\n        \n\n\n  \n\n\n\n\n\n\n\n<p><a></a>Having trouble viewing this email? <a href=\"https://content.govdelivery.com/accounts/VAEDUFCPS/bulletins/3e3dde1\">View it as a Web page</a>.</p>\n\n\n\n\n\n\n\n\n\n\n\n<a href=\"https://eagleviewes.fcps.edu/?utm_campaign+=&amp;utm_medium=email&amp;utm_source=govdelivery\" target=\"_...",
      "pubDate": "Fri, 06 Jun 2025 15:30:15 -0500",
      "timestamp": 1749241815000,
      "feedName": "Eagle View Elementary School",
      "category": "Eagle View Elementary School",
      "feedSource": "http://www.fcps.edu/index.shtml",
      "feedInfo": {
        "title": "Eagle View Elementary School News and announcements - Recent Updates",
        "description": "Eagle View Elementary School News and announcements",
        "link": "http://www.fcps.edu/index.shtml"
      }
    },
    {
      "id": "NjUyNTQyODg=",
      "title": "PUMA PRESS – School News &amp; Information: June 6, 2025",
      "link": "https://content.govdelivery.com/accounts/VAEDUFCPS/bulletins/3e3b390",
      "description": "\n        \n\n\n  \n\n\n\n\n\n\n\n<p><a></a>Having trouble viewing this email? <a href=\"https://content.govdelivery.com/accounts/VAEDUFCPS/bulletins/3e3b390\">View it as a Web page</a>.</p>\n\n\n\n\n\n\n\n\n\n\n\n<a href=\"https://powelles.fcps.edu/?utm_campaign+=&amp;utm_medium=email&amp;utm_source=govdelivery\" target=\"_bla...",
      "pubDate": "Fri, 06 Jun 2025 15:30:13 -0500",
      "timestamp": 1749241813000,
      "feedName": "Powell Elementary School",
      "category": "Powell Elementary School",
      "feedSource": "http://www.fcps.edu/index.shtml",
      "feedInfo": {
        "title": "Powell Elementary School News and Announcements - Recent Updates",
        "description": "Powell Elementary School News and announcements",
        "link": "http://www.fcps.edu/index.shtml"
      }
    },
    {
      "id": "NjUxMDczMzg=",
      "title": "Mustang Message - June 6, 2025",
      "link": "https://content.govdelivery.com/accounts/VAEDUFCPS/bulletins/3e1758a",
      "description": "\n        \n\n\n  \n\n\n\n\n\n\n\n<p><a></a>Having trouble viewing this email? <a href=\"https://content.govdelivery.com/accounts/VAEDUFCPS/bulletins/3e1758a\">View it as a Web page</a>.</p>\n\n\n\n\n\n\n\n\n\n\n\n<a href=\"https://brenmarparkes.fcps.edu/?utm_campaign+=&amp;utm_medium=email&amp;utm_source=govdelivery\" target=...",
      "pubDate": "Fri, 06 Jun 2025 15:30:12 -0500",
      "timestamp": 1749241812000,
      "feedName": "Bren Mar Park Elementary School",
      "category": "Bren Mar Park Elementary School",
      "feedSource": "http://www.fcps.edu/index.shtml",
      "feedInfo": {
        "title": "Bren Mar Park Elementary School News and announcements - Recent Updates",
        "description": "Bren Mar Park Elementary School News and announcements",
        "link": "http://www.fcps.edu/index.shtml"
      }
    },
    {
      "id": "NjUyMjk3NzY=",
      "title": "Bear Bulletin - Volume 43",
      "link": "https://content.govdelivery.com/accounts/VAEDUFCPS/bulletins/3e353d0",
      "description": "\n        \n\n\n  \n\n\n\n\n\n\n\n<p><a></a>Having trouble viewing this email? <a href=\"https://content.govdelivery.com/accounts/VAEDUFCPS/bulletins/3e353d0\">View it as a Web page</a>.</p>\n\n\n\n\n\n\n\n\n\n\n\n<a href=\"https://oldecreekes.fcps.edu/?utm_campaign+=&amp;utm_medium=email&amp;utm_source=govdelivery\" target=\"_...",
      "pubDate": "Fri, 06 Jun 2025 15:30:04 -0500",
      "timestamp": 1749241804000,
      "feedName": "Olde Creek Elementary School",
      "category": "Olde Creek Elementary School",
      "feedSource": "http://www.fcps.edu/index.shtml",
      "feedInfo": {
        "title": "Olde Creek Elementary School News and announcements - Recent Updates",
        "description": "Olde Creek Elementary School News and announcements",
        "link": "http://www.fcps.edu/index.shtml"
      }
    },
    {
      "id": "NjUyNjU0NzU=",
      "title": "GUNSTON GAZETTE",
      "link": "https://content.govdelivery.com/accounts/VAEDUFCPS/bulletins/3e3df43",
      "description": "\n        \n\n\n  \n\n\n\n\n\n\n\n\n\n\n\n\n\n\n\n\n\n\n\n<a href=\"https://gunstones.fcps.edu?utm_content=&amp;utm_medium=email&amp;utm_name=&amp;utm_source=govdelivery&amp;utm_term=\" target=\"_blank\"></a>\n\n\n\n\n\n\n\n\n\n\n\n\n\n\n\n\n<p><a href=\"https://hayfieldes.fcps.edu/aggregator/sources/1?utm_campaign+=&amp;utm_content=&amp;utm_me...",
      "pubDate": "Fri, 06 Jun 2025 15:29:48 -0500",
      "timestamp": 1749241788000,
      "feedName": "Gunston Elementary School",
      "category": "Gunston Elementary School",
      "feedSource": "http://www.fcps.edu/index.shtml",
      "feedInfo": {
        "title": "Gunston Elementary School News and announcements - Recent Updates",
        "description": "Gunston Elementary School News and announcements",
        "link": "http://www.fcps.edu/index.shtml"
      }
    },
    {
      "id": "NjUyNzEwNTA=",
      "title": "WHAT'S GOING ON IN THE FOREST - 6/7/25",
      "link": "https://content.govdelivery.com/accounts/VAEDUFCPS/bulletins/3e3f50a",
      "description": "\n        \n\n\n  \n\n\n\n\n\n\n\n<p><a></a>Having trouble viewing this email? <a href=\"https://content.govdelivery.com/accounts/VAEDUFCPS/bulletins/3e3f50a\">View it as a Web page</a>.</p>\n\n\n\n\n\n\n\n\n\n\n\n<a href=\"http://www2.fcps.edu/NewingtonForestES/?utm_campaign+=&amp;utm_medium=email&amp;utm_source=govdelivery\"...",
      "pubDate": "Fri, 06 Jun 2025 15:28:50 -0500",
      "timestamp": 1749241730000,
      "feedName": "Newington Forest Elementary School",
      "category": "Newington Forest Elementary School",
      "feedSource": "http://www.fcps.edu/index.shtml",
      "feedInfo": {
        "title": "Newington Forest Elementary School News and announcements - Recent Updates",
        "description": "Newington Forest Elementary School News and announcements",
        "link": "http://www.fcps.edu/index.shtml"
      }
    },
    {
      "id": "NjUxODU2OTk=",
      "title": "SCHOOLHOUSE NEWS - June 6",
      "link": "https://content.govdelivery.com/accounts/VAEDUFCPS/bulletins/3e2a7a3",
      "description": "\n        \n\n\n  \n\n\n\n\n\n\n\n<p><a></a>Having trouble viewing this email? <a href=\"https://content.govdelivery.com/accounts/VAEDUFCPS/bulletins/3e2a7a3\">View it as a Web page</a>.</p>\n\n\n\n\n\n\n\n\n\n\n\n<a href=\"http://www2.fcps.edu/HayfieldES/?utm_campaign+=&amp;utm_medium=email&amp;utm_source=govdelivery\" target...",
      "pubDate": "Fri, 06 Jun 2025 15:23:16 -0500",
      "timestamp": 1749241396000,
      "feedName": "Hayfield Elementary School",
      "category": "Hayfield Elementary School",
      "feedSource": "https://public.govdelivery.com/topics/Hayfield_ES_News/feed.rss",
      "feedInfo": {
        "title": "Hayfield ES News and Announcements",
        "description": "Hayfield Elementary School News and Announcements",
        "link": "https://public.govdelivery.com/topics/Hayfield_ES_News/feed.rss"
      }
    },
    {
      "id": "NjUyNTgwMTM=",
      "title": "Weekly Message",
      "link": "https://content.govdelivery.com/accounts/VAEDUFCPS/bulletins/3e3c21d",
      "description": "\n        \n\n\n  \n\n\n\n\n\n\n\n<p><a></a>Having trouble viewing this email? <a href=\"https://content.govdelivery.com/accounts/VAEDUFCPS/bulletins/3e3c21d\">View it as a Web page</a>.</p>\n\n\n\n\n\n\n\n\n\n\n\n<a href=\"https://oaktones.fcps.edu/?utm_content=&amp;utm_medium=email&amp;utm_name=&amp;utm_source=govdelivery&a...",
      "pubDate": "Fri, 06 Jun 2025 15:15:12 -0500",
      "timestamp": 1749240912000,
      "feedName": "Oakton Elementary School",
      "category": "Oakton Elementary School",
      "feedSource": "http://www.fcps.edu/index.shtml",
      "feedInfo": {
        "title": "Oakton Elementary School News and announcements - Recent Updates",
        "description": "Oakton Elementary School News and announcements",
        "link": "http://www.fcps.edu/index.shtml"
      }
    },
    {
      "id": "NjUyMDE1NTE=",
      "title": "WFES News You Choose, Friday, June 6, 2025",
      "link": "https://content.govdelivery.com/accounts/VAEDUFCPS/bulletins/3e2e58f",
      "description": "\n        \n\n\n  \n\n\n\n\n\n\n\n<p><a></a>Having trouble viewing this email? <a href=\"https://content.govdelivery.com/accounts/VAEDUFCPS/bulletins/3e2e58f\">View it as a Web page</a>.</p>\n\n\n\n\n\n\n\n\n\n\n\n<a href=\"https://wakefieldforestes.fcps.edu/?utm_campaign+=&amp;utm_medium=email&amp;utm_source=govdelivery\" tar...",
      "pubDate": "Fri, 06 Jun 2025 15:15:09 -0500",
      "timestamp": 1749240909000,
      "feedName": "Wakefield Forest Elementary School",
      "category": "Wakefield Forest Elementary School",
      "feedSource": "http://www.fcps.edu/index.shtml",
      "feedInfo": {
        "title": "Wakefield Forest Elementary School News and announcements - Recent Updates",
        "description": "Wakefield Forest Elementary School News and announcements",
        "link": "http://www.fcps.edu/index.shtml"
      }
    },
    {
      "id": "NjUyNzAyOTI=",
      "title": "Principal's Newsletter",
      "link": "https://content.govdelivery.com/accounts/VAEDUFCPS/bulletins/3e3f214",
      "description": "\n        \n\n\n  \n\n\n\n\n\n\n\n<p><a></a>Having trouble viewing this email? <a href=\"https://content.govdelivery.com/accounts/VAEDUFCPS/bulletins/3e3f214\">View it as a Web page</a>.</p>\n\n\n\n\n\n\n\n\n\n\n\n<a href=\"https://lynbrookes.fcps.edu/?utm_campaign+=&amp;utm_medium=email&amp;utm_source=govdelivery\" target=\"_b...",
      "pubDate": "Fri, 06 Jun 2025 15:07:53 -0500",
      "timestamp": 1749240473000,
      "feedName": "Lynbrook Elementary School",
      "category": "Lynbrook Elementary School",
      "feedSource": "http://www.fcps.edu/index.shtml",
      "feedInfo": {
        "title": "Lynbrook ES Noticias y anuncios en español - Recent Updates",
        "description": "Lynbrook ES Noticias y anuncios en español - Recent Updates",
        "link": "http://www.fcps.edu/index.shtml"
      }
    },
    {
      "id": "NjUyNTcwMTk=",
      "title": "Island Creek's Weekly Words: June 6, 2025",
      "link": "https://content.govdelivery.com/accounts/VAEDUFCPS/bulletins/3e3be3b",
      "description": "\n        \n\n\n  \n\n\n\n\n\n\n\n<p><a></a>Having trouble viewing this email? <a href=\"https://content.govdelivery.com/accounts/VAEDUFCPS/bulletins/3e3be3b\">View it as a Web page</a>.</p>\n\n\n\n\n\n\n\n\n\n\n\n<a href=\"https://islandcreekes.fcps.edu/?utm_campaign+=&amp;utm_medium=email&amp;utm_source=govdelivery\" target=...",
      "pubDate": "Fri, 06 Jun 2025 15:01:37 -0500",
      "timestamp": 1749240097000,
      "feedName": "Island Creek Elementary School",
      "category": "Island Creek Elementary School",
      "feedSource": "http://www.fcps.edu/index.shtml",
      "feedInfo": {
        "title": "Island Creek Elementary School News and announcements - Recent Updates",
        "description": "Island Creek Elementary School News and announcements",
        "link": "http://www.fcps.edu/index.shtml"
      }
    },
    {
      "id": "NjUyNjY2NDA=",
      "title": "Groveton ES: Weekly Newsletter",
      "link": "https://content.govdelivery.com/accounts/VAEDUFCPS/bulletins/3e3e3d0",
      "description": "\n        \n\n\n  \n\n\n\n\n\n\n\n<p><a></a>Having trouble viewing this email? <a href=\"https://content.govdelivery.com/accounts/VAEDUFCPS/bulletins/3e3e3d0\">View it as a Web page</a>.</p>\n\n\n\n\n\n\n\n\n\n\n\n<a href=\"http://www2.fcps.edu/GrovetonES/?utm_campaign+=&amp;utm_medium=email&amp;utm_source=govdelivery\" target...",
      "pubDate": "Fri, 06 Jun 2025 15:00:22 -0500",
      "timestamp": 1749240022000,
      "feedName": "Groveton Elementary School",
      "category": "Groveton Elementary School",
      "feedSource": "http://www.fcps.edu/index.shtml",
      "feedInfo": {
        "title": "Groveton Elementary School News and announcements - Recent Updates",
        "description": "Groveton Elementary School News and announcements",
        "link": "http://www.fcps.edu/index.shtml"
      }
    },
    {
      "id": "NjUyNTk2OTk=",
      "title": "Cardinal Connection: June 6, 2025",
      "link": "https://content.govdelivery.com/accounts/VAEDUFCPS/bulletins/3e3c8b3",
      "description": "\n        \n\n\n  \n\n\n\n\n\n\n\n<p><a></a>Having trouble viewing this email? <a href=\"https://content.govdelivery.com/accounts/VAEDUFCPS/bulletins/3e3c8b3\">View it as a Web page</a>.</p>\n\n\n\n\n\n\n\n\n\n\n\n<a href=\"https://cunninghamparkes.fcps.edu/?utm_campaign+=&amp;utm_medium=email&amp;utm_source=govdelivery\" targ...",
      "pubDate": "Fri, 06 Jun 2025 15:00:19 -0500",
      "timestamp": 1749240019000,
      "feedName": "Cunningham Park Elementary School",
      "category": "Cunningham Park Elementary School",
      "feedSource": "http://www.fcps.edu/index.shtml",
      "feedInfo": {
        "title": "Cunningham Park Elementary School News - Recent Updates",
        "description": "Cunningham Park Elementary School News and announcements",
        "link": "http://www.fcps.edu/index.shtml"
      }
    },
    {
      "id": "NjUyNjIwMTc=",
      "title": "Weyanoke Update for June 6, 2025",
      "link": "https://content.govdelivery.com/accounts/VAEDUFCPS/bulletins/3e3d1c1",
      "description": "\n        \n\n\n  \n\n\n\n\n\n\n\n<p><a></a>Having trouble viewing this email? <a href=\"https://content.govdelivery.com/accounts/VAEDUFCPS/bulletins/3e3d1c1\">View it as a Web page</a>.</p>\n\n\n\n\n\n\n\n\n\n\n\n<a href=\"https://weyanokees.fcps.edu/?utm_campaign+=&amp;utm_medium=email&amp;utm_source=govdelivery\" target=\"_b...",
      "pubDate": "Fri, 06 Jun 2025 15:00:18 -0500",
      "timestamp": 1749240018000,
      "feedName": "Weyanoke Elementary School",
      "category": "Weyanoke Elementary School",
      "feedSource": "http://www.fcps.edu/index.shtml",
      "feedInfo": {
        "title": "Weyanoke Elementary School News and announcements - Recent Updates",
        "description": "Weyanoke Elementary School News and announcements",
        "link": "http://www.fcps.edu/index.shtml"
      }
    }
  ],
  "hasNext": true,
  "hasPrev": true
}