{
  "page": 267,
  "totalPages": 268,
  "totalItems": 5354,
  "itemsPerPage": 20,
  "items": [
    {
      "id": "MzYxODY1MTg=",
      "title": "Help our Principal take the Polar Plunge!",
      "link": "https://content.govdelivery.com/accounts/VAEDUFCPS/bulletins/2282996",
      "description": "\n        \n\n\n  \n\n\n\n\n\n\n\n\n\n\n\n\n\n\n\n\n\n\n\n\n\n\n\n\n\n\n\n\n\n\n\n\n\n\n\n<p>Five days left until our Principal, Mr. Bickel, takes the Polar Plunge! That is IF the Pulley Warriors are able to raise at least $1000 before Saturday, January 18th.</p>\n<p>Please click on the following link to donate: <a href=\"https://impact.spe...",
      "pubDate": "Mon, 14 Jan 2019 13:18:52 -0600",
      "timestamp": 1547493532000,
      "feedName": "Pulley Career Center",
      "category": "Pulley Career Center",
      "feedSource": "http://www.fcps.edu/index.shtml",
      "feedInfo": {
        "title": "Pulley Career Center News and announcements - Recent Updates",
        "description": "Pulley Career Center News and announcements",
        "link": "http://www.fcps.edu/index.shtml"
      }
    },
    {
      "id": "MzYxMzIyOTk=",
      "title": "Pulley Takes the Polar Plunge Jan 19th",
      "link": "https://content.govdelivery.com/accounts/VAEDUFCPS/bulletins/22755cb",
      "description": "\n        \n\n\n  \n\n\n\n\n\n\n\n\n\n\n\n\n\n\n\n\n\n\n\n<a href=\"https://pulleycenter.fcps.edu/?utm_content=&amp;utm_medium=email&amp;utm_name=&amp;utm_source=govdelivery&amp;utm_term=\"></a>\n\n\n\n\n\n\n\n\n\n\n\n\n\n\n\n<p>Hello Pulley families!</p>\n<p>We are so excited to announce that our Special Olympics basketball team, the Pulley...",
      "pubDate": "Thu, 10 Jan 2019 14:29:49 -0600",
      "timestamp": 1547152189000,
      "feedName": "Pulley Career Center",
      "category": "Pulley Career Center",
      "feedSource": "http://www.fcps.edu/index.shtml",
      "feedInfo": {
        "title": "Pulley Career Center News and announcements - Recent Updates",
        "description": "Pulley Career Center News and announcements",
        "link": "http://www.fcps.edu/index.shtml"
      }
    },
    {
      "id": "MzU5MTMwMTU=",
      "title": "Special Education Update",
      "link": "https://content.govdelivery.com/accounts/VAEDUFCPS/bulletins/223fd37",
      "description": "\n        \n\n\n  \n\n\n\n\n\n\n\n<p><a></a>Having trouble viewing this email? <a href=\"https://content.govdelivery.com/accounts/VAEDUFCPS/bulletins/223fd37\">View it as a Web page</a>.</p>\n\n\n\n\n\n\n\n\n\n\n\n<a href=\"https://www.fcps.edu/academics/academic-overview/special-education-instruction?utm_content=&amp;utm_med...",
      "pubDate": "Thu, 03 Jan 2019 09:00:14 -0600",
      "timestamp": 1546527614000,
      "feedName": "FCPS Special Education Update",
      "category": "FCPS Special Education Update",
      "feedSource": "https://www.fcps.edu/",
      "feedInfo": {
        "title": "Special Education and 504 Newsletter - Recent Updates",
        "description": "Special Education and 504 Newsletter - Recent Updates",
        "link": "https://www.fcps.edu/"
      }
    },
    {
      "id": "MzU3MDc0OTk=",
      "title": "FCPS Wellness Newsletter",
      "link": "https://content.govdelivery.com/accounts/VAEDUFCPS/bulletins/220da6b",
      "description": "\n        \n\n\n  \n\n\n\n\n\n\n\n\n\n\n\n\n\n\n\n\n\n\n\n\n\n\n\n\n\n\n\n\n\n\n\n\n\n\n\n<p><strong>Winter 2018/2019</strong></p>\nFCPS Wellness Newsletter\n<strong>Wellness Teams</strong>\n<p>By now, each school should have formed a wellness team and begun to assess their school’s strengths and weaknesses with relation to staff and student...",
      "pubDate": "Mon, 10 Dec 2018 14:30:19 -0600",
      "timestamp": 1544473819000,
      "feedName": "FCPS Wellness Newsletter",
      "category": "FCPS Wellness Newsletter",
      "feedSource": "http://www.fcps.edu/",
      "feedInfo": {
        "title": "FCPS Wellness - Recent Updates",
        "description": "FCPS Wellness - Recent Updates",
        "link": "http://www.fcps.edu/"
      }
    },
    {
      "id": "MzU1ODc1NzI=",
      "title": "Special Education Update",
      "link": "https://content.govdelivery.com/accounts/VAEDUFCPS/bulletins/21f05f4",
      "description": "\n        \n\n\n  \n\n\n\n\n\n\n\n<p><a></a>Having trouble viewing this email? <a href=\"https://content.govdelivery.com/accounts/VAEDUFCPS/bulletins/21f05f4\">View it as a Web page</a>.</p>\n\n\n\n\n\n\n\n\n\n\n\n<a href=\"https://www.fcps.edu/academics/academic-overview/special-education-instruction?utm_content=&amp;utm_med...",
      "pubDate": "Fri, 30 Nov 2018 07:39:33 -0600",
      "timestamp": 1543585173000,
      "feedName": "FCPS Special Education Update",
      "category": "FCPS Special Education Update",
      "feedSource": "https://www.fcps.edu/",
      "feedInfo": {
        "title": "Special Education and 504 Newsletter - Recent Updates",
        "description": "Special Education and 504 Newsletter - Recent Updates",
        "link": "https://www.fcps.edu/"
      }
    },
    {
      "id": "MzUxODM0MzQ=",
      "title": "Breakfast for Veterans",
      "link": "https://content.govdelivery.com/accounts/VAEDUFCPS/bulletins/218db4a",
      "description": "\n        \n\n\n  \n\n\n\n\n\n\n\n<p><a></a>Having trouble viewing this email? <a href=\"https://content.govdelivery.com/accounts/VAEDUFCPS/bulletins/218db4a\">View it as a Web page</a>.</p>\n\n\n\n\n\n\n\n\n\n\n\n<a href=\"https://armstronges.fcps.edu/?utm_content=&amp;utm_medium=email&amp;utm_name=&amp;utm_source=govdeliver...",
      "pubDate": "Fri, 02 Nov 2018 13:20:18 -0500",
      "timestamp": 1541182818000,
      "feedName": "Armstrong Elementary School",
      "category": "Armstrong Elementary School",
      "feedSource": "http://www.fcps.edu/index.shtml",
      "feedInfo": {
        "title": "Armstrong Elementary School News and announcements - Recent Updates",
        "description": "Armstrong Elementary School News and announcements",
        "link": "http://www.fcps.edu/index.shtml"
      }
    },
    {
      "id": "MzUxMTgwMzU=",
      "title": "Special Education Update",
      "link": "https://content.govdelivery.com/accounts/VAEDUFCPS/bulletins/217dbd3",
      "description": "\n        \n\n\n  \n\n\n\n\n\n\n\n<p><a></a>Having trouble viewing this email? <a href=\"https://content.govdelivery.com/accounts/VAEDUFCPS/bulletins/217dbd3\">View it as a Web page</a>.</p>\n\n\n\n\n\n\n\n\n\n\n\n<a href=\"https://www.fcps.edu/academics/academic-overview/special-education-instruction?utm_content=&amp;utm_med...",
      "pubDate": "Mon, 29 Oct 2018 11:53:45 -0500",
      "timestamp": 1540832025000,
      "feedName": "FCPS Special Education Update",
      "category": "FCPS Special Education Update",
      "feedSource": "https://www.fcps.edu/",
      "feedInfo": {
        "title": "Special Education and 504 Newsletter - Recent Updates",
        "description": "Special Education and 504 Newsletter - Recent Updates",
        "link": "https://www.fcps.edu/"
      }
    },
    {
      "id": "MzQ5NjI5Njc=",
      "title": "Breakfast for Veterans",
      "link": "https://content.govdelivery.com/accounts/VAEDUFCPS/bulletins/2157e17",
      "description": "\n        \n\n\n  \n\n\n\n\n\n\n\n<p><a></a>Having trouble viewing this email? <a href=\"https://content.govdelivery.com/accounts/VAEDUFCPS/bulletins/2157e17\">View it as a Web page</a>.</p>\n\n\n\n\n\n\n\n\n\n\n\n<a href=\"https://armstronges.fcps.edu/?utm_content=&amp;utm_medium=email&amp;utm_name=&amp;utm_source=govdeliver...",
      "pubDate": "Mon, 22 Oct 2018 08:59:46 -0500",
      "timestamp": 1540216786000,
      "feedName": "Armstrong Elementary School",
      "category": "Armstrong Elementary School",
      "feedSource": "http://www.fcps.edu/index.shtml",
      "feedInfo": {
        "title": "Armstrong Elementary School News and announcements - Recent Updates",
        "description": "Armstrong Elementary School News and announcements",
        "link": "http://www.fcps.edu/index.shtml"
      }
    },
    {
      "id": "MzQ3Mzk2NDQ=",
      "title": "Marshall Academy College and Career Development Program",
      "link": "https://content.govdelivery.com/accounts/VAEDUFCPS/bulletins/21215bc",
      "description": "\n        \n\n\n  \n\n\n\n\n\n\n\n<p><a></a>Having trouble viewing this email? <a href=\"https://content.govdelivery.com/accounts/VAEDUFCPS/bulletins/21215bc\">View it as a Web page</a>.</p>\n\n\n\n\n\n\n\n\n\n\n\n<a href=\"https://marshallacademy.fcps.edu/?utm_content=&amp;utm_medium=email&amp;utm_name=&amp;utm_source=govdel...",
      "pubDate": "Thu, 04 Oct 2018 13:53:54 -0500",
      "timestamp": 1538679234000,
      "feedName": "Marshall Academy",
      "category": "Marshall Academy",
      "feedSource": "http://www.fcps.edu/index.shtml",
      "feedInfo": {
        "title": "Marshall Academy News and Announcements - Recent Updates",
        "description": "Marshall Academy News and Announcements - Recent Updates",
        "link": "http://www.fcps.edu/index.shtml"
      }
    },
    {
      "id": "MzQ3MjAxMTA=",
      "title": "Special Education Update",
      "link": "https://content.govdelivery.com/accounts/VAEDUFCPS/bulletins/211c96e",
      "description": "\n        \n\n\n  \n\n\n\n\n\n\n\n<p><a></a>Having trouble viewing this email? <a href=\"https://content.govdelivery.com/accounts/VAEDUFCPS/bulletins/211c96e\">View it as a Web page</a>.</p>\n\n\n\n\n\n\n\n\n\n\n\n<a href=\"https://www.fcps.edu/academics/academic-overview/special-education-instruction?utm_content=&amp;utm_med...",
      "pubDate": "Wed, 03 Oct 2018 12:59:39 -0500",
      "timestamp": 1538589579000,
      "feedName": "FCPS Special Education Update",
      "category": "FCPS Special Education Update",
      "feedSource": "https://www.fcps.edu/",
      "feedInfo": {
        "title": "Special Education and 504 Newsletter - Recent Updates",
        "description": "Special Education and 504 Newsletter - Recent Updates",
        "link": "https://www.fcps.edu/"
      }
    },
    {
      "id": "MzQ1MTczOTQ=",
      "title": "FCPS Wellness Newsletter",
      "link": "https://content.govdelivery.com/accounts/VAEDUFCPS/bulletins/20eb192",
      "description": "\n        \n\n\n  \n\n\n\n\n\n\n\n\n\n\n\n\n\n\n\n\n\n\n\n\n\n\n\n\n\n\n\n\n\n\n\n\n\n\n\n<p><strong>Fall 2018</strong></p>\nFCPS WELLNESS NEWSLETTER\n<p>\n\n</p>\nSchool Wellness Teams\n<p>\n\n</p>\n<p>\n\n</p>\n<p>In compliance with requirements of the Healthy, Hunger-Free\nKids Act of 2010 (HHFKA), the Fairfax County School Board has established a\n...",
      "pubDate": "Mon, 24 Sep 2018 08:45:16 -0500",
      "timestamp": 1537796716000,
      "feedName": "FCPS Wellness Newsletter",
      "category": "FCPS Wellness Newsletter",
      "feedSource": "http://www.fcps.edu/",
      "feedInfo": {
        "title": "FCPS Wellness - Recent Updates",
        "description": "FCPS Wellness - Recent Updates",
        "link": "http://www.fcps.edu/"
      }
    },
    {
      "id": "MzQ0MjcyNjc=",
      "title": "FCPS 3-hour Early Release on 9/19/18",
      "link": "https://content.govdelivery.com/accounts/VAEDUFCPS/bulletins/20d5183",
      "description": "\n        \n\n\n  \n\n\n\n\n\n\n\n<p><a></a>Having trouble viewing this email? <a href=\"https://content.govdelivery.com/accounts/VAEDUFCPS/bulletins/20d5183\">View it as a Web page</a>.</p>\n\n\n\n\n\n\n\n\n\n\n\n<a href=\"https://marshallacademy.fcps.edu/?utm_content=&amp;utm_medium=email&amp;utm_name=&amp;utm_source=govdel...",
      "pubDate": "Fri, 14 Sep 2018 12:30:19 -0500",
      "timestamp": 1536946219000,
      "feedName": "Marshall Academy",
      "category": "Marshall Academy",
      "feedSource": "http://www.fcps.edu/index.shtml",
      "feedInfo": {
        "title": "Marshall Academy News and Announcements - Recent Updates",
        "description": "Marshall Academy News and Announcements - Recent Updates",
        "link": "http://www.fcps.edu/index.shtml"
      }
    },
    {
      "id": "MzQzNjg3MTk=",
      "title": "Marshall Academy Back-to-School Night",
      "link": "https://content.govdelivery.com/accounts/VAEDUFCPS/bulletins/20c6ccf",
      "description": "\n        \n\n\n  \n\n\n\n\n\n\n\n<p><a></a>Having trouble viewing this email? <a href=\"https://content.govdelivery.com/accounts/VAEDUFCPS/bulletins/20c6ccf\">View it as a Web page</a>.</p>\n\n\n\n\n\n\n\n\n\n\n\n<a href=\"https://marshallacademy.fcps.edu/?utm_content=&amp;utm_medium=email&amp;utm_name=&amp;utm_source=govdel...",
      "pubDate": "Tue, 11 Sep 2018 09:00:22 -0500",
      "timestamp": 1536674422000,
      "feedName": "Marshall Academy",
      "category": "Marshall Academy",
      "feedSource": "http://www.fcps.edu/index.shtml",
      "feedInfo": {
        "title": "Marshall Academy News and Announcements - Recent Updates",
        "description": "Marshall Academy News and Announcements - Recent Updates",
        "link": "http://www.fcps.edu/index.shtml"
      }
    },
    {
      "id": "MzQxNjE5ODA=",
      "title": "Special Education Update",
      "link": "https://content.govdelivery.com/accounts/VAEDUFCPS/bulletins/209453c",
      "description": "\n        <a></a>\n\n\n  \n\n\n\n\n\n\n\n<p><a></a>Having trouble viewing this email? <a href=\"https://content.govdelivery.com/accounts/VAEDUFCPS/bulletins/209453c\">View it as a Web page</a>.</p>\n\n\n\n\n\n\n\n\n\n\n\n<a href=\"https://www.fcps.edu/academics/academic-overview/special-education-instruction?utm_content=&amp;...",
      "pubDate": "Wed, 29 Aug 2018 13:10:16 -0500",
      "timestamp": 1535566216000,
      "feedName": "FCPS Special Education Update",
      "category": "FCPS Special Education Update",
      "feedSource": "https://www.fcps.edu/",
      "feedInfo": {
        "title": "Special Education and 504 Newsletter - Recent Updates",
        "description": "Special Education and 504 Newsletter - Recent Updates",
        "link": "https://www.fcps.edu/"
      }
    },
    {
      "id": "MzM5NDM3ODU=",
      "title": "Teacher/Staff Appreciation Lunch",
      "link": "https://content.govdelivery.com/accounts/VAEDUFCPS/bulletins/205f0e9",
      "description": "\n        <a></a>\n\n\n  \n\n\n\n\n\n\n\n<p><a></a>Having trouble viewing this email? <a href=\"https://content.govdelivery.com/accounts/VAEDUFCPS/bulletins/205f0e9\">View it as a Web page</a>.</p>\n\n\n\n\n\n\n\n\n\n\n\n<a href=\"https://armstronges.fcps.edu/?utm_content=&amp;utm_medium=email&amp;utm_name=&amp;utm_source=gov...",
      "pubDate": "Tue, 14 Aug 2018 14:17:03 -0500",
      "timestamp": 1534274223000,
      "feedName": "Armstrong Elementary School",
      "category": "Armstrong Elementary School",
      "feedSource": "http://www.fcps.edu/index.shtml",
      "feedInfo": {
        "title": "Armstrong Elementary School News and announcements - Recent Updates",
        "description": "Armstrong Elementary School News and announcements",
        "link": "http://www.fcps.edu/index.shtml"
      }
    },
    {
      "id": "MzMwODA1ODQ=",
      "title": "Fairfax County Housing Waitlist Opening",
      "link": "https://content.govdelivery.com/accounts/VAEDUFCPS/bulletins/1f8c508",
      "description": "\n        <a></a>\n\n\n  \n\n\n\n\n\n\n\n<p><a></a>Having trouble viewing this email? <a href=\"https://content.govdelivery.com/accounts/VAEDUFCPS/bulletins/1f8c508\">View it as a Web page</a>.</p>\n\n\n\n\n\n\n\n\n\n\n\n<a href=\"http://www2.fcps.edu/HutchisonES/?utm_content=&amp;utm_medium=email&amp;utm_name=&amp;utm_source...",
      "pubDate": "Wed, 20 Jun 2018 17:00:12 -0500",
      "timestamp": 1529532012000,
      "feedName": "Hutchison Elementary School",
      "category": "Hutchison Elementary School",
      "feedSource": "http://www.fcps.edu/index.shtml",
      "feedInfo": {
        "title": "Hutchison Elementary School News and announcements - Recent Updates",
        "description": "Hutchison Elementary School News and announcements",
        "link": "http://www.fcps.edu/index.shtml"
      }
    },
    {
      "id": "MzI4NjI5NzY=",
      "title": "Summer Reading--with link",
      "link": "https://content.govdelivery.com/accounts/VAEDUFCPS/bulletins/1f57300",
      "description": "\n        <a></a>\n\n\n  \n\n\n\n\n\n\n\n<p><a></a>Having trouble viewing this email? <a href=\"https://content.govdelivery.com/accounts/VAEDUFCPS/bulletins/1f57300\">View it as a Web page</a>.</p>\n\n\n\n\n\n\n\n\n\n\n\n<a href=\"http://www2.fcps.edu/HutchisonES/?utm_content=&amp;utm_medium=email&amp;utm_name=&amp;utm_source...",
      "pubDate": "Wed, 06 Jun 2018 16:32:06 -0500",
      "timestamp": 1528320726000,
      "feedName": "Hutchison Elementary School",
      "category": "Hutchison Elementary School",
      "feedSource": "http://www.fcps.edu/index.shtml",
      "feedInfo": {
        "title": "Hutchison Elementary School News and announcements - Recent Updates",
        "description": "Hutchison Elementary School News and announcements",
        "link": "http://www.fcps.edu/index.shtml"
      }
    },
    {
      "id": "MzI4NDYzNzQ=",
      "title": "Summer Reading",
      "link": "https://content.govdelivery.com/accounts/VAEDUFCPS/bulletins/1f53226",
      "description": "\n        <a></a>\n\n\n  \n\n\n\n\n\n\n\n<p><a></a>Having trouble viewing this email? <a href=\"https://content.govdelivery.com/accounts/VAEDUFCPS/bulletins/1f53226\">View it as a Web page</a>.</p>\n\n\n\n\n\n\n\n\n\n\n\n<a href=\"http://www2.fcps.edu/HutchisonES/?utm_content=&amp;utm_medium=email&amp;utm_name=&amp;utm_source...",
      "pubDate": "Wed, 06 Jun 2018 11:30:12 -0500",
      "timestamp": 1528302612000,
      "feedName": "Hutchison Elementary School",
      "category": "Hutchison Elementary School",
      "feedSource": "http://www.fcps.edu/index.shtml",
      "feedInfo": {
        "title": "Hutchison Elementary School News and announcements - Recent Updates",
        "description": "Hutchison Elementary School News and announcements",
        "link": "http://www.fcps.edu/index.shtml"
      }
    },
    {
      "id": "MzI2NzgyNDI=",
      "title": "FCPS Wellness Newsletter - Summer 2018",
      "link": "https://content.govdelivery.com/accounts/VAEDUFCPS/bulletins/1f2a162",
      "description": "\n        <a></a>\n\n\n  \n\n\n\n\n\n\n\n\n\n\n\n\n\n\n\n\n\n\n\n\n\n\n\n\n\n\n\n\n\n\n\n\n\n\n\n<p>Summer 2018</p>\nFCPS Wellness Newsletter\n\nSchool's Out!\n<p>\n\n</p>\n<p>It’s hard to believe that the school year is almost over.\nBefore you take a break for summer, be sure to take time to evaluate the\neffectiveness of your wellness program a...",
      "pubDate": "Tue, 05 Jun 2018 10:26:46 -0500",
      "timestamp": 1528212406000,
      "feedName": "FCPS Wellness Newsletter",
      "category": "FCPS Wellness Newsletter",
      "feedSource": "http://www.fcps.edu/",
      "feedInfo": {
        "title": "FCPS Wellness - Recent Updates",
        "description": "FCPS Wellness - Recent Updates",
        "link": "http://www.fcps.edu/"
      }
    },
    {
      "id": "MzI4MjA0NDU=",
      "title": "Parent Volunteers:  Field Day and Kickball Tournament",
      "link": "https://content.govdelivery.com/accounts/VAEDUFCPS/bulletins/1f4ccdd",
      "description": "\n        <a></a>\n\n\n  \n\n\n\n\n\n\n\n<p><a></a>Having trouble viewing this email? <a href=\"https://content.govdelivery.com/accounts/VAEDUFCPS/bulletins/1f4ccdd\">View it as a Web page</a>.</p>\n\n\n\n\n\n\n\n\n\n\n\n<a href=\"http://www2.fcps.edu/HutchisonES/?utm_content=&amp;utm_medium=email&amp;utm_name=&amp;utm_source...",
      "pubDate": "Mon, 04 Jun 2018 13:00:14 -0500",
      "timestamp": 1528135214000,
      "feedName": "Hutchison Elementary School",
      "category": "Hutchison Elementary School",
      "feedSource": "http://www.fcps.edu/index.shtml",
      "feedInfo": {
        "title": "Hutchison Elementary School News and announcements - Recent Updates",
        "description": "Hutchison Elementary School News and announcements",
        "link": "http://www.fcps.edu/index.shtml"
      }
    }
  ],
  "hasNext": true,
  "hasPrev": true
}