{
  "page": 244,
  "totalPages": 268,
  "totalItems": 5354,
  "itemsPerPage": 20,
  "items": [
    {
      "id": "NjE1NzExNzA=",
      "title": "Wow! That was fast. Welcome to August. The school year is right around the corner",
      "link": "https://content.govdelivery.com/accounts/VAEDUFCPS/bulletins/3ab8062",
      "description": "\n        \n\n\n  \n\n\n\n\n\n\n\n<p><a></a>Having trouble viewing this email? <a href=\"https://content.govdelivery.com/accounts/VAEDUFCPS/bulletins/3ab8062\">View it as a Web page</a>.</p>\n\n\n\n\n\n\n\n\n\n\n\n<a href=\"https://www.fcps.edu/staff/ilryong-moon?utm_campaign+=&amp;utm_medium=email&amp;utm_source=govdelivery\"...",
      "pubDate": "Thu, 01 Aug 2024 18:00:28 -0500",
      "timestamp": 1722553228000,
      "feedName": "FCPS School Board Member at Large (Ilryong Moon)",
      "category": "FCPS School Board Member at Large (Ilryong Moon)",
      "feedSource": "http://www.fcps.edu/",
      "feedInfo": {
        "title": "At-Large Member - Ilryong Moon - Recent Updates",
        "description": "At-Large Member - Ilryong Moon - Recent Updates",
        "link": "http://www.fcps.edu/"
      }
    },
    {
      "id": "NjE2MTcyODA=",
      "title": "Location Update for Popsicles with Principal Today",
      "link": "https://content.govdelivery.com/accounts/VAEDUFCPS/bulletins/3ac3480",
      "description": "\n        <p>Dear Forestdale Families,</p>\n<p>We look forward to seeing you this evening for Popsicles with the Principal! <b>Due to the heat advisory, the meet and greet with Mrs. Steptoe-Coleman will be in Forestdale's Cafeteria. </b></p>\n<p> </p>\n<p>                                    </p>\n<p><str...",
      "pubDate": "Thu, 01 Aug 2024 11:47:40 -0500",
      "timestamp": 1722530860000,
      "feedName": "Forestdale Elementary School",
      "category": "Forestdale Elementary School",
      "feedSource": "http://www.fcps.edu/index.shtml",
      "feedInfo": {
        "title": "Forestdale Elementary School News and announcements - Recent Updates",
        "description": "Forestdale Elementary School News and announcements",
        "link": "http://www.fcps.edu/index.shtml"
      }
    },
    {
      "id": "NjE1NzU4NTM=",
      "title": "Gym Closed – Fall Sport Try-outs Updated",
      "link": "https://content.govdelivery.com/accounts/VAEDUFCPS/bulletins/3ab92ad",
      "description": "\n        \n\n\n  \n\n\n\n\n\n\n\n<p><a></a>Having trouble viewing this email? <a href=\"https://content.govdelivery.com/accounts/VAEDUFCPS/bulletins/3ab92ad\">View it as a Web page</a>.</p>\n\n\n\n\n\n\n\n\n\n\n\n<a href=\"https://hayfieldss.fcps.edu/?utm_campaign+=&amp;utm_medium=email&amp;utm_source=govdelivery\" target=\"_b...",
      "pubDate": "Mon, 29 Jul 2024 17:57:56 -0500",
      "timestamp": 1722293876000,
      "feedName": "Hayfield Secondary School",
      "category": "Hayfield Secondary School",
      "feedSource": "http://www.fcps.edu/index.shtml",
      "feedInfo": {
        "title": "Hayfield Secondary School News and Announcements - Recent Updates",
        "description": "Hayfield Secondary School News and announcements",
        "link": "http://www.fcps.edu/index.shtml"
      }
    },
    {
      "id": "NjE0MDQzNTc=",
      "title": "Blue Star Families Back-to-School Military Fair",
      "link": "https://content.govdelivery.com/accounts/VAEDUFCPS/bulletins/3a8f4c5",
      "description": "\n        \n\n\n  \n\n\n\n\n\n\n\n<p><a></a>Having trouble viewing this email? <a href=\"https://content.govdelivery.com/accounts/VAEDUFCPS/bulletins/3a8f4c5\">View it as a Web page</a>.</p>\n\n\n\n\n\n\n\n\n\n\n\n<a href=\"https://www.fcps.edu/resources/family-engagement/family-engagement-resources?utm_campaign+=&amp;utm_med...",
      "pubDate": "Mon, 29 Jul 2024 09:15:11 -0500",
      "timestamp": 1722262511000,
      "feedName": "FCPS Military Families",
      "category": "FCPS Military Families",
      "feedSource": "https://www.fcps.edu/",
      "feedInfo": {
        "title": "Military Families - Recent Updates",
        "description": "Military Families - Recent Updates",
        "link": "https://www.fcps.edu/"
      }
    },
    {
      "id": "NjE0NzcxNjI=",
      "title": "Summer Hawktivities Update Part 4",
      "link": "https://content.govdelivery.com/accounts/VAEDUFCPS/bulletins/3aa112a",
      "description": "\n        \n\n\n  \n\n\n\n\n\n\n\n\n\n\n\n\n\n\n\n\n\n\n\n<a href=\"https://hayfieldss.fcps.edu/?utm_campaign+=&amp;utm_medium=email&amp;utm_source=govdelivery\" target=\"_blank\"></a>\n\n\n\n\n\n\n\n\n\n\n\n\n\n\n\nStudent Activities Update\n\n<p>Please see all the information below from the Hayfield Student Activities office. </p>\n<p>If you w...",
      "pubDate": "Sun, 28 Jul 2024 16:00:20 -0500",
      "timestamp": 1722200420000,
      "feedName": "Hayfield Secondary School",
      "category": "Hayfield Secondary School",
      "feedSource": "http://www.fcps.edu/index.shtml",
      "feedInfo": {
        "title": "Hayfield Secondary School News and Announcements - Recent Updates",
        "description": "Hayfield Secondary School News and announcements",
        "link": "http://www.fcps.edu/index.shtml"
      }
    },
    {
      "id": "NjE0NzI4OTU=",
      "title": "News and Announcements July 25th Edition",
      "link": "https://content.govdelivery.com/accounts/VAEDUFCPS/bulletins/3aa007f",
      "description": "\n        \n\n\n  \n\n\n\n\n\n\n\n\n<a href=\"https://mountvernonhs.fcps.edu/aggregator/sources/2?utm_campaign+=&amp;utm_medium=email&amp;utm_source=govdelivery\" target=\"_blank\">https://mountvernonhs.fcps.edu/aggregator/sources/2</a>\nHaga clic aquí para traducir este mensaje.\n\n\n\n\n\n\n\n\n\n\n\n<a href=\"https://mountvern...",
      "pubDate": "Fri, 26 Jul 2024 16:00:37 -0500",
      "timestamp": 1722027637000,
      "feedName": "Mount Vernon High School",
      "category": "Mount Vernon High School",
      "feedSource": "http://www.fcps.edu/index.shtml",
      "feedInfo": {
        "title": "Mount Vernon High School News and announcements - Recent Updates",
        "description": "Mount Vernon High School News and announcements",
        "link": "http://www.fcps.edu/index.shtml"
      }
    },
    {
      "id": "NjE1MTM1MTc=",
      "title": "Bookmobile &amp; Principal Meet &amp; Greet",
      "link": "https://content.govdelivery.com/accounts/VAEDUFCPS/bulletins/3aa9f2d",
      "description": "\n        <p>Dear Forestdale Families,</p>\n<p>We're thrilled to share some fun activities for you to enjoy this summer!</p>\n<p><strong>    </strong></p>\n<p><strong>Bookmobile</strong><strong>:</strong> Mark your calendars for Thursday, July 25th, when the Bookmobile will be making stops in your neigh...",
      "pubDate": "Wed, 24 Jul 2024 16:27:02 -0500",
      "timestamp": 1721856422000,
      "feedName": "Forestdale Elementary School",
      "category": "Forestdale Elementary School",
      "feedSource": "http://www.fcps.edu/index.shtml",
      "feedInfo": {
        "title": "Forestdale Elementary School News and announcements - Recent Updates",
        "description": "Forestdale Elementary School News and announcements",
        "link": "http://www.fcps.edu/index.shtml"
      }
    },
    {
      "id": "NjE0MDY5MDA=",
      "title": "Summer Hawktivities Update Part 3",
      "link": "https://content.govdelivery.com/accounts/VAEDUFCPS/bulletins/3a8feb4",
      "description": "\n        \n\n\n  \n\n\n\n\n\n\n\n\n\n\n\n\n\n\n\n\n\n\n\n<a href=\"https://hayfieldss.fcps.edu/?utm_campaign+=&amp;utm_medium=email&amp;utm_source=govdelivery\" target=\"_blank\"></a>\n\n\n\n\n\n\n\n\n\n\n\n\n\n\n\nStudent Activities Update\n\n<p>Please see all the information below from the Hayfield Student Activities office. </p>\n<p>If you w...",
      "pubDate": "Fri, 19 Jul 2024 16:00:35 -0500",
      "timestamp": 1721422835000,
      "feedName": "Hayfield Secondary School",
      "category": "Hayfield Secondary School",
      "feedSource": "http://www.fcps.edu/index.shtml",
      "feedInfo": {
        "title": "Hayfield Secondary School News and Announcements - Recent Updates",
        "description": "Hayfield Secondary School News and announcements",
        "link": "http://www.fcps.edu/index.shtml"
      }
    },
    {
      "id": "NjE0NDc1MDY=",
      "title": "Popsicles with the Principal",
      "link": "https://content.govdelivery.com/accounts/VAEDUFCPS/bulletins/3a99d52",
      "description": "\n        \n\n\n  \n\n\n\n\n\n\n\n<p><a></a>Having trouble viewing this email? <a href=\"https://content.govdelivery.com/accounts/VAEDUFCPS/bulletins/3a99d52\">View it as a Web page</a>.</p>\n\n\n\n\n\n\n\n\n\n\n\n<a href=\"https://waynewoodes.fcps.edu/?utm_campaign+=&amp;utm_medium=email&amp;utm_source=govdelivery\" target=\"_...",
      "pubDate": "Fri, 19 Jul 2024 09:57:23 -0500",
      "timestamp": 1721401043000,
      "feedName": "Waynewood Elementary School",
      "category": "Waynewood Elementary School",
      "feedSource": "http://www.fcps.edu/index.shtml",
      "feedInfo": {
        "title": "Waynewood Elementary School News and announcements - Recent Updates",
        "description": "Waynewood Elementary School News and announcements",
        "link": "http://www.fcps.edu/index.shtml"
      }
    },
    {
      "id": "NjEyODk1ODY=",
      "title": "July Newsletter",
      "link": "https://content.govdelivery.com/accounts/VAEDUFCPS/bulletins/3a73472",
      "description": "\n        \n\n\n  \n\n\n\n\n\n\n\n<p><a></a>Having trouble viewing this email? <a href=\"https://content.govdelivery.com/accounts/VAEDUFCPS/bulletins/3a73472\">View it as a Web page</a>.</p>\n\n\n\n\n\n\n\n\n\n\n\n<a href=\"https://www.fcps.edu/staff/marcia-st-john-cunning?utm_campaign+=&amp;utm_medium=email&amp;utm_source=go...",
      "pubDate": "Mon, 15 Jul 2024 15:09:26 -0500",
      "timestamp": 1721074166000,
      "feedName": "FCPS School Board Franconia District",
      "category": "FCPS School Board Franconia District",
      "feedSource": "http://www.fcps.edu/index.shtml",
      "feedInfo": {
        "title": "Franconia District Member - Marcia St. John-Cunning - Recent Updates",
        "description": "Franconia District Member - Marcia St. John-Cunning - Recent Updates",
        "link": "http://www.fcps.edu/index.shtml"
      }
    },
    {
      "id": "NjEzMzk2MjE=",
      "title": "Summer Hawktivities Update Part 2",
      "link": "https://content.govdelivery.com/accounts/VAEDUFCPS/bulletins/3a7f7e5",
      "description": "\n        \n\n\n  \n\n\n\n\n\n\n\n\n\n\n\n\n\n\n\n\n\n\n\n<a href=\"https://hayfieldss.fcps.edu/?utm_campaign+=&amp;utm_medium=email&amp;utm_source=govdelivery\" target=\"_blank\"></a>\n\n\n\n\n\n\n\n\n\n\n\n\n\n\n\nStudent Activities Update\n\n<p>Please see all the information below from the Hayfield Student Activities office. </p>\n<p>If you w...",
      "pubDate": "Mon, 15 Jul 2024 13:23:14 -0500",
      "timestamp": 1721067794000,
      "feedName": "Hayfield Secondary School",
      "category": "Hayfield Secondary School",
      "feedSource": "http://www.fcps.edu/index.shtml",
      "feedInfo": {
        "title": "Hayfield Secondary School News and Announcements - Recent Updates",
        "description": "Hayfield Secondary School News and announcements",
        "link": "http://www.fcps.edu/index.shtml"
      }
    },
    {
      "id": "NjEyMjQ1NzM=",
      "title": "Congratulations Graduates! Celebrating Your Achievements &amp; Continuing Our Commitment to Mental Health",
      "link": "https://content.govdelivery.com/accounts/VAEDUFCPS/bulletins/3a6367d",
      "description": "\n        \n\n\n  \n\n\n\n\n\n\n\n<p><a></a>Having trouble viewing this email? <a href=\"https://content.govdelivery.com/accounts/VAEDUFCPS/bulletins/3a6367d\">View it as a Web page</a>.</p>\n\n\n\n\n\n\n\n\n\n\n\n<a href=\"https://www.fcps.edu/staff/ilryong-moon?utm_campaign+=&amp;utm_medium=email&amp;utm_source=govdelivery\"...",
      "pubDate": "Tue, 02 Jul 2024 14:00:33 -0500",
      "timestamp": 1719946833000,
      "feedName": "FCPS School Board Member at Large (Ilryong Moon)",
      "category": "FCPS School Board Member at Large (Ilryong Moon)",
      "feedSource": "http://www.fcps.edu/",
      "feedInfo": {
        "title": "At-Large Member - Ilryong Moon - Recent Updates",
        "description": "At-Large Member - Ilryong Moon - Recent Updates",
        "link": "http://www.fcps.edu/"
      }
    },
    {
      "id": "NjExOTk4ODI=",
      "title": "Congratulations Graduates! Celebrating Your Achievements &amp; Continuing Our Commitment to Mental Health",
      "link": "https://content.govdelivery.com/accounts/VAEDUFCPS/bulletins/3a5d60a",
      "description": "\n        \n\n\n  \n\n\n\n\n\n\n\n<p><a></a>Having trouble viewing this email? <a href=\"https://content.govdelivery.com/accounts/VAEDUFCPS/bulletins/3a5d60a\">View it as a Web page</a>.</p>\n\n\n\n\n\n\n\n\n\n\n\n<a href=\"https://www.fcps.edu/staff/ilryong-moon?utm_campaign+=&amp;utm_medium=email&amp;utm_source=govdelivery\"...",
      "pubDate": "Mon, 01 Jul 2024 18:00:24 -0500",
      "timestamp": 1719874824000,
      "feedName": "FCPS School Board Member at Large (Ilryong Moon)",
      "category": "FCPS School Board Member at Large (Ilryong Moon)",
      "feedSource": "http://www.fcps.edu/",
      "feedInfo": {
        "title": "At-Large Member - Ilryong Moon - Recent Updates",
        "description": "At-Large Member - Ilryong Moon - Recent Updates",
        "link": "http://www.fcps.edu/"
      }
    },
    {
      "id": "NjExODQzNDM=",
      "title": "Community Conversation About Elementary School Early Release Mondays",
      "link": "https://content.govdelivery.com/accounts/VAEDUFCPS/bulletins/3a59957",
      "description": "\n        \n\n\n  \n\n\n\n\n\n\n\n<p><a></a>Having trouble viewing this email? <a href=\"https://content.govdelivery.com/accounts/VAEDUFCPS/bulletins/3a59957\">View it as a Web page</a>.</p>\n\n\n\n\n\n\n\n\n\n\n\n<a href=\"https://www.fcps.edu/staff/marcia-st-john-cunning?utm_campaign+=&amp;utm_medium=email&amp;utm_source=go...",
      "pubDate": "Fri, 28 Jun 2024 16:32:58 -0500",
      "timestamp": 1719610378000,
      "feedName": "FCPS School Board Franconia District",
      "category": "FCPS School Board Franconia District",
      "feedSource": "http://www.fcps.edu/index.shtml",
      "feedInfo": {
        "title": "Franconia District Member - Marcia St. John-Cunning - Recent Updates",
        "description": "Franconia District Member - Marcia St. John-Cunning - Recent Updates",
        "link": "http://www.fcps.edu/index.shtml"
      }
    },
    {
      "id": "NjExNzY3ODA=",
      "title": "June 2024- Boundary Policy 8130 Work Update",
      "link": "https://content.govdelivery.com/accounts/VAEDUFCPS/bulletins/3a57bcc",
      "description": "\n        \n\n\n  \n\n\n\n\n\n\n\n<p><a></a>Having trouble viewing this email? <a href=\"https://content.govdelivery.com/accounts/VAEDUFCPS/bulletins/3a57bcc\">View it as a Web page</a>.</p>\n\n\n\n\n\n\n\n\n\n\n\n<a href=\"https://www.fcps.edu/staff/robyn-lady?utm_campaign+=&amp;utm_medium=email&amp;utm_source=govdelivery\" t...",
      "pubDate": "Fri, 28 Jun 2024 15:30:16 -0500",
      "timestamp": 1719606616000,
      "feedName": "FCPS School Board Dranesville District",
      "category": "FCPS School Board Dranesville District",
      "feedSource": "http://www.fcps.edu/index.shtml",
      "feedInfo": {
        "title": "Dranesville District Member - Robyn Lady - Recent Updates",
        "description": "Dranesville District Member - Robyn Lady - Recent Updates",
        "link": "http://www.fcps.edu/index.shtml"
      }
    },
    {
      "id": "NjA5OTcwMDU=",
      "title": "Early Release Mondays, Boundary Policy, Mason Graduations &amp; Highlights",
      "link": "https://content.govdelivery.com/accounts/VAEDUFCPS/bulletins/3a2bd8d",
      "description": "\n        \n\n\n  \n\n\n\n\n\n\n\n<p><a></a>Having trouble viewing this email? <a href=\"https://content.govdelivery.com/accounts/VAEDUFCPS/bulletins/3a2bd8d\">View it as a Web page</a>.</p>\n\n\n\n\n\n\n\n\n\n\n\n<a href=\"https://www.fcps.edu/staff/ricardy-anderson?utm_campaign+=&amp;utm_medium=email&amp;utm_source=govdeliv...",
      "pubDate": "Fri, 21 Jun 2024 08:29:45 -0500",
      "timestamp": 1718976585000,
      "feedName": "School Board Mason District",
      "category": "School Board Mason District",
      "feedSource": "http://www.fcps.edu/index.shtml",
      "feedInfo": {
        "title": "Mason District Member - Ricardy Anderson - Recent Updates",
        "description": "Mason District Member - Ricardy Anderson - Recent Updates",
        "link": "http://www.fcps.edu/index.shtml"
      }
    },
    {
      "id": "NjEwNzQyNjQ=",
      "title": "June 2024- Two Important Updates",
      "link": "https://content.govdelivery.com/accounts/VAEDUFCPS/bulletins/3a3eb58",
      "description": "\n        \n\n\n  \n\n\n\n\n\n\n\n<p><a></a>Having trouble viewing this email? <a href=\"https://content.govdelivery.com/accounts/VAEDUFCPS/bulletins/3a3eb58\">View it as a Web page</a>.</p>\n\n\n\n\n\n\n\n\n\n\n\n<a href=\"https://www.fcps.edu/staff/robyn-lady?utm_campaign+=&amp;utm_medium=email&amp;utm_source=govdelivery\" t...",
      "pubDate": "Thu, 20 Jun 2024 16:57:16 -0500",
      "timestamp": 1718920636000,
      "feedName": "FCPS School Board Dranesville District",
      "category": "FCPS School Board Dranesville District",
      "feedSource": "http://www.fcps.edu/index.shtml",
      "feedInfo": {
        "title": "Dranesville District Member - Robyn Lady - Recent Updates",
        "description": "Dranesville District Member - Robyn Lady - Recent Updates",
        "link": "http://www.fcps.edu/index.shtml"
      }
    },
    {
      "id": "NjA4OTE0NDM=",
      "title": "Closing the school year, graduation and year-end celebrations, stay in touch!",
      "link": "https://content.govdelivery.com/accounts/VAEDUFCPS/bulletins/3a12133",
      "description": "\n        \n\n\n  \n\n\n\n\n\n\n\n<p><a></a>Having trouble viewing this email? <a href=\"https://content.govdelivery.com/accounts/VAEDUFCPS/bulletins/3a12133\">View it as a Web page</a>.</p>\n\n\n\n\n\n\n\n\n\n\n\n<a href=\"https://www.fcps.edu/staff/melanie-k-meren?utm_campaign+=&amp;utm_medium=email&amp;utm_source=govdelive...",
      "pubDate": "Tue, 18 Jun 2024 10:01:53 -0500",
      "timestamp": 1718722913000,
      "feedName": "FCPS School Board Hunter District",
      "category": "FCPS School Board Hunter District",
      "feedSource": "http://www.fcps.edu/index.shtml",
      "feedInfo": {
        "title": "Hunter Mill District Member - Melanie Meren - Recent Updates",
        "description": "Hunter Mill District Member - Melanie Meren - Recent Updates",
        "link": "http://www.fcps.edu/index.shtml"
      }
    },
    {
      "id": "NjA3OTgxNzI=",
      "title": "Juneteenth - June 19, 2024",
      "link": "https://content.govdelivery.com/accounts/VAEDUFCPS/bulletins/39fb4dc",
      "description": "\n        \n\n\n  \n\n\n\n\n\n\n\n<p><a></a>Having trouble viewing this email? <a href=\"https://content.govdelivery.com/accounts/VAEDUFCPS/bulletins/39fb4dc\">View it as a Web page</a>.</p>\n\n\n\n\n\n\n\n\n\n\n\n<a href=\"https://www.fcps.edu/resources/family-engagement/family-engagement-resources?utm_campaign+=&amp;utm_med...",
      "pubDate": "Tue, 18 Jun 2024 08:00:25 -0500",
      "timestamp": 1718715625000,
      "feedName": "FCPS Tuesday Tips",
      "category": "FCPS Tuesday Tips",
      "feedSource": "http://www.fcps.edu/index.shtml",
      "feedInfo": {
        "title": "Family and School Partnerships - Recent Updates",
        "description": "Family and School Partnerships - Recent Updates",
        "link": "http://www.fcps.edu/index.shtml"
      }
    },
    {
      "id": "NjA5ODIyNzA=",
      "title": "Summer Hawktivities Update",
      "link": "https://content.govdelivery.com/accounts/VAEDUFCPS/bulletins/3a283fe",
      "description": "\n        \n\n\n  \n\n\n\n\n\n\n\n\n\n\n\n\n\n\n\n\n\n\n\n<a href=\"https://hayfieldss.fcps.edu/?utm_campaign+=&amp;utm_medium=email&amp;utm_source=govdelivery\" target=\"_blank\"></a>\n\n\n\n\n\n\n\n\n\n\n\n\n\n\n\nStudent Activities Update\n\n<p>Please see all the information below from the Hayfield Student Activities office. </p>\n<p>If you w...",
      "pubDate": "Sun, 16 Jun 2024 16:00:22 -0500",
      "timestamp": 1718571622000,
      "feedName": "Hayfield Secondary School",
      "category": "Hayfield Secondary School",
      "feedSource": "http://www.fcps.edu/index.shtml",
      "feedInfo": {
        "title": "Hayfield Secondary School News and Announcements - Recent Updates",
        "description": "Hayfield Secondary School News and announcements",
        "link": "http://www.fcps.edu/index.shtml"
      }
    }
  ],
  "hasNext": true,
  "hasPrev": true
}