{
  "page": 249,
  "totalPages": 268,
  "totalItems": 5354,
  "itemsPerPage": 20,
  "items": [
    {
      "id": "NTk3MjU2MTk=",
      "title": "FCPS Wellness Newsletter Spring 2024",
      "link": "https://content.govdelivery.com/accounts/VAEDUFCPS/bulletins/38f5733",
      "description": "\n        \n\n\n  \n\n\n\n\n\n\n\n<p>Having trouble viewing this email? <a href=\"https://content.govdelivery.com/accounts/VAEDUFCPS/bulletins/38f5733\">View it as a Web page</a>.</p>\n\n\n\n\n\n\n\n\n\n\n\n\n\n\n\n\n\n\n\n\n\n\n\n\n\n\n\n<p><strong>Spring 2024</strong></p>\n<p> </p>\nFCPS Wellness Newsletter\n\n<strong>Immunization Update Plan...",
      "pubDate": "Thu, 14 Mar 2024 08:30:11 -0500",
      "timestamp": 1710423011000,
      "feedName": "FCPS Wellness Newsletter",
      "category": "FCPS Wellness Newsletter",
      "feedSource": "http://www.fcps.edu/",
      "feedInfo": {
        "title": "FCPS Wellness - Recent Updates",
        "description": "FCPS Wellness - Recent Updates",
        "link": "http://www.fcps.edu/"
      }
    },
    {
      "id": "NTk3OTQwOTY=",
      "title": "Principal Chat/PTSA Meeting Reminder",
      "link": "https://content.govdelivery.com/accounts/VAEDUFCPS/bulletins/39062b0",
      "description": "\n        \n\n\n  \n\n\n\n\n\n\n\n\n<a href=\"https://mountvernonhs.fcps.edu/aggregator/sources/2?utm_campaign+=&amp;utm_medium=email&amp;utm_source=govdelivery\" target=\"_blank\">https://mountvernonhs.fcps.edu/aggregator/sources/2</a>\nHaga clic aquí para traducir este mensaje.\n\n\n\n\n\n\n\n\n\n\n\n<a href=\"https://mountvern...",
      "pubDate": "Wed, 13 Mar 2024 12:35:08 -0500",
      "timestamp": 1710351308000,
      "feedName": "Mount Vernon High School",
      "category": "Mount Vernon High School",
      "feedSource": "http://www.fcps.edu/index.shtml",
      "feedInfo": {
        "title": "Mount Vernon High School News and announcements - Recent Updates",
        "description": "Mount Vernon High School News and announcements",
        "link": "http://www.fcps.edu/index.shtml"
      }
    },
    {
      "id": "NTk3NjkzMzk=",
      "title": "\"On The Run\" Newsletter 3-11-2024",
      "link": "https://content.govdelivery.com/accounts/VAEDUFCPS/bulletins/39001fb",
      "description": "\n        \n\n\n  \n\n\n\n\n\n\n\n<p><a></a>Having trouble viewing this email? <a href=\"https://content.govdelivery.com/accounts/VAEDUFCPS/bulletins/39001fb\">View it as a Web page</a>.</p>\n\n\n\n\n\n\n\n\n\n\n\n<a href=\"http://www2.fcps.edu/colvinrunes/?utm_campaign+=&amp;utm_medium=email&amp;utm_source=govdelivery\" targe...",
      "pubDate": "Mon, 11 Mar 2024 16:00:30 -0500",
      "timestamp": 1710190830000,
      "feedName": "Colvin Run Elementary School",
      "category": "Colvin Run Elementary School",
      "feedSource": "http://www.fcps.edu/index.shtml",
      "feedInfo": {
        "title": "Colvin Run Elementary School News and announcements - Recent Updates",
        "description": "Colvin Run Elementary School News and announcements",
        "link": "http://www.fcps.edu/index.shtml"
      }
    },
    {
      "id": "NTk3Njc4MTk=",
      "title": "West Potomac Pyramid Art Show",
      "link": "https://content.govdelivery.com/accounts/VAEDUFCPS/bulletins/38ffc0b",
      "description": "\n        \n\n\n  \n\n\n\n\n\n\n\n<p><a></a>Having trouble viewing this email? <a href=\"https://content.govdelivery.com/accounts/VAEDUFCPS/bulletins/38ffc0b\">View it as a Web page</a>.</p>\n\n\n\n\n\n\n\n\n\n\n\n<a href=\"https://waynewoodes.fcps.edu/?utm_campaign+=&amp;utm_medium=email&amp;utm_source=govdelivery\" target=\"_...",
      "pubDate": "Mon, 11 Mar 2024 12:34:50 -0500",
      "timestamp": 1710178490000,
      "feedName": "Waynewood Elementary School",
      "category": "Waynewood Elementary School",
      "feedSource": "http://www.fcps.edu/index.shtml",
      "feedInfo": {
        "title": "Waynewood Elementary School News and announcements - Recent Updates",
        "description": "Waynewood Elementary School News and announcements",
        "link": "http://www.fcps.edu/index.shtml"
      }
    },
    {
      "id": "NTk2NTM4MjM=",
      "title": "News and Announcements March 5th Edition",
      "link": "https://content.govdelivery.com/accounts/VAEDUFCPS/bulletins/38e3ebf",
      "description": "\n        \n\n\n  \n\n\n\n\n\n\n\n\n<a href=\"https://mountvernonhs.fcps.edu/aggregator/sources/2?utm_campaign+=&amp;utm_medium=email&amp;utm_source=govdelivery\" target=\"_blank\">https://mountvernonhs.fcps.edu/aggregator/sources/2</a>\nHaga clic aquí para traducir este mensaje.\n\n\n\n\n\n\n\n\n\n\n\n<a href=\"https://mountvern...",
      "pubDate": "Fri, 08 Mar 2024 16:00:41 -0600",
      "timestamp": 1709935241000,
      "feedName": "Mount Vernon High School",
      "category": "Mount Vernon High School",
      "feedSource": "http://www.fcps.edu/index.shtml",
      "feedInfo": {
        "title": "Mount Vernon High School News and announcements - Recent Updates",
        "description": "Mount Vernon High School News and announcements",
        "link": "http://www.fcps.edu/index.shtml"
      }
    },
    {
      "id": "NTk3MTI0NzI=",
      "title": "March 7, 2024",
      "link": "https://content.govdelivery.com/accounts/VAEDUFCPS/bulletins/38f23d8",
      "description": "\n        \n\n\n  \n\n\n\n\n\n\n\n<p><a></a>Having trouble viewing this email? <a href=\"https://content.govdelivery.com/accounts/VAEDUFCPS/bulletins/38f23d8\">View it as a Web page</a>.</p>\n\n\n\n\n\n\n\n\n\n\n\n<a href=\"https://whitmanms.fcps.edu/?utm_campaign+=&amp;utm_medium=email&amp;utm_source=govdelivery\" target=\"_bl...",
      "pubDate": "Thu, 07 Mar 2024 13:08:57 -0600",
      "timestamp": 1709838537000,
      "feedName": "Whitman Middle School",
      "category": "Whitman Middle School",
      "feedSource": "http://www.fcps.edu/index.shtml",
      "feedInfo": {
        "title": "Whitman Middle School News and announcements - Recent Updates",
        "description": "Whitman Middle School News and announcements",
        "link": "http://www.fcps.edu/index.shtml"
      }
    },
    {
      "id": "NTk2NzEzOTY=",
      "title": "3/3/24 News From the Nest: Family Edition",
      "link": "https://content.govdelivery.com/accounts/VAEDUFCPS/bulletins/38e8364",
      "description": "\n        \n\n\n  \n\n\n\n\n\n\n\n\n\n\n\n\n\n\n\n\n\n\n\n<a href=\"https://glenforestes.fcps.edu/?utm_campaign+=&amp;utm_medium=email&amp;utm_source=govdelivery\" target=\"_blank\"></a>\n\n\n\n\n\n\n\n\n\n\n\n\n\n\n\n\n  \n    \n      \n      <p>If you need this message in another language, please visit this link: https://glenforestes.fcps.edu/a...",
      "pubDate": "Sun, 03 Mar 2024 15:00:30 -0600",
      "timestamp": 1709499630000,
      "feedName": "Glen Forest Elementary School",
      "category": "Glen Forest Elementary School",
      "feedSource": "http://www.fcps.edu/index.shtml",
      "feedInfo": {
        "title": "Glen Forest Elementary School News and announcements - Recent Updates",
        "description": "Glen Forest Elementary School News and announcements",
        "link": "http://www.fcps.edu/index.shtml"
      }
    },
    {
      "id": "NTk2NTM5NjY=",
      "title": "News and Announcements March 1st Edition",
      "link": "https://content.govdelivery.com/accounts/VAEDUFCPS/bulletins/38e3f4e",
      "description": "\n        \n\n\n  \n\n\n\n\n\n\n\n\n<a href=\"https://mountvernonhs.fcps.edu/aggregator/sources/2?utm_campaign+=&amp;utm_medium=email&amp;utm_source=govdelivery\" target=\"_blank\">https://mountvernonhs.fcps.edu/aggregator/sources/2</a>\nHaga clic aquí para traducir este mensaje.\n\n\n\n\n\n\n\n\n\n\n\n<a href=\"https://mountvern...",
      "pubDate": "Fri, 01 Mar 2024 16:00:42 -0600",
      "timestamp": 1709330442000,
      "feedName": "Mount Vernon High School",
      "category": "Mount Vernon High School",
      "feedSource": "http://www.fcps.edu/index.shtml",
      "feedInfo": {
        "title": "Mount Vernon High School News and announcements - Recent Updates",
        "description": "Mount Vernon High School News and announcements",
        "link": "http://www.fcps.edu/index.shtml"
      }
    },
    {
      "id": "NTk2NTU3NDM=",
      "title": "March 1, 2024 - NSES News",
      "link": "https://content.govdelivery.com/accounts/VAEDUFCPS/bulletins/38e463f",
      "description": "\n        \n\n\n  \n\n\n\n\n\n\n\n<p><a></a>Having trouble viewing this email? <a href=\"https://content.govdelivery.com/accounts/VAEDUFCPS/bulletins/38e463f\">View it as a Web\npage</a>.</p>\n\n\n\n\n\n\n\n\n\n\n\n<a href=\"https://northspringfieldes.fcps.edu/?utm_content=&amp;utm_medium=email&amp;utm_name=&amp;utm_source=gov...",
      "pubDate": "Fri, 01 Mar 2024 15:28:55 -0600",
      "timestamp": 1709328535000,
      "feedName": "North Springfield Elementary School",
      "category": "North Springfield Elementary School",
      "feedSource": "http://www.fcps.edu/index.shtml",
      "feedInfo": {
        "title": "North Springfield Elementary School News and announcements - Recent Updates",
        "description": "North Springfield Elementary School News and announcements",
        "link": "http://www.fcps.edu/index.shtml"
      }
    },
    {
      "id": "NTk2NDkwMDE=",
      "title": "Extended School Year (ESY) Services Program Information",
      "link": "https://content.govdelivery.com/accounts/VAEDUFCPS/bulletins/38e2be9",
      "description": "\n        \n\n\n  \n\n\n\n\n\n\n\n<p><a></a>Having trouble viewing this email? <a href=\"https://content.govdelivery.com/accounts/VAEDUFCPS/bulletins/38e2be9\">View it as a Web page</a>.</p>\n\n\n\n\n\n\n\n\n\n\n\n<a href=\"https://www.fcps.edu/academics/academic-overview/special-education-instruction?utm_content=&amp;utm_med...",
      "pubDate": "Fri, 01 Mar 2024 10:00:42 -0600",
      "timestamp": 1709308842000,
      "feedName": "FCPS Special Education Update",
      "category": "FCPS Special Education Update",
      "feedSource": "https://www.fcps.edu/",
      "feedInfo": {
        "title": "Special Education and 504 Newsletter - Recent Updates",
        "description": "Special Education and 504 Newsletter - Recent Updates",
        "link": "https://www.fcps.edu/"
      }
    },
    {
      "id": "NTk0MzQ3MTQ=",
      "title": "Falls Church Academy News!",
      "link": "https://content.govdelivery.com/accounts/VAEDUFCPS/bulletins/38ae6da",
      "description": "\n        \n\n\n  \n\n\n\n\n\n\n\n<p><a></a>Having trouble viewing this email? <a href=\"https://content.govdelivery.com/accounts/VAEDUFCPS/bulletins/38ae6da\">View it as a Web page</a>.</p>\n\n\n\n\n\n\n\n\n\n\n\n<a href=\"https://fallschurchacademy.fcps.edu/?utm_content=&amp;utm_medium=email&amp;utm_name=&amp;utm_source=gov...",
      "pubDate": "Fri, 01 Mar 2024 08:11:20 -0600",
      "timestamp": 1709302280000,
      "feedName": "Falls Church Academy",
      "category": "Falls Church Academy",
      "feedSource": "http://www.fcps.edu/index.shtml",
      "feedInfo": {
        "title": "Falls Church Academy News and Announcements - Recent Updates",
        "description": "Falls Church Academy News and Announcements - Recent Updates",
        "link": "http://www.fcps.edu/index.shtml"
      }
    },
    {
      "id": "NTk1NDc4OTU=",
      "title": "February 2024 Newsletter",
      "link": "https://content.govdelivery.com/accounts/VAEDUFCPS/bulletins/38ca0f7",
      "description": "\n        \n\n\n  \n\n\n\n\n\n\n\n<p><a></a>Having trouble viewing this email? <a href=\"https://content.govdelivery.com/accounts/VAEDUFCPS/bulletins/38ca0f7\">View it as a Web page</a>.</p>\n\n\n\n\n\n\n\n\n\n\n\n<a href=\"https://bryanths.fcps.edu/?utm_campaign+=&amp;utm_medium=email&amp;utm_source=govdelivery\" target=\"_bla...",
      "pubDate": "Thu, 29 Feb 2024 14:30:12 -0600",
      "timestamp": 1709238612000,
      "feedName": "Bryant High School",
      "category": "Bryant High School",
      "feedSource": "http://www.fcps.edu/index.shtml",
      "feedInfo": {
        "title": "Bryant High School News and Announcements - Recent Updates",
        "description": "Bryant High School News and announcements",
        "link": "http://www.fcps.edu/index.shtml"
      }
    },
    {
      "id": "NTk1MjkxOTg=",
      "title": "Edison Academy Monthly Newsletter",
      "link": "https://content.govdelivery.com/accounts/VAEDUFCPS/bulletins/38c57ee",
      "description": "\n        \n\n\n  \n\n\n\n\n\n\n\n<p>Having trouble viewing this email? <a href=\"https://content.govdelivery.com/accounts/VAEDUFCPS/bulletins/38c57ee\">View it as a Web page</a>.</p>\n\n\n\n\n\n\n\n\n\n\n\n\n\n\n\n\n\n\n\n\n\n\n\n\n\n\n\n\n<p>Edison Academy Families,</p>\n<p>Next week is a short week for students. Tuesday, March 5, there wil...",
      "pubDate": "Thu, 29 Feb 2024 10:51:41 -0600",
      "timestamp": 1709225501000,
      "feedName": "Edison Academy",
      "category": "Edison Academy",
      "feedSource": "http://www.fcps.edu/index.shtml",
      "feedInfo": {
        "title": "Edison Academy News and announcements - Recent Updates",
        "description": "Edison Academy News and announcements - Recent Updates",
        "link": "http://www.fcps.edu/index.shtml"
      }
    },
    {
      "id": "NTk1MzMzNDI=",
      "title": "Hybla Valley Happenings: February 27, 2024 Edition",
      "link": "https://content.govdelivery.com/accounts/VAEDUFCPS/bulletins/38c681e",
      "description": "\n        \n\n\n  \n\n\n\n\n\n\n\n<p><a></a>Having trouble viewing this email? <a href=\"https://content.govdelivery.com/accounts/VAEDUFCPS/bulletins/38c681e\">View it as a Web page</a>.</p>\n\n\n\n\n\n\n\n\n\n\n\n<a href=\"http://www2.fcps.edu/HyblaValleyES/?utm_campaign+=&amp;utm_medium=email&amp;utm_source=govdelivery\" tar...",
      "pubDate": "Tue, 27 Feb 2024 15:39:14 -0600",
      "timestamp": 1709069954000,
      "feedName": "Hybla Valley Elementary School",
      "category": "Hybla Valley Elementary School",
      "feedSource": "http://www.fcps.edu/index.shtml",
      "feedInfo": {
        "title": "Hybla Valley Elementary School News and announcements - Recent Updates",
        "description": "Hybla Valley Elementary School News and announcements",
        "link": "http://www.fcps.edu/index.shtml"
      }
    },
    {
      "id": "NTk1ODAyMDQ=",
      "title": "2/26/24 News From the Nest: Family Edition",
      "link": "https://content.govdelivery.com/accounts/VAEDUFCPS/bulletins/38d1f2c",
      "description": "\n        \n\n\n  \n\n\n\n\n\n\n\n\n\n\n\n\n\n\n\n\n\n\n\n<a href=\"https://glenforestes.fcps.edu/?utm_campaign+=&amp;utm_medium=email&amp;utm_source=govdelivery\" target=\"_blank\"></a>\n\n\n\n\n\n\n\n\n\n\n\n\n\n\n\n\n  \n    \n      \n      <p>If you need this message in another language, please visit this link: https://glenforestes.fcps.edu/a...",
      "pubDate": "Mon, 26 Feb 2024 14:30:59 -0600",
      "timestamp": 1708979459000,
      "feedName": "Glen Forest Elementary School",
      "category": "Glen Forest Elementary School",
      "feedSource": "http://www.fcps.edu/index.shtml",
      "feedInfo": {
        "title": "Glen Forest Elementary School News and announcements - Recent Updates",
        "description": "Glen Forest Elementary School News and announcements",
        "link": "http://www.fcps.edu/index.shtml"
      }
    },
    {
      "id": "NTk0MzkxMTM=",
      "title": "News and Announcements February 23rd Edition",
      "link": "https://content.govdelivery.com/accounts/VAEDUFCPS/bulletins/38af809",
      "description": "\n        \n\n\n  \n\n\n\n\n\n\n\n\n<a href=\"https://mountvernonhs.fcps.edu/aggregator/sources/2?utm_campaign+=&amp;utm_medium=email&amp;utm_source=govdelivery\" target=\"_blank\">https://mountvernonhs.fcps.edu/aggregator/sources/2</a>\nHaga clic aquí para traducir este mensaje.\n\n\n\n\n\n\n\n\n\n\n\n<a href=\"https://mountvern...",
      "pubDate": "Fri, 23 Feb 2024 16:00:42 -0600",
      "timestamp": 1708725642000,
      "feedName": "Mount Vernon High School",
      "category": "Mount Vernon High School",
      "feedSource": "http://www.fcps.edu/index.shtml",
      "feedInfo": {
        "title": "Mount Vernon High School News and announcements - Recent Updates",
        "description": "Mount Vernon High School News and announcements",
        "link": "http://www.fcps.edu/index.shtml"
      }
    },
    {
      "id": "NTk0MzkxMTQ=",
      "title": "News and Announcements February 16th Edition",
      "link": "https://content.govdelivery.com/accounts/VAEDUFCPS/bulletins/38af80a",
      "description": "\n        \n\n\n  \n\n\n\n\n\n\n\n\n<a href=\"https://mountvernonhs.fcps.edu/aggregator/sources/2?utm_campaign+=&amp;utm_medium=email&amp;utm_source=govdelivery\" target=\"_blank\">https://mountvernonhs.fcps.edu/aggregator/sources/2</a>\nHaga clic aquí para traducir este mensaje.\n\n\n\n\n\n\n\n\n\n\n\n<a href=\"https://mountvern...",
      "pubDate": "Fri, 16 Feb 2024 16:00:39 -0600",
      "timestamp": 1708120839000,
      "feedName": "Mount Vernon High School",
      "category": "Mount Vernon High School",
      "feedSource": "http://www.fcps.edu/index.shtml",
      "feedInfo": {
        "title": "Mount Vernon High School News and announcements - Recent Updates",
        "description": "Mount Vernon High School News and announcements",
        "link": "http://www.fcps.edu/index.shtml"
      }
    },
    {
      "id": "NTkzNTIzMzk=",
      "title": "Virtual Principal Chat Reminder",
      "link": "https://content.govdelivery.com/accounts/VAEDUFCPS/bulletins/389a513",
      "description": "\n        \n\n\n  \n\n\n\n\n\n\n\n\n<a href=\"https://mountvernonhs.fcps.edu/aggregator/sources/2?utm_campaign+=&amp;utm_medium=email&amp;utm_source=govdelivery\" target=\"_blank\">https://mountvernonhs.fcps.edu/aggregator/sources/2</a>\nHaga clic aquí para traducir este mensaje.\n\n\n\n\n\n\n\n\n\n\n\n<a href=\"https://mountvern...",
      "pubDate": "Tue, 13 Feb 2024 13:55:07 -0600",
      "timestamp": 1707854107000,
      "feedName": "Mount Vernon High School",
      "category": "Mount Vernon High School",
      "feedSource": "http://www.fcps.edu/index.shtml",
      "feedInfo": {
        "title": "Mount Vernon High School News and announcements - Recent Updates",
        "description": "Mount Vernon High School News and announcements",
        "link": "http://www.fcps.edu/index.shtml"
      }
    },
    {
      "id": "NTkzOTQ5NjQ=",
      "title": "February Newsletter",
      "link": "https://content.govdelivery.com/accounts/VAEDUFCPS/bulletins/38a4b94",
      "description": "\n        \n\n\n  \n\n\n\n\n\n\n\n<p><a></a>Having trouble viewing this email? <a href=\"https://content.govdelivery.com/accounts/VAEDUFCPS/bulletins/38a4b94\">View it as a Web page</a>.</p>\n\n\n\n\n\n\n\n\n\n\n\n<a href=\"https://whitmanms.fcps.edu/?utm_campaign+=&amp;utm_medium=email&amp;utm_source=govdelivery\" target=\"_bl...",
      "pubDate": "Tue, 13 Feb 2024 11:45:44 -0600",
      "timestamp": 1707846344000,
      "feedName": "Whitman Middle School",
      "category": "Whitman Middle School",
      "feedSource": "http://www.fcps.edu/index.shtml",
      "feedInfo": {
        "title": "Whitman Middle School News and announcements - Recent Updates",
        "description": "Whitman Middle School News and announcements",
        "link": "http://www.fcps.edu/index.shtml"
      }
    },
    {
      "id": "NTkzOTQxNjQ=",
      "title": "2-Hour Delay Information",
      "link": "https://content.govdelivery.com/accounts/VAEDUFCPS/bulletins/38a4874",
      "description": "\n        \n\n\n  \n\n\n\n\n\n\n\n<p><a></a>Having trouble viewing this email? <a href=\"https://content.govdelivery.com/accounts/VAEDUFCPS/bulletins/38a4874\">View it as a Web page</a>.</p>\n\n\n\n\n\n\n\n\n\n\n\n<a href=\"http://www2.fcps.edu/colvinrunes/?utm_campaign+=&amp;utm_medium=email&amp;utm_source=govdelivery\" targe...",
      "pubDate": "Tue, 13 Feb 2024 07:57:25 -0600",
      "timestamp": 1707832645000,
      "feedName": "Colvin Run Elementary School",
      "category": "Colvin Run Elementary School",
      "feedSource": "http://www.fcps.edu/index.shtml",
      "feedInfo": {
        "title": "Colvin Run Elementary School News and announcements - Recent Updates",
        "description": "Colvin Run Elementary School News and announcements",
        "link": "http://www.fcps.edu/index.shtml"
      }
    }
  ],
  "hasNext": true,
  "hasPrev": true
}