{
  "page": 101,
  "totalPages": 268,
  "totalItems": 5354,
  "itemsPerPage": 20,
  "items": [
    {
      "id": "NjQ5NDgxMDM=",
      "title": "WSHS Spartan Weekly News, May 9, 2025",
      "link": "https://content.govdelivery.com/accounts/VAEDUFCPS/bulletins/3df0787",
      "description": "\n        \n\n\n  \n\n\n\n\n\n\n\n<p><a></a>Having trouble viewing this email? <a href=\"https://content.govdelivery.com/accounts/VAEDUFCPS/bulletins/3df0787\">View it as a Web page</a>.</p>\n\n\n\n\n\n\n\n\n\n\n\n<a href=\"https://westspringfieldhs.fcps.edu/?utm_campaign+=&amp;utm_medium=email&amp;utm_source=govdelivery\" tar...",
      "pubDate": "Fri, 09 May 2025 12:37:04 -0500",
      "timestamp": 1746812224000,
      "feedName": "West Springfield High School",
      "category": "West Springfield High School",
      "feedSource": "http://www.fcps.edu/index.shtml",
      "feedInfo": {
        "title": "West Springfield High School News and Announcements - Recent Updates",
        "description": "West Springfield High School News and Announcements",
        "link": "http://www.fcps.edu/index.shtml"
      }
    },
    {
      "id": "NjQ5ODk4NDI=",
      "title": "West Potomac High School - News You Choose 5/9/25",
      "link": "https://content.govdelivery.com/accounts/VAEDUFCPS/bulletins/3dfaa92",
      "description": "\n        \n\n\n  \n\n\n\n\n\n\n\n<p><a></a>Having trouble viewing this email? <a href=\"https://content.govdelivery.com/accounts/VAEDUFCPS/bulletins/3dfaa92\">View it as a Web page</a>.</p>\n\n\n\n\n\n\n\n\n\n\n\n<a href=\"https://westpotomachs.fcps.edu/?utm_campaign+=&amp;utm_medium=email&amp;utm_source=govdelivery\" target=...",
      "pubDate": "Fri, 09 May 2025 12:30:14 -0500",
      "timestamp": 1746811814000,
      "feedName": "West Potomac High School",
      "category": "West Potomac High School",
      "feedSource": "http://www.fcps.edu/index.shtml",
      "feedInfo": {
        "title": "West Potomac High School News and announcements - Recent Updates",
        "description": "West Potomac High School News and announcements",
        "link": "http://www.fcps.edu/index.shtml"
      }
    },
    {
      "id": "NjQ5NTYxOTM=",
      "title": "Panther Press: May 9",
      "link": "https://content.govdelivery.com/accounts/VAEDUFCPS/bulletins/3df2721",
      "description": "\n        \n\n\n  \n\n\n\n\n\n\n\n<p><a></a>Having trouble viewing this email? <a href=\"https://content.govdelivery.com/accounts/VAEDUFCPS/bulletins/3df2721\">View it as a Web page</a>.</p>\n\n\n\n\n\n\n\n\n\n\n\n<a href=\"http://www2.fcps.edu/ProvidenceES/?utm_campaign+=&amp;utm_medium=email&amp;utm_source=govdelivery\" targ...",
      "pubDate": "Fri, 09 May 2025 12:12:14 -0500",
      "timestamp": 1746810734000,
      "feedName": "Providence Elementary School",
      "category": "Providence Elementary School",
      "feedSource": "http://www.fcps.edu/index.shtml",
      "feedInfo": {
        "title": "Providence Elementary School News and Announcements - Recent Updates",
        "description": "Providence Elementary School News and announcements",
        "link": "http://www.fcps.edu/index.shtml"
      }
    },
    {
      "id": "NjQ5Nzk0ODg=",
      "title": "FROM THE PRINCIPAL'S DESK",
      "link": "https://content.govdelivery.com/accounts/VAEDUFCPS/bulletins/3df8220",
      "description": "\n        \n\n\n  \n\n\n\n\n\n\n\n<p><a></a>Having trouble viewing this email? <a href=\"https://content.govdelivery.com/accounts/VAEDUFCPS/bulletins/3df8220\">View it as a Web page</a>.</p>\n\n\n\n\n\n\n\n\n\n\n\n<a href=\"https://cherryrunes.fcps.edu/?utm_campaign+=&amp;utm_medium=email&amp;utm_source=govdelivery\" target=\"_...",
      "pubDate": "Fri, 09 May 2025 12:00:13 -0500",
      "timestamp": 1746810013000,
      "feedName": "Cherry Run Elementary School",
      "category": "Cherry Run Elementary School",
      "feedSource": "http://www.fcps.edu/index.shtml",
      "feedInfo": {
        "title": "Cherry Run Elementary School News and announcements - Recent Updates",
        "description": "Cherry Run Elementary School News and announcements",
        "link": "http://www.fcps.edu/index.shtml"
      }
    },
    {
      "id": "NjQ5NDk5OTA=",
      "title": "ATES Updates_05/09/2025",
      "link": "https://content.govdelivery.com/accounts/VAEDUFCPS/bulletins/3df0ee6",
      "description": "\n        \n\n\n  \n\n\n\n\n\n\n\n<p><a></a>Having trouble viewing this email? <a href=\"https://content.govdelivery.com/accounts/VAEDUFCPS/bulletins/3df0ee6\">View it as a Web page</a>.</p>\n\n\n\n\n\n\n\n\n\n\n\n<a href=\"https://annandaleterracees.fcps.edu/?utm_campaign+=&amp;utm_medium=email&amp;utm_source=govdelivery\" ta...",
      "pubDate": "Fri, 09 May 2025 11:11:56 -0500",
      "timestamp": 1746807116000,
      "feedName": "Annandale Terrace Elementary School",
      "category": "Annandale Terrace Elementary School",
      "feedSource": "http://www.fcps.edu/index.shtml",
      "feedInfo": {
        "title": "Annandale Terrace Elementary School News and announcements - Recent Updates",
        "description": "Annandale Terrace Elementary School News and announcements",
        "link": "http://www.fcps.edu/index.shtml"
      }
    },
    {
      "id": "NjQ5OTE2OTA=",
      "title": "Greenbriar West ES Update 05-09-2025",
      "link": "https://content.govdelivery.com/accounts/VAEDUFCPS/bulletins/3dfb1ca",
      "description": "\n        \n\n\n  \n\n\n\n\n\n\n\n<p><a></a>Having trouble viewing this email? <a href=\"https://content.govdelivery.com/accounts/VAEDUFCPS/bulletins/3dfb1ca\">View it as a Web page</a>.</p>\n\n\n\n\n\n\n\n\n\n\n\n<a href=\"https://greenbriarwestes.fcps.edu/?utm_campaign+=&amp;utm_medium=email&amp;utm_source=govdelivery\" targ...",
      "pubDate": "Fri, 09 May 2025 11:00:19 -0500",
      "timestamp": 1746806419000,
      "feedName": "Greenbriar West Elementary School",
      "category": "Greenbriar West Elementary School",
      "feedSource": "http://www.fcps.edu/index.shtml",
      "feedInfo": {
        "title": "Greenbriar West Elementary School News and Announcements - Recent Updates",
        "description": "Greenbriar West Elementary School News and Announcements",
        "link": "http://www.fcps.edu/index.shtml"
      }
    },
    {
      "id": "NjQ2MzU5MTg=",
      "title": "DCC SPRING DANCE - TONIGHT!",
      "link": "https://content.govdelivery.com/accounts/VAEDUFCPS/bulletins/3da440e",
      "description": "\n        \n\n\n  \n\n\n\n\n\n\n\n<p><a></a>Having trouble viewing this email? <a href=\"https://content.govdelivery.com/accounts/VAEDUFCPS/bulletins/3da440e\">View it as a Web page</a>.</p>\n\n\n\n\n\n\n\n\n\n\n\n<a href=\"https://daviscenter.fcps.edu/?utm_campaign+=&amp;utm_medium=email&amp;utm_source=govdelivery\" target=\"_...",
      "pubDate": "Fri, 09 May 2025 11:00:13 -0500",
      "timestamp": 1746806413000,
      "feedName": "Davis Career Center",
      "category": "Davis Career Center",
      "feedSource": "http://www.fcps.edu/index.shtml",
      "feedInfo": {
        "title": "Davis Career Center News and announcements - Recent Updates",
        "description": "Davis Career Special Education Center News and announcements",
        "link": "http://www.fcps.edu/index.shtml"
      }
    },
    {
      "id": "NjQ5OTIxMTc=",
      "title": "Help Shape Clermont PTA's Future!",
      "link": "https://content.govdelivery.com/accounts/VAEDUFCPS/bulletins/3dfb375",
      "description": "\n        \n\n\n  \n\n\n\n\n\n\n\n<p><a></a>Having trouble viewing this email? <a href=\"https://content.govdelivery.com/accounts/VAEDUFCPS/bulletins/3dfb375\">View it as a Web page</a>.</p>\n\n\n\n\n\n\n\n\n\n\n\n<a href=\"https://clermontes.fcps.edu/?utm_campaign+=&amp;utm_medium=email&amp;utm_source=govdelivery\" target=\"_b...",
      "pubDate": "Fri, 09 May 2025 10:44:15 -0500",
      "timestamp": 1746805455000,
      "feedName": "Clermont Elementary School",
      "category": "Clermont Elementary School",
      "feedSource": "http://www.fcps.edu/index.shtml",
      "feedInfo": {
        "title": "Clermont, VA Elementary School News and announcements - Recent Updates",
        "description": "Clermont Elementary School News and announcements",
        "link": "http://www.fcps.edu/index.shtml"
      }
    },
    {
      "id": "NjQ5OTE1MzE=",
      "title": "Do Not Use Athletic Registration Site Until June 1st",
      "link": "https://content.govdelivery.com/accounts/VAEDUFCPS/bulletins/3dfb12b",
      "description": "\n        <p>Dear Lewis Community,</p>\n<p>If you have a rising 9th through 12th grader who is interested in playing a sport during the 2025–2026 school year, please <strong>do not attempt to register at this time</strong> on the <a href=\"https://johnlewis-ar.rschooltoday.com/?utm_campaign+=&amp;utm_m...",
      "pubDate": "Fri, 09 May 2025 09:55:54 -0500",
      "timestamp": 1746802554000,
      "feedName": "John R. Lewis High School",
      "category": "John R. Lewis High School",
      "feedSource": "http://www.fcps.edu/index.shtml",
      "feedInfo": {
        "title": "Lewis High School News and announcements - Recent Updates",
        "description": "Lewis High School News and announcements",
        "link": "http://www.fcps.edu/index.shtml"
      }
    },
    {
      "id": "NjQ5NzU2MjI=",
      "title": "Louise Archer News - 5/9/25",
      "link": "https://content.govdelivery.com/accounts/VAEDUFCPS/bulletins/3df7306",
      "description": "\n        \n\n\n  \n\n\n\n\n\n\n\n<p><a></a>Having trouble viewing this email? <a href=\"https://content.govdelivery.com/accounts/VAEDUFCPS/bulletins/3df7306\">View it as a Web page</a>.</p>\n\n\n\n\n\n\n\n\n\n\n\n<a href=\"https://twitter.com/LouiseArcherES?utm_content=&amp;utm_medium=email&amp;utm_name=&amp;utm_source=govde...",
      "pubDate": "Fri, 09 May 2025 09:26:18 -0500",
      "timestamp": 1746800778000,
      "feedName": "Louise Archer Elementary School",
      "category": "Louise Archer Elementary School",
      "feedSource": "http://www.fcps.edu/index.shtml",
      "feedInfo": {
        "title": "Louise Archer Elementary School News and announcements - Recent Updates",
        "description": "Louise Archer Elementary School News and announcements",
        "link": "http://www.fcps.edu/index.shtml"
      }
    },
    {
      "id": "NjQ5MjU0OTk=",
      "title": "Mustang Memo 5.9.25",
      "link": "https://content.govdelivery.com/accounts/VAEDUFCPS/bulletins/3deaf3b",
      "description": "\n        \n\n\n  \n\n\n\n\n\n\n\n\n\n\n\n\n\n\n\n\n\n\n\n<a href=\"http://www2.fcps.edu/WestSpringfieldES/?utm_campaign+=&amp;utm_medium=email&amp;utm_source=govdelivery\" target=\"_blank\"></a>\n\n\n\n\n\n\n\n\n\n\n\n\n\n\n\n\nNote from Dr. Sheers\n<p>Please join us in recognizing and celebrating several Mustangs who will be leaving West Spri...",
      "pubDate": "Fri, 09 May 2025 08:30:12 -0500",
      "timestamp": 1746797412000,
      "feedName": "West Springfield Elementary School",
      "category": "West Springfield Elementary School",
      "feedSource": "http://www.fcps.edu/index.shtml",
      "feedInfo": {
        "title": "West Springfield Elementary School News and announcements - Recent Updates",
        "description": "West Springfield Elementary School News and announcements",
        "link": "http://www.fcps.edu/index.shtml"
      }
    },
    {
      "id": "NjQ5Njg1MzE=",
      "title": "Community Peers Information for Preschool SY 2025-2026",
      "link": "https://content.govdelivery.com/accounts/VAEDUFCPS/bulletins/3df5753",
      "description": "\n        \n\n\n  \n\n\n\n\n\n\n\n<p><a></a>Having trouble viewing this email? <a href=\"https://content.govdelivery.com/accounts/VAEDUFCPS/bulletins/3df5753\">View it as a Web page</a>.</p>\n\n\n\n\n\n\n\n\n\n\n\n<a href=\"https://danielsrunes.fcps.edu/?utm_campaign+=&amp;utm_medium=email&amp;utm_source=govdelivery\" target=\"...",
      "pubDate": "Fri, 09 May 2025 07:15:00 -0500",
      "timestamp": 1746792900000,
      "feedName": "Daniels Run Elementary School",
      "category": "Daniels Run Elementary School",
      "feedSource": "http://www.fcps.edu/index.shtml",
      "feedInfo": {
        "title": "Daniels Run Elementary School News and announcements - Recent Updates",
        "description": "Daniels Run Elementary School News and announcements",
        "link": "http://www.fcps.edu/index.shtml"
      }
    },
    {
      "id": "NjQ5ODk5MTk=",
      "title": "Next Week: Early Dismissal and Lockdown Drill",
      "link": "https://content.govdelivery.com/accounts/VAEDUFCPS/bulletins/3dfaadf",
      "description": "\n        \n\n\n  \n\n\n\n\n\n\n\n<p><a></a>Having trouble viewing this email? <a href=\"https://content.govdelivery.com/accounts/VAEDUFCPS/bulletins/3dfaadf\">View it as a Web page</a>.</p>\n\n\n\n\n\n\n\n\n\n\n\n<a href=\"http://www2.fcps.edu/HayfieldES/?utm_campaign+=&amp;utm_medium=email&amp;utm_source=govdelivery\" target...",
      "pubDate": "Fri, 09 May 2025 07:14:40 -0500",
      "timestamp": 1746792880000,
      "feedName": "Hayfield Elementary School",
      "category": "Hayfield Elementary School",
      "feedSource": "https://public.govdelivery.com/topics/Hayfield_ES_News/feed.rss",
      "feedInfo": {
        "title": "Hayfield ES News and Announcements",
        "description": "Hayfield Elementary School News and Announcements",
        "link": "https://public.govdelivery.com/topics/Hayfield_ES_News/feed.rss"
      }
    },
    {
      "id": "NjQ5MTQwNzM=",
      "title": "Deer Park Elementary - Fun Fit Friday Weather Cancellation",
      "link": "https://content.govdelivery.com/accounts/VAEDUFCPS/bulletins/3de8299",
      "description": "\n        \n\n\n  \n\n\n\n\n\n\n\n<p><a></a>Having trouble viewing this email? <a href=\"https://content.govdelivery.com/accounts/VAEDUFCPS/bulletins/3de8299\">View it as a Web page</a>.</p>\n\n\n\n\n\n\n\n\n\n\n\n<a href=\"https://deerparkes.fcps.edu/?utm_campaign+=&amp;utm_medium=email&amp;utm_source=govdelivery\" target=\"_b...",
      "pubDate": "Fri, 09 May 2025 06:33:52 -0500",
      "timestamp": 1746790432000,
      "feedName": "Deer Park Elementary School",
      "category": "Deer Park Elementary School",
      "feedSource": "http://www.fcps.edu/index.shtml",
      "feedInfo": {
        "title": "Deer Park Elementary School News and Announcements - Recent Updates",
        "description": "Deer Park Elementary School News and announcements",
        "link": "http://www.fcps.edu/index.shtml"
      }
    },
    {
      "id": "NjQ5ODM4NDk=",
      "title": "Read-a-Thon Update: We Hit Our Goal &amp; More Exciting News!",
      "link": "https://content.govdelivery.com/accounts/VAEDUFCPS/bulletins/3df9329",
      "description": "\n        \n\n\n  \n\n\n\n\n\n\n\n<p><a></a>Having trouble viewing this email? <a href=\"https://content.govdelivery.com/accounts/VAEDUFCPS/bulletins/3df9329\">View it as a Web page</a>.</p>\n\n\n\n\n\n\n\n\n\n\n\n<a href=\"https://franconiaes.fcps.edu/?utm_campaign+=&amp;utm_medium=email&amp;utm_source=govdelivery\" target=\"_...",
      "pubDate": "Fri, 09 May 2025 06:06:00 -0500",
      "timestamp": 1746788760000,
      "feedName": "Franconia Elementary School",
      "category": "Franconia Elementary School",
      "feedSource": "http://www.fcps.edu/index.shtml",
      "feedInfo": {
        "title": "Franconia Elementary School News and Announcements - Recent Updates",
        "description": "Franconia Elementary School News and Announcements",
        "link": "http://www.fcps.edu/index.shtml"
      }
    },
    {
      "id": "NjQ5NTk0NTg=",
      "title": "Shrevewood Wise Words 5/09/25",
      "link": "https://content.govdelivery.com/accounts/VAEDUFCPS/bulletins/3df33e2",
      "description": "\n        \n\n\n  \n\n\n\n\n\n\n\n<p><a></a>Having trouble viewing this email? <a href=\"https://content.govdelivery.com/accounts/VAEDUFCPS/bulletins/3df33e2\">View it as a Web page</a>.</p>\n\n\n\n\n\n\n\n\n\n\n\n<a href=\"https://shrevewoodes.fcps.edu/?utm_campaign+=&amp;utm_medium=email&amp;utm_source=govdelivery\" target=\"...",
      "pubDate": "Fri, 09 May 2025 04:06:33 -0500",
      "timestamp": 1746781593000,
      "feedName": "Shrevewood Elementary School",
      "category": "Shrevewood Elementary School",
      "feedSource": "http://www.fcps.edu/index.shtml",
      "feedInfo": {
        "title": "Shrevewood Elementary School News and announcements - Recent Updates",
        "description": "Shrevewood Elementary School News and announcements",
        "link": "http://www.fcps.edu/index.shtml"
      }
    },
    {
      "id": "NjQ5NTk2Nzg=",
      "title": "SLES News You Choose",
      "link": "https://content.govdelivery.com/accounts/VAEDUFCPS/bulletins/3df34be",
      "description": "\n        \n\n\n  \n\n\n\n\n\n\n\n<p><a></a>Having trouble viewing this email? <a href=\"https://content.govdelivery.com/accounts/VAEDUFCPS/bulletins/3df34be\">View it as a Web page</a>.</p>\n\n\n\n\n\n\n\n\n\n\n\n<a href=\"https://stratfordlandinges.fcps.edu/?utm_campaign+=&amp;utm_medium=email&amp;utm_source=govdelivery\" ta...",
      "pubDate": "Thu, 08 May 2025 19:50:40 -0500",
      "timestamp": 1746751840000,
      "feedName": "Stratford Landing Elementary School",
      "category": "Stratford Landing Elementary School",
      "feedSource": "http://www.fcps.edu/index.shtml",
      "feedInfo": {
        "title": "Stratford Landing Elementary School News and announcements - Recent Updates",
        "description": "Stratford Landing Elementary School News and announcements",
        "link": "http://www.fcps.edu/index.shtml"
      }
    },
    {
      "id": "NjQ5NzA0NjU=",
      "title": "Sangster News From The Nest 5-8-25",
      "link": "https://content.govdelivery.com/accounts/VAEDUFCPS/bulletins/3df5ee1",
      "description": "\n        \n\n\n  \n\n\n\n\n\n\n\n\n\n\n\n\n\n\n\n\n\n\n\n<a href=\"http://www2.fcps.edu/SangsterES/?utm_content=&amp;utm_medium=email&amp;utm_name=&amp;utm_source=govdelivery&amp;utm_term=\" target=\"_blank\"></a>\n\n\n\n\n\n\n\n\n\n\n\n\n\n\n\n\n\n  \n    \n\n\nIMPORTANT DATES \n \nSOL Testing: Ongoing throughout May\nMay 9  PTA Carnival\nMay 12  3-h...",
      "pubDate": "Thu, 08 May 2025 19:00:12 -0500",
      "timestamp": 1746748812000,
      "feedName": "Sangster Elementary School",
      "category": "Sangster Elementary School",
      "feedSource": "http://www.fcps.edu/index.shtml",
      "feedInfo": {
        "title": "Sangster Elementary School News and announcements - Recent Updates",
        "description": "Sangster Elementary School News and announcements",
        "link": "http://www.fcps.edu/index.shtml"
      }
    },
    {
      "id": "NjQ5Nzk0NzI=",
      "title": "Cub Run Family Newsletter",
      "link": "https://content.govdelivery.com/accounts/VAEDUFCPS/bulletins/3df8210",
      "description": "\n        \n\n\n  \n\n\n\n\n\n\n\n<p><a></a>Having trouble viewing this email? <a href=\"https://content.govdelivery.com/accounts/VAEDUFCPS/bulletins/3df8210\">View it as a Web page</a>.</p>\n\n\n\n\n\n\n\n\n\n\n\n<a href=\"https://cubrunes.fcps.edu/?utm_campaign+=&amp;utm_medium=email&amp;utm_source=govdelivery\" target=\"_bla...",
      "pubDate": "Thu, 08 May 2025 18:49:51 -0500",
      "timestamp": 1746748191000,
      "feedName": "Cub Run Elementary School",
      "category": "Cub Run Elementary School",
      "feedSource": "http://www.fcps.edu/index.shtml",
      "feedInfo": {
        "title": "Cub Run Elementary School News and Announcements - Use this one - Recent Updates",
        "description": "Cub Run Elementary School News and announcements",
        "link": "http://www.fcps.edu/index.shtml"
      }
    },
    {
      "id": "NjQ5ODU3MjQ=",
      "title": "Fairfax Villa News You Choose May 8, 2025",
      "link": "https://content.govdelivery.com/accounts/VAEDUFCPS/bulletins/3df9a7c",
      "description": "\n        \n\n\n  \n\n\n\n\n\n\n\n<p><a></a>Having trouble viewing this email? <a href=\"https://content.govdelivery.com/accounts/VAEDUFCPS/bulletins/3df9a7c\">View it as a Web page</a>.</p>\n\n\n\n\n\n\n\n\n\n\n\n<a href=\"https://fairfaxvillaes.fcps.edu?utm_campaign+=&amp;utm_medium=email&amp;utm_source=govdelivery\" target=...",
      "pubDate": "Thu, 08 May 2025 17:05:21 -0500",
      "timestamp": 1746741921000,
      "feedName": "Fairfax Villa Elementary School",
      "category": "Fairfax Villa Elementary School",
      "feedSource": "https://fairfaxvillaes.fcps.edu",
      "feedInfo": {
        "title": "Fairfax Villa Elementary School News and announcements",
        "description": "Fairfax Villa Elementary School News and announcements",
        "link": "https://fairfaxvillaes.fcps.edu"
      }
    }
  ],
  "hasNext": true,
  "hasPrev": true
}