{
  "page": 187,
  "totalPages": 268,
  "totalItems": 5354,
  "itemsPerPage": 20,
  "items": [
    {
      "id": "NjQyNDE1MTc=",
      "title": "Mustang Memo 2.28.25",
      "link": "https://content.govdelivery.com/accounts/VAEDUFCPS/bulletins/3d43f6d",
      "description": "\n        \n\n\n  \n\n\n\n\n\n\n\n\n\n\n\n\n\n\n\n\n\n\n\n<a href=\"http://www2.fcps.edu/WestSpringfieldES/?utm_campaign+=&amp;utm_medium=email&amp;utm_source=govdelivery\" target=\"_blank\"></a>\n\n\n\n\n\n\n\n\n\n\n\n\n\n\n\n<p><em>16 Buses, 133 chaperones, oh my! We had one fabulous Museum Madness School-wide Field Trip!</em></p>\n\nNote fro...",
      "pubDate": "Fri, 28 Feb 2025 08:25:13 -0600",
      "timestamp": 1740752713000,
      "feedName": "West Springfield Elementary School",
      "category": "West Springfield Elementary School",
      "feedSource": "http://www.fcps.edu/index.shtml",
      "feedInfo": {
        "title": "West Springfield Elementary School News and announcements - Recent Updates",
        "description": "West Springfield Elementary School News and announcements",
        "link": "http://www.fcps.edu/index.shtml"
      }
    },
    {
      "id": "NjQyNjcxNDQ=",
      "title": "Therapeutic Recreation Services TRS 2025 Summer Camp",
      "link": "https://content.govdelivery.com/accounts/VAEDUFCPS/bulletins/3d4a388",
      "description": "\n        \n\n\n  \n\n\n\n\n\n\n\n<p><a></a>Having trouble viewing this email? <a href=\"https://content.govdelivery.com/accounts/VAEDUFCPS/bulletins/3d4a388\">View it as a Web page</a>.</p>\n\n\n\n\n\n\n\n\n\n\n\n<a href=\"https://kilmercenter.fcps.edu/?utm_campaign+=&amp;utm_medium=email&amp;utm_source=govdelivery\" target=\"...",
      "pubDate": "Fri, 28 Feb 2025 08:24:33 -0600",
      "timestamp": 1740752673000,
      "feedName": "Kilmer Center",
      "category": "Kilmer Center",
      "feedSource": "http://www.fcps.edu/index.shtml",
      "feedInfo": {
        "title": "Kilmer Center News and announcements - Recent Updates",
        "description": "Kilmer Special Education Center News and announcements",
        "link": "http://www.fcps.edu/index.shtml"
      }
    },
    {
      "id": "NjQyNjYxNjM=",
      "title": "Read Across America &amp; SEL Week: March 3- 7",
      "link": "https://content.govdelivery.com/accounts/VAEDUFCPS/bulletins/3d49fb3",
      "description": "\n        \n\n\n  \n\n\n\n\n\n\n\n<p><a></a>Having trouble viewing this email? <a href=\"https://content.govdelivery.com/accounts/VAEDUFCPS/bulletins/3d49fb3\">View it as a Web page</a>.</p>\n\n\n\n\n\n\n\n\n\n\n\n<a href=\"https://cubrunes.fcps.edu/?utm_campaign+=&amp;utm_medium=email&amp;utm_source=govdelivery\" target=\"_bla...",
      "pubDate": "Fri, 28 Feb 2025 08:02:34 -0600",
      "timestamp": 1740751354000,
      "feedName": "Cub Run Elementary School",
      "category": "Cub Run Elementary School",
      "feedSource": "http://www.fcps.edu/index.shtml",
      "feedInfo": {
        "title": "Cub Run Elementary School News and Announcements - Use this one - Recent Updates",
        "description": "Cub Run Elementary School News and announcements",
        "link": "http://www.fcps.edu/index.shtml"
      }
    },
    {
      "id": "NjQyNDQyODk=",
      "title": "Shrevewood Wise Words 2/27/25",
      "link": "https://content.govdelivery.com/accounts/VAEDUFCPS/bulletins/3d44a41",
      "description": "\n        \n\n\n  \n\n\n\n\n\n\n\n<p><a></a>Having trouble viewing this email? <a href=\"https://content.govdelivery.com/accounts/VAEDUFCPS/bulletins/3d44a41\">View it as a Web page</a>.</p>\n\n\n\n\n\n\n\n\n\n\n\n<a href=\"https://shrevewoodes.fcps.edu/?utm_campaign+=&amp;utm_medium=email&amp;utm_source=govdelivery\" target=\"...",
      "pubDate": "Thu, 27 Feb 2025 19:55:02 -0600",
      "timestamp": 1740707702000,
      "feedName": "Shrevewood Elementary School",
      "category": "Shrevewood Elementary School",
      "feedSource": "http://www.fcps.edu/index.shtml",
      "feedInfo": {
        "title": "Shrevewood Elementary School News and announcements - Recent Updates",
        "description": "Shrevewood Elementary School News and announcements",
        "link": "http://www.fcps.edu/index.shtml"
      }
    },
    {
      "id": "NjQyNTU0MjY=",
      "title": "Sangster News From The Nest 2-27-25",
      "link": "https://content.govdelivery.com/accounts/VAEDUFCPS/bulletins/3d475c2",
      "description": "\n        \n\n\n  \n\n\n\n\n\n\n\n<p><a></a>Having trouble viewing this email? <a href=\"https://content.govdelivery.com/accounts/VAEDUFCPS/bulletins/3d475c2\">View it as a Web page</a>.</p>\n\n\n\n\n\n\n\n\n\n\n\n<a href=\"http://www2.fcps.edu/SangsterES/?utm_content=&amp;utm_medium=email&amp;utm_name=&amp;utm_source=govdeli...",
      "pubDate": "Thu, 27 Feb 2025 19:00:14 -0600",
      "timestamp": 1740704414000,
      "feedName": "Sangster Elementary School",
      "category": "Sangster Elementary School",
      "feedSource": "http://www.fcps.edu/index.shtml",
      "feedInfo": {
        "title": "Sangster Elementary School News and announcements - Recent Updates",
        "description": "Sangster Elementary School News and announcements",
        "link": "http://www.fcps.edu/index.shtml"
      }
    },
    {
      "id": "NjQyNTk4NTA=",
      "title": "The BULLS Bulletin (Week of 03/03)",
      "link": "https://content.govdelivery.com/accounts/VAEDUFCPS/bulletins/3d4870a",
      "description": "\n        \n\n\n  \n\n\n\n\n\n\n\n<p><a></a>Having trouble viewing this email? <a href=\"https://content.govdelivery.com/accounts/VAEDUFCPS/bulletins/3d4870a\">View it as a Web page</a>.</p>\n\n\n\n\n\n\n\n\n\n\n\n<a href=\"https://bullrunes.fcps.edu/?utm_content=&amp;utm_medium=email&amp;utm_name=&amp;utm_source=govdelivery&...",
      "pubDate": "Thu, 27 Feb 2025 16:00:53 -0600",
      "timestamp": 1740693653000,
      "feedName": "Bull Run Elementary School",
      "category": "Bull Run Elementary School",
      "feedSource": "http://www.fcps.edu/index.shtml",
      "feedInfo": {
        "title": "Bull Run Elementary School News and announcements - Recent Updates",
        "description": "Bull Run Elementary School News and announcements",
        "link": "http://www.fcps.edu/index.shtml"
      }
    },
    {
      "id": "NjQyNTkyNzY=",
      "title": "After-School Clubs: Enrichment programs are open!",
      "link": "https://content.govdelivery.com/accounts/VAEDUFCPS/bulletins/3d484cc",
      "description": "\n        \n\n\n  \n\n\n\n\n\n\n\n<p><a></a>Having trouble viewing this email? <a href=\"https://content.govdelivery.com/accounts/VAEDUFCPS/bulletins/3d484cc\">View it as a Web page</a>.</p>\n\n\n\n\n\n\n\n\n\n\n\n<a href=\"https://franconiaes.fcps.edu/?utm_campaign+=&amp;utm_medium=email&amp;utm_source=govdelivery\" target=\"_...",
      "pubDate": "Thu, 27 Feb 2025 16:00:14 -0600",
      "timestamp": 1740693614000,
      "feedName": "Franconia Elementary School",
      "category": "Franconia Elementary School",
      "feedSource": "http://www.fcps.edu/index.shtml",
      "feedInfo": {
        "title": "Franconia Elementary School News and Announcements - Recent Updates",
        "description": "Franconia Elementary School News and Announcements",
        "link": "http://www.fcps.edu/index.shtml"
      }
    },
    {
      "id": "NjQyNDQyNzY=",
      "title": "SLES News You Choose",
      "link": "https://content.govdelivery.com/accounts/VAEDUFCPS/bulletins/3d44a34",
      "description": "\n        \n\n\n  \n\n\n\n\n\n\n\n<p><a></a>Having trouble viewing this email? <a href=\"https://content.govdelivery.com/accounts/VAEDUFCPS/bulletins/3d44a34\">View it as a Web page</a>.</p>\n\n\n\n\n\n\n\n\n\n\n\n<a href=\"https://stratfordlandinges.fcps.edu/?utm_campaign+=&amp;utm_medium=email&amp;utm_source=govdelivery\" ta...",
      "pubDate": "Thu, 27 Feb 2025 15:31:47 -0600",
      "timestamp": 1740691907000,
      "feedName": "Stratford Landing Elementary School",
      "category": "Stratford Landing Elementary School",
      "feedSource": "http://www.fcps.edu/index.shtml",
      "feedInfo": {
        "title": "Stratford Landing Elementary School News and announcements - Recent Updates",
        "description": "Stratford Landing Elementary School News and announcements",
        "link": "http://www.fcps.edu/index.shtml"
      }
    },
    {
      "id": "NjQyNTk5MTU=",
      "title": "Falcon Flyer: February 27th, 2025",
      "link": "https://content.govdelivery.com/accounts/VAEDUFCPS/bulletins/3d4874b",
      "description": "\n        \n\n\n  \n\n\n\n\n\n\n\n\n\n\n\n\n\n\n\n\n\n\n\n\n\n\n\n\n\n\n\n\n\n\n\n\n\n\n\n<p>February 27th, 2025</p>\n\nFlint Hill Updates\n\n<p>Good Afternoon Flint Hill Families,</p>\n<p>Signs of an early spring are popping up around FHES. Tulip and daffodil bulbs planted by students in the fall are beginning to make their first appearances....",
      "pubDate": "Thu, 27 Feb 2025 15:30:19 -0600",
      "timestamp": 1740691819000,
      "feedName": "Flint Hill Elementary School",
      "category": "Flint Hill Elementary School",
      "feedSource": "http://www.fcps.edu/index.shtml",
      "feedInfo": {
        "title": "Flint Hill Elementary School News and Announcements - Recent Updates",
        "description": "Flint Hill Elementary School News and Announcements",
        "link": "http://www.fcps.edu/index.shtml"
      }
    },
    {
      "id": "NjQyMjk5MzE=",
      "title": "The Dunne Dispatch (Report Card Edition) - 02/27/2025",
      "link": "https://content.govdelivery.com/accounts/VAEDUFCPS/bulletins/3d4122b",
      "description": "\n        \n\n\n  \n\n\n\n\n\n\n\n<p><a></a>Having trouble viewing this email? <a href=\"https://content.govdelivery.com/accounts/VAEDUFCPS/bulletins/3d4122b\">View it as a Web page</a>.</p>\n\n\n\n\n\n\n\n\n\n\n\n<a href=\"https://www.fcps.edu/staff/mateo-dunne?utm_campaign+=&amp;utm_medium=email&amp;utm_source=govdelivery\" ...",
      "pubDate": "Thu, 27 Feb 2025 14:18:12 -0600",
      "timestamp": 1740687492000,
      "feedName": "FCPS School Board Mount Vernon District",
      "category": "FCPS School Board Mount Vernon District",
      "feedSource": "http://www.fcps.edu/index.shtml",
      "feedInfo": {
        "title": "Mount Vernon District Member - Mateo Dunne - Recent Updates",
        "description": "Mount Vernon District Member - Mateo Dunne - Recent Updates",
        "link": "http://www.fcps.edu/index.shtml"
      }
    },
    {
      "id": "NjQyNDA2MTI=",
      "title": "Kilmer Center School Tiger Tales",
      "link": "https://content.govdelivery.com/accounts/VAEDUFCPS/bulletins/3d43be4",
      "description": "\n        \n\n\n  \n\n\n\n\n\n\n\n<p><a></a>Having trouble viewing this email? <a href=\"https://content.govdelivery.com/accounts/VAEDUFCPS/bulletins/3d43be4\">View it as a Web page</a>.</p>\n\n\n\n\n\n\n\n\n\n\n\n<a href=\"https://kilmercenter.fcps.edu/?utm_campaign+=&amp;utm_medium=email&amp;utm_source=govdelivery\" target=\"...",
      "pubDate": "Thu, 27 Feb 2025 14:00:15 -0600",
      "timestamp": 1740686415000,
      "feedName": "Kilmer Center",
      "category": "Kilmer Center",
      "feedSource": "http://www.fcps.edu/index.shtml",
      "feedInfo": {
        "title": "Kilmer Center News and announcements - Recent Updates",
        "description": "Kilmer Special Education Center News and announcements",
        "link": "http://www.fcps.edu/index.shtml"
      }
    },
    {
      "id": "NjQyNDI1MDg=",
      "title": "February 27, 2025 Newsletter",
      "link": "https://content.govdelivery.com/accounts/VAEDUFCPS/bulletins/3d4434c",
      "description": "\n        \n\n\n  \n\n\n\n\n\n\n\n\n\n\n\n\n\n\n\n\n\n\n\n\n\n\n\n\n\n\n\n\n\n\n\n\n\n\n\n<p><a href=\"https://laurelhilles.fcps.edu/aggregator/sources/1?utm_content=&amp;utm_medium=email&amp;utm_name=&amp;utm_source=govdelivery&amp;utm_term=#modal-language-switcher\" target=\"_blank\">English</a> | <a href=\"https://laurelhilles.fcps.edu/aggr...",
      "pubDate": "Thu, 27 Feb 2025 13:10:32 -0600",
      "timestamp": 1740683432000,
      "feedName": "Laurel Hill Elementary School",
      "category": "Laurel Hill Elementary School",
      "feedSource": "http://www.fcps.edu/index.shtml",
      "feedInfo": {
        "title": "Laurel Hill Elementary School News and announcements - Recent Updates",
        "description": "Laurel Hill Elementary School News and announcements",
        "link": "http://www.fcps.edu/index.shtml"
      }
    },
    {
      "id": "NjQxODA2NjM=",
      "title": "Panther Press: February 27",
      "link": "https://content.govdelivery.com/accounts/VAEDUFCPS/bulletins/3d351b7",
      "description": "\n        \n\n\n  \n\n\n\n\n\n\n\n<p><a></a>Having trouble viewing this email? <a href=\"https://content.govdelivery.com/accounts/VAEDUFCPS/bulletins/3d351b7\">View it as a Web page</a>.</p>\n\n\n\n\n\n\n\n\n\n\n\n<a href=\"http://www2.fcps.edu/ProvidenceES/?utm_campaign+=&amp;utm_medium=email&amp;utm_source=govdelivery\" targ...",
      "pubDate": "Thu, 27 Feb 2025 09:52:56 -0600",
      "timestamp": 1740671576000,
      "feedName": "Providence Elementary School",
      "category": "Providence Elementary School",
      "feedSource": "http://www.fcps.edu/index.shtml",
      "feedInfo": {
        "title": "Providence Elementary School News and Announcements - Recent Updates",
        "description": "Providence Elementary School News and announcements",
        "link": "http://www.fcps.edu/index.shtml"
      }
    },
    {
      "id": "NjQyNTM1NDY=",
      "title": "Westlawn Feather Report: Volume 1, Issue 25",
      "link": "https://content.govdelivery.com/accounts/VAEDUFCPS/bulletins/3d46e6a",
      "description": "\n        \n\n\n  \n\n\n\n\n\n\n\n<p><a></a>Having trouble viewing this email? <a href=\"https://content.govdelivery.com/accounts/VAEDUFCPS/bulletins/3d46e6a\">View it as a Web page</a>.</p>\n\n\n\n\n\n\n\n\n\n\n\n<a href=\"https://westlawnes.fcps.edu/?utm_campaign+=&amp;utm_medium=email&amp;utm_source=govdelivery\" target=\"_b...",
      "pubDate": "Thu, 27 Feb 2025 08:00:23 -0600",
      "timestamp": 1740664823000,
      "feedName": "Westlawn Elementary School",
      "category": "Westlawn Elementary School",
      "feedSource": "http://www.fcps.edu/index.shtml",
      "feedInfo": {
        "title": "Westlawn Elementary School News and Announcements - Recent Updates",
        "description": "Westlawn Elementary School News and Announcements",
        "link": "http://www.fcps.edu/index.shtml"
      }
    },
    {
      "id": "NjQyNDYxODU=",
      "title": "🔒 Lockdown Drill Information 🔒",
      "link": "https://content.govdelivery.com/accounts/VAEDUFCPS/bulletins/3d451a9",
      "description": "\n        \n\n\n  \n\n\n\n\n\n\n\n<p><a></a>Having trouble viewing this email? <a href=\"https://content.govdelivery.com/accounts/VAEDUFCPS/bulletins/3d451a9\">View it as a Web page</a>.</p>\n\n\n\n\n\n\n\n\n\n\n\n<a href=\"http://www2.fcps.edu/PoplarTreeES?utm_content=&amp;utm_medium=email&amp;utm_name=&amp;utm_source=govdel...",
      "pubDate": "Thu, 27 Feb 2025 08:00:19 -0600",
      "timestamp": 1740664819000,
      "feedName": "Poplar Tree Elementary School",
      "category": "Poplar Tree Elementary School",
      "feedSource": "http://www.fcps.edu/index.shtml",
      "feedInfo": {
        "title": "Poplar Tree Elementary School News and announcements - Recent Updates",
        "description": "Poplar Tree Elementary School News and announcements",
        "link": "http://www.fcps.edu/index.shtml"
      }
    },
    {
      "id": "NjQyNDkwNDg=",
      "title": "The Liberty Ledger: February 26, 2025",
      "link": "https://content.govdelivery.com/accounts/VAEDUFCPS/bulletins/3d45cd8",
      "description": "\n        \n\n\n  \n\n\n\n\n\n\n\n<p><a></a>Having trouble viewing this email? <a href=\"https://content.govdelivery.com/accounts/VAEDUFCPS/bulletins/3d45cd8\">View it as a Web page</a>.</p>\n\n\n\n\n\n\n\n\n\n\n\n<a href=\"https://libertyms.fcps.edu/?utm_campaign+=&amp;utm_medium=email&amp;utm_source=govdelivery\" target=\"_bl...",
      "pubDate": "Wed, 26 Feb 2025 18:30:17 -0600",
      "timestamp": 1740616217000,
      "feedName": "Liberty Middle School",
      "category": "Liberty Middle School",
      "feedSource": "http://www.fcps.edu/index.shtml",
      "feedInfo": {
        "title": "Liberty Middle School News and announcements - Recent Updates",
        "description": "Liberty Middle School News and announcements",
        "link": "http://www.fcps.edu/index.shtml"
      }
    },
    {
      "id": "NjQyNDMwNzI=",
      "title": "Cub Run Family Newsletter",
      "link": "https://content.govdelivery.com/accounts/VAEDUFCPS/bulletins/3d44580",
      "description": "\n        \n\n\n  \n\n\n\n\n\n\n\n<p><a></a>Having trouble viewing this email? <a href=\"https://content.govdelivery.com/accounts/VAEDUFCPS/bulletins/3d44580\">View it as a Web page</a>.</p>\n\n\n\n\n\n\n\n\n\n\n\n<a href=\"https://cubrunes.fcps.edu/?utm_campaign+=&amp;utm_medium=email&amp;utm_source=govdelivery\" target=\"_bla...",
      "pubDate": "Wed, 26 Feb 2025 18:13:41 -0600",
      "timestamp": 1740615221000,
      "feedName": "Cub Run Elementary School",
      "category": "Cub Run Elementary School",
      "feedSource": "http://www.fcps.edu/index.shtml",
      "feedInfo": {
        "title": "Cub Run Elementary School News and Announcements - Use this one - Recent Updates",
        "description": "Cub Run Elementary School News and announcements",
        "link": "http://www.fcps.edu/index.shtml"
      }
    },
    {
      "id": "NjQxOTA4Mzk=",
      "title": "Mosaic Matters - February 26, 2025",
      "link": "https://content.govdelivery.com/accounts/VAEDUFCPS/bulletins/3d37977",
      "description": "\n        \n\n\n  \n\n\n\n\n\n\n\n<p><a></a>Having trouble viewing this email? <a href=\"https://content.govdelivery.com/accounts/VAEDUFCPS/bulletins/3d37977\">View it as a Web page</a>.</p>\n\n\n\n\n\n\n\n\n\n\n\n<a href=\"https://mosaices.fcps.edu/?utm_campaign+=&amp;utm_medium=email&amp;utm_source=govdelivery\" target=\"_bla...",
      "pubDate": "Wed, 26 Feb 2025 17:00:16 -0600",
      "timestamp": 1740610816000,
      "feedName": "Mosaic Elementary School",
      "category": "Mosaic Elementary School",
      "feedSource": "http://www.fcps.edu/index.shtml",
      "feedInfo": {
        "title": "Mosaic Elementary School News and announcements - Recent Updates",
        "description": "Mosaic Elementary School News and announcements",
        "link": "http://www.fcps.edu/index.shtml"
      }
    },
    {
      "id": "NjQxNzE5NDg=",
      "title": "February 26  Family Newsletter",
      "link": "https://content.govdelivery.com/accounts/VAEDUFCPS/bulletins/3d32fac",
      "description": "\n        \n\n\n  \n\n\n\n\n\n\n\n<p><a></a>Having trouble viewing this email? <a href=\"https://content.govdelivery.com/accounts/VAEDUFCPS/bulletins/3d32fac\">View it as a Web page</a>.</p>\n\n\n\n\n\n\n\n\n\n\n\n<a href=\"http://www2.fcps.edu/UnionMillES/?utm_campaign+=&amp;utm_medium=email&amp;utm_source=govdelivery\" targe...",
      "pubDate": "Wed, 26 Feb 2025 16:28:33 -0600",
      "timestamp": 1740608913000,
      "feedName": "Union Mill Elementary School",
      "category": "Union Mill Elementary School",
      "feedSource": "http://www.fcps.edu/index.shtml",
      "feedInfo": {
        "title": "Union Mill Elementary School News and announcements - Recent Updates",
        "description": "Union Mill Elementary School News and announcements",
        "link": "http://www.fcps.edu/index.shtml"
      }
    },
    {
      "id": "NjQxNjk2OTM=",
      "title": "Franconia ES Wednesday Word - 02/26/25",
      "link": "https://content.govdelivery.com/accounts/VAEDUFCPS/bulletins/3d326dd",
      "description": "\n        \n\n\n  \n\n\n\n\n\n\n\n<p><a></a>Having trouble viewing this email? <a href=\"https://content.govdelivery.com/accounts/VAEDUFCPS/bulletins/3d326dd\">View it as a Web page</a>.</p>\n\n\n\n\n\n\n\n\n\n\n\n<a href=\"https://franconiaes.fcps.edu/?utm_campaign+=&amp;utm_medium=email&amp;utm_source=govdelivery\" target=\"_...",
      "pubDate": "Wed, 26 Feb 2025 16:00:12 -0600",
      "timestamp": 1740607212000,
      "feedName": "Franconia Elementary School",
      "category": "Franconia Elementary School",
      "feedSource": "http://www.fcps.edu/index.shtml",
      "feedInfo": {
        "title": "Franconia Elementary School News and Announcements - Recent Updates",
        "description": "Franconia Elementary School News and Announcements",
        "link": "http://www.fcps.edu/index.shtml"
      }
    }
  ],
  "hasNext": true,
  "hasPrev": true
}