{
  "page": 77,
  "totalPages": 268,
  "totalItems": 5354,
  "itemsPerPage": 20,
  "items": [
    {
      "id": "NjUxMzAzMzI=",
      "title": "Hunters Woods ES News and Notes: May 23, 2025",
      "link": "https://content.govdelivery.com/accounts/VAEDUFCPS/bulletins/3e1cf5c",
      "description": "\n        \n\n\n  \n\n\n\n\n\n\n\n<p><a></a>Having trouble viewing this email? <a href=\"https://content.govdelivery.com/accounts/VAEDUFCPS/bulletins/3e1cf5c\">View it as a Web page</a>.</p>\n\n\n\n\n\n\n\n\n\n\n\n<a href=\"http://www2.fcps.edu/HuntersWoodsES/?utm_campaign+=&amp;utm_medium=email&amp;utm_source=govdelivery\" ta...",
      "pubDate": "Fri, 23 May 2025 14:40:11 -0500",
      "timestamp": 1748029211000,
      "feedName": "Hunters Woods Elementary School",
      "category": "Hunters Woods Elementary School",
      "feedSource": "http://www.fcps.edu/index.shtml",
      "feedInfo": {
        "title": "Hunters Woods Elementary School News and Announcements - Recent Updates",
        "description": "Hunters Woods Elementary School News and Announcements",
        "link": "http://www.fcps.edu/index.shtml"
      }
    },
    {
      "id": "NjUxMzA1NTY=",
      "title": "Cedar Connection",
      "link": "https://content.govdelivery.com/accounts/VAEDUFCPS/bulletins/3e1d03c",
      "description": "\n        \n\n\n  \n\n\n\n\n\n\n\n<p><a></a>Having trouble viewing this email? <a href=\"https://content.govdelivery.com/accounts/VAEDUFCPS/bulletins/3e1d03c\">View it as a Web page</a>.</p>\n\n\n\n\n\n\n\n\n\n\n\n<a href=\"https://cedarlaneschool.fcps.edu/?utm_campaign+=&amp;utm_medium=email&amp;utm_source=govdelivery\" targe...",
      "pubDate": "Fri, 23 May 2025 14:35:02 -0500",
      "timestamp": 1748028902000,
      "feedName": "Cedar Lane School",
      "category": "Cedar Lane School",
      "feedSource": "http://www.fcps.edu/index.shtml",
      "feedInfo": {
        "title": "Cedar Lane School News and Announcements - Recent Updates",
        "description": "Cedar Lane Special Education Center News and announcements",
        "link": "http://www.fcps.edu/index.shtml"
      }
    },
    {
      "id": "NjUxMzQ0MjQ=",
      "title": "Mustang Weekly, May 23, 2025",
      "link": "https://content.govdelivery.com/accounts/VAEDUFCPS/bulletins/3e1df58",
      "description": "\n        \n\n\n  \n\n\n\n\n\n\n\n<p><a></a>Having trouble viewing this email? <a href=\"https://content.govdelivery.com/accounts/VAEDUFCPS/bulletins/3e1df58\">View it as a Web page</a>.</p>\n\n\n\n\n\n\n\n\n\n\n\n<a href=\"https://southcountyms.fcps.edu/?utm_campaign+=&amp;utm_medium=email&amp;utm_source=govdelivery\" target=...",
      "pubDate": "Fri, 23 May 2025 14:30:16 -0500",
      "timestamp": 1748028616000,
      "feedName": "South County Middle School",
      "category": "South County Middle School",
      "feedSource": "http://www.fcps.edu/index.shtml",
      "feedInfo": {
        "title": "SCMS News and Announcements 2025-2026 - Recent Updates",
        "description": "SCMS News and Announcements 2025-2026 - Recent Updates",
        "link": "http://www.fcps.edu/index.shtml"
      }
    },
    {
      "id": "NjUxMzIzMDY=",
      "title": "Thoreau Matters Friday, May 23rd, 2025",
      "link": "https://content.govdelivery.com/accounts/VAEDUFCPS/bulletins/3e1d712",
      "description": "\n        \n\n\n  \n\n\n\n\n\n\n\n<p><a></a>Having trouble viewing this email? <a href=\"https://content.govdelivery.com/accounts/VAEDUFCPS/bulletins/3e1d712\">View it as a Web page</a>.</p>\n\n\n\n\n\n\n\n\n\n\n\n<a href=\"https://thoreaums.fcps.edu/?utm_campaign+=&amp;utm_medium=email&amp;utm_source=govdelivery\" target=\"_bl...",
      "pubDate": "Fri, 23 May 2025 14:30:15 -0500",
      "timestamp": 1748028615000,
      "feedName": "Thoreau Middle School",
      "category": "Thoreau Middle School",
      "feedSource": "http://www.fcps.edu/index.shtml",
      "feedInfo": {
        "title": "Thoreau Middle School News and Announcements - Recent Updates",
        "description": "Thoreau Middle School News and Announcements",
        "link": "http://www.fcps.edu/index.shtml"
      }
    },
    {
      "id": "NjUxMzIwODE=",
      "title": "ðŸ¾Poplar Tree Paw Print - Friday, May 23, 2025ðŸ¾",
      "link": "https://content.govdelivery.com/accounts/VAEDUFCPS/bulletins/3e1d631",
      "description": "\n        \n\n\n  \n\n\n\n\n\n\n\n<p><a></a>Having trouble viewing this email? <a href=\"https://content.govdelivery.com/accounts/VAEDUFCPS/bulletins/3e1d631\">View it as a Web page</a>.</p>\n\n\n\n\n\n\n\n\n\n\n\n<a href=\"http://www2.fcps.edu/PoplarTreeES?utm_content=&amp;utm_medium=email&amp;utm_name=&amp;utm_source=govdel...",
      "pubDate": "Fri, 23 May 2025 14:30:07 -0500",
      "timestamp": 1748028607000,
      "feedName": "Poplar Tree Elementary School",
      "category": "Poplar Tree Elementary School",
      "feedSource": "http://www.fcps.edu/index.shtml",
      "feedInfo": {
        "title": "Poplar Tree Elementary School News and announcements - Recent Updates",
        "description": "Poplar Tree Elementary School News and announcements",
        "link": "http://www.fcps.edu/index.shtml"
      }
    },
    {
      "id": "NjUwOTY5MzI=",
      "title": "Message from Holmes MS  - 5/23/2025",
      "link": "https://content.govdelivery.com/accounts/VAEDUFCPS/bulletins/3e14ce4",
      "description": "\n        \n\n\n  \n\n\n\n\n\n\n\n<p><a></a>Having trouble viewing this email? <a href=\"https://content.govdelivery.com/accounts/VAEDUFCPS/bulletins/3e14ce4\">View it as a Web page</a>.</p>\n\n\n\n\n\n\n\n\n\n\n\n<a href=\"https://holmesms.fcps.edu/?utm_campaign+=&amp;utm_medium=email&amp;utm_source=govdelivery\" target=\"_bla...",
      "pubDate": "Fri, 23 May 2025 14:29:50 -0500",
      "timestamp": 1748028590000,
      "feedName": "Holmes Middle School",
      "category": "Holmes Middle School",
      "feedSource": "http://www.fcps.edu/index.shtml",
      "feedInfo": {
        "title": "Holmes Middle School News and announcements - Recent Updates",
        "description": "Holmes Middle School News and announcements",
        "link": "http://www.fcps.edu/index.shtml"
      }
    },
    {
      "id": "NjUwOTM4NjE=",
      "title": "CES Family Connection 5-23-25",
      "link": "https://content.govdelivery.com/accounts/VAEDUFCPS/bulletins/3e140e5",
      "description": "\n        \n\n\n  \n\n\n\n\n\n\n\n<p><a></a>Having trouble viewing this email? <a href=\"https://content.govdelivery.com/accounts/VAEDUFCPS/bulletins/3e140e5\">View it as a Web page</a>.</p>\n\n\n\n\n\n\n\n\n\n\n\n<a href=\"https://centrevillees.fcps.edu/?utm_campaign+=&amp;utm_medium=email&amp;utm_source=govdelivery\" target=...",
      "pubDate": "Fri, 23 May 2025 14:27:19 -0500",
      "timestamp": 1748028439000,
      "feedName": "Centreville Elementary School",
      "category": "Centreville Elementary School",
      "feedSource": "http://www.fcps.edu/index.shtml",
      "feedInfo": {
        "title": "Centreville Elementary School News and announcements - Recent Updates",
        "description": "Centreville Elementary School News and announcements",
        "link": "http://www.fcps.edu/index.shtml"
      }
    },
    {
      "id": "NjUxMzE4MjU=",
      "title": "WSHS Spartan Weekly News, May 23, 2025",
      "link": "https://content.govdelivery.com/accounts/VAEDUFCPS/bulletins/3e1d531",
      "description": "\n        \n\n\n  \n\n\n\n\n\n\n\n<p><a></a>Having trouble viewing this email? <a href=\"https://content.govdelivery.com/accounts/VAEDUFCPS/bulletins/3e1d531\">View it as a Web page</a>.</p>\n\n\n\n\n\n\n\n\n\n\n\n<a href=\"https://westspringfieldhs.fcps.edu/?utm_campaign+=&amp;utm_medium=email&amp;utm_source=govdelivery\" tar...",
      "pubDate": "Fri, 23 May 2025 14:22:32 -0500",
      "timestamp": 1748028152000,
      "feedName": "West Springfield High School",
      "category": "West Springfield High School",
      "feedSource": "http://www.fcps.edu/index.shtml",
      "feedInfo": {
        "title": "West Springfield High School News and Announcements - Recent Updates",
        "description": "West Springfield High School News and Announcements",
        "link": "http://www.fcps.edu/index.shtml"
      }
    },
    {
      "id": "NjUxMDU4NjI=",
      "title": "Chantilly Academy Program Highlights",
      "link": "https://content.govdelivery.com/accounts/VAEDUFCPS/bulletins/3e16fc6",
      "description": "\n        \n\n\n  \n\n\n\n\n\n\n\n<p><a></a>Having trouble viewing this email? <a href=\"https://content.govdelivery.com/accounts/VAEDUFCPS/bulletins/3e16fc6\">View it as a Web page</a>.</p>\n\n\n\n\n\n\n\n\n\n\n\n<a href=\"https://chantillyacademy.fcps.edu/?utm_campaign+=&amp;utm_medium=email&amp;utm_source=govdelivery\" targ...",
      "pubDate": "Fri, 23 May 2025 14:15:12 -0500",
      "timestamp": 1748027712000,
      "feedName": "Chantilly Academy",
      "category": "Chantilly Academy",
      "feedSource": "http://www.fcps.edu/index.shtml",
      "feedInfo": {
        "title": "Chantilly Academy News and Announcements - Recent Updates",
        "description": "Chantilly Academy News and Announcements - Recent Updates",
        "link": "http://www.fcps.edu/index.shtml"
      }
    },
    {
      "id": "NjUxMjQzODE=",
      "title": "News From the Nest 05.23.25",
      "link": "https://content.govdelivery.com/accounts/VAEDUFCPS/bulletins/3e1b81d",
      "description": "\n        \n\n\n  \n\n\n\n\n\n\n\n<p><a></a>Having trouble viewing this email? <a href=\"https://content.govdelivery.com/accounts/VAEDUFCPS/bulletins/3e1b81d\">View it as a Web page</a>.</p>\n\n\n\n\n\n\n\n\n\n\n\n<a href=\"https://crestwoodes.fcps.edu/?utm_campaign+=&amp;utm_medium=email&amp;utm_source=govdelivery\" target=\"_...",
      "pubDate": "Fri, 23 May 2025 14:14:45 -0500",
      "timestamp": 1748027685000,
      "feedName": "Crestwood Elementary School",
      "category": "Crestwood Elementary School",
      "feedSource": "http://www.fcps.edu/index.shtml",
      "feedInfo": {
        "title": "Crestwood Elementary School News and announcements - Recent Updates",
        "description": "Crestwood Elementary School News and announcements",
        "link": "http://www.fcps.edu/index.shtml"
      }
    },
    {
      "id": "NjUxMTA3NDQ=",
      "title": "Edison Academy Reminders and Celebrations",
      "link": "https://content.govdelivery.com/accounts/VAEDUFCPS/bulletins/3e182d8",
      "description": "\n        \n\n\n  \n\n\n\n\n\n\n\n<p><a></a>Having trouble viewing this email? <a href=\"https://content.govdelivery.com/accounts/VAEDUFCPS/bulletins/3e182d8\">View it as a Web page</a>.</p>\n\n\n\n\n\n\n\n\n\n\n\n<a href=\"https://edisonacademy.fcps.edu/?utm_campaign+=&amp;utm_medium=email&amp;utm_source=govdelivery\" target=...",
      "pubDate": "Fri, 23 May 2025 14:10:52 -0500",
      "timestamp": 1748027452000,
      "feedName": "Edison Academy",
      "category": "Edison Academy",
      "feedSource": "http://www.fcps.edu/index.shtml",
      "feedInfo": {
        "title": "Edison Academy News and announcements - Recent Updates",
        "description": "Edison Academy News and announcements - Recent Updates",
        "link": "http://www.fcps.edu/index.shtml"
      }
    },
    {
      "id": "NjUwOTc3ODA=",
      "title": "Woodson Weekly - May 23",
      "link": "https://content.govdelivery.com/accounts/VAEDUFCPS/bulletins/3e15034",
      "description": "\n        \n\n\n  \n\n\n\n\n\n\n\n<p><a></a>Having trouble viewing this email? <a href=\"https://content.govdelivery.com/accounts/VAEDUFCPS/bulletins/3e15034\">View it as a Web page</a>.</p>\n\n\n\n\n\n\n\n\n\n\n\n<a href=\"http://www2.fcps.edu/woodsonhs/?utm_campaign+=&amp;utm_medium=email&amp;utm_source=govdelivery\" target=...",
      "pubDate": "Fri, 23 May 2025 14:08:02 -0500",
      "timestamp": 1748027282000,
      "feedName": "Woodson High School",
      "category": "Woodson High School",
      "feedSource": "https://public.govdelivery.com/topics/Woodson_HS_NEWS/feed.rss",
      "feedInfo": {
        "title": "Woodson High School News and announcements",
        "description": "Woodson High School News and announcements",
        "link": "https://public.govdelivery.com/topics/Woodson_HS_NEWS/feed.rss"
      }
    },
    {
      "id": "NjUwODA0NjA=",
      "title": "Brookfield News and Notes 5/23/2025",
      "link": "https://content.govdelivery.com/accounts/VAEDUFCPS/bulletins/3e10c8c",
      "description": "\n        \n\n\n  \n\n\n\n\n\n\n\n<p><a></a>Having trouble viewing this email? <a href=\"https://content.govdelivery.com/accounts/VAEDUFCPS/bulletins/3e10c8c\">View it as a Web page</a>.</p>\n\n\n\n\n\n\n\n\n\n\n\n<a href=\"https://brookfieldes.fcps.edu/?utm_campaign+=&amp;utm_medium=email&amp;utm_source=govdelivery\" target=\"...",
      "pubDate": "Fri, 23 May 2025 14:00:14 -0500",
      "timestamp": 1748026814000,
      "feedName": "Brookfield Elementary School",
      "category": "Brookfield Elementary School",
      "feedSource": "http://www.fcps.edu/index.shtml",
      "feedInfo": {
        "title": "Brookfield Elementary School News and announcements - Recent Updates",
        "description": "Brookfield Elementary School News and announcements",
        "link": "http://www.fcps.edu/index.shtml"
      }
    },
    {
      "id": "NjUwODE2NTE=",
      "title": "5/23 Chargers Connect",
      "link": "https://content.govdelivery.com/accounts/VAEDUFCPS/bulletins/3e11133",
      "description": "\n        \n\n\n  \n\n\n\n\n\n\n\n\n\n\n\n\n\n\n\n\n\n\n\n\n\n\n\n\n\n\n\n\n\n\n\n\n\n\n\n<p><strong><a href=\"https://chantillyhs.fcps.edu/aggregator/sources/1?utm_content=&amp;utm_medium=email&amp;utm_name=&amp;utm_source=govdelivery&amp;utm_term=#modal-language-switcher\" target=\"_blank\">English</a> | <a href=\"https://chantillyhs.fcps.ed...",
      "pubDate": "Fri, 23 May 2025 14:00:13 -0500",
      "timestamp": 1748026813000,
      "feedName": "Chantilly High School",
      "category": "Chantilly High School",
      "feedSource": "http://www.fcps.edu/index.shtml",
      "feedInfo": {
        "title": "Chantilly High School News and announcements - Recent Updates",
        "description": "Chantilly High School News and announcements",
        "link": "http://www.fcps.edu/index.shtml"
      }
    },
    {
      "id": "NjUxMDUyOTM=",
      "title": "Little Run News: 5/23/25",
      "link": "https://content.govdelivery.com/accounts/VAEDUFCPS/bulletins/3e16d8d",
      "description": "\n        \n\n\n  \n\n\n\n\n\n\n\n<p><a></a>Having trouble viewing this email? <a href=\"https://content.govdelivery.com/accounts/VAEDUFCPS/bulletins/3e16d8d\">View it as a Web page</a>.</p>\n\n\n\n\n\n\n\n\n\n\n\n<a href=\"http://www2.fcps.edu/LittleRunES/?utm_campaign+=&amp;utm_medium=email&amp;utm_source=govdelivery\" targe...",
      "pubDate": "Fri, 23 May 2025 14:00:13 -0500",
      "timestamp": 1748026813000,
      "feedName": "Little Run Elementary School",
      "category": "Little Run Elementary School",
      "feedSource": "http://www.fcps.edu/index.shtml",
      "feedInfo": {
        "title": "Little Run Elementary School News and announcements - Recent Updates",
        "description": "Little Run Elementary School News and announcements",
        "link": "http://www.fcps.edu/index.shtml"
      }
    },
    {
      "id": "NjUwNjUyMjc=",
      "title": "From the Principal's Desk",
      "link": "https://content.govdelivery.com/accounts/VAEDUFCPS/bulletins/3e0d10b",
      "description": "\n        \n\n\n  \n\n\n\n\n\n\n\n\n\n\n\n\n\n\n\n\n\n\n\n\n\n\n\n\n\n\n\n\n\n\n\n\n\n\n\n\n  \n    <a href=\"https://fairfaxhs.fcps.edu/events?utm_content=&amp;utm_medium=email&amp;utm_name=&amp;utm_source=govdelivery&amp;utm_term=\" target=\"_blank\"></a>\n\n\nUpcoming Events\n<p>Â </p>\n<p><strong>May 26: Memorial Day, No School</strong></p>\n<p><s...",
      "pubDate": "Fri, 23 May 2025 14:00:12 -0500",
      "timestamp": 1748026812000,
      "feedName": "Fairfax High School",
      "category": "Fairfax High School",
      "feedSource": "http://www.fcps.edu/index.shtml",
      "feedInfo": {
        "title": "Fairfax HS News and Announcements - Recent Updates",
        "description": "Fairfax High School News and announcements",
        "link": "http://www.fcps.edu/index.shtml"
      }
    },
    {
      "id": "NjUwOTI5NzU=",
      "title": "Franklin MS Update- 05/23/2025",
      "link": "https://content.govdelivery.com/accounts/VAEDUFCPS/bulletins/3e13d6f",
      "description": "\n        \n\n\n  \n\n\n\n\n\n\n\n<p><a></a>Having trouble viewing this email? <a href=\"https://content.govdelivery.com/accounts/VAEDUFCPS/bulletins/3e13d6f\">View it as a Web page</a>.</p>\n\n\n\n\n\n\n\n\n\n\n\n<a href=\"https://franklinms.fcps.edu/?utm_campaign+=&amp;utm_medium=email&amp;utm_source=govdelivery\" target=\"_b...",
      "pubDate": "Fri, 23 May 2025 13:59:35 -0500",
      "timestamp": 1748026775000,
      "feedName": "Franklin Middle School",
      "category": "Franklin Middle School",
      "feedSource": "http://www.fcps.edu/index.shtml",
      "feedInfo": {
        "title": "Franklin Middle School News and announcements - Recent Updates",
        "description": "Franklin Middle School News and announcements",
        "link": "http://www.fcps.edu/index.shtml"
      }
    },
    {
      "id": "NjUwOTI5NzU=",
      "title": "Franklin MS Update- 05/23/2025",
      "link": "https://content.govdelivery.com/accounts/VAEDUFCPS/bulletins/3e13d6f",
      "description": "\n        \n\n\n  \n\n\n\n\n\n\n\n<p><a></a>Having trouble viewing this email? <a href=\"https://content.govdelivery.com/accounts/VAEDUFCPS/bulletins/3e13d6f\">View it as a Web page</a>.</p>\n\n\n\n\n\n\n\n\n\n\n\n<a href=\"https://franklinms.fcps.edu/?utm_campaign+=&amp;utm_medium=email&amp;utm_source=govdelivery\" target=\"_b...",
      "pubDate": "Fri, 23 May 2025 13:59:35 -0500",
      "timestamp": 1748026775000,
      "feedName": "Franklin Sherman Elementary School",
      "category": "Franklin Sherman Elementary School",
      "feedSource": "http://www.fcps.edu/index.shtml",
      "feedInfo": {
        "title": "Franklin Middle School News and announcements - Recent Updates",
        "description": "Franklin Middle School News and announcements",
        "link": "http://www.fcps.edu/index.shtml"
      }
    },
    {
      "id": "NjUxMjMwNDA=",
      "title": "Belle View Beat-May 23, 2025-Holiday Weekend Edition",
      "link": "https://content.govdelivery.com/accounts/VAEDUFCPS/bulletins/3e1b2e0",
      "description": "\n        \n\n\n  \n\n\n\n\n\n\n\n<p><a></a>Having trouble viewing this email? <a href=\"https://content.govdelivery.com/accounts/VAEDUFCPS/bulletins/3e1b2e0\">View it as a Web page</a>.</p>\n\n\n\n\n\n\n\n\n\n\n\n\n\n\n\n\n\n\n\n\n\n\n\n\n\n\n\n<a href=\"https://belleviewes.fcps.edu/?utm_campaign+=&amp;utm_medium=email&amp;utm_source=govdel...",
      "pubDate": "Fri, 23 May 2025 13:58:33 -0500",
      "timestamp": 1748026713000,
      "feedName": "Belle View Elementary School",
      "category": "Belle View Elementary School",
      "feedSource": "http://www.fcps.edu/index.shtml",
      "feedInfo": {
        "title": "Belle View Elementary School News and announcements - Recent Updates",
        "description": "Belle View Elementary School News and announcements",
        "link": "http://www.fcps.edu/index.shtml"
      }
    },
    {
      "id": "NjUxMzQwNzc=",
      "title": "Assistant Principal Announcement",
      "link": "https://content.govdelivery.com/accounts/VAEDUFCPS/bulletins/3e1ddfd",
      "description": "\n        \n\n\n  \n\n\n\n\n\n\n\n<p><a></a>Having trouble viewing this email? <a href=\"https://content.govdelivery.com/accounts/VAEDUFCPS/bulletins/3e1ddfd\">View it as a Web page</a>.</p>\n\n\n\n\n\n\n\n\n\n\n\n<a href=\"https://mantuaes.fcps.edu/?utm_campaign+=&amp;utm_medium=email&amp;utm_source=govdelivery\" target=\"_bla...",
      "pubDate": "Fri, 23 May 2025 13:44:13 -0500",
      "timestamp": 1748025853000,
      "feedName": "Mantua Elementary School",
      "category": "Mantua Elementary School",
      "feedSource": "http://www.fcps.edu/index.shtml",
      "feedInfo": {
        "title": "Mantua Elementary School News and announcements - Recent Updates",
        "description": "Mantua Elementary School News and announcements",
        "link": "http://www.fcps.edu/index.shtml"
      }
    }
  ],
  "hasNext": true,
  "hasPrev": true
}