{
  "page": 255,
  "totalPages": 268,
  "totalItems": 5354,
  "itemsPerPage": 20,
  "items": [
    {
      "id": "NTQwNjk5NDg=",
      "title": "Bulldog Breakdown 11/20 - 11/26",
      "link": "https://content.govdelivery.com/accounts/VAEDUFCPS/bulletins/3390abc",
      "description": "\n        \n\n\n  \n\n\n\n\n\n\n\n<p><a></a>Having trouble viewing this email? <a href=\"https://content.govdelivery.com/accounts/VAEDUFCPS/bulletins/3390abc\">View it as a Web page</a>.</p>\n\n\n\n\n\n\n\n\n\n\n\n<a href=\"https://westfieldhs.fcps.edu/?utm_campaign+=&amp;utm_medium=email&amp;utm_source=govdelivery\" target=\"_...",
      "pubDate": "Sun, 20 Nov 2022 18:36:07 -0600",
      "timestamp": 1668990967000,
      "feedName": "Westfield High School",
      "category": "Westfield High School",
      "feedSource": "http://www.fcps.edu/index.shtml",
      "feedInfo": {
        "title": "Westfield High School News and announcements - Recent Updates",
        "description": "Westfield High School News and announcements",
        "link": "http://www.fcps.edu/index.shtml"
      }
    },
    {
      "id": "NTM5ODQ1Mjg=",
      "title": "Bulldog Breakdown 11/13 - 11/19",
      "link": "https://content.govdelivery.com/accounts/VAEDUFCPS/bulletins/337bd10",
      "description": "\n        \n\n\n  \n\n\n\n\n\n\n\n<p><a></a>Having trouble viewing this email? <a href=\"https://content.govdelivery.com/accounts/VAEDUFCPS/bulletins/337bd10\">View it as a Web page</a>.</p>\n\n\n\n\n\n\n\n\n\n\n\n<a href=\"https://westfieldhs.fcps.edu/?utm_campaign+=&amp;utm_medium=email&amp;utm_source=govdelivery\" target=\"_...",
      "pubDate": "Sun, 13 Nov 2022 19:38:25 -0600",
      "timestamp": 1668389905000,
      "feedName": "Westfield High School",
      "category": "Westfield High School",
      "feedSource": "http://www.fcps.edu/index.shtml",
      "feedInfo": {
        "title": "Westfield High School News and announcements - Recent Updates",
        "description": "Westfield High School News and announcements",
        "link": "http://www.fcps.edu/index.shtml"
      }
    },
    {
      "id": "NTM5Mzg1NDc=",
      "title": "2022 November Newsletter",
      "link": "https://content.govdelivery.com/accounts/VAEDUFCPS/bulletins/3370973",
      "description": "\n        \n\n\n  \n\n\n\n\n\n\n\n<p><a></a>Having trouble viewing this email? <a href=\"https://content.govdelivery.com/accounts/VAEDUFCPS/bulletins/3370973\">View it as a Web page</a>.</p>\n\n\n\n\n\n\n\n\n\n\n\n<a href=\"https://www.fcps.edu/school-board/karen-keys-gamarra?utm_campaign+=&amp;utm_medium=email&amp;utm_source...",
      "pubDate": "Fri, 11 Nov 2022 11:27:39 -0600",
      "timestamp": 1668187659000,
      "feedName": "FCPS School Board Member at Large (Ryan McElveen)",
      "category": "FCPS School Board Member at Large (Ryan McElveen)",
      "feedSource": "http://www.fcps.edu/index.shtml",
      "feedInfo": {
        "title": "At-Large Member - Ryan McElveen - Recent Updates",
        "description": "At-Large Member - Ryan McElveen - Recent Updates",
        "link": "http://www.fcps.edu/index.shtml"
      }
    },
    {
      "id": "NTM5MDI0NTY=",
      "title": "Bulldog Breakdown 11/6 - 11/12",
      "link": "https://content.govdelivery.com/accounts/VAEDUFCPS/bulletins/3367c78",
      "description": "\n        \n\n\n  \n\n\n\n\n\n\n\n<p><a></a>Having trouble viewing this email? <a href=\"https://content.govdelivery.com/accounts/VAEDUFCPS/bulletins/3367c78\">View it as a Web page</a>.</p>\n\n\n\n\n\n\n\n\n\n\n\n<a href=\"https://westfieldhs.fcps.edu/?utm_campaign+=&amp;utm_medium=email&amp;utm_source=govdelivery\" target=\"_...",
      "pubDate": "Sun, 06 Nov 2022 16:15:26 -0600",
      "timestamp": 1667772926000,
      "feedName": "Westfield High School",
      "category": "Westfield High School",
      "feedSource": "http://www.fcps.edu/index.shtml",
      "feedInfo": {
        "title": "Westfield High School News and announcements - Recent Updates",
        "description": "Westfield High School News and announcements",
        "link": "http://www.fcps.edu/index.shtml"
      }
    },
    {
      "id": "NTM4NTI3ODA=",
      "title": "Picture Retakes Tomorrow!",
      "link": "https://content.govdelivery.com/accounts/VAEDUFCPS/bulletins/335ba6c",
      "description": "\n        \n\n\n  \n\n\n\n\n\n\n\n<p><a></a>Having trouble viewing this email? <a href=\"https://content.govdelivery.com/accounts/VAEDUFCPS/bulletins/335ba6c\">View it as a Web page</a>.</p>\n\n\n\n\n\n\n\n\n\n\n\n<a href=\"https://waynewoodes.fcps.edu/?utm_campaign+=&amp;utm_medium=email&amp;utm_source=govdelivery\" target=\"_...",
      "pubDate": "Wed, 02 Nov 2022 10:23:02 -0500",
      "timestamp": 1667402582000,
      "feedName": "Waynewood Elementary School",
      "category": "Waynewood Elementary School",
      "feedSource": "http://www.fcps.edu/index.shtml",
      "feedInfo": {
        "title": "Waynewood Elementary School News and announcements - Recent Updates",
        "description": "Waynewood Elementary School News and announcements",
        "link": "http://www.fcps.edu/index.shtml"
      }
    },
    {
      "id": "NTM4NDQ4NDQ=",
      "title": "Gobbler Gallop Registration Deadline Tonight!",
      "link": "https://content.govdelivery.com/accounts/VAEDUFCPS/bulletins/3359b6c",
      "description": "\n        \n\n\n  \n\n\n\n\n\n\n\n<p><a></a>Having trouble viewing this email? <a href=\"https://content.govdelivery.com/accounts/VAEDUFCPS/bulletins/3359b6c\">View it as a Web page</a>.</p>\n\n\n\n\n\n\n\n\n\n\n\n<a href=\"https://waynewoodes.fcps.edu/?utm_campaign+=&amp;utm_medium=email&amp;utm_source=govdelivery\" target=\"_...",
      "pubDate": "Tue, 01 Nov 2022 16:06:27 -0500",
      "timestamp": 1667336787000,
      "feedName": "Waynewood Elementary School",
      "category": "Waynewood Elementary School",
      "feedSource": "http://www.fcps.edu/index.shtml",
      "feedInfo": {
        "title": "Waynewood Elementary School News and announcements - Recent Updates",
        "description": "Waynewood Elementary School News and announcements",
        "link": "http://www.fcps.edu/index.shtml"
      }
    },
    {
      "id": "NTM4MTc4ODQ=",
      "title": "Bulldog Breakdown 10/30 - 11/5",
      "link": "https://content.govdelivery.com/accounts/VAEDUFCPS/bulletins/335321c",
      "description": "\n        \n\n\n  \n\n\n\n\n\n\n\n<p><a></a>Having trouble viewing this email? <a href=\"https://content.govdelivery.com/accounts/VAEDUFCPS/bulletins/335321c\">View it as a Web page</a>.</p>\n\n\n\n\n\n\n\n\n\n\n\n<a href=\"https://westfieldhs.fcps.edu/?utm_campaign+=&amp;utm_medium=email&amp;utm_source=govdelivery\" target=\"_...",
      "pubDate": "Sun, 30 Oct 2022 19:12:42 -0500",
      "timestamp": 1667175162000,
      "feedName": "Westfield High School",
      "category": "Westfield High School",
      "feedSource": "http://www.fcps.edu/index.shtml",
      "feedInfo": {
        "title": "Westfield High School News and announcements - Recent Updates",
        "description": "Westfield High School News and announcements",
        "link": "http://www.fcps.edu/index.shtml"
      }
    },
    {
      "id": "NTM3OTMwMTc=",
      "title": "Drug Take Back Day - Saturday, October 29, 2022",
      "link": "https://content.govdelivery.com/accounts/VAEDUFCPS/bulletins/334d0f9",
      "description": "\n        \n\n\n  \n\n\n\n\n\n\n\n<p><a></a>Having trouble viewing this email? <a href=\"https://content.govdelivery.com/accounts/VAEDUFCPS/bulletins/334d0f9\">View it as a Web page</a>.</p>\n\n\n\n\n\n\n\n\n\n\n\n<a href=\"https://westfieldhs.fcps.edu/?utm_campaign+=&amp;utm_medium=email&amp;utm_source=govdelivery\" target=\"_...",
      "pubDate": "Fri, 28 Oct 2022 06:36:45 -0500",
      "timestamp": 1666957005000,
      "feedName": "Westfield High School",
      "category": "Westfield High School",
      "feedSource": "http://www.fcps.edu/index.shtml",
      "feedInfo": {
        "title": "Westfield High School News and announcements - Recent Updates",
        "description": "Westfield High School News and announcements",
        "link": "http://www.fcps.edu/index.shtml"
      }
    },
    {
      "id": "NTM3MzE4MzA=",
      "title": "*CALENDAR UPDATE* Bulldog Breakdown 10/23 - 10/29",
      "link": "https://content.govdelivery.com/accounts/VAEDUFCPS/bulletins/333e1f6",
      "description": "\n        \n\n\n  \n\n\n\n\n\n\n\n<p><a></a>Having trouble viewing this email? <a href=\"https://content.govdelivery.com/accounts/VAEDUFCPS/bulletins/333e1f6\">View it as a Web page</a>.</p>\n\n\n\n\n\n\n\n\n\n\n\n<a href=\"https://westfieldhs.fcps.edu/?utm_campaign+=&amp;utm_medium=email&amp;utm_source=govdelivery\" target=\"_...",
      "pubDate": "Sun, 23 Oct 2022 10:33:25 -0500",
      "timestamp": 1666539205000,
      "feedName": "Westfield High School",
      "category": "Westfield High School",
      "feedSource": "http://www.fcps.edu/index.shtml",
      "feedInfo": {
        "title": "Westfield High School News and announcements - Recent Updates",
        "description": "Westfield High School News and announcements",
        "link": "http://www.fcps.edu/index.shtml"
      }
    },
    {
      "id": "NTM3MzE3Nzc=",
      "title": "Bulldog Breakdown 10/23 - 10/29",
      "link": "https://content.govdelivery.com/accounts/VAEDUFCPS/bulletins/333e1c1",
      "description": "\n        \n\n\n  \n\n\n\n\n\n\n\n<p><a></a>Having trouble viewing this email? <a href=\"https://content.govdelivery.com/accounts/VAEDUFCPS/bulletins/333e1c1\">View it as a Web page</a>.</p>\n\n\n\n\n\n\n\n\n\n\n\n<a href=\"https://westfieldhs.fcps.edu/?utm_campaign+=&amp;utm_medium=email&amp;utm_source=govdelivery\" target=\"_...",
      "pubDate": "Sun, 23 Oct 2022 10:14:57 -0500",
      "timestamp": 1666538097000,
      "feedName": "Westfield High School",
      "category": "Westfield High School",
      "feedSource": "http://www.fcps.edu/index.shtml",
      "feedInfo": {
        "title": "Westfield High School News and announcements - Recent Updates",
        "description": "Westfield High School News and announcements",
        "link": "http://www.fcps.edu/index.shtml"
      }
    },
    {
      "id": "NTM2NTI0NDU=",
      "title": "Bulldog Breakdown 10/16 - 10/22",
      "link": "https://content.govdelivery.com/accounts/VAEDUFCPS/bulletins/332abdd",
      "description": "\n        \n\n\n  \n\n\n\n\n\n\n\n<p><a></a>Having trouble viewing this email? <a href=\"https://content.govdelivery.com/accounts/VAEDUFCPS/bulletins/332abdd\">View it as a Web page</a>.</p>\n\n\n\n\n\n\n\n\n\n\n\n<a href=\"https://westfieldhs.fcps.edu/?utm_campaign+=&amp;utm_medium=email&amp;utm_source=govdelivery\" target=\"_...",
      "pubDate": "Sun, 16 Oct 2022 20:10:08 -0500",
      "timestamp": 1665969008000,
      "feedName": "Westfield High School",
      "category": "Westfield High School",
      "feedSource": "http://www.fcps.edu/index.shtml",
      "feedInfo": {
        "title": "Westfield High School News and announcements - Recent Updates",
        "description": "Westfield High School News and announcements",
        "link": "http://www.fcps.edu/index.shtml"
      }
    },
    {
      "id": "NTM2Mjk5MTY=",
      "title": "Week End 10.14.22",
      "link": "https://content.govdelivery.com/accounts/VAEDUFCPS/bulletins/33253dc",
      "description": "\n        \n\n\n  \n\n\n\n\n\n\n\n<p><a></a>Having trouble viewing this email? <a href=\"https://content.govdelivery.com/accounts/VAEDUFCPS/bulletins/33253dc\">View it as a Web page</a>.</p>\n\n\n\n\n\n\n\n\n\n\n\n<a href=\"http://www2.fcps.edu/SandburgMS/?utm_campaign+=&amp;utm_medium=email&amp;utm_source=govdelivery\" target...",
      "pubDate": "Fri, 14 Oct 2022 17:00:16 -0500",
      "timestamp": 1665784816000,
      "feedName": "Sandburg Middle School",
      "category": "Sandburg Middle School",
      "feedSource": "http://www.fcps.edu/index.shtml",
      "feedInfo": {
        "title": "Sandburg Middle School News and Announcements - Recent Updates",
        "description": "Sandburg Middle School News and announcements",
        "link": "http://www.fcps.edu/index.shtml"
      }
    },
    {
      "id": "NTM1ODE2NjE=",
      "title": "Bulldog Breakdown 10/9 - 10/15",
      "link": "https://content.govdelivery.com/accounts/VAEDUFCPS/bulletins/331975d",
      "description": "\n        \n\n\n  \n\n\n\n\n\n\n\n<p><a></a>Having trouble viewing this email? <a href=\"https://content.govdelivery.com/accounts/VAEDUFCPS/bulletins/331975d\">View it as a Web page</a>.</p>\n\n\n\n\n\n\n\n\n\n\n\n<a href=\"https://westfieldhs.fcps.edu/?utm_campaign+=&amp;utm_medium=email&amp;utm_source=govdelivery\" target=\"_...",
      "pubDate": "Tue, 11 Oct 2022 05:00:04 -0500",
      "timestamp": 1665482404000,
      "feedName": "Westfield High School",
      "category": "Westfield High School",
      "feedSource": "http://www.fcps.edu/index.shtml",
      "feedInfo": {
        "title": "Westfield High School News and announcements - Recent Updates",
        "description": "Westfield High School News and announcements",
        "link": "http://www.fcps.edu/index.shtml"
      }
    },
    {
      "id": "NTM0ODYxMzA=",
      "title": "Bulldog Breakdown 10/2 - 10/8",
      "link": "https://content.govdelivery.com/accounts/VAEDUFCPS/bulletins/3302232",
      "description": "\n        \n\n\n  \n\n\n\n\n\n\n\n<p><a></a>Having trouble viewing this email? <a href=\"https://content.govdelivery.com/accounts/VAEDUFCPS/bulletins/3302232\">View it as a Web page</a>.</p>\n\n\n\n\n\n\n\n\n\n\n\n<a href=\"https://westfieldhs.fcps.edu/?utm_campaign+=&amp;utm_medium=email&amp;utm_source=govdelivery\" target=\"_...",
      "pubDate": "Sun, 02 Oct 2022 16:17:51 -0500",
      "timestamp": 1664745471000,
      "feedName": "Westfield High School",
      "category": "Westfield High School",
      "feedSource": "http://www.fcps.edu/index.shtml",
      "feedInfo": {
        "title": "Westfield High School News and announcements - Recent Updates",
        "description": "Westfield High School News and announcements",
        "link": "http://www.fcps.edu/index.shtml"
      }
    },
    {
      "id": "NTM0Njc1NDI=",
      "title": "Week End 9.30.22",
      "link": "https://content.govdelivery.com/accounts/VAEDUFCPS/bulletins/32fd996",
      "description": "\n        \n\n\n  \n\n\n\n\n\n\n\n<p><a></a>Having trouble viewing this email? <a href=\"https://content.govdelivery.com/accounts/VAEDUFCPS/bulletins/32fd996\">View it as a Web page</a>.</p>\n\n\n\n\n\n\n\n\n\n\n\n<a href=\"http://www2.fcps.edu/SandburgMS/?utm_campaign+=&amp;utm_medium=email&amp;utm_source=govdelivery\" target...",
      "pubDate": "Fri, 30 Sep 2022 16:00:26 -0500",
      "timestamp": 1664571626000,
      "feedName": "Sandburg Middle School",
      "category": "Sandburg Middle School",
      "feedSource": "http://www.fcps.edu/index.shtml",
      "feedInfo": {
        "title": "Sandburg Middle School News and Announcements - Recent Updates",
        "description": "Sandburg Middle School News and announcements",
        "link": "http://www.fcps.edu/index.shtml"
      }
    },
    {
      "id": "NTM0NTEwMTI=",
      "title": "Science Olympiad Information Session (virtual)",
      "link": "https://content.govdelivery.com/accounts/VAEDUFCPS/bulletins/32f9904",
      "description": "\n        \n\n\n  \n\n\n\n\n\n\n\n<p><a></a>Having trouble viewing this email? <a href=\"https://content.govdelivery.com/accounts/VAEDUFCPS/bulletins/32f9904\">View it as a Web page</a>.</p>\n\n\n\n\n\n\n\n\n\n\n\n<a href=\"https://armstronges.fcps.edu/?utm_campaign+=&amp;utm_medium=email&amp;utm_source=govdelivery\" target=\"_...",
      "pubDate": "Thu, 29 Sep 2022 10:12:09 -0500",
      "timestamp": 1664464329000,
      "feedName": "Armstrong Elementary School",
      "category": "Armstrong Elementary School",
      "feedSource": "http://www.fcps.edu/index.shtml",
      "feedInfo": {
        "title": "Armstrong Elementary School News and announcements - Recent Updates",
        "description": "Armstrong Elementary School News and announcements",
        "link": "http://www.fcps.edu/index.shtml"
      }
    },
    {
      "id": "NTM0MjIzOTg=",
      "title": "Clean Kitchen Club - Noodles &amp; Co.",
      "link": "https://content.govdelivery.com/accounts/VAEDUFCPS/bulletins/32f293e",
      "description": "\n        \n\n\n  \n\n\n\n\n\n\n\n<p><a></a>Having trouble viewing this email? <a href=\"https://content.govdelivery.com/accounts/VAEDUFCPS/bulletins/32f293e\">View it as a Web page</a>.</p>\n\n\n\n\n\n\n\n\n\n\n\n<a href=\"https://waynewoodes.fcps.edu/?utm_campaign+=&amp;utm_medium=email&amp;utm_source=govdelivery\" target=\"_...",
      "pubDate": "Wed, 28 Sep 2022 05:00:16 -0500",
      "timestamp": 1664359216000,
      "feedName": "Waynewood Elementary School",
      "category": "Waynewood Elementary School",
      "feedSource": "http://www.fcps.edu/index.shtml",
      "feedInfo": {
        "title": "Waynewood Elementary School News and announcements - Recent Updates",
        "description": "Waynewood Elementary School News and announcements",
        "link": "http://www.fcps.edu/index.shtml"
      }
    },
    {
      "id": "NTMzMDY0OTU=",
      "title": "2022 September Newsletter",
      "link": "https://content.govdelivery.com/accounts/VAEDUFCPS/bulletins/32d647f",
      "description": "\n        \n\n\n  \n\n\n\n\n\n\n\n<p><a></a>Having trouble viewing this email? <a href=\"https://content.govdelivery.com/accounts/VAEDUFCPS/bulletins/32d647f\">View it as a Web page</a>.</p>\n\n\n\n\n\n\n\n\n\n\n\n<a href=\"https://www.fcps.edu/school-board/karen-keys-gamarra?utm_campaign+=&amp;utm_medium=email&amp;utm_source...",
      "pubDate": "Mon, 26 Sep 2022 06:59:33 -0500",
      "timestamp": 1664193573000,
      "feedName": "FCPS School Board Member at Large (Ryan McElveen)",
      "category": "FCPS School Board Member at Large (Ryan McElveen)",
      "feedSource": "http://www.fcps.edu/index.shtml",
      "feedInfo": {
        "title": "At-Large Member - Ryan McElveen - Recent Updates",
        "description": "At-Large Member - Ryan McElveen - Recent Updates",
        "link": "http://www.fcps.edu/index.shtml"
      }
    },
    {
      "id": "NTM0MDQ0Njc=",
      "title": "Bulldog Breakdown 9/25 - 10/1",
      "link": "https://content.govdelivery.com/accounts/VAEDUFCPS/bulletins/32ee333",
      "description": "\n        \n\n\n  \n\n\n\n\n\n\n\n<p><a></a>Having trouble viewing this email? <a href=\"https://content.govdelivery.com/accounts/VAEDUFCPS/bulletins/32ee333\">View it as a Web page</a>.</p>\n\n\n\n\n\n\n\n\n\n\n\n<a href=\"https://westfieldhs.fcps.edu/?utm_campaign+=&amp;utm_medium=email&amp;utm_source=govdelivery\" target=\"_...",
      "pubDate": "Sun, 25 Sep 2022 18:45:11 -0500",
      "timestamp": 1664149511000,
      "feedName": "Westfield High School",
      "category": "Westfield High School",
      "feedSource": "http://www.fcps.edu/index.shtml",
      "feedInfo": {
        "title": "Westfield High School News and announcements - Recent Updates",
        "description": "Westfield High School News and announcements",
        "link": "http://www.fcps.edu/index.shtml"
      }
    },
    {
      "id": "NTMxODA5ODk=",
      "title": "FCPS Wellness Newsletter Fall 2022",
      "link": "https://content.govdelivery.com/accounts/VAEDUFCPS/bulletins/32b7a3d",
      "description": "\n        \n\n\n  \n\n\n\n\n\n\n\n<p>Having trouble viewing this email? <a href=\"https://content.govdelivery.com/accounts/VAEDUFCPS/bulletins/32b7a3d\">View it as a Web page</a>.</p>\n\n\n\n\n\n\n\n\n\n\n\n\n\n\n\n\n\n\n\n\n\n\n\n\n\n\n\n<p><strong>Fall 2022</strong></p>\n<p> </p>\nFCPS Wellness Newsletter\n\n#FightFlu This Fall\n\n<p><br />Flu ...",
      "pubDate": "Fri, 23 Sep 2022 09:00:41 -0500",
      "timestamp": 1663941641000,
      "feedName": "FCPS Wellness Newsletter",
      "category": "FCPS Wellness Newsletter",
      "feedSource": "http://www.fcps.edu/",
      "feedInfo": {
        "title": "FCPS Wellness - Recent Updates",
        "description": "FCPS Wellness - Recent Updates",
        "link": "http://www.fcps.edu/"
      }
    }
  ],
  "hasNext": true,
  "hasPrev": true
}