{
  "page": 133,
  "totalPages": 268,
  "totalItems": 5354,
  "itemsPerPage": 20,
  "items": [
    {
      "id": "NjQ2NzI3NTI=",
      "title": "Hunters Woods ES News &amp; Notes: April 11, 2025",
      "link": "https://content.govdelivery.com/accounts/VAEDUFCPS/bulletins/3dad3f0",
      "description": "\n        \n\n\n  \n\n\n\n\n\n\n\n<p><a></a>Having trouble viewing this email? <a href=\"https://content.govdelivery.com/accounts/VAEDUFCPS/bulletins/3dad3f0\">View it as a Web page</a>.</p>\n\n\n\n\n\n\n\n\n\n\n\n<a href=\"http://www2.fcps.edu/HuntersWoodsES/?utm_campaign+=&amp;utm_medium=email&amp;utm_source=govdelivery\" ta...",
      "pubDate": "Fri, 11 Apr 2025 15:25:21 -0500",
      "timestamp": 1744403121000,
      "feedName": "Hunters Woods Elementary School",
      "category": "Hunters Woods Elementary School",
      "feedSource": "http://www.fcps.edu/index.shtml",
      "feedInfo": {
        "title": "Hunters Woods Elementary School News and Announcements - Recent Updates",
        "description": "Hunters Woods Elementary School News and Announcements",
        "link": "http://www.fcps.edu/index.shtml"
      }
    },
    {
      "id": "NjQ3MTIzMTQ=",
      "title": "Eagle View E-Newsletter: April 11, 2025",
      "link": "https://content.govdelivery.com/accounts/VAEDUFCPS/bulletins/3db6e7a",
      "description": "\n        \n\n\n  \n\n\n\n\n\n\n\n<p><a></a>Having trouble viewing this email? <a href=\"https://content.govdelivery.com/accounts/VAEDUFCPS/bulletins/3db6e7a\">View it as a Web page</a>.</p>\n\n\n\n\n\n\n\n\n\n\n\n<a href=\"https://eagleviewes.fcps.edu/?utm_campaign+=&amp;utm_medium=email&amp;utm_source=govdelivery\" target=\"_...",
      "pubDate": "Fri, 11 Apr 2025 15:25:12 -0500",
      "timestamp": 1744403112000,
      "feedName": "Eagle View Elementary School",
      "category": "Eagle View Elementary School",
      "feedSource": "http://www.fcps.edu/index.shtml",
      "feedInfo": {
        "title": "Eagle View Elementary School News and announcements - Recent Updates",
        "description": "Eagle View Elementary School News and announcements",
        "link": "http://www.fcps.edu/index.shtml"
      }
    },
    {
      "id": "NjQ3MDkyNTY=",
      "title": "News From the Nest 04.11.25",
      "link": "https://content.govdelivery.com/accounts/VAEDUFCPS/bulletins/3db6288",
      "description": "\n        \n\n\n  \n\n\n\n\n\n\n\n<p><a></a>Having trouble viewing this email? <a href=\"https://content.govdelivery.com/accounts/VAEDUFCPS/bulletins/3db6288\">View it as a Web page</a>.</p>\n\n\n\n\n\n\n\n\n\n\n\n<a href=\"https://crestwoodes.fcps.edu/?utm_campaign+=&amp;utm_medium=email&amp;utm_source=govdelivery\" target=\"_...",
      "pubDate": "Fri, 11 Apr 2025 15:17:53 -0500",
      "timestamp": 1744402673000,
      "feedName": "Crestwood Elementary School",
      "category": "Crestwood Elementary School",
      "feedSource": "http://www.fcps.edu/index.shtml",
      "feedInfo": {
        "title": "Crestwood Elementary School News and announcements - Recent Updates",
        "description": "Crestwood Elementary School News and announcements",
        "link": "http://www.fcps.edu/index.shtml"
      }
    },
    {
      "id": "NjQ2Njg0NzE=",
      "title": "Weekly Message",
      "link": "https://content.govdelivery.com/accounts/VAEDUFCPS/bulletins/3dac337",
      "description": "\n        \n\n\n  \n\n\n\n\n\n\n\n<p><a></a>Having trouble viewing this email? <a href=\"https://content.govdelivery.com/accounts/VAEDUFCPS/bulletins/3dac337\">View it as a Web page</a>.</p>\n\n\n\n\n\n\n\n\n\n\n\n<a href=\"https://oaktones.fcps.edu/?utm_content=&amp;utm_medium=email&amp;utm_name=&amp;utm_source=govdelivery&a...",
      "pubDate": "Fri, 11 Apr 2025 15:10:12 -0500",
      "timestamp": 1744402212000,
      "feedName": "Oakton Elementary School",
      "category": "Oakton Elementary School",
      "feedSource": "http://www.fcps.edu/index.shtml",
      "feedInfo": {
        "title": "Oakton Elementary School News and announcements - Recent Updates",
        "description": "Oakton Elementary School News and announcements",
        "link": "http://www.fcps.edu/index.shtml"
      }
    },
    {
      "id": "NjQ2Njc0MzE=",
      "title": "04-11-25 Panther Press",
      "link": "https://content.govdelivery.com/accounts/VAEDUFCPS/bulletins/3dabf27",
      "description": "\n        \n\n\n  \n\n\n\n\n\n\n\n<p><a></a>Having trouble viewing this email? <a href=\"https://content.govdelivery.com/accounts/VAEDUFCPS/bulletins/3dabf27\">View it as a Web page</a>.</p>\n\n\n\n\n\n\n\n\n\n\n\n<a href=\"http://www2.fcps.edu/SpringHillES/?utm_campaign+=&amp;utm_medium=email&amp;utm_source=govdelivery\" targ...",
      "pubDate": "Fri, 11 Apr 2025 15:09:47 -0500",
      "timestamp": 1744402187000,
      "feedName": "Spring Hill Elementary School",
      "category": "Spring Hill Elementary School",
      "feedSource": "http://www.fcps.edu/index.shtml",
      "feedInfo": {
        "title": "Spring Hill Elementary School News and Announcements - Recent Updates",
        "description": "Spring Hill Elementary School News and announcements",
        "link": "http://www.fcps.edu/index.shtml"
      }
    },
    {
      "id": "NjQ3MDY4MTk=",
      "title": "Panther Press- April 11, 2025",
      "link": "https://content.govdelivery.com/accounts/VAEDUFCPS/bulletins/3db5903",
      "description": "\n        \n\n\n  \n\n\n\n\n\n\n\n<p><a></a>Having trouble viewing this email? <a href=\"https://content.govdelivery.com/accounts/VAEDUFCPS/bulletins/3db5903\">View it as a Web page</a>.</p>\n\n\n\n\n\n\n\n\n\n\n\n<a href=\"https://mountvernonwoodses.fcps.edu/?utm_campaign+=&amp;utm_medium=email&amp;utm_source=govdelivery\" ta...",
      "pubDate": "Fri, 11 Apr 2025 15:03:54 -0500",
      "timestamp": 1744401834000,
      "feedName": "Mount Vernon Woods Elementary School",
      "category": "Mount Vernon Woods Elementary School",
      "feedSource": "http://www.fcps.edu/index.shtml",
      "feedInfo": {
        "title": "Mount Vernon Woods Elementary School News and announcements - Recent Updates",
        "description": "Mount Vernon Woods Elementary School News and announcements",
        "link": "http://www.fcps.edu/index.shtml"
      }
    },
    {
      "id": "NjQ2OTU5NTI=",
      "title": "Bulldog Buzz 04/11/25",
      "link": "https://content.govdelivery.com/accounts/VAEDUFCPS/bulletins/3db2e90",
      "description": "\n        \n\n\n  \n\n\n\n\n\n\n\n<p><a></a>Having trouble viewing this email? <a href=\"https://content.govdelivery.com/accounts/VAEDUFCPS/bulletins/3db2e90\">View it as a Web page</a>.</p>\n\n\n\n\n\n\n\n\n\n\n\n<a href=\"http://www2.fcps.edu/BucknellES/?utm_campaign+=&amp;utm_medium=email&amp;utm_source=govdelivery\" target...",
      "pubDate": "Fri, 11 Apr 2025 15:00:21 -0500",
      "timestamp": 1744401621000,
      "feedName": "Bucknell Elementary School",
      "category": "Bucknell Elementary School",
      "feedSource": "http://live-fcps-bucknell-es.pantheonsite.io/newsfeed",
      "feedInfo": {
        "title": "Bucknell Elementary School News and Announcements",
        "description": "Bucknell Elementary School News and announcements",
        "link": "http://live-fcps-bucknell-es.pantheonsite.io/newsfeed"
      }
    },
    {
      "id": "NjQ3MTAxMzg=",
      "title": "Family Newsletter April 11, 2025",
      "link": "https://content.govdelivery.com/accounts/VAEDUFCPS/bulletins/3db65fa",
      "description": "\n        \n\n\n  \n\n\n\n\n\n\n\n<p><a></a>Having trouble viewing this email? <a href=\"https://content.govdelivery.com/accounts/VAEDUFCPS/bulletins/3db65fa\">View it as a Web page</a>.</p>\n\n\n\n\n\n\n\n\n\n\n\n<a href=\"https://camerones.fcps.edu/?utm_campaign+=&amp;utm_medium=email&amp;utm_source=govdelivery\" target=\"_bl...",
      "pubDate": "Fri, 11 Apr 2025 15:00:18 -0500",
      "timestamp": 1744401618000,
      "feedName": "Cameron Elementary School",
      "category": "Cameron Elementary School",
      "feedSource": "http://www.fcps.edu/index.shtml",
      "feedInfo": {
        "title": "Cameron Elementary School News and announcements - Recent Updates",
        "description": "Cameron Elementary School News and announcements",
        "link": "http://www.fcps.edu/index.shtml"
      }
    },
    {
      "id": "NjQ3MTgxNDA=",
      "title": "Groveton ES: Weekly Newsletter",
      "link": "https://content.govdelivery.com/accounts/VAEDUFCPS/bulletins/3db853c",
      "description": "\n        \n\n\n  \n\n\n\n\n\n\n\n<p><a></a>Having trouble viewing this email? <a href=\"https://content.govdelivery.com/accounts/VAEDUFCPS/bulletins/3db853c\">View it as a Web page</a>.</p>\n\n\n\n\n\n\n\n\n\n\n\n<a href=\"http://www2.fcps.edu/GrovetonES/?utm_campaign+=&amp;utm_medium=email&amp;utm_source=govdelivery\" target...",
      "pubDate": "Fri, 11 Apr 2025 15:00:17 -0500",
      "timestamp": 1744401617000,
      "feedName": "Groveton Elementary School",
      "category": "Groveton Elementary School",
      "feedSource": "http://www.fcps.edu/index.shtml",
      "feedInfo": {
        "title": "Groveton Elementary School News and announcements - Recent Updates",
        "description": "Groveton Elementary School News and announcements",
        "link": "http://www.fcps.edu/index.shtml"
      }
    },
    {
      "id": "NjQ3MTY0MTE=",
      "title": "Cardinal Connection: April 11, 2025",
      "link": "https://content.govdelivery.com/accounts/VAEDUFCPS/bulletins/3db7e7b",
      "description": "\n        \n\n\n  \n\n\n\n\n\n\n\n<p><a></a>Having trouble viewing this email? <a href=\"https://content.govdelivery.com/accounts/VAEDUFCPS/bulletins/3db7e7b\">View it as a Web page</a>.</p>\n\n\n\n\n\n\n\n\n\n\n\n<a href=\"https://cunninghamparkes.fcps.edu/?utm_campaign+=&amp;utm_medium=email&amp;utm_source=govdelivery\" targ...",
      "pubDate": "Fri, 11 Apr 2025 15:00:15 -0500",
      "timestamp": 1744401615000,
      "feedName": "Cunningham Park Elementary School",
      "category": "Cunningham Park Elementary School",
      "feedSource": "http://www.fcps.edu/index.shtml",
      "feedInfo": {
        "title": "Cunningham Park Elementary School News - Recent Updates",
        "description": "Cunningham Park Elementary School News and announcements",
        "link": "http://www.fcps.edu/index.shtml"
      }
    },
    {
      "id": "NjQ3MDk2NDc=",
      "title": "Weyanoke Update for April 11, 2025",
      "link": "https://content.govdelivery.com/accounts/VAEDUFCPS/bulletins/3db640f",
      "description": "\n        \n\n\n  \n\n\n\n\n\n\n\n<p><a></a>Having trouble viewing this email? <a href=\"https://content.govdelivery.com/accounts/VAEDUFCPS/bulletins/3db640f\">View it as a Web page</a>.</p>\n\n\n\n\n\n\n\n\n\n\n\n<a href=\"https://weyanokees.fcps.edu/?utm_campaign+=&amp;utm_medium=email&amp;utm_source=govdelivery\" target=\"_b...",
      "pubDate": "Fri, 11 Apr 2025 15:00:13 -0500",
      "timestamp": 1744401613000,
      "feedName": "Weyanoke Elementary School",
      "category": "Weyanoke Elementary School",
      "feedSource": "http://www.fcps.edu/index.shtml",
      "feedInfo": {
        "title": "Weyanoke Elementary School News and announcements - Recent Updates",
        "description": "Weyanoke Elementary School News and announcements",
        "link": "http://www.fcps.edu/index.shtml"
      }
    },
    {
      "id": "NjQ2ODE0MjE=",
      "title": "SCHOOLHOUSE NEWS - April 11",
      "link": "https://content.govdelivery.com/accounts/VAEDUFCPS/bulletins/3daf5cd",
      "description": "\n        \n\n\n  \n\n\n\n\n\n\n\n<p><a></a>Having trouble viewing this email? <a href=\"https://content.govdelivery.com/accounts/VAEDUFCPS/bulletins/3daf5cd\">View it as a Web page</a>.</p>\n\n\n\n\n\n\n\n\n\n\n\n<a href=\"http://www2.fcps.edu/HayfieldES/?utm_campaign+=&amp;utm_medium=email&amp;utm_source=govdelivery\" target...",
      "pubDate": "Fri, 11 Apr 2025 15:00:12 -0500",
      "timestamp": 1744401612000,
      "feedName": "Hayfield Elementary School",
      "category": "Hayfield Elementary School",
      "feedSource": "https://public.govdelivery.com/topics/Hayfield_ES_News/feed.rss",
      "feedInfo": {
        "title": "Hayfield ES News and Announcements",
        "description": "Hayfield Elementary School News and Announcements",
        "link": "https://public.govdelivery.com/topics/Hayfield_ES_News/feed.rss"
      }
    },
    {
      "id": "NjQ2NzAyNzk=",
      "title": "LCES Updates 4/11/25 This Week's Updates",
      "link": "https://content.govdelivery.com/accounts/VAEDUFCPS/bulletins/3daca47",
      "description": "\n        \n\n\n  \n\n\n\n\n\n\n\n<p><a></a>Having trouble viewing this email? <a href=\"https://content.govdelivery.com/accounts/VAEDUFCPS/bulletins/3daca47\">View it as a Web page</a>.</p>\n\n\n\n\n\n\n\n\n\n\n\n<a href=\"http://www2.fcps.edu/LeesCornerES/?utm_content=&amp;utm_medium=email&amp;utm_name=&amp;utm_source=govde...",
      "pubDate": "Fri, 11 Apr 2025 15:00:12 -0500",
      "timestamp": 1744401612000,
      "feedName": "Lees Corner Elementary School",
      "category": "Lees Corner Elementary School",
      "feedSource": "http://www.fcps.edu/index.shtml",
      "feedInfo": {
        "title": "Lees Corner Elementary School News and announcements - Recent Updates",
        "description": "Lees Corner Elementary School News and announcements",
        "link": "http://www.fcps.edu/index.shtml"
      }
    },
    {
      "id": "NjQ2NzI3OTQ=",
      "title": "Oak View Review",
      "link": "https://content.govdelivery.com/accounts/VAEDUFCPS/bulletins/3dad41a",
      "description": "\n        \n\n\n  \n\n\n\n\n\n\n\n<p><a></a>Having trouble viewing this email? <a href=\"https://content.govdelivery.com/accounts/VAEDUFCPS/bulletins/3dad41a\">View it as a Web page</a>.</p>\n\n\n\n\n\n\n\n\n\n\n\n<a href=\"http://www2.fcps.edu/OakViewES/?utm_content=&amp;utm_medium=email&amp;utm_name=&amp;utm_source=govdeliv...",
      "pubDate": "Fri, 11 Apr 2025 15:00:12 -0500",
      "timestamp": 1744401612000,
      "feedName": "Oak View Elementary School",
      "category": "Oak View Elementary School",
      "feedSource": "http://www.fcps.edu/index.shtml",
      "feedInfo": {
        "title": "Oak View ES News and Announcements - Recent Updates",
        "description": "Oak View Elementary School News and announcements",
        "link": "http://www.fcps.edu/index.shtml"
      }
    },
    {
      "id": "NjQ2OTg1NDU=",
      "title": "Cougar Connections",
      "link": "https://content.govdelivery.com/accounts/VAEDUFCPS/bulletins/3db38b1",
      "description": "\n        \n\n\n  \n\n\n\n\n\n\n\n<p><a></a>Having trouble viewing this email? <a href=\"https://content.govdelivery.com/accounts/VAEDUFCPS/bulletins/3db38b1\">View it as a Web page</a>.</p>\n\n\n\n\n\n\n\n\n\n\n\n<a href=\"http://www2.fcps.edu/CanterburyWoodsES/?utm_campaign+=&amp;utm_medium=email&amp;utm_source=govdelivery\"...",
      "pubDate": "Fri, 11 Apr 2025 14:59:49 -0500",
      "timestamp": 1744401589000,
      "feedName": "Canterbury Woods Elementary School",
      "category": "Canterbury Woods Elementary School",
      "feedSource": "http://www.fcps.edu/index.shtml",
      "feedInfo": {
        "title": "Canterbury Woods Elementary School News and announcements - Recent Updates",
        "description": "Canterbury Woods Elementary School News and announcements",
        "link": "http://www.fcps.edu/index.shtml"
      }
    },
    {
      "id": "NjQ3MTA5ODk=",
      "title": "Keene Mill News &amp; Notes",
      "link": "https://content.govdelivery.com/accounts/VAEDUFCPS/bulletins/3db694d",
      "description": "\n        \n\n\n  \n\n\n\n\n\n\n\n<p><a></a>Having trouble viewing this email? <a href=\"https://content.govdelivery.com/accounts/VAEDUFCPS/bulletins/3db694d\">View it as a Web page</a>.</p>\n\n\n\n\n\n\n\n\n\n\n\n<a href=\"https://keenemilles.fcps.edu/?utm_campaign+=&amp;utm_medium=email&amp;utm_source=govdelivery\" target=\"_...",
      "pubDate": "Fri, 11 Apr 2025 14:56:59 -0500",
      "timestamp": 1744401419000,
      "feedName": "Keene Mill Elementary School",
      "category": "Keene Mill Elementary School",
      "feedSource": "http://www.fcps.edu/index.shtml",
      "feedInfo": {
        "title": "Keene Mill Elementary School News and Notes - Recent Updates",
        "description": "Keene Mill Elementary School News and Announcements",
        "link": "http://www.fcps.edu/index.shtml"
      }
    },
    {
      "id": "NjQ2NjY5OTE=",
      "title": "Weekly update for 4.11.2025",
      "link": "https://content.govdelivery.com/accounts/VAEDUFCPS/bulletins/3dabd6f",
      "description": "\n        \n\n\n  \n\n\n\n\n\n\n\n<p><a></a>Having trouble viewing this email? <a href=\"https://content.govdelivery.com/accounts/VAEDUFCPS/bulletins/3dabd6f\">View it as a Web page</a>.</p>\n\n\n\n\n\n\n\n\n\n\n\n<a href=\"https://columbiaes.fcps.edu/?utm_campaign+=&amp;utm_medium=email&amp;utm_source=govdelivery\" target=\"_b...",
      "pubDate": "Fri, 11 Apr 2025 14:45:12 -0500",
      "timestamp": 1744400712000,
      "feedName": "Columbia Elementary School",
      "category": "Columbia Elementary School",
      "feedSource": "http://www.fcps.edu/index.shtml",
      "feedInfo": {
        "title": "Columbia Elementary School News and Announcements - Recent Updates",
        "description": "Columbia Elementary School News and Announcements",
        "link": "http://www.fcps.edu/index.shtml"
      }
    },
    {
      "id": "NjQ3MTcyODQ=",
      "title": "Cedar Connection",
      "link": "https://content.govdelivery.com/accounts/VAEDUFCPS/bulletins/3db81e4",
      "description": "\n        \n\n\n  \n\n\n\n\n\n\n\n<p><a></a>Having trouble viewing this email? <a href=\"https://content.govdelivery.com/accounts/VAEDUFCPS/bulletins/3db81e4\">View it as a Web page</a>.</p>\n\n\n\n\n\n\n\n\n\n\n\n<a href=\"https://cedarlaneschool.fcps.edu/?utm_campaign+=&amp;utm_medium=email&amp;utm_source=govdelivery\" targe...",
      "pubDate": "Fri, 11 Apr 2025 14:39:23 -0500",
      "timestamp": 1744400363000,
      "feedName": "Cedar Lane School",
      "category": "Cedar Lane School",
      "feedSource": "http://www.fcps.edu/index.shtml",
      "feedInfo": {
        "title": "Cedar Lane School News and Announcements - Recent Updates",
        "description": "Cedar Lane Special Education Center News and announcements",
        "link": "http://www.fcps.edu/index.shtml"
      }
    },
    {
      "id": "NjQ3MTI0Mzg=",
      "title": "Have a Great Spring Break!",
      "link": "https://content.govdelivery.com/accounts/VAEDUFCPS/bulletins/3db6ef6",
      "description": "\n        \n\n\n  \n\n\n\n\n\n\n\n<p><a></a>Having trouble viewing this email? <a href=\"https://content.govdelivery.com/accounts/VAEDUFCPS/bulletins/3db6ef6\">View it as a Web page</a>.</p>\n\n\n\n\n\n\n\n\n\n\n\n<a href=\"https://navyes.fcps.edu/?utm_campaign+=&amp;utm_medium=email&amp;utm_source=govdelivery\" target=\"_blank...",
      "pubDate": "Fri, 11 Apr 2025 14:30:13 -0500",
      "timestamp": 1744399813000,
      "feedName": "Navy Elementary School",
      "category": "Navy Elementary School",
      "feedSource": "http://www.fcps.edu/index.shtml",
      "feedInfo": {
        "title": "Navy Elementary School News and announcements - Recent Updates",
        "description": "Navy Elementary School News and announcements",
        "link": "http://www.fcps.edu/index.shtml"
      }
    },
    {
      "id": "NjQ3MDYwODE=",
      "title": "Mustang Weekly, April 11, 2025",
      "link": "https://content.govdelivery.com/accounts/VAEDUFCPS/bulletins/3db5621",
      "description": "\n        \n\n\n  \n\n\n\n\n\n\n\n<p><a></a>Having trouble viewing this email? <a href=\"https://content.govdelivery.com/accounts/VAEDUFCPS/bulletins/3db5621\">View it as a Web page</a>.</p>\n\n\n\n\n\n\n\n\n\n\n\n<a href=\"https://southcountyms.fcps.edu/?utm_campaign+=&amp;utm_medium=email&amp;utm_source=govdelivery\" target=...",
      "pubDate": "Fri, 11 Apr 2025 14:30:11 -0500",
      "timestamp": 1744399811000,
      "feedName": "South County Middle School",
      "category": "South County Middle School",
      "feedSource": "http://www.fcps.edu/index.shtml",
      "feedInfo": {
        "title": "SCMS News and Announcements 2025-2026 - Recent Updates",
        "description": "SCMS News and Announcements 2025-2026 - Recent Updates",
        "link": "http://www.fcps.edu/index.shtml"
      }
    }
  ],
  "hasNext": true,
  "hasPrev": true
}