{
  "page": 74,
  "totalPages": 268,
  "totalItems": 5354,
  "itemsPerPage": 20,
  "items": [
    {
      "id": "NjUxMjQ0MDk=",
      "title": "Terra Centre Newsletter 05/25/2025",
      "link": "https://content.govdelivery.com/accounts/VAEDUFCPS/bulletins/3e1b839",
      "description": "\n        \n\n\n  \n\n\n\n\n\n\n\n<p><a></a>Having trouble viewing this email? <a href=\"https://content.govdelivery.com/accounts/VAEDUFCPS/bulletins/3e1b839\">View it as a Web page</a>.</p>\n\n\n\n\n\n\n\n\n\n\n\n<a href=\"https://terracentrees.fcps.edu/?utm_campaign+=&amp;utm_medium=email&amp;utm_source=govdelivery\" target=...",
      "pubDate": "Sun, 25 May 2025 08:00:14 -0500",
      "timestamp": 1748178014000,
      "feedName": "Terra Centre Elementary School",
      "category": "Terra Centre Elementary School",
      "feedSource": "http://www.fcps.edu/index.shtml",
      "feedInfo": {
        "title": "Terra Centre Elementary School News and Announcements - Recent Updates",
        "description": "Terra Centre Elementary School News and Announcements",
        "link": "http://www.fcps.edu/index.shtml"
      }
    },
    {
      "id": "NjUwNjEwMTY=",
      "title": "Sunrise Valley News",
      "link": "https://content.govdelivery.com/accounts/VAEDUFCPS/bulletins/3e0c098",
      "description": "\n        \n\n\n  \n\n\n\n\n\n\n\n<p><a></a>Having trouble viewing this email? <a href=\"https://content.govdelivery.com/accounts/VAEDUFCPS/bulletins/3e0c098\">View it as a Web page</a>.</p>\n\n\n\n\n\n\n\n\n\n\n\n<a href=\"https://sunrisevalleyes.fcps.edu/?utm_campaign+=&amp;utm_medium=email&amp;utm_source=govdelivery\" targe...",
      "pubDate": "Sun, 25 May 2025 07:00:16 -0500",
      "timestamp": 1748174416000,
      "feedName": "Sunrise Valley Elementary School",
      "category": "Sunrise Valley Elementary School",
      "feedSource": "http://www.fcps.edu/index.shtml",
      "feedInfo": {
        "title": "Sunrise Valley Elementary School News and Announcements - Recent Updates",
        "description": "Sunrise Valley Elementary School News and announcements",
        "link": "http://www.fcps.edu/index.shtml"
      }
    },
    {
      "id": "NjUxNDU5Mzk=",
      "title": "RHES Community Newsletter | 05/26/25",
      "link": "https://content.govdelivery.com/accounts/VAEDUFCPS/bulletins/3e20c53",
      "description": "\n        \n\n\n  \n\n\n\n\n\n\n\n<p><a></a>Having trouble viewing this email? <a href=\"https://content.govdelivery.com/accounts/VAEDUFCPS/bulletins/3e20c53\">View it as a Web page</a>.</p>\n\n\n\n\n\n\n\n\n\n\n\n<a href=\"http://www2.fcps.edu/RoseHillES/?utm_campaign+=&amp;utm_medium=email&amp;utm_source=govdelivery\" target...",
      "pubDate": "Sun, 25 May 2025 06:29:41 -0500",
      "timestamp": 1748172581000,
      "feedName": "Rose Hill Elementary School",
      "category": "Rose Hill Elementary School",
      "feedSource": "http://www.fcps.edu/index.shtml",
      "feedInfo": {
        "title": "Rose Hill Elementary School News and announcements - Recent Updates",
        "description": "Rose Hill Elementary School News and announcements",
        "link": "http://www.fcps.edu/index.shtml"
      }
    },
    {
      "id": "NjE5MTA5NDc=",
      "title": "Weekly Wave: May 24, 2025",
      "link": "https://content.govdelivery.com/accounts/VAEDUFCPS/bulletins/3b0afa3",
      "description": "\n        \n\n\n  \n\n\n\n\n\n\n\n<p><a></a>Having trouble viewing this email? <a href=\"https://content.govdelivery.com/accounts/VAEDUFCPS/bulletins/3b0afa3\">View it as a Web page</a>.</p>\n\n\n\n\n\n\n\n\n\n\n\n<a href=\"https://lakeannees.fcps.edu/?utm_campaign+=&amp;utm_medium=email&amp;utm_source=govdelivery\" target=\"_b...",
      "pubDate": "Sat, 24 May 2025 11:32:44 -0500",
      "timestamp": 1748104364000,
      "feedName": "Lake Anne Elementary School",
      "category": "Lake Anne Elementary School",
      "feedSource": "http://www.fcps.edu/index.shtml",
      "feedInfo": {
        "title": "Lake Anne Elementary School News and Announcements - Recent Updates",
        "description": "Lake Anne Elementary School News and announcements",
        "link": "http://www.fcps.edu/index.shtml"
      }
    },
    {
      "id": "NjUxNDE3MjA=",
      "title": "What's Happening Mount Eagle | May 24, 2025",
      "link": "https://content.govdelivery.com/accounts/VAEDUFCPS/bulletins/3e1fbd8",
      "description": "\n        \n\n\n  \n\n\n\n\n\n\n\n<p><a></a>Having trouble viewing this email? <a href=\"https://content.govdelivery.com/accounts/VAEDUFCPS/bulletins/3e1fbd8\">View it as a Web page</a>.</p>\n\n\n\n\n\n\n\n\n\n\n\n<a href=\"http://www2.fcps.edu/MtEagleES/?utm_campaign+=&amp;utm_medium=email&amp;utm_source=govdelivery\" target=...",
      "pubDate": "Sat, 24 May 2025 10:40:59 -0500",
      "timestamp": 1748101259000,
      "feedName": "Mount Eagle Elementary School",
      "category": "Mount Eagle Elementary School",
      "feedSource": "http://www.fcps.edu/index.shtml",
      "feedInfo": {
        "title": "Mount Eagle Elementary School News and announcements - Recent Updates",
        "description": "Mount Eagle Elementary School News and announcements",
        "link": "http://www.fcps.edu/index.shtml"
      }
    },
    {
      "id": "NjUxMTc3ODE=",
      "title": "Annandale High School Athletics/Activities",
      "link": "https://content.govdelivery.com/accounts/VAEDUFCPS/bulletins/3e19e55",
      "description": "\n        \n\n\n  \n\n\n\n\n\n\n\n<p><a></a>Having trouble viewing this email? <a href=\"https://content.govdelivery.com/accounts/VAEDUFCPS/bulletins/3e19e55\">View it as a Web page</a>.</p>\n\n\n\n\n\n\n\n\n\n\n\n<a href=\"https://annandalehs.fcps.edu/?utm_campaign+=&amp;utm_medium=email&amp;utm_source=govdelivery\" target=\"_...",
      "pubDate": "Sat, 24 May 2025 08:35:19 -0500",
      "timestamp": 1748093719000,
      "feedName": "Annandale High School",
      "category": "Annandale High School",
      "feedSource": "http://www.fcps.edu/index.shtml",
      "feedInfo": {
        "title": "Annandale High School News and announcements - Recent Updates",
        "description": "Annandale High School News and Announcements",
        "link": "http://www.fcps.edu/index.shtml"
      }
    },
    {
      "id": "NjUwNDY4NzA=",
      "title": "SCHOOLHOUSE NEWS - May 23",
      "link": "https://content.govdelivery.com/accounts/VAEDUFCPS/bulletins/3e08956",
      "description": "\n        \n\n\n  \n\n\n\n\n\n\n\n<p><a></a>Having trouble viewing this email? <a href=\"https://content.govdelivery.com/accounts/VAEDUFCPS/bulletins/3e08956\">View it as a Web page</a>.</p>\n\n\n\n\n\n\n\n\n\n\n\n<a href=\"http://www2.fcps.edu/HayfieldES/?utm_campaign+=&amp;utm_medium=email&amp;utm_source=govdelivery\" target...",
      "pubDate": "Fri, 23 May 2025 21:25:12 -0500",
      "timestamp": 1748053512000,
      "feedName": "Hayfield Elementary School",
      "category": "Hayfield Elementary School",
      "feedSource": "https://public.govdelivery.com/topics/Hayfield_ES_News/feed.rss",
      "feedInfo": {
        "title": "Hayfield ES News and Announcements",
        "description": "Hayfield Elementary School News and Announcements",
        "link": "https://public.govdelivery.com/topics/Hayfield_ES_News/feed.rss"
      }
    },
    {
      "id": "NjUxMzg0NjU=",
      "title": "Fairfax Villa News You Choose May 23. 2025",
      "link": "https://content.govdelivery.com/accounts/VAEDUFCPS/bulletins/3e1ef21",
      "description": "\n        \n\n\n  \n\n\n\n\n\n\n\n<p><a></a>Having trouble viewing this email? <a href=\"https://content.govdelivery.com/accounts/VAEDUFCPS/bulletins/3e1ef21\">View it as a Web page</a>.</p>\n\n\n\n\n\n\n\n\n\n\n\n<a href=\"https://fairfaxvillaes.fcps.edu?utm_campaign+=&amp;utm_medium=email&amp;utm_source=govdelivery\" target=...",
      "pubDate": "Fri, 23 May 2025 19:40:33 -0500",
      "timestamp": 1748047233000,
      "feedName": "Fairfax Villa Elementary School",
      "category": "Fairfax Villa Elementary School",
      "feedSource": "https://fairfaxvillaes.fcps.edu",
      "feedInfo": {
        "title": "Fairfax Villa Elementary School News and announcements",
        "description": "Fairfax Villa Elementary School News and announcements",
        "link": "https://fairfaxvillaes.fcps.edu"
      }
    },
    {
      "id": "NjUwODIwNDk=",
      "title": "Coates Family Newsletter for 5/23/25",
      "link": "https://content.govdelivery.com/accounts/VAEDUFCPS/bulletins/3e112c1",
      "description": "\n        \n\n\n  \n\n\n\n\n\n\n\n<p><a></a>Having trouble viewing this email? <a href=\"https://content.govdelivery.com/accounts/VAEDUFCPS/bulletins/3e112c1\">View it as a Web\npage</a>.</p>\n\n\n\n\n\n\n\n\n\n\n\n<a href=\"https://coateses.fcps.edu/?utm_campaign+=&amp;utm_medium=email&amp;utm_source=govdelivery\" target=\"_bla...",
      "pubDate": "Fri, 23 May 2025 18:32:49 -0500",
      "timestamp": 1748043169000,
      "feedName": "Coates Elementary School",
      "category": "Coates Elementary School",
      "feedSource": "http://www.fcps.edu/index.shtml",
      "feedInfo": {
        "title": "Coates  Elementary School News and Announcements - Recent Updates",
        "description": "Coates  Elementary School News and announcements",
        "link": "http://www.fcps.edu/index.shtml"
      }
    },
    {
      "id": "NjUxMjQ0NzA=",
      "title": "Bailey's ES News - May 23, 2025",
      "link": "https://content.govdelivery.com/accounts/VAEDUFCPS/bulletins/3e1b876",
      "description": "\n        \n\n\n  \n\n\n\n\n\n\n\n<p><a></a>Having trouble viewing this email? <a href=\"https://content.govdelivery.com/accounts/VAEDUFCPS/bulletins/3e1b876\">View it as a Web page</a>.</p>\n\n\n\n\n\n\n\n\n\n\n\n<a href=\"https://baileyses.fcps.edu/?utm_campaign+=&amp;utm_medium=email&amp;utm_source=govdelivery\" target=\"_bl...",
      "pubDate": "Fri, 23 May 2025 18:26:52 -0500",
      "timestamp": 1748042812000,
      "feedName": "Bailey's Lower",
      "category": "Bailey's Lower",
      "feedSource": "http://www.fcps.edu/index.shtml",
      "feedInfo": {
        "title": "Bailey's Elementary (PreK-2) News and Announcements - Recent Updates",
        "description": "Bailey's Elementary (PreK-2) News and Announcements - Recent Updates",
        "link": "http://www.fcps.edu/index.shtml"
      }
    },
    {
      "id": "NjUxMzgwMjQ=",
      "title": "The Westbriar Weekly",
      "link": "https://content.govdelivery.com/accounts/VAEDUFCPS/bulletins/3e1ed68",
      "description": "\n        \n\n\n  \n\n\n\n\n\n\n\n<p><a></a>Having trouble viewing this email? <a href=\"https://content.govdelivery.com/accounts/VAEDUFCPS/bulletins/3e1ed68\">View it as a Web page</a>.</p>\n\n\n\n\n\n\n\n\n\n\n\n<a href=\"https://westbriares.fcps.edu/?utm_campaign+=&amp;utm_medium=email&amp;utm_source=govdelivery\" target=\"_...",
      "pubDate": "Fri, 23 May 2025 18:24:52 -0500",
      "timestamp": 1748042692000,
      "feedName": "Westbriar Elementary School",
      "category": "Westbriar Elementary School",
      "feedSource": "http://www.fcps.edu/index.shtml",
      "feedInfo": {
        "title": "Westbriar Elementary School News and Announcements - Recent Updates",
        "description": "Westbriar Elementary School News and announcements",
        "link": "http://www.fcps.edu/index.shtml"
      }
    },
    {
      "id": "NjUxMzQ1MTk=",
      "title": "The Clearview Community Connect May 23, 2025",
      "link": "https://content.govdelivery.com/accounts/VAEDUFCPS/bulletins/3e1dfb7",
      "description": "\n        \n\n\n  \n\n\n\n\n\n\n\n<p><a></a>Having trouble viewing this email? <a href=\"https://content.govdelivery.com/accounts/VAEDUFCPS/bulletins/3e1dfb7\">View it as a Web page</a>.</p>\n\n\n\n\n\n\n\n\n\n\n\n<a href=\"https://clearviewes.fcps.edu/?utm_campaign+=&amp;utm_medium=email&amp;utm_source=govdelivery\" target=\"_...",
      "pubDate": "Fri, 23 May 2025 17:30:18 -0500",
      "timestamp": 1748039418000,
      "feedName": "Clearview Elementary School",
      "category": "Clearview Elementary School",
      "feedSource": "http://www.fcps.edu/index.shtml",
      "feedInfo": {
        "title": "Clearview Elementary School News and Announcements - Recent Updates",
        "description": "Clearview Elementary School News and announcements",
        "link": "http://www.fcps.edu/index.shtml"
      }
    },
    {
      "id": "NjUwODE4MTk=",
      "title": "Bailey's Upper ES News You Choose",
      "link": "https://content.govdelivery.com/accounts/VAEDUFCPS/bulletins/3e111db",
      "description": "\n        \n\n\n  \n\n\n\n\n\n\n\n<p><a></a>Having trouble viewing this email? <a href=\"https://content.govdelivery.com/accounts/VAEDUFCPS/bulletins/3e111db\">View it as a Web page</a>.</p>\n\n\n\n\n\n\n\n\n\n\n\n<a href=\"https://baileysupperes.fcps.edu/?utm_campaign+=&amp;utm_medium=email&amp;utm_source=govdelivery\" target...",
      "pubDate": "Fri, 23 May 2025 17:15:12 -0500",
      "timestamp": 1748038512000,
      "feedName": "Bailey's Upper",
      "category": "Bailey's Upper",
      "feedSource": "http://www.fcps.edu/index.shtml",
      "feedInfo": {
        "title": "Bailey's Upper (Grades 3-5) News and Announcements - Recent Updates",
        "description": "Bailey's Upper (Grades 3-5) News and Announcements - Recent Updates",
        "link": "http://www.fcps.edu/index.shtml"
      }
    },
    {
      "id": "NjUxMzY1MjM=",
      "title": "Irving Middle School Weekly Message",
      "link": "https://content.govdelivery.com/accounts/VAEDUFCPS/bulletins/3e1e78b",
      "description": "\n        \n\n\n  \n\n\n\n\n\n\n\n<p><a></a>Having trouble viewing this email? <a href=\"https://content.govdelivery.com/accounts/VAEDUFCPS/bulletins/3e1e78b\">View it as a Web page</a>.</p>\n\n\n\n\n\n\n\n\n\n\n\n<a href=\"https://irvingms.fcps.edu/?utm_campaign+=&amp;utm_medium=email&amp;utm_source=govdelivery\" target=\"_bla...",
      "pubDate": "Fri, 23 May 2025 17:00:29 -0500",
      "timestamp": 1748037629000,
      "feedName": "Irving Middle School",
      "category": "Irving Middle School",
      "feedSource": "http://www.fcps.edu/index.shtml",
      "feedInfo": {
        "title": "Irving Middle School News and announcements - Recent Updates",
        "description": "Irving Middle School News and announcements",
        "link": "http://www.fcps.edu/index.shtml"
      }
    },
    {
      "id": "NjUxMDcyMzI=",
      "title": "Eaglegram",
      "link": "https://content.govdelivery.com/accounts/VAEDUFCPS/bulletins/3e17520",
      "description": "\n        \n\n\n  \n\n\n\n\n\n\n\n<p><a></a>Having trouble viewing this email? <a href=\"https://content.govdelivery.com/accounts/VAEDUFCPS/bulletins/3e17520\">View it as a Web page</a>.</p>\n\n\n\n\n\n\n\n\n\n\n\n<a href=\"https://clermontes.fcps.edu/?utm_campaign+=&amp;utm_medium=email&amp;utm_source=govdelivery\" target=\"_b...",
      "pubDate": "Fri, 23 May 2025 16:45:14 -0500",
      "timestamp": 1748036714000,
      "feedName": "Clermont Elementary School",
      "category": "Clermont Elementary School",
      "feedSource": "http://www.fcps.edu/index.shtml",
      "feedInfo": {
        "title": "Clermont, VA Elementary School News and announcements - Recent Updates",
        "description": "Clermont Elementary School News and announcements",
        "link": "http://www.fcps.edu/index.shtml"
      }
    },
    {
      "id": "NjUxMzMzODk=",
      "title": "Keene Mill News &amp; Notes",
      "link": "https://content.govdelivery.com/accounts/VAEDUFCPS/bulletins/3e1db4d",
      "description": "\n        \n\n\n  \n\n\n\n\n\n\n\n<p><a></a>Having trouble viewing this email? <a href=\"https://content.govdelivery.com/accounts/VAEDUFCPS/bulletins/3e1db4d\">View it as a Web page</a>.</p>\n\n\n\n\n\n\n\n\n\n\n\n<a href=\"https://keenemilles.fcps.edu/?utm_campaign+=&amp;utm_medium=email&amp;utm_source=govdelivery\" target=\"_...",
      "pubDate": "Fri, 23 May 2025 16:41:34 -0500",
      "timestamp": 1748036494000,
      "feedName": "Keene Mill Elementary School",
      "category": "Keene Mill Elementary School",
      "feedSource": "http://www.fcps.edu/index.shtml",
      "feedInfo": {
        "title": "Keene Mill Elementary School News and Notes - Recent Updates",
        "description": "Keene Mill Elementary School News and Announcements",
        "link": "http://www.fcps.edu/index.shtml"
      }
    },
    {
      "id": "NjUxMjM4Mjg=",
      "title": "Springfield Estates ES News You Choose - May 23, 2025",
      "link": "https://content.govdelivery.com/accounts/VAEDUFCPS/bulletins/3e1b5f4",
      "description": "\n        \n\n\n  \n\n\n\n\n\n\n\n<p><a></a>Having trouble viewing this email? <a href=\"https://content.govdelivery.com/accounts/VAEDUFCPS/bulletins/3e1b5f4\">View it as a Web page</a>.</p>\n\n\n\n\n\n\n\n\n\n\n\n<a href=\"https://springfieldestateses.fcps.edu?utm_campaign+=&amp;utm_medium=email&amp;utm_source=govdelivery\" t...",
      "pubDate": "Fri, 23 May 2025 16:30:21 -0500",
      "timestamp": 1748035821000,
      "feedName": "Springfield Estates Elementary School",
      "category": "Springfield Estates Elementary School",
      "feedSource": "http://www.fcps.edu/index.shtml",
      "feedInfo": {
        "title": "Springfield Estates Elementary School News and announcements - Recent Updates",
        "description": "Springfield Estates Elementary School News and announcements",
        "link": "http://www.fcps.edu/index.shtml"
      }
    },
    {
      "id": "NjUwOTQ1NDg=",
      "title": "Laurel Ridge Newsletter 5/23/25",
      "link": "https://content.govdelivery.com/accounts/VAEDUFCPS/bulletins/3e14394",
      "description": "\n        \n\n\n  \n\n\n\n\n\n\n\n<p><a></a>Having trouble viewing this email? <a href=\"https://content.govdelivery.com/accounts/VAEDUFCPS/bulletins/3e14394\">View it as a Web page</a>.</p>\n\n\n\n\n\n\n\n\n\n\n\n<a href=\"http://www2.fcps.edu/LaurelRidgeES/?utm_campaign+=&amp;utm_medium=email&amp;utm_source=govdelivery\" tar...",
      "pubDate": "Fri, 23 May 2025 16:30:20 -0500",
      "timestamp": 1748035820000,
      "feedName": "Laurel Ridge Elementary School",
      "category": "Laurel Ridge Elementary School",
      "feedSource": "http://www.fcps.edu/index.shtml",
      "feedInfo": {
        "title": "Laurel Ridge Elementary School News and announcements - Recent Updates",
        "description": "Laurel Ridge Elementary School News and announcements",
        "link": "http://www.fcps.edu/index.shtml"
      }
    },
    {
      "id": "NjUxMjc2MzQ=",
      "title": "Woodburn Newsletter - May 23, 2025",
      "link": "https://content.govdelivery.com/accounts/VAEDUFCPS/bulletins/3e1c4d2",
      "description": "\n        \n\n\n  \n\n\n\n\n\n\n\n<p><a></a>Having trouble viewing this email? <a href=\"https://content.govdelivery.com/accounts/VAEDUFCPS/bulletins/3e1c4d2\">View it as a Web page</a>.</p>\n\n\n\n\n\n\n\n\n\n\n\n<a href=\"https://woodburnes.fcps.edu/?utm_content=&amp;utm_medium=email&amp;utm_name=&amp;utm_source=govdelivery...",
      "pubDate": "Fri, 23 May 2025 16:30:16 -0500",
      "timestamp": 1748035816000,
      "feedName": "Woodburn Elementary School",
      "category": "Woodburn Elementary School",
      "feedSource": "https://public.govdelivery.com/topics/Woodburn_Elementary_school_News_and_Announcements/feed.rss",
      "feedInfo": {
        "title": "Woodburn Elementary School News and announcements - Recent Updates",
        "description": "Woodburn Elementary School News and announcements",
        "link": "https://public.govdelivery.com/topics/Woodburn_Elementary_school_News_and_Announcements/feed.rss"
      }
    },
    {
      "id": "NjUxMjQ2Nzk=",
      "title": "Fort Hunt Fox Den News | May 23, 2025",
      "link": "https://content.govdelivery.com/accounts/VAEDUFCPS/bulletins/3e1b947",
      "description": "\n        \n\n\n  \n\n\n\n\n\n\n\n<p><a></a>Having trouble viewing this email? <a href=\"https://content.govdelivery.com/accounts/VAEDUFCPS/bulletins/3e1b947\">View it as a Web page</a>.</p>\n\n\n\n\n\n\n\n\n\n\n\n<a href=\"https://forthuntes.fcps.edu/?utm_campaign+=&amp;utm_medium=email&amp;utm_source=govdelivery\" target=\"_b...",
      "pubDate": "Fri, 23 May 2025 16:29:50 -0500",
      "timestamp": 1748035790000,
      "feedName": "Fort Hunt Elementary School",
      "category": "Fort Hunt Elementary School",
      "feedSource": "http://www.fcps.edu/index.shtml",
      "feedInfo": {
        "title": "Fort Hunt Elementary School News and Announcements - Recent Updates",
        "description": "Fort Hunt Elementary School News and announcements",
        "link": "http://www.fcps.edu/index.shtml"
      }
    }
  ],
  "hasNext": true,
  "hasPrev": true
}